"","Modification","Start","Length","Ids","above_error_rate","in_pick","freq","Perc","patterns","pre_ins_nt","ins_nt","post_ins_nt"
"1","del",28,1,"SRR3696850.1492",TRUE,FALSE,1,0.317460317460317,"A",NA,NA,NA
"2","del",28,20,"SRR3696850.1597",TRUE,FALSE,1,0.317460317460317,"NHEJ",NA,NA,NA
"3","del",29,18,"SRR3696850.291",TRUE,FALSE,1,0.317460317460317,"A",NA,NA,NA
"4","del",31,17,"SRR3696850.501",TRUE,TRUE,1,0.317460317460317,"NHEJ",NA,NA,NA
"5","del",35,12,"SRR3696850.1379",TRUE,TRUE,8,2.53968253968254,"AT",NA,NA,NA
"6","del",35,12,"SRR3696850.1460",TRUE,TRUE,8,2.53968253968254,"AT",NA,NA,NA
"7","del",35,12,"SRR3696850.1488",TRUE,TRUE,8,2.53968253968254,"AT",NA,NA,NA
"8","del",35,12,"SRR3696850.1554",TRUE,TRUE,8,2.53968253968254,"AT",NA,NA,NA
"9","del",35,12,"SRR3696850.249",TRUE,TRUE,8,2.53968253968254,"AT",NA,NA,NA
"10","del",35,12,"SRR3696850.321",TRUE,TRUE,8,2.53968253968254,"AT",NA,NA,NA
"11","del",35,12,"SRR3696850.41",TRUE,TRUE,8,2.53968253968254,"AT",NA,NA,NA
"12","del",35,12,"SRR3696850.55",TRUE,TRUE,8,2.53968253968254,"AT",NA,NA,NA
"13","del",37,1,"SRR3696850.412",FALSE,TRUE,1,0.317460317460317,"G",NA,NA,NA
"14","del",37,11,"SRR3696850.697",TRUE,TRUE,2,0.634920634920635,"NHEJ",NA,NA,NA
"15","del",37,11,"SRR3696850.858",TRUE,TRUE,2,0.634920634920635,"NHEJ",NA,NA,NA
"16","del",37,15,"SRR3696850.1020",TRUE,TRUE,30,9.52380952380952,"GGC",NA,NA,NA
"17","del",37,15,"SRR3696850.1031",TRUE,TRUE,30,9.52380952380952,"GGC",NA,NA,NA
"18","del",37,15,"SRR3696850.104",TRUE,TRUE,30,9.52380952380952,"GGC",NA,NA,NA
"19","del",37,15,"SRR3696850.1083",TRUE,TRUE,30,9.52380952380952,"GGC",NA,NA,NA
"20","del",37,15,"SRR3696850.1102",TRUE,TRUE,30,9.52380952380952,"GGC",NA,NA,NA
"21","del",37,15,"SRR3696850.1129",TRUE,TRUE,30,9.52380952380952,"GGC",NA,NA,NA
"22","del",37,15,"SRR3696850.1150",TRUE,TRUE,30,9.52380952380952,"GGC",NA,NA,NA
"23","del",37,15,"SRR3696850.1152",TRUE,TRUE,30,9.52380952380952,"GGC",NA,NA,NA
"24","del",37,15,"SRR3696850.1318",TRUE,TRUE,30,9.52380952380952,"GGC",NA,NA,NA
"25","del",37,15,"SRR3696850.1450",TRUE,TRUE,30,9.52380952380952,"GGC",NA,NA,NA
"26","del",37,15,"SRR3696850.1479",TRUE,TRUE,30,9.52380952380952,"GGC",NA,NA,NA
"27","del",37,15,"SRR3696850.1521",TRUE,TRUE,30,9.52380952380952,"GGC",NA,NA,NA
"28","del",37,15,"SRR3696850.1575",TRUE,TRUE,30,9.52380952380952,"GGC",NA,NA,NA
"29","del",37,15,"SRR3696850.1629",TRUE,TRUE,30,9.52380952380952,"GGC",NA,NA,NA
"30","del",37,15,"SRR3696850.1648",TRUE,TRUE,30,9.52380952380952,"GGC",NA,NA,NA
"31","del",37,15,"SRR3696850.1797",TRUE,TRUE,30,9.52380952380952,"GGC",NA,NA,NA
"32","del",37,15,"SRR3696850.182",TRUE,TRUE,30,9.52380952380952,"GGC",NA,NA,NA
"33","del",37,15,"SRR3696850.1953",TRUE,TRUE,30,9.52380952380952,"GGC",NA,NA,NA
"34","del",37,15,"SRR3696850.208",TRUE,TRUE,30,9.52380952380952,"GGC",NA,NA,NA
"35","del",37,15,"SRR3696850.297",TRUE,TRUE,30,9.52380952380952,"GGC",NA,NA,NA
"36","del",37,15,"SRR3696850.322",TRUE,TRUE,30,9.52380952380952,"GGC",NA,NA,NA
"37","del",37,15,"SRR3696850.379",TRUE,TRUE,30,9.52380952380952,"GGC",NA,NA,NA
"38","del",37,15,"SRR3696850.425",TRUE,TRUE,30,9.52380952380952,"GGC",NA,NA,NA
"39","del",37,15,"SRR3696850.459",TRUE,TRUE,30,9.52380952380952,"GGC",NA,NA,NA
"40","del",37,15,"SRR3696850.462",TRUE,TRUE,30,9.52380952380952,"GGC",NA,NA,NA
"41","del",37,15,"SRR3696850.494",TRUE,TRUE,30,9.52380952380952,"GGC",NA,NA,NA
"42","del",37,15,"SRR3696850.566",TRUE,TRUE,30,9.52380952380952,"GGC",NA,NA,NA
"43","del",37,15,"SRR3696850.878",TRUE,TRUE,30,9.52380952380952,"GGC",NA,NA,NA
"44","del",37,15,"SRR3696850.932",TRUE,TRUE,30,9.52380952380952,"GGC",NA,NA,NA
"45","del",37,15,"SRR3696850.966",TRUE,TRUE,30,9.52380952380952,"GGC",NA,NA,NA
"46","del",38,10,"SRR3696850.1170",TRUE,TRUE,2,0.634920634920635,"NHEJ",NA,NA,NA
"47","del",38,10,"SRR3696850.1581",TRUE,TRUE,2,0.634920634920635,"NHEJ",NA,NA,NA
"48","del",38,11,"SRR3696850.256",TRUE,TRUE,1,0.317460317460317,"NHEJ",NA,NA,NA
"49","del",38,12,"SRR3696850.1497",TRUE,TRUE,1,0.317460317460317,"NHEJ",NA,NA,NA
"50","del",38,20,"SRR3696850.103",TRUE,TRUE,7,2.22222222222222,"GC",NA,NA,NA
"51","del",38,20,"SRR3696850.1247",TRUE,TRUE,7,2.22222222222222,"GC",NA,NA,NA
"52","del",38,20,"SRR3696850.1572",TRUE,TRUE,7,2.22222222222222,"GC",NA,NA,NA
"53","del",38,20,"SRR3696850.1586",TRUE,TRUE,7,2.22222222222222,"GC",NA,NA,NA
"54","del",38,20,"SRR3696850.429",TRUE,TRUE,7,2.22222222222222,"GC",NA,NA,NA
"55","del",38,20,"SRR3696850.466",TRUE,TRUE,7,2.22222222222222,"GC",NA,NA,NA
"56","del",38,20,"SRR3696850.864",TRUE,TRUE,7,2.22222222222222,"GC",NA,NA,NA
"57","del",39,9,"SRR3696850.1128",TRUE,TRUE,4,1.26984126984127,"NHEJ",NA,NA,NA
"58","del",39,9,"SRR3696850.1269",TRUE,TRUE,4,1.26984126984127,"NHEJ",NA,NA,NA
"59","del",39,9,"SRR3696850.1823",TRUE,TRUE,4,1.26984126984127,"NHEJ",NA,NA,NA
"60","del",39,9,"SRR3696850.523",TRUE,TRUE,4,1.26984126984127,"NHEJ",NA,NA,NA
"61","del",39,10,"SRR3696850.1001",TRUE,TRUE,7,2.22222222222222,"C",NA,NA,NA
"62","del",39,10,"SRR3696850.1388",TRUE,TRUE,7,2.22222222222222,"C",NA,NA,NA
"63","del",39,10,"SRR3696850.1519",TRUE,TRUE,7,2.22222222222222,"C",NA,NA,NA
"64","del",39,10,"SRR3696850.1790",TRUE,TRUE,7,2.22222222222222,"C",NA,NA,NA
"65","del",39,10,"SRR3696850.35",TRUE,TRUE,7,2.22222222222222,"C",NA,NA,NA
"66","del",39,10,"SRR3696850.573",TRUE,TRUE,7,2.22222222222222,"C",NA,NA,NA
"67","del",39,10,"SRR3696850.859",TRUE,TRUE,7,2.22222222222222,"C",NA,NA,NA
"68","del",39,11,"SRR3696850.1179",TRUE,TRUE,7,2.22222222222222,"C",NA,NA,NA
"69","del",39,11,"SRR3696850.1432",TRUE,TRUE,7,2.22222222222222,"C",NA,NA,NA
"70","del",39,11,"SRR3696850.1545",TRUE,TRUE,7,2.22222222222222,"C",NA,NA,NA
"71","del",39,11,"SRR3696850.1569",TRUE,TRUE,7,2.22222222222222,"C",NA,NA,NA
"72","del",39,11,"SRR3696850.1590",TRUE,TRUE,7,2.22222222222222,"C",NA,NA,NA
"73","del",39,11,"SRR3696850.682",TRUE,TRUE,7,2.22222222222222,"C",NA,NA,NA
"74","del",39,11,"SRR3696850.923",TRUE,TRUE,7,2.22222222222222,"C",NA,NA,NA
"75","del",39,12,"SRR3696850.1277",TRUE,TRUE,2,0.634920634920635,"NHEJ",NA,NA,NA
"76","del",39,12,"SRR3696850.969",TRUE,TRUE,2,0.634920634920635,"NHEJ",NA,NA,NA
"77","del",39,16,"SRR3696850.1287",TRUE,TRUE,4,1.26984126984127,"C",NA,NA,NA
"78","del",39,16,"SRR3696850.1394",TRUE,TRUE,4,1.26984126984127,"C",NA,NA,NA
"79","del",39,16,"SRR3696850.378",TRUE,TRUE,4,1.26984126984127,"C",NA,NA,NA
"80","del",39,16,"SRR3696850.450",TRUE,TRUE,4,1.26984126984127,"C",NA,NA,NA
"81","del",40,8,"SRR3696850.1862",TRUE,TRUE,2,0.634920634920635,"NHEJ",NA,NA,NA
"82","del",40,8,"SRR3696850.748",TRUE,TRUE,2,0.634920634920635,"NHEJ",NA,NA,NA
"83","del",40,9,"SRR3696850.1160",TRUE,TRUE,4,1.26984126984127,"NHEJ",NA,NA,NA
"84","del",40,9,"SRR3696850.183",TRUE,TRUE,4,1.26984126984127,"NHEJ",NA,NA,NA
"85","del",40,9,"SRR3696850.1834",TRUE,TRUE,4,1.26984126984127,"NHEJ",NA,NA,NA
"86","del",40,9,"SRR3696850.84",TRUE,TRUE,4,1.26984126984127,"NHEJ",NA,NA,NA
"87","del",40,13,"SRR3696850.1465",TRUE,TRUE,2,0.634920634920635,"G",NA,NA,NA
"88","del",40,13,"SRR3696850.540",TRUE,TRUE,2,0.634920634920635,"G",NA,NA,NA
"89","del",40,18,"SRR3696850.1715",TRUE,TRUE,1,0.317460317460317,"G",NA,NA,NA
"90","del",41,7,"SRR3696850.1096",TRUE,TRUE,3,0.952380952380952,"NHEJ",NA,NA,NA
"91","del",41,7,"SRR3696850.1707",TRUE,TRUE,3,0.952380952380952,"NHEJ",NA,NA,NA
"92","del",41,7,"SRR3696850.408",TRUE,TRUE,3,0.952380952380952,"NHEJ",NA,NA,NA
"93","del",41,10,"SRR3696850.48",TRUE,TRUE,1,0.317460317460317,"NHEJ",NA,NA,NA
"94","del",41,11,"SRR3696850.1338",TRUE,TRUE,21,6.66666666666667,"GGC",NA,NA,NA
"95","del",41,11,"SRR3696850.1345",TRUE,TRUE,21,6.66666666666667,"GGC",NA,NA,NA
"96","del",41,11,"SRR3696850.1384",TRUE,TRUE,21,6.66666666666667,"GGC",NA,NA,NA
"97","del",41,11,"SRR3696850.14",TRUE,TRUE,21,6.66666666666667,"GGC",NA,NA,NA
"98","del",41,11,"SRR3696850.1540",TRUE,TRUE,21,6.66666666666667,"GGC",NA,NA,NA
"99","del",41,11,"SRR3696850.1646",TRUE,TRUE,21,6.66666666666667,"GGC",NA,NA,NA
"100","del",41,11,"SRR3696850.1696",TRUE,TRUE,21,6.66666666666667,"GGC",NA,NA,NA
"101","del",41,11,"SRR3696850.1771",TRUE,TRUE,21,6.66666666666667,"GGC",NA,NA,NA
"102","del",41,11,"SRR3696850.1955",TRUE,TRUE,21,6.66666666666667,"GGC",NA,NA,NA
"103","del",41,11,"SRR3696850.2004",TRUE,TRUE,21,6.66666666666667,"GGC",NA,NA,NA
"104","del",41,11,"SRR3696850.421",TRUE,TRUE,21,6.66666666666667,"GGC",NA,NA,NA
"105","del",41,11,"SRR3696850.452",TRUE,TRUE,21,6.66666666666667,"GGC",NA,NA,NA
"106","del",41,11,"SRR3696850.497",TRUE,TRUE,21,6.66666666666667,"GGC",NA,NA,NA
"107","del",41,11,"SRR3696850.551",TRUE,TRUE,21,6.66666666666667,"GGC",NA,NA,NA
"108","del",41,11,"SRR3696850.553",TRUE,TRUE,21,6.66666666666667,"GGC",NA,NA,NA
"109","del",41,11,"SRR3696850.712",TRUE,TRUE,21,6.66666666666667,"GGC",NA,NA,NA
"110","del",41,11,"SRR3696850.77",TRUE,TRUE,21,6.66666666666667,"GGC",NA,NA,NA
"111","del",41,11,"SRR3696850.855",TRUE,TRUE,21,6.66666666666667,"GGC",NA,NA,NA
"112","del",41,11,"SRR3696850.885",TRUE,TRUE,21,6.66666666666667,"GGC",NA,NA,NA
"113","del",41,11,"SRR3696850.98",TRUE,TRUE,21,6.66666666666667,"GGC",NA,NA,NA
"114","del",41,11,"SRR3696850.994",TRUE,TRUE,21,6.66666666666667,"GGC",NA,NA,NA
"115","del",41,17,"SRR3696850.1470",TRUE,TRUE,2,0.634920634920635,"G",NA,NA,NA
"116","del",41,17,"SRR3696850.1484",TRUE,TRUE,2,0.634920634920635,"G",NA,NA,NA
"117","del",42,15,"SRR3696850.514",TRUE,TRUE,1,0.317460317460317,"NHEJ",NA,NA,NA
"118","del",42,16,"SRR3696850.1038",TRUE,TRUE,4,1.26984126984127,"GC",NA,NA,NA
"119","del",42,16,"SRR3696850.1091",TRUE,TRUE,4,1.26984126984127,"GC",NA,NA,NA
"120","del",42,16,"SRR3696850.1973",TRUE,TRUE,4,1.26984126984127,"GC",NA,NA,NA
"121","del",42,16,"SRR3696850.610",TRUE,TRUE,4,1.26984126984127,"GC",NA,NA,NA
"122","del",43,5,"SRR3696850.401",TRUE,TRUE,1,0.317460317460317,"NHEJ",NA,NA,NA
"123","del",43,6,"SRR3696850.1139",TRUE,TRUE,4,1.26984126984127,"C",NA,NA,NA
"124","del",43,6,"SRR3696850.1354",TRUE,TRUE,4,1.26984126984127,"C",NA,NA,NA
"125","del",43,6,"SRR3696850.175",TRUE,TRUE,4,1.26984126984127,"C",NA,NA,NA
"126","del",43,6,"SRR3696850.1796",TRUE,TRUE,4,1.26984126984127,"C",NA,NA,NA
"127","del",43,7,"SRR3696850.1343",TRUE,TRUE,2,0.634920634920635,"C",NA,NA,NA
"128","del",43,7,"SRR3696850.1651",TRUE,TRUE,2,0.634920634920635,"C",NA,NA,NA
"129","del",43,8,"SRR3696850.1905",TRUE,TRUE,1,0.317460317460317,"NHEJ",NA,NA,NA
"130","del",43,12,"SRR3696850.1325",TRUE,TRUE,2,0.634920634920635,"C",NA,NA,NA
"131","del",43,12,"SRR3696850.1557",TRUE,TRUE,2,0.634920634920635,"C",NA,NA,NA
"132","del",43,13,"SRR3696850.1933",TRUE,TRUE,3,0.952380952380952,"C",NA,NA,NA
"133","del",43,13,"SRR3696850.622",TRUE,TRUE,3,0.952380952380952,"C",NA,NA,NA
"134","del",43,13,"SRR3696850.930",TRUE,TRUE,3,0.952380952380952,"C",NA,NA,NA
"135","del",44,4,"SRR3696850.1840",TRUE,TRUE,3,0.952380952380952,"T",NA,NA,NA
"136","del",44,4,"SRR3696850.818",TRUE,TRUE,3,0.952380952380952,"T",NA,NA,NA
"137","del",44,4,"SRR3696850.915",TRUE,TRUE,3,0.952380952380952,"T",NA,NA,NA
"138","del",45,2,"SRR3696850.329",TRUE,TRUE,1,0.317460317460317,"NHEJ",NA,NA,NA
"139","del",45,3,"SRR3696850.100",TRUE,TRUE,1,0.317460317460317,"NHEJ",NA,NA,NA
"140","del",45,5,"SRR3696850.111",TRUE,TRUE,1,0.317460317460317,"NHEJ",NA,NA,NA
"141","del",45,6,"SRR3696850.1675",TRUE,TRUE,1,0.317460317460317,"NHEJ",NA,NA,NA
"142","del",45,7,"SRR3696850.1328",TRUE,TRUE,9,2.85714285714286,"GG",NA,NA,NA
"143","del",45,7,"SRR3696850.145",TRUE,TRUE,9,2.85714285714286,"GG",NA,NA,NA
"144","del",45,7,"SRR3696850.1480",TRUE,TRUE,9,2.85714285714286,"GG",NA,NA,NA
"145","del",45,7,"SRR3696850.471",TRUE,TRUE,9,2.85714285714286,"GG",NA,NA,NA
"146","del",45,7,"SRR3696850.499",TRUE,TRUE,9,2.85714285714286,"GG",NA,NA,NA
"147","del",45,7,"SRR3696850.541",TRUE,TRUE,9,2.85714285714286,"GG",NA,NA,NA
"148","del",45,7,"SRR3696850.558",TRUE,TRUE,9,2.85714285714286,"GG",NA,NA,NA
"149","del",45,7,"SRR3696850.740",TRUE,TRUE,9,2.85714285714286,"GG",NA,NA,NA
"150","del",45,7,"SRR3696850.796",TRUE,TRUE,9,2.85714285714286,"GG",NA,NA,NA
"151","del",45,8,"SRR3696850.1491",TRUE,TRUE,1,0.317460317460317,"G",NA,NA,NA
"152","del",45,13,"SRR3696850.1579",TRUE,TRUE,5,1.58730158730159,"G",NA,NA,NA
"153","del",45,13,"SRR3696850.1794",TRUE,TRUE,5,1.58730158730159,"G",NA,NA,NA
"154","del",45,13,"SRR3696850.251",TRUE,TRUE,5,1.58730158730159,"G",NA,NA,NA
"155","del",45,13,"SRR3696850.630",TRUE,TRUE,5,1.58730158730159,"G",NA,NA,NA
"156","del",45,13,"SRR3696850.862",TRUE,TRUE,5,1.58730158730159,"G",NA,NA,NA
"157","del",45,16,"SRR3696850.1244",TRUE,TRUE,4,1.26984126984127,"G",NA,NA,NA
"158","del",45,16,"SRR3696850.756",TRUE,TRUE,4,1.26984126984127,"G",NA,NA,NA
"159","del",45,16,"SRR3696850.769",TRUE,TRUE,4,1.26984126984127,"G",NA,NA,NA
"160","del",45,16,"SRR3696850.987",TRUE,TRUE,4,1.26984126984127,"G",NA,NA,NA
"161","del",46,2,"SRR3696850.1331",TRUE,TRUE,4,1.26984126984127,"NHEJ",NA,NA,NA
"162","del",46,2,"SRR3696850.1522",TRUE,TRUE,4,1.26984126984127,"NHEJ",NA,NA,NA
"163","del",46,2,"SRR3696850.1588",TRUE,TRUE,4,1.26984126984127,"NHEJ",NA,NA,NA
"164","del",46,2,"SRR3696850.625",TRUE,TRUE,4,1.26984126984127,"NHEJ",NA,NA,NA
"165","del",46,4,"SRR3696850.1193",TRUE,TRUE,6,1.9047619047619,"NHEJ",NA,NA,NA
"166","del",46,4,"SRR3696850.1221",TRUE,TRUE,6,1.9047619047619,"NHEJ",NA,NA,NA
"167","del",46,4,"SRR3696850.1876",TRUE,TRUE,6,1.9047619047619,"NHEJ",NA,NA,NA
"168","del",46,4,"SRR3696850.303",TRUE,TRUE,6,1.9047619047619,"NHEJ",NA,NA,NA
"169","del",46,4,"SRR3696850.327",TRUE,TRUE,6,1.9047619047619,"NHEJ",NA,NA,NA
"170","del",46,4,"SRR3696850.694",TRUE,TRUE,6,1.9047619047619,"NHEJ",NA,NA,NA
"171","del",46,9,"SRR3696850.161",TRUE,TRUE,1,0.317460317460317,"NHEJ",NA,NA,NA
"172","del",46,10,"SRR3696850.1146",TRUE,TRUE,3,0.952380952380952,"NHEJ",NA,NA,NA
"173","del",46,10,"SRR3696850.1642",TRUE,TRUE,3,0.952380952380952,"NHEJ",NA,NA,NA
"174","del",46,10,"SRR3696850.314",TRUE,TRUE,3,0.952380952380952,"NHEJ",NA,NA,NA
"175","del",46,11,"SRR3696850.1508",TRUE,TRUE,1,0.317460317460317,"NHEJ",NA,NA,NA
"176","del",46,12,"SRR3696850.1050",TRUE,TRUE,7,2.22222222222222,"G",NA,NA,NA
"177","del",46,12,"SRR3696850.1182",TRUE,TRUE,7,2.22222222222222,"G",NA,NA,NA
"178","del",46,12,"SRR3696850.1392",TRUE,TRUE,7,2.22222222222222,"G",NA,NA,NA
"179","del",46,12,"SRR3696850.1526",TRUE,TRUE,7,2.22222222222222,"G",NA,NA,NA
"180","del",46,12,"SRR3696850.2010",TRUE,TRUE,7,2.22222222222222,"G",NA,NA,NA
"181","del",46,12,"SRR3696850.302",TRUE,TRUE,7,2.22222222222222,"G",NA,NA,NA
"182","del",46,12,"SRR3696850.357",TRUE,TRUE,7,2.22222222222222,"G",NA,NA,NA
"183","del",47,1,"SRR3696850.1084",TRUE,TRUE,15,4.76190476190476,"NHEJ",NA,NA,NA
"184","del",47,1,"SRR3696850.109",TRUE,TRUE,15,4.76190476190476,"NHEJ",NA,NA,NA
"185","del",47,1,"SRR3696850.1164",TRUE,TRUE,15,4.76190476190476,"NHEJ",NA,NA,NA
"186","del",47,1,"SRR3696850.1176",TRUE,TRUE,15,4.76190476190476,"NHEJ",NA,NA,NA
"187","del",47,1,"SRR3696850.1223",TRUE,TRUE,15,4.76190476190476,"NHEJ",NA,NA,NA
"188","del",47,1,"SRR3696850.1399",TRUE,TRUE,15,4.76190476190476,"NHEJ",NA,NA,NA
"189","del",47,1,"SRR3696850.1411",TRUE,TRUE,15,4.76190476190476,"NHEJ",NA,NA,NA
"190","del",47,1,"SRR3696850.17",TRUE,TRUE,15,4.76190476190476,"NHEJ",NA,NA,NA
"191","del",47,1,"SRR3696850.1732",TRUE,TRUE,15,4.76190476190476,"NHEJ",NA,NA,NA
"192","del",47,1,"SRR3696850.1864",TRUE,TRUE,15,4.76190476190476,"NHEJ",NA,NA,NA
"193","del",47,1,"SRR3696850.641",TRUE,TRUE,15,4.76190476190476,"NHEJ",NA,NA,NA
"194","del",47,1,"SRR3696850.698",TRUE,TRUE,15,4.76190476190476,"NHEJ",NA,NA,NA
"195","del",47,1,"SRR3696850.732",TRUE,TRUE,15,4.76190476190476,"NHEJ",NA,NA,NA
"196","del",47,1,"SRR3696850.857",TRUE,TRUE,15,4.76190476190476,"NHEJ",NA,NA,NA
"197","del",47,1,"SRR3696850.905",TRUE,TRUE,15,4.76190476190476,"NHEJ",NA,NA,NA
"198","del",47,2,"SRR3696850.20",TRUE,TRUE,1,0.317460317460317,"NHEJ",NA,NA,NA
"199","del",47,3,"SRR3696850.976",TRUE,TRUE,1,0.317460317460317,"NHEJ",NA,NA,NA
"200","del",47,4,"SRR3696850.1219",TRUE,TRUE,3,0.952380952380952,"A",NA,NA,NA
"201","del",47,4,"SRR3696850.463",TRUE,TRUE,3,0.952380952380952,"A",NA,NA,NA
"202","del",47,4,"SRR3696850.913",TRUE,TRUE,3,0.952380952380952,"A",NA,NA,NA
"203","del",47,8,"SRR3696850.1012",TRUE,TRUE,2,0.634920634920635,"NHEJ",NA,NA,NA
"204","del",47,8,"SRR3696850.512",TRUE,TRUE,2,0.634920634920635,"NHEJ",NA,NA,NA
"205","del",47,10,"SRR3696850.1229",TRUE,TRUE,4,1.26984126984127,"A",NA,NA,NA
"206","del",47,10,"SRR3696850.434",TRUE,TRUE,4,1.26984126984127,"A",NA,NA,NA
"207","del",47,10,"SRR3696850.794",TRUE,TRUE,4,1.26984126984127,"A",NA,NA,NA
"208","del",47,10,"SRR3696850.906",TRUE,TRUE,4,1.26984126984127,"A",NA,NA,NA
"209","del",47,13,"SRR3696850.1574",TRUE,TRUE,7,2.22222222222222,"A",NA,NA,NA
"210","del",47,13,"SRR3696850.1602",TRUE,TRUE,7,2.22222222222222,"A",NA,NA,NA
"211","del",47,13,"SRR3696850.1838",TRUE,TRUE,7,2.22222222222222,"A",NA,NA,NA
"212","del",47,13,"SRR3696850.217",TRUE,TRUE,7,2.22222222222222,"A",NA,NA,NA
"213","del",47,13,"SRR3696850.270",TRUE,TRUE,7,2.22222222222222,"A",NA,NA,NA
"214","del",47,13,"SRR3696850.305",TRUE,TRUE,7,2.22222222222222,"A",NA,NA,NA
"215","del",47,13,"SRR3696850.936",TRUE,TRUE,7,2.22222222222222,"A",NA,NA,NA
"216","del",48,1,"SRR3696850.1113",TRUE,TRUE,5,1.58730158730159,"NHEJ",NA,NA,NA
"217","del",48,1,"SRR3696850.1157",TRUE,TRUE,5,1.58730158730159,"NHEJ",NA,NA,NA
"218","del",48,1,"SRR3696850.180",TRUE,TRUE,5,1.58730158730159,"NHEJ",NA,NA,NA
"219","del",48,1,"SRR3696850.587",TRUE,TRUE,5,1.58730158730159,"NHEJ",NA,NA,NA
"220","del",48,1,"SRR3696850.665",TRUE,TRUE,5,1.58730158730159,"NHEJ",NA,NA,NA
"221","del",48,2,"SRR3696850.1867",TRUE,TRUE,3,0.952380952380952,"NHEJ",NA,NA,NA
"222","del",48,2,"SRR3696850.1983",TRUE,TRUE,3,0.952380952380952,"NHEJ",NA,NA,NA
"223","del",48,2,"SRR3696850.418",TRUE,TRUE,3,0.952380952380952,"NHEJ",NA,NA,NA
"224","del",48,3,"SRR3696850.313",TRUE,TRUE,4,1.26984126984127,"NHEJ",NA,NA,NA
"225","del",48,3,"SRR3696850.438",TRUE,TRUE,4,1.26984126984127,"NHEJ",NA,NA,NA
"226","del",48,3,"SRR3696850.753",TRUE,TRUE,4,1.26984126984127,"NHEJ",NA,NA,NA
"227","del",48,3,"SRR3696850.904",TRUE,TRUE,4,1.26984126984127,"NHEJ",NA,NA,NA
"228","del",48,5,"SRR3696850.431",TRUE,TRUE,1,0.317460317460317,"NHEJ",NA,NA,NA
"229","del",48,7,"SRR3696850.1274",TRUE,TRUE,8,2.53968253968254,"NHEJ",NA,NA,NA
"230","del",48,7,"SRR3696850.1476",TRUE,TRUE,8,2.53968253968254,"NHEJ",NA,NA,NA
"231","del",48,7,"SRR3696850.1650",TRUE,TRUE,8,2.53968253968254,"NHEJ",NA,NA,NA
"232","del",48,7,"SRR3696850.1941",TRUE,TRUE,8,2.53968253968254,"NHEJ",NA,NA,NA
"233","del",48,7,"SRR3696850.245",TRUE,TRUE,8,2.53968253968254,"NHEJ",NA,NA,NA
"234","del",48,7,"SRR3696850.28",TRUE,TRUE,8,2.53968253968254,"NHEJ",NA,NA,NA
"235","del",48,7,"SRR3696850.759",TRUE,TRUE,8,2.53968253968254,"NHEJ",NA,NA,NA
"236","del",48,7,"SRR3696850.999",TRUE,TRUE,8,2.53968253968254,"NHEJ",NA,NA,NA
"237","del",48,8,"SRR3696850.1340",TRUE,TRUE,6,1.9047619047619,"NHEJ",NA,NA,NA
"238","del",48,8,"SRR3696850.1587",TRUE,TRUE,6,1.9047619047619,"NHEJ",NA,NA,NA
"239","del",48,8,"SRR3696850.1758",TRUE,TRUE,6,1.9047619047619,"NHEJ",NA,NA,NA
"240","del",48,8,"SRR3696850.230",TRUE,TRUE,6,1.9047619047619,"NHEJ",NA,NA,NA
"241","del",48,8,"SRR3696850.281",TRUE,TRUE,6,1.9047619047619,"NHEJ",NA,NA,NA
"242","del",48,8,"SRR3696850.764",TRUE,TRUE,6,1.9047619047619,"NHEJ",NA,NA,NA
"243","del",48,9,"SRR3696850.42",TRUE,TRUE,1,0.317460317460317,"NHEJ",NA,NA,NA
"244","del",48,11,"SRR3696850.1112",TRUE,TRUE,5,1.58730158730159,"NHEJ",NA,NA,NA
"245","del",48,11,"SRR3696850.62",TRUE,TRUE,5,1.58730158730159,"NHEJ",NA,NA,NA
"246","del",48,11,"SRR3696850.795",TRUE,TRUE,5,1.58730158730159,"NHEJ",NA,NA,NA
"247","del",48,11,"SRR3696850.922",TRUE,TRUE,5,1.58730158730159,"NHEJ",NA,NA,NA
"248","del",48,11,"SRR3696850.937",TRUE,TRUE,5,1.58730158730159,"NHEJ",NA,NA,NA
"249","del",49,6,"SRR3696850.534",TRUE,TRUE,1,0.317460317460317,"CCAG",NA,NA,NA
"250","del",50,9,"SRR3696850.147",TRUE,TRUE,1,0.317460317460317,"CAG",NA,NA,NA
"251","del",52,1,"SRR3696850.95",TRUE,TRUE,1,0.317460317460317,"G",NA,NA,NA
"252","del",64,1,"SRR3696850.112",TRUE,FALSE,1,0.317460317460317,"NHEJ",NA,NA,NA
"253","ins",46,6,"SRR3696850.1126",TRUE,TRUE,1,0.317460317460317,NA,"CTG","GAGGGA","GAC"
"254","ins",48,1,"SRR3696850.1013",TRUE,TRUE,21,6.66666666666667,NA,"GGA","A","TCC"
"255","ins",48,1,"SRR3696850.1036",TRUE,TRUE,21,6.66666666666667,NA,"GGA","A","TCC"
"256","ins",48,1,"SRR3696850.1044",TRUE,TRUE,21,6.66666666666667,NA,"GGA","A","TCC"
"257","ins",48,1,"SRR3696850.1077",TRUE,TRUE,21,6.66666666666667,NA,"GGA","A","TCC"
"258","ins",48,1,"SRR3696850.1115",TRUE,TRUE,21,6.66666666666667,NA,"GGA","A","TCC"
"259","ins",48,1,"SRR3696850.1249",TRUE,TRUE,21,6.66666666666667,NA,"GGA","A","TCC"
"260","ins",48,1,"SRR3696850.1266",TRUE,TRUE,21,6.66666666666667,NA,"GGA","A","TCC"
"261","ins",48,1,"SRR3696850.1422",TRUE,TRUE,21,6.66666666666667,NA,"GGA","A","TCC"
"262","ins",48,1,"SRR3696850.1584",TRUE,TRUE,21,6.66666666666667,NA,"GGA","A","TCC"
"263","ins",48,1,"SRR3696850.1681",TRUE,TRUE,21,6.66666666666667,NA,"GGA","A","TCC"
"264","ins",48,1,"SRR3696850.1740",TRUE,TRUE,21,6.66666666666667,NA,"GGA","A","TCC"
"265","ins",48,1,"SRR3696850.1792",TRUE,TRUE,21,6.66666666666667,NA,"GGA","A","TCC"
"266","ins",48,1,"SRR3696850.1992",TRUE,TRUE,21,6.66666666666667,NA,"GGA","A","TCC"
"267","ins",48,1,"SRR3696850.549",TRUE,TRUE,21,6.66666666666667,NA,"GGA","A","TCC"
"268","ins",48,1,"SRR3696850.550",TRUE,TRUE,21,6.66666666666667,NA,"GGA","A","TCC"
"269","ins",48,1,"SRR3696850.615",TRUE,TRUE,21,6.66666666666667,NA,"GGA","A","TCC"
"270","ins",48,1,"SRR3696850.78",TRUE,TRUE,21,6.66666666666667,NA,"GGA","A","TCC"
"271","ins",48,1,"SRR3696850.812",TRUE,TRUE,21,6.66666666666667,NA,"GGA","A","TCC"
"272","ins",48,1,"SRR3696850.856",TRUE,TRUE,21,6.66666666666667,NA,"GGA","A","TCC"
"273","ins",48,1,"SRR3696850.863",TRUE,TRUE,21,6.66666666666667,NA,"GGA","A","TCC"
"274","ins",48,1,"SRR3696850.956",TRUE,TRUE,21,6.66666666666667,NA,"GGA","A","TCC"
"275","ins",48,2,"SRR3696850.213",TRUE,TRUE,1,0.317460317460317,NA,"GGA","CA","TCC"
"276","ins",47,4,"SRR3696850.1184",TRUE,TRUE,1,0.317460317460317,NA,"TGG","GGCT","GTC"
"277","ins",47,13,"SRR3696850.742",TRUE,TRUE,1,0.317460317460317,NA,"TGG","AGGGAGGCCCAGC","AGC"
"278","ins",48,1,"SRR3696850.1017",TRUE,TRUE,31,9.84126984126984,NA,"GGA","T","TCC"
"279","ins",48,1,"SRR3696850.1090",TRUE,TRUE,31,9.84126984126984,NA,"GGA","T","TCC"
"280","ins",48,1,"SRR3696850.1171",TRUE,TRUE,31,9.84126984126984,NA,"GGA","T","TCC"
"281","ins",48,1,"SRR3696850.1204",TRUE,TRUE,31,9.84126984126984,NA,"GGA","C","TCC"
"282","ins",48,1,"SRR3696850.130",TRUE,TRUE,31,9.84126984126984,NA,"GGA","T","TCC"
"283","ins",48,1,"SRR3696850.1433",TRUE,TRUE,31,9.84126984126984,NA,"GGA","T","TCC"
"284","ins",48,1,"SRR3696850.1529",TRUE,TRUE,31,9.84126984126984,NA,"GGA","C","TCC"
"285","ins",48,1,"SRR3696850.1533",TRUE,TRUE,31,9.84126984126984,NA,"GGA","T","TCC"
"286","ins",48,1,"SRR3696850.1541",TRUE,TRUE,31,9.84126984126984,NA,"GGA","T","TCC"
"287","ins",48,1,"SRR3696850.1547",TRUE,TRUE,31,9.84126984126984,NA,"GGA","T","TCC"
"288","ins",48,1,"SRR3696850.160",TRUE,TRUE,31,9.84126984126984,NA,"GGA","C","TCC"
"289","ins",48,1,"SRR3696850.162",TRUE,TRUE,31,9.84126984126984,NA,"GGA","T","TCC"
"290","ins",48,1,"SRR3696850.1731",TRUE,TRUE,31,9.84126984126984,NA,"GGA","T","TCC"
"291","ins",48,1,"SRR3696850.176",TRUE,TRUE,31,9.84126984126984,NA,"GGA","C","TCC"
"292","ins",48,1,"SRR3696850.1765",TRUE,TRUE,31,9.84126984126984,NA,"GGA","C","TCC"
"293","ins",48,1,"SRR3696850.1892",TRUE,TRUE,31,9.84126984126984,NA,"GGA","T","TCC"
"294","ins",48,1,"SRR3696850.1921",TRUE,TRUE,31,9.84126984126984,NA,"GGA","T","TCC"
"295","ins",48,1,"SRR3696850.1957",TRUE,TRUE,31,9.84126984126984,NA,"GGA","G","TCC"
"296","ins",48,1,"SRR3696850.255",TRUE,TRUE,31,9.84126984126984,NA,"GGA","T","TCC"
"297","ins",48,1,"SRR3696850.516",TRUE,TRUE,31,9.84126984126984,NA,"GGA","C","TCC"
"298","ins",48,1,"SRR3696850.524",TRUE,TRUE,31,9.84126984126984,NA,"GGA","T","TCC"
"299","ins",48,1,"SRR3696850.575",TRUE,TRUE,31,9.84126984126984,NA,"GGA","C","TCC"
"300","ins",48,1,"SRR3696850.583",TRUE,TRUE,31,9.84126984126984,NA,"GGA","T","TCC"
"301","ins",48,1,"SRR3696850.639",TRUE,TRUE,31,9.84126984126984,NA,"GGA","C","TCC"
"302","ins",48,1,"SRR3696850.739",TRUE,TRUE,31,9.84126984126984,NA,"GGA","C","TCC"
"303","ins",48,1,"SRR3696850.750",TRUE,TRUE,31,9.84126984126984,NA,"GGA","G","TCC"
"304","ins",48,1,"SRR3696850.760",TRUE,TRUE,31,9.84126984126984,NA,"GGA","T","TCC"
"305","ins",48,1,"SRR3696850.839",TRUE,TRUE,31,9.84126984126984,NA,"GGA","T","TCC"
"306","ins",48,1,"SRR3696850.873",TRUE,TRUE,31,9.84126984126984,NA,"GGA","T","TCC"
"307","ins",48,1,"SRR3696850.877",TRUE,TRUE,31,9.84126984126984,NA,"GGA","T","TCC"
"308","ins",48,1,"SRR3696850.955",TRUE,TRUE,31,9.84126984126984,NA,"GGA","T","TCC"
"309","ins",48,2,"SRR3696850.1068",FALSE,TRUE,6,1.9047619047619,NA,"GGA","AC","TCC"
"310","ins",48,2,"SRR3696850.1082",FALSE,TRUE,6,1.9047619047619,NA,"GGA","TC","TCC"
"311","ins",48,2,"SRR3696850.1156",FALSE,TRUE,6,1.9047619047619,NA,"GGA","AT","TCC"
"312","ins",48,2,"SRR3696850.1721",FALSE,TRUE,6,1.9047619047619,NA,"GGA","TC","TCC"
"313","ins",48,2,"SRR3696850.1778",FALSE,TRUE,6,1.9047619047619,NA,"GGA","GC","TGC"
"314","ins",48,2,"SRR3696850.277",FALSE,TRUE,6,1.9047619047619,NA,"GGA","GC","TGC"
"315","ins",49,4,"SRR3696850.774",TRUE,TRUE,1,0.317460317460317,NA,"CAT","GCGG","CCA"
