"","Modification","Start","Length","Ids","above_error_rate","in_pick","freq","Perc","patterns","pre_ins_nt","ins_nt","post_ins_nt"
"1","del",5,1,"SRR3696829.683",TRUE,FALSE,1,0.366300366300366,"NHEJ",NA,NA,NA
"2","del",6,1,"SRR3696829.1036",TRUE,FALSE,2,0.732600732600733,"NHEJ",NA,NA,NA
"3","del",6,1,"SRR3696829.824",TRUE,FALSE,2,0.732600732600733,"NHEJ",NA,NA,NA
"4","del",6,2,"SRR3696829.1151",TRUE,FALSE,1,0.366300366300366,"NHEJ",NA,NA,NA
"5","del",7,1,"SRR3696829.1065",TRUE,FALSE,3,1.0989010989011,"C",NA,NA,NA
"6","del",7,1,"SRR3696829.791",TRUE,FALSE,3,1.0989010989011,"C",NA,NA,NA
"7","del",7,1,"SRR3696829.950",TRUE,FALSE,3,1.0989010989011,"C",NA,NA,NA
"8","del",8,2,"SRR3696829.886",TRUE,FALSE,1,0.366300366300366,"NHEJ",NA,NA,NA
"9","del",9,1,"SRR3696829.359",TRUE,FALSE,3,1.0989010989011,"NHEJ",NA,NA,NA
"10","del",9,1,"SRR3696829.511",TRUE,FALSE,3,1.0989010989011,"NHEJ",NA,NA,NA
"11","del",9,1,"SRR3696829.717",TRUE,FALSE,3,1.0989010989011,"NHEJ",NA,NA,NA
"12","del",10,1,"SRR3696829.1112",TRUE,FALSE,1,0.366300366300366,"NHEJ",NA,NA,NA
"13","del",12,1,"SRR3696829.732",TRUE,FALSE,2,0.732600732600733,"NHEJ",NA,NA,NA
"14","del",12,1,"SRR3696829.744",TRUE,FALSE,2,0.732600732600733,"NHEJ",NA,NA,NA
"15","del",63,1,"SRR3696829.367",TRUE,FALSE,1,0.366300366300366,"A",NA,NA,NA
"16","del",74,70,"SRR3696829.114",TRUE,FALSE,3,1.0989010989011,"GACCC",NA,NA,NA
"17","del",74,70,"SRR3696829.368",TRUE,FALSE,3,1.0989010989011,"GACCC",NA,NA,NA
"18","del",74,70,"SRR3696829.880",TRUE,FALSE,3,1.0989010989011,"GACCC",NA,NA,NA
"19","del",79,35,"SRR3696829.1039",TRUE,TRUE,24,8.79120879120879,"CT",NA,NA,NA
"20","del",79,35,"SRR3696829.1071",TRUE,TRUE,24,8.79120879120879,"CT",NA,NA,NA
"21","del",79,35,"SRR3696829.1130",TRUE,TRUE,24,8.79120879120879,"CT",NA,NA,NA
"22","del",79,35,"SRR3696829.120",TRUE,TRUE,24,8.79120879120879,"CT",NA,NA,NA
"23","del",79,35,"SRR3696829.129",TRUE,TRUE,24,8.79120879120879,"CT",NA,NA,NA
"24","del",79,35,"SRR3696829.171",TRUE,TRUE,24,8.79120879120879,"CT",NA,NA,NA
"25","del",79,35,"SRR3696829.224",TRUE,TRUE,24,8.79120879120879,"CT",NA,NA,NA
"26","del",79,35,"SRR3696829.236",TRUE,TRUE,24,8.79120879120879,"CT",NA,NA,NA
"27","del",79,35,"SRR3696829.266",TRUE,TRUE,24,8.79120879120879,"CT",NA,NA,NA
"28","del",79,35,"SRR3696829.395",TRUE,TRUE,24,8.79120879120879,"CT",NA,NA,NA
"29","del",79,35,"SRR3696829.406",TRUE,TRUE,24,8.79120879120879,"CT",NA,NA,NA
"30","del",79,35,"SRR3696829.415",TRUE,TRUE,24,8.79120879120879,"CT",NA,NA,NA
"31","del",79,35,"SRR3696829.479",TRUE,TRUE,24,8.79120879120879,"CT",NA,NA,NA
"32","del",79,35,"SRR3696829.513",TRUE,TRUE,24,8.79120879120879,"CT",NA,NA,NA
"33","del",79,35,"SRR3696829.575",TRUE,TRUE,24,8.79120879120879,"CT",NA,NA,NA
"34","del",79,35,"SRR3696829.589",TRUE,TRUE,24,8.79120879120879,"CT",NA,NA,NA
"35","del",79,35,"SRR3696829.611",TRUE,TRUE,24,8.79120879120879,"CT",NA,NA,NA
"36","del",79,35,"SRR3696829.689",TRUE,TRUE,24,8.79120879120879,"CT",NA,NA,NA
"37","del",79,35,"SRR3696829.728",TRUE,TRUE,24,8.79120879120879,"CT",NA,NA,NA
"38","del",79,35,"SRR3696829.753",TRUE,TRUE,24,8.79120879120879,"CT",NA,NA,NA
"39","del",79,35,"SRR3696829.869",TRUE,TRUE,24,8.79120879120879,"CT",NA,NA,NA
"40","del",79,35,"SRR3696829.875",TRUE,TRUE,24,8.79120879120879,"CT",NA,NA,NA
"41","del",79,35,"SRR3696829.91",TRUE,TRUE,24,8.79120879120879,"CT",NA,NA,NA
"42","del",79,35,"SRR3696829.990",TRUE,TRUE,24,8.79120879120879,"CT",NA,NA,NA
"43","del",93,52,"SRR3696829.397",TRUE,TRUE,1,0.366300366300366,"A",NA,NA,NA
"44","del",95,1,"SRR3696829.859",TRUE,TRUE,1,0.366300366300366,"C",NA,NA,NA
"45","del",96,50,"SRR3696829.73",TRUE,TRUE,1,0.366300366300366,"CCC",NA,NA,NA
"46","del",97,8,"SRR3696829.994",TRUE,TRUE,1,0.366300366300366,"CCCGCCC",NA,NA,NA
"47","del",97,49,"SRR3696829.1017",TRUE,TRUE,1,0.366300366300366,"CCC",NA,NA,NA
"48","del",98,45,"SRR3696829.1060",TRUE,TRUE,23,8.42490842490843,"NHEJ",NA,NA,NA
"49","del",98,45,"SRR3696829.1099",TRUE,TRUE,23,8.42490842490843,"NHEJ",NA,NA,NA
"50","del",98,45,"SRR3696829.1105",TRUE,TRUE,23,8.42490842490843,"NHEJ",NA,NA,NA
"51","del",98,45,"SRR3696829.1116",TRUE,TRUE,23,8.42490842490843,"NHEJ",NA,NA,NA
"52","del",98,45,"SRR3696829.202",TRUE,TRUE,23,8.42490842490843,"NHEJ",NA,NA,NA
"53","del",98,45,"SRR3696829.501",TRUE,TRUE,23,8.42490842490843,"NHEJ",NA,NA,NA
"54","del",98,45,"SRR3696829.523",TRUE,TRUE,23,8.42490842490843,"NHEJ",NA,NA,NA
"55","del",98,45,"SRR3696829.587",TRUE,TRUE,23,8.42490842490843,"NHEJ",NA,NA,NA
"56","del",98,45,"SRR3696829.599",TRUE,TRUE,23,8.42490842490843,"NHEJ",NA,NA,NA
"57","del",98,45,"SRR3696829.61",TRUE,TRUE,23,8.42490842490843,"NHEJ",NA,NA,NA
"58","del",98,45,"SRR3696829.629",TRUE,TRUE,23,8.42490842490843,"NHEJ",NA,NA,NA
"59","del",98,45,"SRR3696829.679",TRUE,TRUE,23,8.42490842490843,"NHEJ",NA,NA,NA
"60","del",98,45,"SRR3696829.690",TRUE,TRUE,23,8.42490842490843,"NHEJ",NA,NA,NA
"61","del",98,45,"SRR3696829.729",TRUE,TRUE,23,8.42490842490843,"NHEJ",NA,NA,NA
"62","del",98,45,"SRR3696829.771",TRUE,TRUE,23,8.42490842490843,"NHEJ",NA,NA,NA
"63","del",98,45,"SRR3696829.780",TRUE,TRUE,23,8.42490842490843,"NHEJ",NA,NA,NA
"64","del",98,45,"SRR3696829.790",TRUE,TRUE,23,8.42490842490843,"NHEJ",NA,NA,NA
"65","del",98,45,"SRR3696829.861",TRUE,TRUE,23,8.42490842490843,"NHEJ",NA,NA,NA
"66","del",98,45,"SRR3696829.866",TRUE,TRUE,23,8.42490842490843,"NHEJ",NA,NA,NA
"67","del",98,45,"SRR3696829.943",TRUE,TRUE,23,8.42490842490843,"NHEJ",NA,NA,NA
"68","del",98,45,"SRR3696829.95",TRUE,TRUE,23,8.42490842490843,"NHEJ",NA,NA,NA
"69","del",98,45,"SRR3696829.964",TRUE,TRUE,23,8.42490842490843,"NHEJ",NA,NA,NA
"70","del",98,45,"SRR3696829.965",TRUE,TRUE,23,8.42490842490843,"NHEJ",NA,NA,NA
"71","del",98,48,"SRR3696829.109",TRUE,TRUE,1,0.366300366300366,"CC",NA,NA,NA
"72","del",100,51,"SRR3696829.186",TRUE,TRUE,1,0.366300366300366,"G",NA,NA,NA
"73","del",101,45,"SRR3696829.124",FALSE,TRUE,1,0.366300366300366,"CCCT",NA,NA,NA
"74","del",105,41,"SRR3696829.1009",TRUE,TRUE,15,5.49450549450549,"CCC",NA,NA,NA
"75","del",105,41,"SRR3696829.1027",TRUE,TRUE,15,5.49450549450549,"CCC",NA,NA,NA
"76","del",105,41,"SRR3696829.1139",TRUE,TRUE,15,5.49450549450549,"CCC",NA,NA,NA
"77","del",105,41,"SRR3696829.216",TRUE,TRUE,15,5.49450549450549,"CCC",NA,NA,NA
"78","del",105,41,"SRR3696829.233",TRUE,TRUE,15,5.49450549450549,"CCC",NA,NA,NA
"79","del",105,41,"SRR3696829.238",TRUE,TRUE,15,5.49450549450549,"CCC",NA,NA,NA
"80","del",105,41,"SRR3696829.273",TRUE,TRUE,15,5.49450549450549,"CCC",NA,NA,NA
"81","del",105,41,"SRR3696829.424",TRUE,TRUE,15,5.49450549450549,"CCC",NA,NA,NA
"82","del",105,41,"SRR3696829.537",TRUE,TRUE,15,5.49450549450549,"CCC",NA,NA,NA
"83","del",105,41,"SRR3696829.645",TRUE,TRUE,15,5.49450549450549,"CCC",NA,NA,NA
"84","del",105,41,"SRR3696829.776",TRUE,TRUE,15,5.49450549450549,"CCC",NA,NA,NA
"85","del",105,41,"SRR3696829.785",TRUE,TRUE,15,5.49450549450549,"CCC",NA,NA,NA
"86","del",105,41,"SRR3696829.850",TRUE,TRUE,15,5.49450549450549,"CCC",NA,NA,NA
"87","del",105,41,"SRR3696829.863",TRUE,TRUE,15,5.49450549450549,"CCC",NA,NA,NA
"88","del",105,41,"SRR3696829.937",TRUE,TRUE,15,5.49450549450549,"CCC",NA,NA,NA
"89","del",117,29,"SRR3696829.572",TRUE,TRUE,1,0.366300366300366,"NHEJ",NA,NA,NA
"90","del",129,21,"SRR3696829.834",TRUE,TRUE,1,0.366300366300366,"GG",NA,NA,NA
"91","del",130,20,"SRR3696829.997",TRUE,TRUE,1,0.366300366300366,"GG",NA,NA,NA
"92","del",131,38,"SRR3696829.692",TRUE,TRUE,1,0.366300366300366,"GC",NA,NA,NA
"93","del",132,14,"SRR3696829.492",TRUE,TRUE,4,1.46520146520147,"C",NA,NA,NA
"94","del",132,14,"SRR3696829.514",TRUE,TRUE,4,1.46520146520147,"C",NA,NA,NA
"95","del",132,14,"SRR3696829.659",TRUE,TRUE,4,1.46520146520147,"C",NA,NA,NA
"96","del",132,14,"SRR3696829.79",TRUE,TRUE,4,1.46520146520147,"C",NA,NA,NA
"97","del",132,16,"SRR3696829.284",TRUE,TRUE,2,0.732600732600733,"C",NA,NA,NA
"98","del",132,16,"SRR3696829.678",TRUE,TRUE,2,0.732600732600733,"C",NA,NA,NA
"99","del",132,21,"SRR3696829.391",TRUE,TRUE,1,0.366300366300366,"C",NA,NA,NA
"100","del",133,25,"SRR3696829.300",TRUE,TRUE,2,0.732600732600733,"GC",NA,NA,NA
"101","del",133,25,"SRR3696829.694",TRUE,TRUE,2,0.732600732600733,"GC",NA,NA,NA
"102","del",134,7,"SRR3696829.946",TRUE,TRUE,1,0.366300366300366,"CTGGA",NA,NA,NA
"103","del",134,13,"SRR3696829.321",TRUE,TRUE,1,0.366300366300366,"C",NA,NA,NA
"104","del",134,14,"SRR3696829.1026",TRUE,TRUE,15,5.49450549450549,"CTGGA",NA,NA,NA
"105","del",134,14,"SRR3696829.1121",TRUE,TRUE,15,5.49450549450549,"CTGGA",NA,NA,NA
"106","del",134,14,"SRR3696829.1148",TRUE,TRUE,15,5.49450549450549,"CTGGA",NA,NA,NA
"107","del",134,14,"SRR3696829.230",TRUE,TRUE,15,5.49450549450549,"CTGGA",NA,NA,NA
"108","del",134,14,"SRR3696829.320",TRUE,TRUE,15,5.49450549450549,"CTGGA",NA,NA,NA
"109","del",134,14,"SRR3696829.375",TRUE,TRUE,15,5.49450549450549,"CTGGA",NA,NA,NA
"110","del",134,14,"SRR3696829.435",TRUE,TRUE,15,5.49450549450549,"CTGGA",NA,NA,NA
"111","del",134,14,"SRR3696829.468",TRUE,TRUE,15,5.49450549450549,"CTGGA",NA,NA,NA
"112","del",134,14,"SRR3696829.704",TRUE,TRUE,15,5.49450549450549,"CTGGA",NA,NA,NA
"113","del",134,14,"SRR3696829.804",TRUE,TRUE,15,5.49450549450549,"CTGGA",NA,NA,NA
"114","del",134,14,"SRR3696829.851",TRUE,TRUE,15,5.49450549450549,"CTGGA",NA,NA,NA
"115","del",134,14,"SRR3696829.858",TRUE,TRUE,15,5.49450549450549,"CTGGA",NA,NA,NA
"116","del",134,14,"SRR3696829.916",TRUE,TRUE,15,5.49450549450549,"CTGGA",NA,NA,NA
"117","del",134,14,"SRR3696829.92",TRUE,TRUE,15,5.49450549450549,"CTGGA",NA,NA,NA
"118","del",134,14,"SRR3696829.980",TRUE,TRUE,15,5.49450549450549,"CTGGA",NA,NA,NA
"119","del",134,21,"SRR3696829.251",TRUE,TRUE,5,1.83150183150183,"CTGG",NA,NA,NA
"120","del",134,21,"SRR3696829.595",TRUE,TRUE,5,1.83150183150183,"CTGG",NA,NA,NA
"121","del",134,21,"SRR3696829.725",TRUE,TRUE,5,1.83150183150183,"CTGG",NA,NA,NA
"122","del",134,21,"SRR3696829.807",TRUE,TRUE,5,1.83150183150183,"CTGG",NA,NA,NA
"123","del",134,21,"SRR3696829.894",TRUE,TRUE,5,1.83150183150183,"CTGG",NA,NA,NA
"124","del",135,29,"SRR3696829.116",TRUE,TRUE,1,0.366300366300366,"T",NA,NA,NA
"125","del",136,24,"SRR3696829.941",TRUE,TRUE,1,0.366300366300366,"GG",NA,NA,NA
"126","del",137,23,"SRR3696829.248",TRUE,TRUE,1,0.366300366300366,"G",NA,NA,NA
"127","del",137,32,"SRR3696829.924",TRUE,TRUE,1,0.366300366300366,"G",NA,NA,NA
"128","del",139,6,"SRR3696829.1098",TRUE,TRUE,10,3.66300366300366,"ACC",NA,NA,NA
"129","del",139,6,"SRR3696829.1134",TRUE,TRUE,10,3.66300366300366,"ACC",NA,NA,NA
"130","del",139,6,"SRR3696829.1141",TRUE,TRUE,10,3.66300366300366,"ACC",NA,NA,NA
"131","del",139,6,"SRR3696829.128",TRUE,TRUE,10,3.66300366300366,"ACC",NA,NA,NA
"132","del",139,6,"SRR3696829.270",TRUE,TRUE,10,3.66300366300366,"ACC",NA,NA,NA
"133","del",139,6,"SRR3696829.576",TRUE,TRUE,10,3.66300366300366,"ACC",NA,NA,NA
"134","del",139,6,"SRR3696829.668",TRUE,TRUE,10,3.66300366300366,"ACC",NA,NA,NA
"135","del",139,6,"SRR3696829.768",TRUE,TRUE,10,3.66300366300366,"ACC",NA,NA,NA
"136","del",139,6,"SRR3696829.801",TRUE,TRUE,10,3.66300366300366,"ACC",NA,NA,NA
"137","del",139,6,"SRR3696829.906",TRUE,TRUE,10,3.66300366300366,"ACC",NA,NA,NA
"138","del",139,13,"SRR3696829.1108",TRUE,TRUE,6,2.1978021978022,"ACC",NA,NA,NA
"139","del",139,13,"SRR3696829.210",TRUE,TRUE,6,2.1978021978022,"ACC",NA,NA,NA
"140","del",139,13,"SRR3696829.35",TRUE,TRUE,6,2.1978021978022,"ACC",NA,NA,NA
"141","del",139,13,"SRR3696829.463",TRUE,TRUE,6,2.1978021978022,"ACC",NA,NA,NA
"142","del",139,13,"SRR3696829.530",TRUE,TRUE,6,2.1978021978022,"ACC",NA,NA,NA
"143","del",139,13,"SRR3696829.56",TRUE,TRUE,6,2.1978021978022,"ACC",NA,NA,NA
"144","del",139,20,"SRR3696829.1142",TRUE,TRUE,2,0.732600732600733,"NHEJ",NA,NA,NA
"145","del",139,20,"SRR3696829.366",TRUE,TRUE,2,0.732600732600733,"NHEJ",NA,NA,NA
"146","del",140,7,"SRR3696829.1049",TRUE,TRUE,26,9.52380952380952,"CCTGGAC",NA,NA,NA
"147","del",140,7,"SRR3696829.1072",TRUE,TRUE,26,9.52380952380952,"CCTGGAC",NA,NA,NA
"148","del",140,7,"SRR3696829.1077",TRUE,TRUE,26,9.52380952380952,"CCTGGAC",NA,NA,NA
"149","del",140,7,"SRR3696829.1084",TRUE,TRUE,26,9.52380952380952,"CCTGGAC",NA,NA,NA
"150","del",140,7,"SRR3696829.1088",TRUE,TRUE,26,9.52380952380952,"CCTGGAC",NA,NA,NA
"151","del",140,7,"SRR3696829.1125",TRUE,TRUE,26,9.52380952380952,"CCTGGAC",NA,NA,NA
"152","del",140,7,"SRR3696829.1131",TRUE,TRUE,26,9.52380952380952,"CCTGGAC",NA,NA,NA
"153","del",140,7,"SRR3696829.1138",TRUE,TRUE,26,9.52380952380952,"CCTGGAC",NA,NA,NA
"154","del",140,7,"SRR3696829.141",TRUE,TRUE,26,9.52380952380952,"CCTGGAC",NA,NA,NA
"155","del",140,7,"SRR3696829.174",TRUE,TRUE,26,9.52380952380952,"CCTGGAC",NA,NA,NA
"156","del",140,7,"SRR3696829.184",TRUE,TRUE,26,9.52380952380952,"CCTGGAC",NA,NA,NA
"157","del",140,7,"SRR3696829.268",TRUE,TRUE,26,9.52380952380952,"CCTGGAC",NA,NA,NA
"158","del",140,7,"SRR3696829.271",TRUE,TRUE,26,9.52380952380952,"CCTGGAC",NA,NA,NA
"159","del",140,7,"SRR3696829.30",TRUE,TRUE,26,9.52380952380952,"CCTGGAC",NA,NA,NA
"160","del",140,7,"SRR3696829.309",TRUE,TRUE,26,9.52380952380952,"CCTGGAC",NA,NA,NA
"161","del",140,7,"SRR3696829.331",TRUE,TRUE,26,9.52380952380952,"CCTGGAC",NA,NA,NA
"162","del",140,7,"SRR3696829.380",TRUE,TRUE,26,9.52380952380952,"CCTGGAC",NA,NA,NA
"163","del",140,7,"SRR3696829.387",TRUE,TRUE,26,9.52380952380952,"CCTGGAC",NA,NA,NA
"164","del",140,7,"SRR3696829.431",TRUE,TRUE,26,9.52380952380952,"CCTGGAC",NA,NA,NA
"165","del",140,7,"SRR3696829.54",TRUE,TRUE,26,9.52380952380952,"CCTGGAC",NA,NA,NA
"166","del",140,7,"SRR3696829.552",TRUE,TRUE,26,9.52380952380952,"CCTGGAC",NA,NA,NA
"167","del",140,7,"SRR3696829.635",TRUE,TRUE,26,9.52380952380952,"CCTGGAC",NA,NA,NA
"168","del",140,7,"SRR3696829.670",TRUE,TRUE,26,9.52380952380952,"CCTGGAC",NA,NA,NA
"169","del",140,7,"SRR3696829.77",TRUE,TRUE,26,9.52380952380952,"CCTGGAC",NA,NA,NA
"170","del",140,7,"SRR3696829.812",TRUE,TRUE,26,9.52380952380952,"CCTGGAC",NA,NA,NA
"171","del",140,7,"SRR3696829.917",TRUE,TRUE,26,9.52380952380952,"CCTGGAC",NA,NA,NA
"172","del",140,14,"SRR3696829.1012",TRUE,TRUE,23,8.42490842490843,"CCTGG",NA,NA,NA
"173","del",140,14,"SRR3696829.190",TRUE,TRUE,23,8.42490842490843,"CCTGG",NA,NA,NA
"174","del",140,14,"SRR3696829.206",TRUE,TRUE,23,8.42490842490843,"CCTGG",NA,NA,NA
"175","del",140,14,"SRR3696829.215",TRUE,TRUE,23,8.42490842490843,"CCTGG",NA,NA,NA
"176","del",140,14,"SRR3696829.345",TRUE,TRUE,23,8.42490842490843,"CCTGG",NA,NA,NA
"177","del",140,14,"SRR3696829.376",TRUE,TRUE,23,8.42490842490843,"CCTGG",NA,NA,NA
"178","del",140,14,"SRR3696829.419",TRUE,TRUE,23,8.42490842490843,"CCTGG",NA,NA,NA
"179","del",140,14,"SRR3696829.456",TRUE,TRUE,23,8.42490842490843,"CCTGG",NA,NA,NA
"180","del",140,14,"SRR3696829.458",TRUE,TRUE,23,8.42490842490843,"CCTGG",NA,NA,NA
"181","del",140,14,"SRR3696829.467",TRUE,TRUE,23,8.42490842490843,"CCTGG",NA,NA,NA
"182","del",140,14,"SRR3696829.546",TRUE,TRUE,23,8.42490842490843,"CCTGG",NA,NA,NA
"183","del",140,14,"SRR3696829.57",TRUE,TRUE,23,8.42490842490843,"CCTGG",NA,NA,NA
"184","del",140,14,"SRR3696829.623",TRUE,TRUE,23,8.42490842490843,"CCTGG",NA,NA,NA
"185","del",140,14,"SRR3696829.630",TRUE,TRUE,23,8.42490842490843,"CCTGG",NA,NA,NA
"186","del",140,14,"SRR3696829.663",TRUE,TRUE,23,8.42490842490843,"CCTGG",NA,NA,NA
"187","del",140,14,"SRR3696829.713",TRUE,TRUE,23,8.42490842490843,"CCTGG",NA,NA,NA
"188","del",140,14,"SRR3696829.789",TRUE,TRUE,23,8.42490842490843,"CCTGG",NA,NA,NA
"189","del",140,14,"SRR3696829.855",TRUE,TRUE,23,8.42490842490843,"CCTGG",NA,NA,NA
"190","del",140,14,"SRR3696829.883",TRUE,TRUE,23,8.42490842490843,"CCTGG",NA,NA,NA
"191","del",140,14,"SRR3696829.898",TRUE,TRUE,23,8.42490842490843,"CCTGG",NA,NA,NA
"192","del",140,14,"SRR3696829.919",TRUE,TRUE,23,8.42490842490843,"CCTGG",NA,NA,NA
"193","del",140,14,"SRR3696829.969",TRUE,TRUE,23,8.42490842490843,"CCTGG",NA,NA,NA
"194","del",140,14,"SRR3696829.988",TRUE,TRUE,23,8.42490842490843,"CCTGG",NA,NA,NA
"195","del",140,25,"SRR3696829.340",TRUE,TRUE,1,0.366300366300366,"CC",NA,NA,NA
"196","del",140,46,"SRR3696829.138",TRUE,TRUE,3,1.0989010989011,"CCTG",NA,NA,NA
"197","del",140,46,"SRR3696829.279",TRUE,TRUE,3,1.0989010989011,"CCTG",NA,NA,NA
"198","del",140,46,"SRR3696829.400",TRUE,TRUE,3,1.0989010989011,"CCTG",NA,NA,NA
"199","del",141,18,"SRR3696829.166",TRUE,TRUE,1,0.366300366300366,"C",NA,NA,NA
"200","del",142,4,"SRR3696829.995",TRUE,TRUE,1,0.366300366300366,"NHEJ",NA,NA,NA
"201","del",142,21,"SRR3696829.333",TRUE,TRUE,2,0.732600732600733,"T",NA,NA,NA
"202","del",142,21,"SRR3696829.602",TRUE,TRUE,2,0.732600732600733,"T",NA,NA,NA
"203","del",143,11,"SRR3696829.641",TRUE,TRUE,1,0.366300366300366,"NHEJ",NA,NA,NA
"204","del",143,13,"SRR3696829.896",FALSE,TRUE,1,0.366300366300366,"NHEJ",NA,NA,NA
"205","del",143,17,"SRR3696829.241",TRUE,TRUE,2,0.732600732600733,"GG",NA,NA,NA
"206","del",143,17,"SRR3696829.626",TRUE,TRUE,2,0.732600732600733,"GG",NA,NA,NA
"207","del",143,18,"SRR3696829.137",FALSE,TRUE,2,0.732600732600733,"GG",NA,NA,NA
"208","del",143,18,"SRR3696829.905",FALSE,TRUE,2,0.732600732600733,"GG",NA,NA,NA
"209","del",143,23,"SRR3696829.59",FALSE,TRUE,1,0.366300366300366,"NHEJ",NA,NA,NA
"210","del",144,2,"SRR3696829.429",TRUE,TRUE,2,0.732600732600733,"NHEJ",NA,NA,NA
"211","del",144,2,"SRR3696829.759",TRUE,TRUE,2,0.732600732600733,"NHEJ",NA,NA,NA
"212","del",145,4,"SRR3696829.474",TRUE,TRUE,1,0.366300366300366,"NHEJ",NA,NA,NA
"213","del",145,15,"SRR3696829.490",FALSE,TRUE,1,0.366300366300366,"NHEJ",NA,NA,NA
"214","del",146,1,"SRR3696829.144",TRUE,TRUE,2,0.732600732600733,"C",NA,NA,NA
"215","del",146,1,"SRR3696829.5",TRUE,TRUE,2,0.732600732600733,"C",NA,NA,NA
"216","del",146,2,"SRR3696829.1082",TRUE,TRUE,3,1.0989010989011,"C",NA,NA,NA
"217","del",146,2,"SRR3696829.121",TRUE,TRUE,3,1.0989010989011,"C",NA,NA,NA
"218","del",146,2,"SRR3696829.998",TRUE,TRUE,3,1.0989010989011,"C",NA,NA,NA
"219","del",146,3,"SRR3696829.421",TRUE,TRUE,1,0.366300366300366,"NHEJ",NA,NA,NA
"220","del",146,5,"SRR3696829.150",TRUE,TRUE,1,0.366300366300366,"NHEJ",NA,NA,NA
"221","del",146,10,"SRR3696829.1032",TRUE,TRUE,4,1.46520146520147,"NHEJ",NA,NA,NA
"222","del",146,10,"SRR3696829.1061",TRUE,TRUE,4,1.46520146520147,"NHEJ",NA,NA,NA
"223","del",146,10,"SRR3696829.685",TRUE,TRUE,4,1.46520146520147,"NHEJ",NA,NA,NA
"224","del",146,10,"SRR3696829.693",TRUE,TRUE,4,1.46520146520147,"NHEJ",NA,NA,NA
"225","del",146,12,"SRR3696829.705",TRUE,TRUE,1,0.366300366300366,"NHEJ",NA,NA,NA
"226","del",146,13,"SRR3696829.117",TRUE,TRUE,3,1.0989010989011,"C",NA,NA,NA
"227","del",146,13,"SRR3696829.573",TRUE,TRUE,3,1.0989010989011,"C",NA,NA,NA
"228","del",146,13,"SRR3696829.811",TRUE,TRUE,3,1.0989010989011,"C",NA,NA,NA
"229","del",146,15,"SRR3696829.149",TRUE,TRUE,2,0.732600732600733,"NHEJ",NA,NA,NA
"230","del",146,15,"SRR3696829.179",TRUE,TRUE,2,0.732600732600733,"NHEJ",NA,NA,NA
"231","del",146,16,"SRR3696829.14",TRUE,TRUE,1,0.366300366300366,"NHEJ",NA,NA,NA
"232","del",146,18,"SRR3696829.227",TRUE,TRUE,1,0.366300366300366,"NHEJ",NA,NA,NA
"233","del",146,20,"SRR3696829.786",TRUE,TRUE,1,0.366300366300366,"C",NA,NA,NA
"234","del",211,1,"SRR3696829.372",TRUE,FALSE,1,0.366300366300366,"C",NA,NA,NA
"235","del",213,1,"SRR3696829.1081",TRUE,FALSE,8,2.93040293040293,"T",NA,NA,NA
"236","del",213,1,"SRR3696829.110",TRUE,FALSE,8,2.93040293040293,"T",NA,NA,NA
"237","del",213,1,"SRR3696829.1195",TRUE,FALSE,8,2.93040293040293,"T",NA,NA,NA
"238","del",213,1,"SRR3696829.219",TRUE,FALSE,8,2.93040293040293,"T",NA,NA,NA
"239","del",213,1,"SRR3696829.417",TRUE,FALSE,8,2.93040293040293,"T",NA,NA,NA
"240","del",213,1,"SRR3696829.521",TRUE,FALSE,8,2.93040293040293,"T",NA,NA,NA
"241","del",213,1,"SRR3696829.910",TRUE,FALSE,8,2.93040293040293,"T",NA,NA,NA
"242","del",213,1,"SRR3696829.938",TRUE,FALSE,8,2.93040293040293,"T",NA,NA,NA
"243","del",216,1,"SRR3696829.1137",TRUE,FALSE,8,2.93040293040293,"C",NA,NA,NA
"244","del",216,1,"SRR3696829.1176",TRUE,FALSE,8,2.93040293040293,"C",NA,NA,NA
"245","del",216,1,"SRR3696829.312",TRUE,FALSE,8,2.93040293040293,"C",NA,NA,NA
"246","del",216,1,"SRR3696829.452",TRUE,FALSE,8,2.93040293040293,"C",NA,NA,NA
"247","del",216,1,"SRR3696829.724",TRUE,FALSE,8,2.93040293040293,"C",NA,NA,NA
"248","del",216,1,"SRR3696829.756",TRUE,FALSE,8,2.93040293040293,"C",NA,NA,NA
"249","del",216,1,"SRR3696829.942",TRUE,FALSE,8,2.93040293040293,"C",NA,NA,NA
"250","del",216,1,"SRR3696829.989",TRUE,FALSE,8,2.93040293040293,"C",NA,NA,NA
"251","del",216,2,"SRR3696829.484",TRUE,FALSE,2,0.732600732600733,"C",NA,NA,NA
"252","del",216,2,"SRR3696829.810",TRUE,FALSE,2,0.732600732600733,"C",NA,NA,NA
"253","del",218,2,"SRR3696829.899",TRUE,FALSE,1,0.366300366300366,"NHEJ",NA,NA,NA
"254","del",219,1,"SRR3696829.1063",TRUE,FALSE,2,0.732600732600733,"NHEJ",NA,NA,NA
"255","del",219,1,"SRR3696829.1091",TRUE,FALSE,2,0.732600732600733,"NHEJ",NA,NA,NA
"256","del",219,2,"SRR3696829.1118",TRUE,FALSE,3,1.0989010989011,"NHEJ",NA,NA,NA
"257","del",219,2,"SRR3696829.555",TRUE,FALSE,3,1.0989010989011,"NHEJ",NA,NA,NA
"258","del",219,2,"SRR3696829.778",TRUE,FALSE,3,1.0989010989011,"NHEJ",NA,NA,NA
"259","del",220,1,"SRR3696829.1030",TRUE,FALSE,5,1.83150183150183,"NHEJ",NA,NA,NA
"260","del",220,1,"SRR3696829.1053",TRUE,FALSE,5,1.83150183150183,"NHEJ",NA,NA,NA
"261","del",220,1,"SRR3696829.1145",TRUE,FALSE,5,1.83150183150183,"NHEJ",NA,NA,NA
"262","del",220,1,"SRR3696829.330",TRUE,FALSE,5,1.83150183150183,"NHEJ",NA,NA,NA
"263","del",220,1,"SRR3696829.831",TRUE,FALSE,5,1.83150183150183,"NHEJ",NA,NA,NA
"264","ins",213,1,"SRR3696829.36",TRUE,FALSE,1,0.366300366300366,NA,"TCC","T","TTT"
"265","ins",146,1,"SRR3696829.1025",TRUE,TRUE,4,1.46520146520147,NA,"GGA","A","CCC"
"266","ins",146,1,NA,TRUE,TRUE,4,1.46520146520147,NA,"GGA","A","CCC"
"267","ins",146,1,NA,TRUE,TRUE,4,1.46520146520147,NA,"GGA","A","CCC"
"268","ins",146,1,NA,TRUE,TRUE,4,1.46520146520147,NA,"GGA","A","CCC"
"269","ins",146,2,NA,TRUE,TRUE,1,0.366300366300366,NA,"GGA",NA,"CCC"
"270","ins",146,4,NA,TRUE,TRUE,1,0.366300366300366,NA,"GGA",NA,"CCC"
"271","ins",146,1,"SRR3696829.272",TRUE,TRUE,2,0.732600732600733,NA,"GGA","C","CCC"
"272","ins",146,1,"SRR3696829.502",TRUE,TRUE,2,0.732600732600733,NA,"GGA","T","CCC"
"273","ins",147,6,"SRR3696829.161",TRUE,TRUE,1,0.366300366300366,NA,"GAC","CCTGAA","CCT"
