"","Modification","Start","Length","Ids","above_error_rate","in_pick","freq","Perc","patterns","pre_ins_nt","ins_nt","post_ins_nt"
"1","del",6,1,"SRR3698451.1121",TRUE,FALSE,12,1.15495668912416,"NHEJ",NA,NA,NA
"2","del",6,1,"SRR3698451.1343",TRUE,FALSE,12,1.15495668912416,"NHEJ",NA,NA,NA
"3","del",6,1,"SRR3698451.1447",TRUE,FALSE,12,1.15495668912416,"NHEJ",NA,NA,NA
"4","del",6,1,"SRR3698451.2793",TRUE,FALSE,12,1.15495668912416,"NHEJ",NA,NA,NA
"5","del",6,1,"SRR3698451.3009",TRUE,FALSE,12,1.15495668912416,"NHEJ",NA,NA,NA
"6","del",6,1,"SRR3698451.339",TRUE,FALSE,12,1.15495668912416,"NHEJ",NA,NA,NA
"7","del",6,1,"SRR3698451.3512",TRUE,FALSE,12,1.15495668912416,"NHEJ",NA,NA,NA
"8","del",6,1,"SRR3698451.3872",TRUE,FALSE,12,1.15495668912416,"NHEJ",NA,NA,NA
"9","del",6,1,"SRR3698451.3937",TRUE,FALSE,12,1.15495668912416,"NHEJ",NA,NA,NA
"10","del",6,1,"SRR3698451.5020",TRUE,FALSE,12,1.15495668912416,"NHEJ",NA,NA,NA
"11","del",6,1,"SRR3698451.897",TRUE,FALSE,12,1.15495668912416,"NHEJ",NA,NA,NA
"12","del",6,1,"SRR3698451.991",TRUE,FALSE,12,1.15495668912416,"NHEJ",NA,NA,NA
"13","del",6,2,"SRR3698451.6116",FALSE,FALSE,1,0.0962463907603465,"A",NA,NA,NA
"14","del",7,1,"SRR3698451.1689",TRUE,FALSE,6,0.577478344562079,"NHEJ",NA,NA,NA
"15","del",7,1,"SRR3698451.5585",TRUE,FALSE,6,0.577478344562079,"NHEJ",NA,NA,NA
"16","del",7,1,"SRR3698451.588",TRUE,FALSE,6,0.577478344562079,"NHEJ",NA,NA,NA
"17","del",7,1,"SRR3698451.5997",TRUE,FALSE,6,0.577478344562079,"NHEJ",NA,NA,NA
"18","del",7,1,"SRR3698451.6437",TRUE,FALSE,6,0.577478344562079,"NHEJ",NA,NA,NA
"19","del",7,1,"SRR3698451.868",TRUE,FALSE,6,0.577478344562079,"NHEJ",NA,NA,NA
"20","del",8,1,"SRR3698451.124",TRUE,FALSE,10,0.962463907603465,"NHEJ",NA,NA,NA
"21","del",8,1,"SRR3698451.1941",TRUE,FALSE,10,0.962463907603465,"NHEJ",NA,NA,NA
"22","del",8,1,"SRR3698451.2645",TRUE,FALSE,10,0.962463907603465,"NHEJ",NA,NA,NA
"23","del",8,1,"SRR3698451.4260",TRUE,FALSE,10,0.962463907603465,"NHEJ",NA,NA,NA
"24","del",8,1,"SRR3698451.4779",TRUE,FALSE,10,0.962463907603465,"NHEJ",NA,NA,NA
"25","del",8,1,"SRR3698451.4841",TRUE,FALSE,10,0.962463907603465,"NHEJ",NA,NA,NA
"26","del",8,1,"SRR3698451.5533",TRUE,FALSE,10,0.962463907603465,"NHEJ",NA,NA,NA
"27","del",8,1,"SRR3698451.6038",TRUE,FALSE,10,0.962463907603465,"NHEJ",NA,NA,NA
"28","del",8,1,"SRR3698451.6214",TRUE,FALSE,10,0.962463907603465,"NHEJ",NA,NA,NA
"29","del",8,1,"SRR3698451.819",TRUE,FALSE,10,0.962463907603465,"NHEJ",NA,NA,NA
"30","del",8,3,"SRR3698451.553",TRUE,FALSE,2,0.192492781520693,"NHEJ",NA,NA,NA
"31","del",8,3,"SRR3698451.5581",TRUE,FALSE,2,0.192492781520693,"NHEJ",NA,NA,NA
"32","del",9,1,"SRR3698451.2929",TRUE,FALSE,5,0.481231953801732,"NHEJ",NA,NA,NA
"33","del",9,1,"SRR3698451.4152",TRUE,FALSE,5,0.481231953801732,"NHEJ",NA,NA,NA
"34","del",9,1,"SRR3698451.4288",TRUE,FALSE,5,0.481231953801732,"NHEJ",NA,NA,NA
"35","del",9,1,"SRR3698451.6405",TRUE,FALSE,5,0.481231953801732,"NHEJ",NA,NA,NA
"36","del",9,1,"SRR3698451.988",TRUE,FALSE,5,0.481231953801732,"NHEJ",NA,NA,NA
"37","del",9,3,"SRR3698451.3498",FALSE,FALSE,2,0.192492781520693,"C",NA,NA,NA
"38","del",9,3,"SRR3698451.6153",FALSE,FALSE,2,0.192492781520693,"C",NA,NA,NA
"39","del",10,1,"SRR3698451.1049",TRUE,FALSE,13,1.2512030798845,"NHEJ",NA,NA,NA
"40","del",10,1,"SRR3698451.2208",TRUE,FALSE,13,1.2512030798845,"NHEJ",NA,NA,NA
"41","del",10,1,"SRR3698451.2745",TRUE,FALSE,13,1.2512030798845,"NHEJ",NA,NA,NA
"42","del",10,1,"SRR3698451.2798",TRUE,FALSE,13,1.2512030798845,"NHEJ",NA,NA,NA
"43","del",10,1,"SRR3698451.3121",TRUE,FALSE,13,1.2512030798845,"NHEJ",NA,NA,NA
"44","del",10,1,"SRR3698451.4037",TRUE,FALSE,13,1.2512030798845,"NHEJ",NA,NA,NA
"45","del",10,1,"SRR3698451.4380",TRUE,FALSE,13,1.2512030798845,"NHEJ",NA,NA,NA
"46","del",10,1,"SRR3698451.5828",TRUE,FALSE,13,1.2512030798845,"NHEJ",NA,NA,NA
"47","del",10,1,"SRR3698451.6018",TRUE,FALSE,13,1.2512030798845,"NHEJ",NA,NA,NA
"48","del",10,1,"SRR3698451.6122",TRUE,FALSE,13,1.2512030798845,"NHEJ",NA,NA,NA
"49","del",10,1,"SRR3698451.869",TRUE,FALSE,13,1.2512030798845,"NHEJ",NA,NA,NA
"50","del",10,1,"SRR3698451.946",TRUE,FALSE,13,1.2512030798845,"NHEJ",NA,NA,NA
"51","del",10,1,"SRR3698451.990",TRUE,FALSE,13,1.2512030798845,"NHEJ",NA,NA,NA
"52","del",11,1,"SRR3698451.1480",TRUE,FALSE,29,2.79114533205005,"C",NA,NA,NA
"53","del",11,1,"SRR3698451.1643",TRUE,FALSE,29,2.79114533205005,"C",NA,NA,NA
"54","del",11,1,"SRR3698451.1814",TRUE,FALSE,29,2.79114533205005,"C",NA,NA,NA
"55","del",11,1,"SRR3698451.2474",TRUE,FALSE,29,2.79114533205005,"C",NA,NA,NA
"56","del",11,1,"SRR3698451.2648",TRUE,FALSE,29,2.79114533205005,"C",NA,NA,NA
"57","del",11,1,"SRR3698451.2879",TRUE,FALSE,29,2.79114533205005,"C",NA,NA,NA
"58","del",11,1,"SRR3698451.2896",TRUE,FALSE,29,2.79114533205005,"C",NA,NA,NA
"59","del",11,1,"SRR3698451.2978",TRUE,FALSE,29,2.79114533205005,"C",NA,NA,NA
"60","del",11,1,"SRR3698451.309",TRUE,FALSE,29,2.79114533205005,"C",NA,NA,NA
"61","del",11,1,"SRR3698451.318",TRUE,FALSE,29,2.79114533205005,"C",NA,NA,NA
"62","del",11,1,"SRR3698451.3357",TRUE,FALSE,29,2.79114533205005,"C",NA,NA,NA
"63","del",11,1,"SRR3698451.3376",TRUE,FALSE,29,2.79114533205005,"C",NA,NA,NA
"64","del",11,1,"SRR3698451.3479",TRUE,FALSE,29,2.79114533205005,"C",NA,NA,NA
"65","del",11,1,"SRR3698451.3548",TRUE,FALSE,29,2.79114533205005,"C",NA,NA,NA
"66","del",11,1,"SRR3698451.3763",TRUE,FALSE,29,2.79114533205005,"C",NA,NA,NA
"67","del",11,1,"SRR3698451.4097",TRUE,FALSE,29,2.79114533205005,"C",NA,NA,NA
"68","del",11,1,"SRR3698451.4216",TRUE,FALSE,29,2.79114533205005,"C",NA,NA,NA
"69","del",11,1,"SRR3698451.441",TRUE,FALSE,29,2.79114533205005,"C",NA,NA,NA
"70","del",11,1,"SRR3698451.4711",TRUE,FALSE,29,2.79114533205005,"C",NA,NA,NA
"71","del",11,1,"SRR3698451.4822",TRUE,FALSE,29,2.79114533205005,"C",NA,NA,NA
"72","del",11,1,"SRR3698451.4838",TRUE,FALSE,29,2.79114533205005,"C",NA,NA,NA
"73","del",11,1,"SRR3698451.4882",TRUE,FALSE,29,2.79114533205005,"C",NA,NA,NA
"74","del",11,1,"SRR3698451.505",TRUE,FALSE,29,2.79114533205005,"C",NA,NA,NA
"75","del",11,1,"SRR3698451.5405",TRUE,FALSE,29,2.79114533205005,"C",NA,NA,NA
"76","del",11,1,"SRR3698451.5976",TRUE,FALSE,29,2.79114533205005,"C",NA,NA,NA
"77","del",11,1,"SRR3698451.6048",TRUE,FALSE,29,2.79114533205005,"C",NA,NA,NA
"78","del",11,1,"SRR3698451.6155",TRUE,FALSE,29,2.79114533205005,"C",NA,NA,NA
"79","del",11,1,"SRR3698451.6162",TRUE,FALSE,29,2.79114533205005,"C",NA,NA,NA
"80","del",11,1,"SRR3698451.933",TRUE,FALSE,29,2.79114533205005,"C",NA,NA,NA
"81","del",11,2,"SRR3698451.534",FALSE,FALSE,1,0.0962463907603465,"C",NA,NA,NA
"82","del",14,1,"SRR3698451.214",TRUE,FALSE,7,0.673724735322425,"NHEJ",NA,NA,NA
"83","del",14,1,"SRR3698451.3628",TRUE,FALSE,7,0.673724735322425,"NHEJ",NA,NA,NA
"84","del",14,1,"SRR3698451.3842",TRUE,FALSE,7,0.673724735322425,"NHEJ",NA,NA,NA
"85","del",14,1,"SRR3698451.5157",TRUE,FALSE,7,0.673724735322425,"NHEJ",NA,NA,NA
"86","del",14,1,"SRR3698451.521",TRUE,FALSE,7,0.673724735322425,"NHEJ",NA,NA,NA
"87","del",14,1,"SRR3698451.5488",TRUE,FALSE,7,0.673724735322425,"NHEJ",NA,NA,NA
"88","del",14,1,"SRR3698451.6129",TRUE,FALSE,7,0.673724735322425,"NHEJ",NA,NA,NA
"89","del",15,1,"SRR3698451.2857",FALSE,FALSE,1,0.0962463907603465,"NHEJ",NA,NA,NA
"90","del",46,47,"SRR3698451.2603",TRUE,FALSE,5,0.481231953801732,"CA",NA,NA,NA
"91","del",46,47,"SRR3698451.4311",TRUE,FALSE,5,0.481231953801732,"CA",NA,NA,NA
"92","del",46,47,"SRR3698451.6336",TRUE,FALSE,5,0.481231953801732,"CA",NA,NA,NA
"93","del",46,47,"SRR3698451.842",TRUE,FALSE,5,0.481231953801732,"CA",NA,NA,NA
"94","del",46,47,"SRR3698451.856",TRUE,FALSE,5,0.481231953801732,"CA",NA,NA,NA
"95","del",48,46,"SRR3698451.1944",TRUE,TRUE,5,0.481231953801732,"AGG",NA,NA,NA
"96","del",48,46,"SRR3698451.2904",TRUE,TRUE,5,0.481231953801732,"AGG",NA,NA,NA
"97","del",48,46,"SRR3698451.4949",TRUE,TRUE,5,0.481231953801732,"AGG",NA,NA,NA
"98","del",48,46,"SRR3698451.5053",TRUE,TRUE,5,0.481231953801732,"AGG",NA,NA,NA
"99","del",48,46,"SRR3698451.6102",TRUE,TRUE,5,0.481231953801732,"AGG",NA,NA,NA
"100","del",55,36,"SRR3698451.196",TRUE,TRUE,6,0.577478344562079,"TTCA",NA,NA,NA
"101","del",55,36,"SRR3698451.2090",TRUE,TRUE,6,0.577478344562079,"TTCA",NA,NA,NA
"102","del",55,36,"SRR3698451.2796",TRUE,TRUE,6,0.577478344562079,"TTCA",NA,NA,NA
"103","del",55,36,"SRR3698451.2980",TRUE,TRUE,6,0.577478344562079,"TTCA",NA,NA,NA
"104","del",55,36,"SRR3698451.3491",TRUE,TRUE,6,0.577478344562079,"TTCA",NA,NA,NA
"105","del",55,36,"SRR3698451.4078",TRUE,TRUE,6,0.577478344562079,"TTCA",NA,NA,NA
"106","del",63,30,"SRR3698451.2091",FALSE,TRUE,1,0.0962463907603465,"C",NA,NA,NA
"107","del",66,24,"SRR3698451.2933",TRUE,TRUE,2,0.192492781520693,"NHEJ",NA,NA,NA
"108","del",66,24,"SRR3698451.6418",TRUE,TRUE,2,0.192492781520693,"NHEJ",NA,NA,NA
"109","del",66,27,"SRR3698451.3155",TRUE,TRUE,4,0.384985563041386,"NHEJ",NA,NA,NA
"110","del",66,27,"SRR3698451.5809",TRUE,TRUE,4,0.384985563041386,"NHEJ",NA,NA,NA
"111","del",66,27,"SRR3698451.593",TRUE,TRUE,4,0.384985563041386,"NHEJ",NA,NA,NA
"112","del",66,27,"SRR3698451.6424",TRUE,TRUE,4,0.384985563041386,"NHEJ",NA,NA,NA
"113","del",67,13,"SRR3698451.5225",TRUE,TRUE,2,0.192492781520693,"AGCCCCTGG",NA,NA,NA
"114","del",67,13,"SRR3698451.5537",TRUE,TRUE,2,0.192492781520693,"AGCCCCTGG",NA,NA,NA
"115","del",69,1,"SRR3698451.5265",TRUE,TRUE,2,0.192492781520693,"C",NA,NA,NA
"116","del",69,1,"SRR3698451.6012",TRUE,TRUE,2,0.192492781520693,"C",NA,NA,NA
"117","del",71,18,"SRR3698451.1365",TRUE,TRUE,4,0.384985563041386,"CCT",NA,NA,NA
"118","del",71,18,"SRR3698451.239",TRUE,TRUE,4,0.384985563041386,"CCT",NA,NA,NA
"119","del",71,18,"SRR3698451.6302",TRUE,TRUE,4,0.384985563041386,"CCT",NA,NA,NA
"120","del",71,18,"SRR3698451.867",TRUE,TRUE,4,0.384985563041386,"CCT",NA,NA,NA
"121","del",71,32,"SRR3698451.161",TRUE,TRUE,2,0.192492781520693,"CCTG",NA,NA,NA
"122","del",71,32,"SRR3698451.6438",TRUE,TRUE,2,0.192492781520693,"CCTG",NA,NA,NA
"123","del",72,21,"SRR3698451.6104",TRUE,TRUE,1,0.0962463907603465,"C",NA,NA,NA
"124","del",72,41,"SRR3698451.1769",TRUE,TRUE,7,0.673724735322425,"CTGG",NA,NA,NA
"125","del",72,41,"SRR3698451.1813",TRUE,TRUE,7,0.673724735322425,"CTGG",NA,NA,NA
"126","del",72,41,"SRR3698451.3849",TRUE,TRUE,7,0.673724735322425,"CTGG",NA,NA,NA
"127","del",72,41,"SRR3698451.4020",TRUE,TRUE,7,0.673724735322425,"CTGG",NA,NA,NA
"128","del",72,41,"SRR3698451.438",TRUE,TRUE,7,0.673724735322425,"CTGG",NA,NA,NA
"129","del",72,41,"SRR3698451.5339",TRUE,TRUE,7,0.673724735322425,"CTGG",NA,NA,NA
"130","del",72,41,"SRR3698451.912",TRUE,TRUE,7,0.673724735322425,"CTGG",NA,NA,NA
"131","del",74,1,"SRR3698451.6160",FALSE,TRUE,1,0.0962463907603465,"G",NA,NA,NA
"132","del",74,17,"SRR3698451.2854",TRUE,TRUE,2,0.192492781520693,"NHEJ",NA,NA,NA
"133","del",74,17,"SRR3698451.4208",TRUE,TRUE,2,0.192492781520693,"NHEJ",NA,NA,NA
"134","del",74,21,"SRR3698451.1125",TRUE,TRUE,8,0.769971126082772,"GGA",NA,NA,NA
"135","del",74,21,"SRR3698451.1392",TRUE,TRUE,8,0.769971126082772,"GGA",NA,NA,NA
"136","del",74,21,"SRR3698451.2107",TRUE,TRUE,8,0.769971126082772,"GGA",NA,NA,NA
"137","del",74,21,"SRR3698451.4283",TRUE,TRUE,8,0.769971126082772,"GGA",NA,NA,NA
"138","del",74,21,"SRR3698451.433",TRUE,TRUE,8,0.769971126082772,"GGA",NA,NA,NA
"139","del",74,21,"SRR3698451.4916",TRUE,TRUE,8,0.769971126082772,"GGA",NA,NA,NA
"140","del",74,21,"SRR3698451.5569",TRUE,TRUE,8,0.769971126082772,"GGA",NA,NA,NA
"141","del",74,21,"SRR3698451.865",TRUE,TRUE,8,0.769971126082772,"GGA",NA,NA,NA
"142","del",74,22,"SRR3698451.1794",TRUE,TRUE,3,0.288739172281039,"G",NA,NA,NA
"143","del",74,22,"SRR3698451.3960",TRUE,TRUE,3,0.288739172281039,"G",NA,NA,NA
"144","del",74,22,"SRR3698451.5345",TRUE,TRUE,3,0.288739172281039,"G",NA,NA,NA
"145","del",74,23,"SRR3698451.3978",TRUE,TRUE,1,0.0962463907603465,"NHEJ",NA,NA,NA
"146","del",74,24,"SRR3698451.304",TRUE,TRUE,2,0.192492781520693,"NHEJ",NA,NA,NA
"147","del",74,24,"SRR3698451.5017",TRUE,TRUE,2,0.192492781520693,"NHEJ",NA,NA,NA
"148","del",74,25,"SRR3698451.2402",TRUE,TRUE,2,0.192492781520693,"NHEJ",NA,NA,NA
"149","del",74,25,"SRR3698451.32",TRUE,TRUE,2,0.192492781520693,"NHEJ",NA,NA,NA
"150","del",74,27,"SRR3698451.2778",TRUE,TRUE,1,0.0962463907603465,"NHEJ",NA,NA,NA
"151","del",74,28,"SRR3698451.153",TRUE,TRUE,3,0.288739172281039,"G",NA,NA,NA
"152","del",74,28,"SRR3698451.4177",TRUE,TRUE,3,0.288739172281039,"G",NA,NA,NA
"153","del",74,28,"SRR3698451.4801",TRUE,TRUE,3,0.288739172281039,"G",NA,NA,NA
"154","del",74,33,"SRR3698451.2352",TRUE,TRUE,1,0.0962463907603465,"NHEJ",NA,NA,NA
"155","del",74,35,"SRR3698451.1458",TRUE,TRUE,1,0.0962463907603465,"GG",NA,NA,NA
"156","del",74,36,"SRR3698451.488",TRUE,TRUE,1,0.0962463907603465,"G",NA,NA,NA
"157","del",75,15,"SRR3698451.1359",TRUE,TRUE,6,0.577478344562079,"NHEJ",NA,NA,NA
"158","del",75,15,"SRR3698451.2284",TRUE,TRUE,6,0.577478344562079,"NHEJ",NA,NA,NA
"159","del",75,15,"SRR3698451.3151",TRUE,TRUE,6,0.577478344562079,"NHEJ",NA,NA,NA
"160","del",75,15,"SRR3698451.3282",TRUE,TRUE,6,0.577478344562079,"NHEJ",NA,NA,NA
"161","del",75,15,"SRR3698451.4990",TRUE,TRUE,6,0.577478344562079,"NHEJ",NA,NA,NA
"162","del",75,15,"SRR3698451.5097",TRUE,TRUE,6,0.577478344562079,"NHEJ",NA,NA,NA
"163","del",75,20,"SRR3698451.1400",TRUE,TRUE,1,0.0962463907603465,"G",NA,NA,NA
"164","del",75,27,"SRR3698451.508",TRUE,TRUE,1,0.0962463907603465,"G",NA,NA,NA
"165","del",75,34,"SRR3698451.1889",TRUE,TRUE,4,0.384985563041386,"G",NA,NA,NA
"166","del",75,34,"SRR3698451.2194",TRUE,TRUE,4,0.384985563041386,"G",NA,NA,NA
"167","del",75,34,"SRR3698451.475",TRUE,TRUE,4,0.384985563041386,"G",NA,NA,NA
"168","del",75,34,"SRR3698451.4837",TRUE,TRUE,4,0.384985563041386,"G",NA,NA,NA
"169","del",75,56,"SRR3698451.2755",TRUE,TRUE,1,0.0962463907603465,"GAG",NA,NA,NA
"170","del",76,18,"SRR3698451.2120",TRUE,TRUE,5,0.481231953801732,"AG",NA,NA,NA
"171","del",76,18,"SRR3698451.4902",TRUE,TRUE,5,0.481231953801732,"AG",NA,NA,NA
"172","del",76,18,"SRR3698451.5050",TRUE,TRUE,5,0.481231953801732,"AG",NA,NA,NA
"173","del",76,18,"SRR3698451.6304",TRUE,TRUE,5,0.481231953801732,"AG",NA,NA,NA
"174","del",76,18,"SRR3698451.635",TRUE,TRUE,5,0.481231953801732,"AG",NA,NA,NA
"175","del",76,23,"SRR3698451.1270",TRUE,TRUE,9,0.866217516843118,"A",NA,NA,NA
"176","del",76,23,"SRR3698451.1659",TRUE,TRUE,9,0.866217516843118,"A",NA,NA,NA
"177","del",76,23,"SRR3698451.2837",TRUE,TRUE,9,0.866217516843118,"A",NA,NA,NA
"178","del",76,23,"SRR3698451.3873",TRUE,TRUE,9,0.866217516843118,"A",NA,NA,NA
"179","del",76,23,"SRR3698451.3999",TRUE,TRUE,9,0.866217516843118,"A",NA,NA,NA
"180","del",76,23,"SRR3698451.4182",TRUE,TRUE,9,0.866217516843118,"A",NA,NA,NA
"181","del",76,23,"SRR3698451.4277",TRUE,TRUE,9,0.866217516843118,"A",NA,NA,NA
"182","del",76,23,"SRR3698451.590",TRUE,TRUE,9,0.866217516843118,"A",NA,NA,NA
"183","del",76,23,"SRR3698451.6434",TRUE,TRUE,9,0.866217516843118,"A",NA,NA,NA
"184","del",76,24,"SRR3698451.2677",TRUE,TRUE,5,0.481231953801732,"A",NA,NA,NA
"185","del",76,24,"SRR3698451.3233",TRUE,TRUE,5,0.481231953801732,"A",NA,NA,NA
"186","del",76,24,"SRR3698451.4405",TRUE,TRUE,5,0.481231953801732,"A",NA,NA,NA
"187","del",76,24,"SRR3698451.4778",TRUE,TRUE,5,0.481231953801732,"A",NA,NA,NA
"188","del",76,24,"SRR3698451.6082",TRUE,TRUE,5,0.481231953801732,"A",NA,NA,NA
"189","del",76,25,"SRR3698451.1091",TRUE,TRUE,26,2.50240615976901,"AGCC",NA,NA,NA
"190","del",76,25,"SRR3698451.1180",TRUE,TRUE,26,2.50240615976901,"AGCC",NA,NA,NA
"191","del",76,25,"SRR3698451.2135",TRUE,TRUE,26,2.50240615976901,"AGCC",NA,NA,NA
"192","del",76,25,"SRR3698451.2643",TRUE,TRUE,26,2.50240615976901,"AGCC",NA,NA,NA
"193","del",76,25,"SRR3698451.2646",TRUE,TRUE,26,2.50240615976901,"AGCC",NA,NA,NA
"194","del",76,25,"SRR3698451.3019",TRUE,TRUE,26,2.50240615976901,"AGCC",NA,NA,NA
"195","del",76,25,"SRR3698451.313",TRUE,TRUE,26,2.50240615976901,"AGCC",NA,NA,NA
"196","del",76,25,"SRR3698451.3133",TRUE,TRUE,26,2.50240615976901,"AGCC",NA,NA,NA
"197","del",76,25,"SRR3698451.331",TRUE,TRUE,26,2.50240615976901,"AGCC",NA,NA,NA
"198","del",76,25,"SRR3698451.3579",TRUE,TRUE,26,2.50240615976901,"AGCC",NA,NA,NA
"199","del",76,25,"SRR3698451.3820",TRUE,TRUE,26,2.50240615976901,"AGCC",NA,NA,NA
"200","del",76,25,"SRR3698451.3884",TRUE,TRUE,26,2.50240615976901,"AGCC",NA,NA,NA
"201","del",76,25,"SRR3698451.4111",TRUE,TRUE,26,2.50240615976901,"AGCC",NA,NA,NA
"202","del",76,25,"SRR3698451.4355",TRUE,TRUE,26,2.50240615976901,"AGCC",NA,NA,NA
"203","del",76,25,"SRR3698451.445",TRUE,TRUE,26,2.50240615976901,"AGCC",NA,NA,NA
"204","del",76,25,"SRR3698451.4651",TRUE,TRUE,26,2.50240615976901,"AGCC",NA,NA,NA
"205","del",76,25,"SRR3698451.4797",TRUE,TRUE,26,2.50240615976901,"AGCC",NA,NA,NA
"206","del",76,25,"SRR3698451.4930",TRUE,TRUE,26,2.50240615976901,"AGCC",NA,NA,NA
"207","del",76,25,"SRR3698451.5469",TRUE,TRUE,26,2.50240615976901,"AGCC",NA,NA,NA
"208","del",76,25,"SRR3698451.56",TRUE,TRUE,26,2.50240615976901,"AGCC",NA,NA,NA
"209","del",76,25,"SRR3698451.5612",TRUE,TRUE,26,2.50240615976901,"AGCC",NA,NA,NA
"210","del",76,25,"SRR3698451.5677",TRUE,TRUE,26,2.50240615976901,"AGCC",NA,NA,NA
"211","del",76,25,"SRR3698451.5911",TRUE,TRUE,26,2.50240615976901,"AGCC",NA,NA,NA
"212","del",76,25,"SRR3698451.5915",TRUE,TRUE,26,2.50240615976901,"AGCC",NA,NA,NA
"213","del",76,25,"SRR3698451.6123",TRUE,TRUE,26,2.50240615976901,"AGCC",NA,NA,NA
"214","del",76,25,"SRR3698451.860",TRUE,TRUE,26,2.50240615976901,"AGCC",NA,NA,NA
"215","del",77,11,"SRR3698451.5452",TRUE,TRUE,1,0.0962463907603465,"GCC",NA,NA,NA
"216","del",77,20,"SRR3698451.132",TRUE,TRUE,1,0.0962463907603465,"NHEJ",NA,NA,NA
"217","del",77,29,"SRR3698451.3182",TRUE,TRUE,5,0.481231953801732,"GC",NA,NA,NA
"218","del",77,29,"SRR3698451.3635",TRUE,TRUE,5,0.481231953801732,"GC",NA,NA,NA
"219","del",77,29,"SRR3698451.3852",TRUE,TRUE,5,0.481231953801732,"GC",NA,NA,NA
"220","del",77,29,"SRR3698451.5328",TRUE,TRUE,5,0.481231953801732,"GC",NA,NA,NA
"221","del",77,29,"SRR3698451.6074",TRUE,TRUE,5,0.481231953801732,"GC",NA,NA,NA
"222","del",77,33,"SRR3698451.2832",TRUE,TRUE,1,0.0962463907603465,"G",NA,NA,NA
"223","del",78,12,"SRR3698451.5154",TRUE,TRUE,1,0.0962463907603465,"C",NA,NA,NA
"224","del",78,14,"SRR3698451.4585",TRUE,TRUE,1,0.0962463907603465,"NHEJ",NA,NA,NA
"225","del",78,15,"SRR3698451.2131",TRUE,TRUE,1,0.0962463907603465,"C",NA,NA,NA
"226","del",78,16,"SRR3698451.810",TRUE,TRUE,1,0.0962463907603465,"NHEJ",NA,NA,NA
"227","del",78,20,"SRR3698451.1899",TRUE,TRUE,9,0.866217516843118,"C",NA,NA,NA
"228","del",78,20,"SRR3698451.1984",TRUE,TRUE,9,0.866217516843118,"C",NA,NA,NA
"229","del",78,20,"SRR3698451.2224",TRUE,TRUE,9,0.866217516843118,"C",NA,NA,NA
"230","del",78,20,"SRR3698451.3648",TRUE,TRUE,9,0.866217516843118,"C",NA,NA,NA
"231","del",78,20,"SRR3698451.4046",TRUE,TRUE,9,0.866217516843118,"C",NA,NA,NA
"232","del",78,20,"SRR3698451.4386",TRUE,TRUE,9,0.866217516843118,"C",NA,NA,NA
"233","del",78,20,"SRR3698451.6050",TRUE,TRUE,9,0.866217516843118,"C",NA,NA,NA
"234","del",78,20,"SRR3698451.685",TRUE,TRUE,9,0.866217516843118,"C",NA,NA,NA
"235","del",78,20,"SRR3698451.861",TRUE,TRUE,9,0.866217516843118,"C",NA,NA,NA
"236","del",78,22,"SRR3698451.4322",TRUE,TRUE,3,0.288739172281039,"NHEJ",NA,NA,NA
"237","del",78,22,"SRR3698451.4901",TRUE,TRUE,3,0.288739172281039,"NHEJ",NA,NA,NA
"238","del",78,22,"SRR3698451.679",TRUE,TRUE,3,0.288739172281039,"NHEJ",NA,NA,NA
"239","del",78,26,"SRR3698451.1291",TRUE,TRUE,2,0.192492781520693,"C",NA,NA,NA
"240","del",78,26,"SRR3698451.2640",TRUE,TRUE,2,0.192492781520693,"C",NA,NA,NA
"241","del",79,14,"SRR3698451.1147",TRUE,TRUE,14,1.34744947064485,"CAG",NA,NA,NA
"242","del",79,14,"SRR3698451.1221",TRUE,TRUE,14,1.34744947064485,"CAG",NA,NA,NA
"243","del",79,14,"SRR3698451.1324",TRUE,TRUE,14,1.34744947064485,"CAG",NA,NA,NA
"244","del",79,14,"SRR3698451.15",TRUE,TRUE,14,1.34744947064485,"CAG",NA,NA,NA
"245","del",79,14,"SRR3698451.1678",TRUE,TRUE,14,1.34744947064485,"CAG",NA,NA,NA
"246","del",79,14,"SRR3698451.2159",TRUE,TRUE,14,1.34744947064485,"CAG",NA,NA,NA
"247","del",79,14,"SRR3698451.2386",TRUE,TRUE,14,1.34744947064485,"CAG",NA,NA,NA
"248","del",79,14,"SRR3698451.262",TRUE,TRUE,14,1.34744947064485,"CAG",NA,NA,NA
"249","del",79,14,"SRR3698451.3053",TRUE,TRUE,14,1.34744947064485,"CAG",NA,NA,NA
"250","del",79,14,"SRR3698451.3818",TRUE,TRUE,14,1.34744947064485,"CAG",NA,NA,NA
"251","del",79,14,"SRR3698451.5033",TRUE,TRUE,14,1.34744947064485,"CAG",NA,NA,NA
"252","del",79,14,"SRR3698451.5473",TRUE,TRUE,14,1.34744947064485,"CAG",NA,NA,NA
"253","del",79,14,"SRR3698451.5481",TRUE,TRUE,14,1.34744947064485,"CAG",NA,NA,NA
"254","del",79,14,"SRR3698451.579",TRUE,TRUE,14,1.34744947064485,"CAG",NA,NA,NA
"255","del",79,19,"SRR3698451.114",TRUE,TRUE,8,0.769971126082772,"CA",NA,NA,NA
"256","del",79,19,"SRR3698451.1755",TRUE,TRUE,8,0.769971126082772,"CA",NA,NA,NA
"257","del",79,19,"SRR3698451.2011",TRUE,TRUE,8,0.769971126082772,"CA",NA,NA,NA
"258","del",79,19,"SRR3698451.3474",TRUE,TRUE,8,0.769971126082772,"CA",NA,NA,NA
"259","del",79,19,"SRR3698451.4682",TRUE,TRUE,8,0.769971126082772,"CA",NA,NA,NA
"260","del",79,19,"SRR3698451.5627",TRUE,TRUE,8,0.769971126082772,"CA",NA,NA,NA
"261","del",79,19,"SRR3698451.754",TRUE,TRUE,8,0.769971126082772,"CA",NA,NA,NA
"262","del",79,19,"SRR3698451.818",TRUE,TRUE,8,0.769971126082772,"CA",NA,NA,NA
"263","del",79,21,"SRR3698451.1053",TRUE,TRUE,4,0.384985563041386,"NHEJ",NA,NA,NA
"264","del",79,21,"SRR3698451.1934",TRUE,TRUE,4,0.384985563041386,"NHEJ",NA,NA,NA
"265","del",79,21,"SRR3698451.487",TRUE,TRUE,4,0.384985563041386,"NHEJ",NA,NA,NA
"266","del",79,21,"SRR3698451.5807",TRUE,TRUE,4,0.384985563041386,"NHEJ",NA,NA,NA
"267","del",79,28,"SRR3698451.2186",TRUE,TRUE,13,1.2512030798845,"CAG",NA,NA,NA
"268","del",79,28,"SRR3698451.2871",TRUE,TRUE,13,1.2512030798845,"CAG",NA,NA,NA
"269","del",79,28,"SRR3698451.3130",TRUE,TRUE,13,1.2512030798845,"CAG",NA,NA,NA
"270","del",79,28,"SRR3698451.3255",TRUE,TRUE,13,1.2512030798845,"CAG",NA,NA,NA
"271","del",79,28,"SRR3698451.4661",TRUE,TRUE,13,1.2512030798845,"CAG",NA,NA,NA
"272","del",79,28,"SRR3698451.5029",TRUE,TRUE,13,1.2512030798845,"CAG",NA,NA,NA
"273","del",79,28,"SRR3698451.5330",TRUE,TRUE,13,1.2512030798845,"CAG",NA,NA,NA
"274","del",79,28,"SRR3698451.5730",TRUE,TRUE,13,1.2512030798845,"CAG",NA,NA,NA
"275","del",79,28,"SRR3698451.6246",TRUE,TRUE,13,1.2512030798845,"CAG",NA,NA,NA
"276","del",79,28,"SRR3698451.6415",TRUE,TRUE,13,1.2512030798845,"CAG",NA,NA,NA
"277","del",79,28,"SRR3698451.6439",TRUE,TRUE,13,1.2512030798845,"CAG",NA,NA,NA
"278","del",79,28,"SRR3698451.69",TRUE,TRUE,13,1.2512030798845,"CAG",NA,NA,NA
"279","del",79,28,"SRR3698451.874",TRUE,TRUE,13,1.2512030798845,"CAG",NA,NA,NA
"280","del",80,12,"SRR3698451.1980",TRUE,TRUE,3,0.288739172281039,"NHEJ",NA,NA,NA
"281","del",80,12,"SRR3698451.2582",TRUE,TRUE,3,0.288739172281039,"NHEJ",NA,NA,NA
"282","del",80,12,"SRR3698451.2965",TRUE,TRUE,3,0.288739172281039,"NHEJ",NA,NA,NA
"283","del",80,17,"SRR3698451.1908",TRUE,TRUE,3,0.288739172281039,"A",NA,NA,NA
"284","del",80,17,"SRR3698451.2167",TRUE,TRUE,3,0.288739172281039,"A",NA,NA,NA
"285","del",80,17,"SRR3698451.6398",TRUE,TRUE,3,0.288739172281039,"A",NA,NA,NA
"286","del",80,20,"SRR3698451.2237",TRUE,TRUE,2,0.192492781520693,"A",NA,NA,NA
"287","del",80,20,"SRR3698451.75",TRUE,TRUE,2,0.192492781520693,"A",NA,NA,NA
"288","del",80,21,"SRR3698451.1375",TRUE,TRUE,57,5.48604427333975,"AGCC",NA,NA,NA
"289","del",80,21,"SRR3698451.1421",TRUE,TRUE,57,5.48604427333975,"AGCC",NA,NA,NA
"290","del",80,21,"SRR3698451.1474",TRUE,TRUE,57,5.48604427333975,"AGCC",NA,NA,NA
"291","del",80,21,"SRR3698451.1515",TRUE,TRUE,57,5.48604427333975,"AGCC",NA,NA,NA
"292","del",80,21,"SRR3698451.1576",TRUE,TRUE,57,5.48604427333975,"AGCC",NA,NA,NA
"293","del",80,21,"SRR3698451.1965",TRUE,TRUE,57,5.48604427333975,"AGCC",NA,NA,NA
"294","del",80,21,"SRR3698451.2020",TRUE,TRUE,57,5.48604427333975,"AGCC",NA,NA,NA
"295","del",80,21,"SRR3698451.232",TRUE,TRUE,57,5.48604427333975,"AGCC",NA,NA,NA
"296","del",80,21,"SRR3698451.237",TRUE,TRUE,57,5.48604427333975,"AGCC",NA,NA,NA
"297","del",80,21,"SRR3698451.2424",TRUE,TRUE,57,5.48604427333975,"AGCC",NA,NA,NA
"298","del",80,21,"SRR3698451.2447",TRUE,TRUE,57,5.48604427333975,"AGCC",NA,NA,NA
"299","del",80,21,"SRR3698451.2698",TRUE,TRUE,57,5.48604427333975,"AGCC",NA,NA,NA
"300","del",80,21,"SRR3698451.2822",TRUE,TRUE,57,5.48604427333975,"AGCC",NA,NA,NA
"301","del",80,21,"SRR3698451.2953",TRUE,TRUE,57,5.48604427333975,"AGCC",NA,NA,NA
"302","del",80,21,"SRR3698451.2963",TRUE,TRUE,57,5.48604427333975,"AGCC",NA,NA,NA
"303","del",80,21,"SRR3698451.2977",TRUE,TRUE,57,5.48604427333975,"AGCC",NA,NA,NA
"304","del",80,21,"SRR3698451.3058",TRUE,TRUE,57,5.48604427333975,"AGCC",NA,NA,NA
"305","del",80,21,"SRR3698451.3181",TRUE,TRUE,57,5.48604427333975,"AGCC",NA,NA,NA
"306","del",80,21,"SRR3698451.3340",TRUE,TRUE,57,5.48604427333975,"AGCC",NA,NA,NA
"307","del",80,21,"SRR3698451.3434",TRUE,TRUE,57,5.48604427333975,"AGCC",NA,NA,NA
"308","del",80,21,"SRR3698451.3612",TRUE,TRUE,57,5.48604427333975,"AGCC",NA,NA,NA
"309","del",80,21,"SRR3698451.3633",TRUE,TRUE,57,5.48604427333975,"AGCC",NA,NA,NA
"310","del",80,21,"SRR3698451.3687",TRUE,TRUE,57,5.48604427333975,"AGCC",NA,NA,NA
"311","del",80,21,"SRR3698451.3715",TRUE,TRUE,57,5.48604427333975,"AGCC",NA,NA,NA
"312","del",80,21,"SRR3698451.3970",TRUE,TRUE,57,5.48604427333975,"AGCC",NA,NA,NA
"313","del",80,21,"SRR3698451.3977",TRUE,TRUE,57,5.48604427333975,"AGCC",NA,NA,NA
"314","del",80,21,"SRR3698451.4019",TRUE,TRUE,57,5.48604427333975,"AGCC",NA,NA,NA
"315","del",80,21,"SRR3698451.4212",TRUE,TRUE,57,5.48604427333975,"AGCC",NA,NA,NA
"316","del",80,21,"SRR3698451.4236",TRUE,TRUE,57,5.48604427333975,"AGCC",NA,NA,NA
"317","del",80,21,"SRR3698451.4269",TRUE,TRUE,57,5.48604427333975,"AGCC",NA,NA,NA
"318","del",80,21,"SRR3698451.4376",TRUE,TRUE,57,5.48604427333975,"AGCC",NA,NA,NA
"319","del",80,21,"SRR3698451.4437",TRUE,TRUE,57,5.48604427333975,"AGCC",NA,NA,NA
"320","del",80,21,"SRR3698451.4452",TRUE,TRUE,57,5.48604427333975,"AGCC",NA,NA,NA
"321","del",80,21,"SRR3698451.4480",TRUE,TRUE,57,5.48604427333975,"AGCC",NA,NA,NA
"322","del",80,21,"SRR3698451.4695",TRUE,TRUE,57,5.48604427333975,"AGCC",NA,NA,NA
"323","del",80,21,"SRR3698451.4830",TRUE,TRUE,57,5.48604427333975,"AGCC",NA,NA,NA
"324","del",80,21,"SRR3698451.4874",TRUE,TRUE,57,5.48604427333975,"AGCC",NA,NA,NA
"325","del",80,21,"SRR3698451.4877",TRUE,TRUE,57,5.48604427333975,"AGCC",NA,NA,NA
"326","del",80,21,"SRR3698451.4912",TRUE,TRUE,57,5.48604427333975,"AGCC",NA,NA,NA
"327","del",80,21,"SRR3698451.5155",TRUE,TRUE,57,5.48604427333975,"AGCC",NA,NA,NA
"328","del",80,21,"SRR3698451.5168",TRUE,TRUE,57,5.48604427333975,"AGCC",NA,NA,NA
"329","del",80,21,"SRR3698451.5194",TRUE,TRUE,57,5.48604427333975,"AGCC",NA,NA,NA
"330","del",80,21,"SRR3698451.5297",TRUE,TRUE,57,5.48604427333975,"AGCC",NA,NA,NA
"331","del",80,21,"SRR3698451.5324",TRUE,TRUE,57,5.48604427333975,"AGCC",NA,NA,NA
"332","del",80,21,"SRR3698451.5331",TRUE,TRUE,57,5.48604427333975,"AGCC",NA,NA,NA
"333","del",80,21,"SRR3698451.5432",TRUE,TRUE,57,5.48604427333975,"AGCC",NA,NA,NA
"334","del",80,21,"SRR3698451.5633",TRUE,TRUE,57,5.48604427333975,"AGCC",NA,NA,NA
"335","del",80,21,"SRR3698451.5802",TRUE,TRUE,57,5.48604427333975,"AGCC",NA,NA,NA
"336","del",80,21,"SRR3698451.5869",TRUE,TRUE,57,5.48604427333975,"AGCC",NA,NA,NA
"337","del",80,21,"SRR3698451.5877",TRUE,TRUE,57,5.48604427333975,"AGCC",NA,NA,NA
"338","del",80,21,"SRR3698451.5902",TRUE,TRUE,57,5.48604427333975,"AGCC",NA,NA,NA
"339","del",80,21,"SRR3698451.5991",TRUE,TRUE,57,5.48604427333975,"AGCC",NA,NA,NA
"340","del",80,21,"SRR3698451.6258",TRUE,TRUE,57,5.48604427333975,"AGCC",NA,NA,NA
"341","del",80,21,"SRR3698451.647",TRUE,TRUE,57,5.48604427333975,"AGCC",NA,NA,NA
"342","del",80,21,"SRR3698451.711",TRUE,TRUE,57,5.48604427333975,"AGCC",NA,NA,NA
"343","del",80,21,"SRR3698451.791",TRUE,TRUE,57,5.48604427333975,"AGCC",NA,NA,NA
"344","del",80,21,"SRR3698451.883",TRUE,TRUE,57,5.48604427333975,"AGCC",NA,NA,NA
"345","del",80,22,"SRR3698451.3511",TRUE,TRUE,2,0.192492781520693,"NHEJ",NA,NA,NA
"346","del",80,22,"SRR3698451.4938",TRUE,TRUE,2,0.192492781520693,"NHEJ",NA,NA,NA
"347","del",80,26,"SRR3698451.3506",TRUE,TRUE,3,0.288739172281039,"NHEJ",NA,NA,NA
"348","del",80,26,"SRR3698451.5078",TRUE,TRUE,3,0.288739172281039,"NHEJ",NA,NA,NA
"349","del",80,26,"SRR3698451.5929",TRUE,TRUE,3,0.288739172281039,"NHEJ",NA,NA,NA
"350","del",80,29,"SRR3698451.4160",TRUE,TRUE,2,0.192492781520693,"NHEJ",NA,NA,NA
"351","del",80,29,"SRR3698451.5427",TRUE,TRUE,2,0.192492781520693,"NHEJ",NA,NA,NA
"352","del",81,7,"SRR3698451.1328",TRUE,TRUE,7,0.673724735322425,"GCC",NA,NA,NA
"353","del",81,7,"SRR3698451.1757",TRUE,TRUE,7,0.673724735322425,"GCC",NA,NA,NA
"354","del",81,7,"SRR3698451.178",TRUE,TRUE,7,0.673724735322425,"GCC",NA,NA,NA
"355","del",81,7,"SRR3698451.3083",TRUE,TRUE,7,0.673724735322425,"GCC",NA,NA,NA
"356","del",81,7,"SRR3698451.4730",TRUE,TRUE,7,0.673724735322425,"GCC",NA,NA,NA
"357","del",81,7,"SRR3698451.5289",TRUE,TRUE,7,0.673724735322425,"GCC",NA,NA,NA
"358","del",81,7,"SRR3698451.5306",TRUE,TRUE,7,0.673724735322425,"GCC",NA,NA,NA
"359","del",81,15,"SRR3698451.2449",TRUE,TRUE,5,0.481231953801732,"G",NA,NA,NA
"360","del",81,15,"SRR3698451.3588",TRUE,TRUE,5,0.481231953801732,"G",NA,NA,NA
"361","del",81,15,"SRR3698451.46",TRUE,TRUE,5,0.481231953801732,"G",NA,NA,NA
"362","del",81,15,"SRR3698451.5513",TRUE,TRUE,5,0.481231953801732,"G",NA,NA,NA
"363","del",81,15,"SRR3698451.5845",TRUE,TRUE,5,0.481231953801732,"G",NA,NA,NA
"364","del",81,22,"SRR3698451.3391",TRUE,TRUE,3,0.288739172281039,"NHEJ",NA,NA,NA
"365","del",81,22,"SRR3698451.3636",TRUE,TRUE,3,0.288739172281039,"NHEJ",NA,NA,NA
"366","del",81,22,"SRR3698451.4956",TRUE,TRUE,3,0.288739172281039,"NHEJ",NA,NA,NA
"367","del",81,25,"SRR3698451.1012",TRUE,TRUE,28,2.6948989412897,"GC",NA,NA,NA
"368","del",81,25,"SRR3698451.1170",TRUE,TRUE,28,2.6948989412897,"GC",NA,NA,NA
"369","del",81,25,"SRR3698451.146",TRUE,TRUE,28,2.6948989412897,"GC",NA,NA,NA
"370","del",81,25,"SRR3698451.1465",TRUE,TRUE,28,2.6948989412897,"GC",NA,NA,NA
"371","del",81,25,"SRR3698451.1503",TRUE,TRUE,28,2.6948989412897,"GC",NA,NA,NA
"372","del",81,25,"SRR3698451.1750",TRUE,TRUE,28,2.6948989412897,"GC",NA,NA,NA
"373","del",81,25,"SRR3698451.2058",TRUE,TRUE,28,2.6948989412897,"GC",NA,NA,NA
"374","del",81,25,"SRR3698451.2393",TRUE,TRUE,28,2.6948989412897,"GC",NA,NA,NA
"375","del",81,25,"SRR3698451.3050",TRUE,TRUE,28,2.6948989412897,"GC",NA,NA,NA
"376","del",81,25,"SRR3698451.3443",TRUE,TRUE,28,2.6948989412897,"GC",NA,NA,NA
"377","del",81,25,"SRR3698451.3534",TRUE,TRUE,28,2.6948989412897,"GC",NA,NA,NA
"378","del",81,25,"SRR3698451.374",TRUE,TRUE,28,2.6948989412897,"GC",NA,NA,NA
"379","del",81,25,"SRR3698451.38",TRUE,TRUE,28,2.6948989412897,"GC",NA,NA,NA
"380","del",81,25,"SRR3698451.416",TRUE,TRUE,28,2.6948989412897,"GC",NA,NA,NA
"381","del",81,25,"SRR3698451.4621",TRUE,TRUE,28,2.6948989412897,"GC",NA,NA,NA
"382","del",81,25,"SRR3698451.4759",TRUE,TRUE,28,2.6948989412897,"GC",NA,NA,NA
"383","del",81,25,"SRR3698451.5169",TRUE,TRUE,28,2.6948989412897,"GC",NA,NA,NA
"384","del",81,25,"SRR3698451.523",TRUE,TRUE,28,2.6948989412897,"GC",NA,NA,NA
"385","del",81,25,"SRR3698451.5245",TRUE,TRUE,28,2.6948989412897,"GC",NA,NA,NA
"386","del",81,25,"SRR3698451.5526",TRUE,TRUE,28,2.6948989412897,"GC",NA,NA,NA
"387","del",81,25,"SRR3698451.5540",TRUE,TRUE,28,2.6948989412897,"GC",NA,NA,NA
"388","del",81,25,"SRR3698451.5567",TRUE,TRUE,28,2.6948989412897,"GC",NA,NA,NA
"389","del",81,25,"SRR3698451.5576",TRUE,TRUE,28,2.6948989412897,"GC",NA,NA,NA
"390","del",81,25,"SRR3698451.5839",TRUE,TRUE,28,2.6948989412897,"GC",NA,NA,NA
"391","del",81,25,"SRR3698451.6049",TRUE,TRUE,28,2.6948989412897,"GC",NA,NA,NA
"392","del",81,25,"SRR3698451.6100",TRUE,TRUE,28,2.6948989412897,"GC",NA,NA,NA
"393","del",81,25,"SRR3698451.6379",TRUE,TRUE,28,2.6948989412897,"GC",NA,NA,NA
"394","del",81,25,"SRR3698451.956",TRUE,TRUE,28,2.6948989412897,"GC",NA,NA,NA
"395","del",81,29,"SRR3698451.2937",TRUE,TRUE,2,0.192492781520693,"G",NA,NA,NA
"396","del",81,29,"SRR3698451.3095",TRUE,TRUE,2,0.192492781520693,"G",NA,NA,NA
"397","del",82,1,"SRR3698451.1660",TRUE,TRUE,4,0.384985563041386,"C",NA,NA,NA
"398","del",82,1,"SRR3698451.5360",TRUE,TRUE,4,0.384985563041386,"C",NA,NA,NA
"399","del",82,1,"SRR3698451.5672",TRUE,TRUE,4,0.384985563041386,"C",NA,NA,NA
"400","del",82,1,"SRR3698451.6425",TRUE,TRUE,4,0.384985563041386,"C",NA,NA,NA
"401","del",82,8,"SRR3698451.1493",TRUE,TRUE,7,0.673724735322425,"C",NA,NA,NA
"402","del",82,8,"SRR3698451.2034",TRUE,TRUE,7,0.673724735322425,"C",NA,NA,NA
"403","del",82,8,"SRR3698451.2675",TRUE,TRUE,7,0.673724735322425,"C",NA,NA,NA
"404","del",82,8,"SRR3698451.3447",TRUE,TRUE,7,0.673724735322425,"C",NA,NA,NA
"405","del",82,8,"SRR3698451.3824",TRUE,TRUE,7,0.673724735322425,"C",NA,NA,NA
"406","del",82,8,"SRR3698451.5359",TRUE,TRUE,7,0.673724735322425,"C",NA,NA,NA
"407","del",82,8,"SRR3698451.644",TRUE,TRUE,7,0.673724735322425,"C",NA,NA,NA
"408","del",82,9,"SRR3698451.2081",TRUE,TRUE,5,0.481231953801732,"NHEJ",NA,NA,NA
"409","del",82,9,"SRR3698451.2296",TRUE,TRUE,5,0.481231953801732,"NHEJ",NA,NA,NA
"410","del",82,9,"SRR3698451.2662",TRUE,TRUE,5,0.481231953801732,"NHEJ",NA,NA,NA
"411","del",82,9,"SRR3698451.2756",TRUE,TRUE,5,0.481231953801732,"NHEJ",NA,NA,NA
"412","del",82,9,"SRR3698451.4743",TRUE,TRUE,5,0.481231953801732,"NHEJ",NA,NA,NA
"413","del",82,11,"SRR3698451.1699",TRUE,TRUE,4,0.384985563041386,"C",NA,NA,NA
"414","del",82,11,"SRR3698451.2292",TRUE,TRUE,4,0.384985563041386,"C",NA,NA,NA
"415","del",82,11,"SRR3698451.4790",TRUE,TRUE,4,0.384985563041386,"C",NA,NA,NA
"416","del",82,11,"SRR3698451.5030",TRUE,TRUE,4,0.384985563041386,"C",NA,NA,NA
"417","del",82,16,"SRR3698451.1290",TRUE,TRUE,2,0.192492781520693,"C",NA,NA,NA
"418","del",82,16,"SRR3698451.4994",TRUE,TRUE,2,0.192492781520693,"C",NA,NA,NA
"419","del",82,22,"SRR3698451.2010",TRUE,TRUE,2,0.192492781520693,"C",NA,NA,NA
"420","del",82,22,"SRR3698451.2437",TRUE,TRUE,2,0.192492781520693,"C",NA,NA,NA
"421","del",82,31,"SRR3698451.1199",TRUE,TRUE,3,0.288739172281039,"C",NA,NA,NA
"422","del",82,31,"SRR3698451.2894",TRUE,TRUE,3,0.288739172281039,"C",NA,NA,NA
"423","del",82,31,"SRR3698451.4017",TRUE,TRUE,3,0.288739172281039,"C",NA,NA,NA
"424","del",83,6,"SRR3698451.1570",TRUE,TRUE,2,0.192492781520693,"CC",NA,NA,NA
"425","del",83,6,"SRR3698451.1706",TRUE,TRUE,2,0.192492781520693,"CC",NA,NA,NA
"426","del",83,10,"SRR3698451.5356",TRUE,TRUE,2,0.192492781520693,"C",NA,NA,NA
"427","del",83,10,"SRR3698451.5800",TRUE,TRUE,2,0.192492781520693,"C",NA,NA,NA
"428","del",83,13,"SRR3698451.3462",TRUE,TRUE,3,0.288739172281039,"NHEJ",NA,NA,NA
"429","del",83,13,"SRR3698451.5631",TRUE,TRUE,3,0.288739172281039,"NHEJ",NA,NA,NA
"430","del",83,13,"SRR3698451.6409",TRUE,TRUE,3,0.288739172281039,"NHEJ",NA,NA,NA
"431","del",83,14,"SRR3698451.2183",TRUE,TRUE,3,0.288739172281039,"NHEJ",NA,NA,NA
"432","del",83,14,"SRR3698451.4506",TRUE,TRUE,3,0.288739172281039,"NHEJ",NA,NA,NA
"433","del",83,14,"SRR3698451.764",TRUE,TRUE,3,0.288739172281039,"NHEJ",NA,NA,NA
"434","del",83,15,"SRR3698451.1398",TRUE,TRUE,2,0.192492781520693,"C",NA,NA,NA
"435","del",83,15,"SRR3698451.5222",TRUE,TRUE,2,0.192492781520693,"C",NA,NA,NA
"436","del",83,17,"SRR3698451.1216",TRUE,TRUE,1,0.0962463907603465,"NHEJ",NA,NA,NA
"437","del",83,18,"SRR3698451.5314",TRUE,TRUE,1,0.0962463907603465,"NHEJ",NA,NA,NA
"438","del",83,20,"SRR3698451.1405",TRUE,TRUE,1,0.0962463907603465,"CC",NA,NA,NA
"439","del",83,24,"SRR3698451.2753",TRUE,TRUE,6,0.577478344562079,"C",NA,NA,NA
"440","del",83,24,"SRR3698451.3426",TRUE,TRUE,6,0.577478344562079,"C",NA,NA,NA
"441","del",83,24,"SRR3698451.5018",TRUE,TRUE,6,0.577478344562079,"C",NA,NA,NA
"442","del",83,24,"SRR3698451.5240",TRUE,TRUE,6,0.577478344562079,"C",NA,NA,NA
"443","del",83,24,"SRR3698451.5364",TRUE,TRUE,6,0.577478344562079,"C",NA,NA,NA
"444","del",83,24,"SRR3698451.6247",TRUE,TRUE,6,0.577478344562079,"C",NA,NA,NA
"445","del",83,26,"SRR3698451.6354",TRUE,TRUE,1,0.0962463907603465,"NHEJ",NA,NA,NA
"446","del",83,29,"SRR3698451.1798",TRUE,TRUE,3,0.288739172281039,"NHEJ",NA,NA,NA
"447","del",83,29,"SRR3698451.2522",TRUE,TRUE,3,0.288739172281039,"NHEJ",NA,NA,NA
"448","del",83,29,"SRR3698451.4164",TRUE,TRUE,3,0.288739172281039,"NHEJ",NA,NA,NA
"449","del",83,43,"SRR3698451.1507",TRUE,TRUE,6,0.577478344562079,"NHEJ",NA,NA,NA
"450","del",83,43,"SRR3698451.1970",TRUE,TRUE,6,0.577478344562079,"NHEJ",NA,NA,NA
"451","del",83,43,"SRR3698451.4109",TRUE,TRUE,6,0.577478344562079,"NHEJ",NA,NA,NA
"452","del",83,43,"SRR3698451.4729",TRUE,TRUE,6,0.577478344562079,"NHEJ",NA,NA,NA
"453","del",83,43,"SRR3698451.5592",TRUE,TRUE,6,0.577478344562079,"NHEJ",NA,NA,NA
"454","del",83,43,"SRR3698451.5860",TRUE,TRUE,6,0.577478344562079,"NHEJ",NA,NA,NA
"455","del",84,5,"SRR3698451.273",TRUE,TRUE,3,0.288739172281039,"CCT",NA,NA,NA
"456","del",84,5,"SRR3698451.5740",TRUE,TRUE,3,0.288739172281039,"CCT",NA,NA,NA
"457","del",84,5,"SRR3698451.5897",TRUE,TRUE,3,0.288739172281039,"CCT",NA,NA,NA
"458","del",84,9,"SRR3698451.3279",TRUE,TRUE,3,0.288739172281039,"C",NA,NA,NA
"459","del",84,9,"SRR3698451.5756",TRUE,TRUE,3,0.288739172281039,"C",NA,NA,NA
"460","del",84,9,"SRR3698451.6339",TRUE,TRUE,3,0.288739172281039,"C",NA,NA,NA
"461","del",84,16,"SRR3698451.5422",TRUE,TRUE,1,0.0962463907603465,"NHEJ",NA,NA,NA
"462","del",84,18,"SRR3698451.3464",TRUE,TRUE,3,0.288739172281039,"NHEJ",NA,NA,NA
"463","del",84,18,"SRR3698451.3536",TRUE,TRUE,3,0.288739172281039,"NHEJ",NA,NA,NA
"464","del",84,18,"SRR3698451.3583",TRUE,TRUE,3,0.288739172281039,"NHEJ",NA,NA,NA
"465","del",84,19,"SRR3698451.1171",TRUE,TRUE,12,1.15495668912416,"CCTG",NA,NA,NA
"466","del",84,19,"SRR3698451.1307",TRUE,TRUE,12,1.15495668912416,"CCTG",NA,NA,NA
"467","del",84,19,"SRR3698451.1662",TRUE,TRUE,12,1.15495668912416,"CCTG",NA,NA,NA
"468","del",84,19,"SRR3698451.2824",TRUE,TRUE,12,1.15495668912416,"CCTG",NA,NA,NA
"469","del",84,19,"SRR3698451.3011",TRUE,TRUE,12,1.15495668912416,"CCTG",NA,NA,NA
"470","del",84,19,"SRR3698451.353",TRUE,TRUE,12,1.15495668912416,"CCTG",NA,NA,NA
"471","del",84,19,"SRR3698451.3770",TRUE,TRUE,12,1.15495668912416,"CCTG",NA,NA,NA
"472","del",84,19,"SRR3698451.3913",TRUE,TRUE,12,1.15495668912416,"CCTG",NA,NA,NA
"473","del",84,19,"SRR3698451.4442",TRUE,TRUE,12,1.15495668912416,"CCTG",NA,NA,NA
"474","del",84,19,"SRR3698451.449",TRUE,TRUE,12,1.15495668912416,"CCTG",NA,NA,NA
"475","del",84,19,"SRR3698451.5898",TRUE,TRUE,12,1.15495668912416,"CCTG",NA,NA,NA
"476","del",84,19,"SRR3698451.998",TRUE,TRUE,12,1.15495668912416,"CCTG",NA,NA,NA
"477","del",84,23,"SRR3698451.973",TRUE,TRUE,1,0.0962463907603465,"C",NA,NA,NA
"478","del",85,7,"SRR3698451.6070",TRUE,TRUE,1,0.0962463907603465,"NHEJ",NA,NA,NA
"479","del",85,18,"SRR3698451.4889",TRUE,TRUE,4,0.384985563041386,"C",NA,NA,NA
"480","del",85,18,"SRR3698451.5436",TRUE,TRUE,4,0.384985563041386,"C",NA,NA,NA
"481","del",85,18,"SRR3698451.5574",TRUE,TRUE,4,0.384985563041386,"C",NA,NA,NA
"482","del",85,18,"SRR3698451.5744",TRUE,TRUE,4,0.384985563041386,"C",NA,NA,NA
"483","del",85,22,"SRR3698451.4218",TRUE,TRUE,1,0.0962463907603465,"C",NA,NA,NA
"484","del",85,24,"SRR3698451.2003",TRUE,TRUE,4,0.384985563041386,"NHEJ",NA,NA,NA
"485","del",85,24,"SRR3698451.2706",TRUE,TRUE,4,0.384985563041386,"NHEJ",NA,NA,NA
"486","del",85,24,"SRR3698451.3837",TRUE,TRUE,4,0.384985563041386,"NHEJ",NA,NA,NA
"487","del",85,24,"SRR3698451.5640",TRUE,TRUE,4,0.384985563041386,"NHEJ",NA,NA,NA
"488","del",86,14,"SRR3698451.3485",FALSE,TRUE,1,0.0962463907603465,"NHEJ",NA,NA,NA
"489","del",86,15,"SRR3698451.4504",TRUE,TRUE,1,0.0962463907603465,"NHEJ",NA,NA,NA
"490","del",87,8,"SRR3698451.1691",TRUE,TRUE,13,1.2512030798845,"GG",NA,NA,NA
"491","del",87,8,"SRR3698451.235",TRUE,TRUE,13,1.2512030798845,"GG",NA,NA,NA
"492","del",87,8,"SRR3698451.2392",TRUE,TRUE,13,1.2512030798845,"GG",NA,NA,NA
"493","del",87,8,"SRR3698451.2496",TRUE,TRUE,13,1.2512030798845,"GG",NA,NA,NA
"494","del",87,8,"SRR3698451.2580",TRUE,TRUE,13,1.2512030798845,"GG",NA,NA,NA
"495","del",87,8,"SRR3698451.2633",TRUE,TRUE,13,1.2512030798845,"GG",NA,NA,NA
"496","del",87,8,"SRR3698451.2679",TRUE,TRUE,13,1.2512030798845,"GG",NA,NA,NA
"497","del",87,8,"SRR3698451.2724",TRUE,TRUE,13,1.2512030798845,"GG",NA,NA,NA
"498","del",87,8,"SRR3698451.3054",TRUE,TRUE,13,1.2512030798845,"GG",NA,NA,NA
"499","del",87,8,"SRR3698451.3253",TRUE,TRUE,13,1.2512030798845,"GG",NA,NA,NA
"500","del",87,8,"SRR3698451.3564",TRUE,TRUE,13,1.2512030798845,"GG",NA,NA,NA
"501","del",87,8,"SRR3698451.4462",TRUE,TRUE,13,1.2512030798845,"GG",NA,NA,NA
"502","del",87,8,"SRR3698451.4724",TRUE,TRUE,13,1.2512030798845,"GG",NA,NA,NA
"503","del",87,9,"SRR3698451.3483",TRUE,TRUE,2,0.192492781520693,"G",NA,NA,NA
"504","del",87,9,"SRR3698451.4575",TRUE,TRUE,2,0.192492781520693,"G",NA,NA,NA
"505","del",87,21,"SRR3698451.1310",TRUE,TRUE,1,0.0962463907603465,"NHEJ",NA,NA,NA
"506","del",87,22,"SRR3698451.3716",TRUE,TRUE,1,0.0962463907603465,"GG",NA,NA,NA
"507","del",87,23,"SRR3698451.2707",TRUE,TRUE,3,0.288739172281039,"G",NA,NA,NA
"508","del",87,23,"SRR3698451.3843",TRUE,TRUE,3,0.288739172281039,"G",NA,NA,NA
"509","del",87,23,"SRR3698451.4572",TRUE,TRUE,3,0.288739172281039,"G",NA,NA,NA
"510","del",88,2,"SRR3698451.3353",TRUE,TRUE,1,0.0962463907603465,"NHEJ",NA,NA,NA
"511","del",88,5,"SRR3698451.2678",TRUE,TRUE,5,0.481231953801732,"NHEJ",NA,NA,NA
"512","del",88,5,"SRR3698451.334",TRUE,TRUE,5,0.481231953801732,"NHEJ",NA,NA,NA
"513","del",88,5,"SRR3698451.3742",TRUE,TRUE,5,0.481231953801732,"NHEJ",NA,NA,NA
"514","del",88,5,"SRR3698451.406",TRUE,TRUE,5,0.481231953801732,"NHEJ",NA,NA,NA
"515","del",88,5,"SRR3698451.4668",TRUE,TRUE,5,0.481231953801732,"NHEJ",NA,NA,NA
"516","del",88,7,"SRR3698451.4650",TRUE,TRUE,2,0.192492781520693,"G",NA,NA,NA
"517","del",88,7,"SRR3698451.4733",TRUE,TRUE,2,0.192492781520693,"G",NA,NA,NA
"518","del",88,14,"SRR3698451.1219",TRUE,TRUE,10,0.962463907603465,"GCCT",NA,NA,NA
"519","del",88,14,"SRR3698451.2960",TRUE,TRUE,10,0.962463907603465,"GCCT",NA,NA,NA
"520","del",88,14,"SRR3698451.3260",TRUE,TRUE,10,0.962463907603465,"GCCT",NA,NA,NA
"521","del",88,14,"SRR3698451.3284",TRUE,TRUE,10,0.962463907603465,"GCCT",NA,NA,NA
"522","del",88,14,"SRR3698451.4335",TRUE,TRUE,10,0.962463907603465,"GCCT",NA,NA,NA
"523","del",88,14,"SRR3698451.4409",TRUE,TRUE,10,0.962463907603465,"GCCT",NA,NA,NA
"524","del",88,14,"SRR3698451.5107",TRUE,TRUE,10,0.962463907603465,"GCCT",NA,NA,NA
"525","del",88,14,"SRR3698451.5949",TRUE,TRUE,10,0.962463907603465,"GCCT",NA,NA,NA
"526","del",88,14,"SRR3698451.6317",TRUE,TRUE,10,0.962463907603465,"GCCT",NA,NA,NA
"527","del",88,14,"SRR3698451.6435",TRUE,TRUE,10,0.962463907603465,"GCCT",NA,NA,NA
"528","del",88,18,"SRR3698451.3572",TRUE,TRUE,2,0.192492781520693,"GC",NA,NA,NA
"529","del",88,18,"SRR3698451.447",TRUE,TRUE,2,0.192492781520693,"GC",NA,NA,NA
"530","del",89,1,"SRR3698451.1000",TRUE,TRUE,95,9.14340712223292,"C",NA,NA,NA
"531","del",89,1,"SRR3698451.1013",TRUE,TRUE,95,9.14340712223292,"C",NA,NA,NA
"532","del",89,1,"SRR3698451.1031",TRUE,TRUE,95,9.14340712223292,"C",NA,NA,NA
"533","del",89,1,"SRR3698451.1033",TRUE,TRUE,95,9.14340712223292,"C",NA,NA,NA
"534","del",89,1,"SRR3698451.1034",TRUE,TRUE,95,9.14340712223292,"C",NA,NA,NA
"535","del",89,1,"SRR3698451.1089",TRUE,TRUE,95,9.14340712223292,"C",NA,NA,NA
"536","del",89,1,"SRR3698451.112",TRUE,TRUE,95,9.14340712223292,"C",NA,NA,NA
"537","del",89,1,"SRR3698451.1129",TRUE,TRUE,95,9.14340712223292,"C",NA,NA,NA
"538","del",89,1,"SRR3698451.117",TRUE,TRUE,95,9.14340712223292,"C",NA,NA,NA
"539","del",89,1,"SRR3698451.1293",TRUE,TRUE,95,9.14340712223292,"C",NA,NA,NA
"540","del",89,1,"SRR3698451.1309",TRUE,TRUE,95,9.14340712223292,"C",NA,NA,NA
"541","del",89,1,"SRR3698451.1378",TRUE,TRUE,95,9.14340712223292,"C",NA,NA,NA
"542","del",89,1,"SRR3698451.144",TRUE,TRUE,95,9.14340712223292,"C",NA,NA,NA
"543","del",89,1,"SRR3698451.1629",TRUE,TRUE,95,9.14340712223292,"C",NA,NA,NA
"544","del",89,1,"SRR3698451.1635",TRUE,TRUE,95,9.14340712223292,"C",NA,NA,NA
"545","del",89,1,"SRR3698451.181",TRUE,TRUE,95,9.14340712223292,"C",NA,NA,NA
"546","del",89,1,"SRR3698451.1854",TRUE,TRUE,95,9.14340712223292,"C",NA,NA,NA
"547","del",89,1,"SRR3698451.1906",TRUE,TRUE,95,9.14340712223292,"C",NA,NA,NA
"548","del",89,1,"SRR3698451.1921",TRUE,TRUE,95,9.14340712223292,"C",NA,NA,NA
"549","del",89,1,"SRR3698451.1988",TRUE,TRUE,95,9.14340712223292,"C",NA,NA,NA
"550","del",89,1,"SRR3698451.2121",TRUE,TRUE,95,9.14340712223292,"C",NA,NA,NA
"551","del",89,1,"SRR3698451.219",TRUE,TRUE,95,9.14340712223292,"C",NA,NA,NA
"552","del",89,1,"SRR3698451.2229",TRUE,TRUE,95,9.14340712223292,"C",NA,NA,NA
"553","del",89,1,"SRR3698451.2262",TRUE,TRUE,95,9.14340712223292,"C",NA,NA,NA
"554","del",89,1,"SRR3698451.2329",TRUE,TRUE,95,9.14340712223292,"C",NA,NA,NA
"555","del",89,1,"SRR3698451.2487",TRUE,TRUE,95,9.14340712223292,"C",NA,NA,NA
"556","del",89,1,"SRR3698451.2507",TRUE,TRUE,95,9.14340712223292,"C",NA,NA,NA
"557","del",89,1,"SRR3698451.2509",TRUE,TRUE,95,9.14340712223292,"C",NA,NA,NA
"558","del",89,1,"SRR3698451.2510",TRUE,TRUE,95,9.14340712223292,"C",NA,NA,NA
"559","del",89,1,"SRR3698451.2570",TRUE,TRUE,95,9.14340712223292,"C",NA,NA,NA
"560","del",89,1,"SRR3698451.2738",TRUE,TRUE,95,9.14340712223292,"C",NA,NA,NA
"561","del",89,1,"SRR3698451.2766",TRUE,TRUE,95,9.14340712223292,"C",NA,NA,NA
"562","del",89,1,"SRR3698451.2790",TRUE,TRUE,95,9.14340712223292,"C",NA,NA,NA
"563","del",89,1,"SRR3698451.2869",TRUE,TRUE,95,9.14340712223292,"C",NA,NA,NA
"564","del",89,1,"SRR3698451.2999",TRUE,TRUE,95,9.14340712223292,"C",NA,NA,NA
"565","del",89,1,"SRR3698451.310",TRUE,TRUE,95,9.14340712223292,"C",NA,NA,NA
"566","del",89,1,"SRR3698451.3154",TRUE,TRUE,95,9.14340712223292,"C",NA,NA,NA
"567","del",89,1,"SRR3698451.3222",TRUE,TRUE,95,9.14340712223292,"C",NA,NA,NA
"568","del",89,1,"SRR3698451.3235",TRUE,TRUE,95,9.14340712223292,"C",NA,NA,NA
"569","del",89,1,"SRR3698451.3276",TRUE,TRUE,95,9.14340712223292,"C",NA,NA,NA
"570","del",89,1,"SRR3698451.3333",TRUE,TRUE,95,9.14340712223292,"C",NA,NA,NA
"571","del",89,1,"SRR3698451.3365",TRUE,TRUE,95,9.14340712223292,"C",NA,NA,NA
"572","del",89,1,"SRR3698451.3413",TRUE,TRUE,95,9.14340712223292,"C",NA,NA,NA
"573","del",89,1,"SRR3698451.3429",TRUE,TRUE,95,9.14340712223292,"C",NA,NA,NA
"574","del",89,1,"SRR3698451.3460",TRUE,TRUE,95,9.14340712223292,"C",NA,NA,NA
"575","del",89,1,"SRR3698451.3478",TRUE,TRUE,95,9.14340712223292,"C",NA,NA,NA
"576","del",89,1,"SRR3698451.3538",TRUE,TRUE,95,9.14340712223292,"C",NA,NA,NA
"577","del",89,1,"SRR3698451.3553",TRUE,TRUE,95,9.14340712223292,"C",NA,NA,NA
"578","del",89,1,"SRR3698451.3624",TRUE,TRUE,95,9.14340712223292,"C",NA,NA,NA
"579","del",89,1,"SRR3698451.3661",TRUE,TRUE,95,9.14340712223292,"C",NA,NA,NA
"580","del",89,1,"SRR3698451.3680",TRUE,TRUE,95,9.14340712223292,"C",NA,NA,NA
"581","del",89,1,"SRR3698451.3768",TRUE,TRUE,95,9.14340712223292,"C",NA,NA,NA
"582","del",89,1,"SRR3698451.3829",TRUE,TRUE,95,9.14340712223292,"C",NA,NA,NA
"583","del",89,1,"SRR3698451.3940",TRUE,TRUE,95,9.14340712223292,"C",NA,NA,NA
"584","del",89,1,"SRR3698451.3974",TRUE,TRUE,95,9.14340712223292,"C",NA,NA,NA
"585","del",89,1,"SRR3698451.3985",TRUE,TRUE,95,9.14340712223292,"C",NA,NA,NA
"586","del",89,1,"SRR3698451.4098",TRUE,TRUE,95,9.14340712223292,"C",NA,NA,NA
"587","del",89,1,"SRR3698451.4320",TRUE,TRUE,95,9.14340712223292,"C",NA,NA,NA
"588","del",89,1,"SRR3698451.4329",TRUE,TRUE,95,9.14340712223292,"C",NA,NA,NA
"589","del",89,1,"SRR3698451.4443",TRUE,TRUE,95,9.14340712223292,"C",NA,NA,NA
"590","del",89,1,"SRR3698451.4464",TRUE,TRUE,95,9.14340712223292,"C",NA,NA,NA
"591","del",89,1,"SRR3698451.4541",TRUE,TRUE,95,9.14340712223292,"C",NA,NA,NA
"592","del",89,1,"SRR3698451.460",TRUE,TRUE,95,9.14340712223292,"C",NA,NA,NA
"593","del",89,1,"SRR3698451.4609",TRUE,TRUE,95,9.14340712223292,"C",NA,NA,NA
"594","del",89,1,"SRR3698451.4622",TRUE,TRUE,95,9.14340712223292,"C",NA,NA,NA
"595","del",89,1,"SRR3698451.4665",TRUE,TRUE,95,9.14340712223292,"C",NA,NA,NA
"596","del",89,1,"SRR3698451.4705",TRUE,TRUE,95,9.14340712223292,"C",NA,NA,NA
"597","del",89,1,"SRR3698451.4731",TRUE,TRUE,95,9.14340712223292,"C",NA,NA,NA
"598","del",89,1,"SRR3698451.4893",TRUE,TRUE,95,9.14340712223292,"C",NA,NA,NA
"599","del",89,1,"SRR3698451.4918",TRUE,TRUE,95,9.14340712223292,"C",NA,NA,NA
"600","del",89,1,"SRR3698451.4954",TRUE,TRUE,95,9.14340712223292,"C",NA,NA,NA
"601","del",89,1,"SRR3698451.5126",TRUE,TRUE,95,9.14340712223292,"C",NA,NA,NA
"602","del",89,1,"SRR3698451.5132",TRUE,TRUE,95,9.14340712223292,"C",NA,NA,NA
"603","del",89,1,"SRR3698451.5166",TRUE,TRUE,95,9.14340712223292,"C",NA,NA,NA
"604","del",89,1,"SRR3698451.5407",TRUE,TRUE,95,9.14340712223292,"C",NA,NA,NA
"605","del",89,1,"SRR3698451.5494",TRUE,TRUE,95,9.14340712223292,"C",NA,NA,NA
"606","del",89,1,"SRR3698451.5531",TRUE,TRUE,95,9.14340712223292,"C",NA,NA,NA
"607","del",89,1,"SRR3698451.5552",TRUE,TRUE,95,9.14340712223292,"C",NA,NA,NA
"608","del",89,1,"SRR3698451.5568",TRUE,TRUE,95,9.14340712223292,"C",NA,NA,NA
"609","del",89,1,"SRR3698451.5682",TRUE,TRUE,95,9.14340712223292,"C",NA,NA,NA
"610","del",89,1,"SRR3698451.5705",TRUE,TRUE,95,9.14340712223292,"C",NA,NA,NA
"611","del",89,1,"SRR3698451.5728",TRUE,TRUE,95,9.14340712223292,"C",NA,NA,NA
"612","del",89,1,"SRR3698451.5811",TRUE,TRUE,95,9.14340712223292,"C",NA,NA,NA
"613","del",89,1,"SRR3698451.6035",TRUE,TRUE,95,9.14340712223292,"C",NA,NA,NA
"614","del",89,1,"SRR3698451.6066",TRUE,TRUE,95,9.14340712223292,"C",NA,NA,NA
"615","del",89,1,"SRR3698451.6097",TRUE,TRUE,95,9.14340712223292,"C",NA,NA,NA
"616","del",89,1,"SRR3698451.6280",TRUE,TRUE,95,9.14340712223292,"C",NA,NA,NA
"617","del",89,1,"SRR3698451.6350",TRUE,TRUE,95,9.14340712223292,"C",NA,NA,NA
"618","del",89,1,"SRR3698451.657",TRUE,TRUE,95,9.14340712223292,"C",NA,NA,NA
"619","del",89,1,"SRR3698451.734",TRUE,TRUE,95,9.14340712223292,"C",NA,NA,NA
"620","del",89,1,"SRR3698451.752",TRUE,TRUE,95,9.14340712223292,"C",NA,NA,NA
"621","del",89,1,"SRR3698451.828",TRUE,TRUE,95,9.14340712223292,"C",NA,NA,NA
"622","del",89,1,"SRR3698451.872",TRUE,TRUE,95,9.14340712223292,"C",NA,NA,NA
"623","del",89,1,"SRR3698451.89",TRUE,TRUE,95,9.14340712223292,"C",NA,NA,NA
"624","del",89,1,"SRR3698451.970",TRUE,TRUE,95,9.14340712223292,"C",NA,NA,NA
"625","del",89,2,"SRR3698451.2574",TRUE,TRUE,1,0.0962463907603465,"NHEJ",NA,NA,NA
"626","del",89,4,"SRR3698451.1399",TRUE,TRUE,2,0.192492781520693,"C",NA,NA,NA
"627","del",89,4,"SRR3698451.2031",TRUE,TRUE,2,0.192492781520693,"C",NA,NA,NA
"628","del",89,6,"SRR3698451.119",TRUE,TRUE,1,0.0962463907603465,"NHEJ",NA,NA,NA
"629","del",89,9,"SRR3698451.931",TRUE,TRUE,1,0.0962463907603465,"C",NA,NA,NA
"630","del",89,15,"SRR3698451.2078",TRUE,TRUE,5,0.481231953801732,"C",NA,NA,NA
"631","del",89,15,"SRR3698451.2217",TRUE,TRUE,5,0.481231953801732,"C",NA,NA,NA
"632","del",89,15,"SRR3698451.2702",TRUE,TRUE,5,0.481231953801732,"C",NA,NA,NA
"633","del",89,15,"SRR3698451.5783",TRUE,TRUE,5,0.481231953801732,"C",NA,NA,NA
"634","del",89,15,"SRR3698451.6295",TRUE,TRUE,5,0.481231953801732,"C",NA,NA,NA
"635","del",89,19,"SRR3698451.1963",TRUE,TRUE,1,0.0962463907603465,"NHEJ",NA,NA,NA
"636","del",89,24,"SRR3698451.2587",TRUE,TRUE,2,0.192492781520693,"C",NA,NA,NA
"637","del",89,24,"SRR3698451.3200",TRUE,TRUE,2,0.192492781520693,"C",NA,NA,NA
"638","del",90,2,"SRR3698451.2578",TRUE,TRUE,2,0.192492781520693,"NHEJ",NA,NA,NA
"639","del",90,2,"SRR3698451.4981",TRUE,TRUE,2,0.192492781520693,"NHEJ",NA,NA,NA
"640","del",90,8,"SRR3698451.3077",TRUE,TRUE,5,0.481231953801732,"C",NA,NA,NA
"641","del",90,8,"SRR3698451.3926",TRUE,TRUE,5,0.481231953801732,"C",NA,NA,NA
"642","del",90,8,"SRR3698451.4469",TRUE,TRUE,5,0.481231953801732,"C",NA,NA,NA
"643","del",90,8,"SRR3698451.5468",TRUE,TRUE,5,0.481231953801732,"C",NA,NA,NA
"644","del",90,8,"SRR3698451.6392",TRUE,TRUE,5,0.481231953801732,"C",NA,NA,NA
"645","del",90,17,"SRR3698451.1127",TRUE,TRUE,1,0.0962463907603465,"C",NA,NA,NA
"646","del",90,23,"SRR3698451.2750",TRUE,TRUE,1,0.0962463907603465,"CT",NA,NA,NA
"647","del",91,1,"SRR3698451.236",TRUE,TRUE,9,0.866217516843118,"T",NA,NA,NA
"648","del",91,1,"SRR3698451.2469",TRUE,TRUE,9,0.866217516843118,"T",NA,NA,NA
"649","del",91,1,"SRR3698451.2915",TRUE,TRUE,9,0.866217516843118,"T",NA,NA,NA
"650","del",91,1,"SRR3698451.3101",TRUE,TRUE,9,0.866217516843118,"T",NA,NA,NA
"651","del",91,1,"SRR3698451.3111",TRUE,TRUE,9,0.866217516843118,"T",NA,NA,NA
"652","del",91,1,"SRR3698451.4352",TRUE,TRUE,9,0.866217516843118,"T",NA,NA,NA
"653","del",91,1,"SRR3698451.480",TRUE,TRUE,9,0.866217516843118,"T",NA,NA,NA
"654","del",91,1,"SRR3698451.507",TRUE,TRUE,9,0.866217516843118,"T",NA,NA,NA
"655","del",91,1,"SRR3698451.5291",TRUE,TRUE,9,0.866217516843118,"T",NA,NA,NA
"656","del",91,2,"SRR3698451.2191",TRUE,TRUE,1,0.0962463907603465,"NHEJ",NA,NA,NA
"657","del",91,4,"SRR3698451.5025",TRUE,TRUE,1,0.0962463907603465,"NHEJ",NA,NA,NA
"658","del",91,5,"SRR3698451.1579",TRUE,TRUE,3,0.288739172281039,"NHEJ",NA,NA,NA
"659","del",91,5,"SRR3698451.2902",TRUE,TRUE,3,0.288739172281039,"NHEJ",NA,NA,NA
"660","del",91,5,"SRR3698451.4060",TRUE,TRUE,3,0.288739172281039,"NHEJ",NA,NA,NA
"661","del",91,6,"SRR3698451.1727",TRUE,TRUE,5,0.481231953801732,"NHEJ",NA,NA,NA
"662","del",91,6,"SRR3698451.1767",TRUE,TRUE,5,0.481231953801732,"NHEJ",NA,NA,NA
"663","del",91,6,"SRR3698451.1770",TRUE,TRUE,5,0.481231953801732,"NHEJ",NA,NA,NA
"664","del",91,6,"SRR3698451.2490",TRUE,TRUE,5,0.481231953801732,"NHEJ",NA,NA,NA
"665","del",91,6,"SRR3698451.4732",TRUE,TRUE,5,0.481231953801732,"NHEJ",NA,NA,NA
"666","del",91,7,"SRR3698451.121",TRUE,TRUE,2,0.192492781520693,"NHEJ",NA,NA,NA
"667","del",91,7,"SRR3698451.2668",TRUE,TRUE,2,0.192492781520693,"NHEJ",NA,NA,NA
"668","del",91,16,"SRR3698451.3709",TRUE,TRUE,1,0.0962463907603465,"NHEJ",NA,NA,NA
"669","del",91,21,"SRR3698451.2784",TRUE,TRUE,3,0.288739172281039,"NHEJ",NA,NA,NA
"670","del",91,21,"SRR3698451.3774",TRUE,TRUE,3,0.288739172281039,"NHEJ",NA,NA,NA
"671","del",91,21,"SRR3698451.92",TRUE,TRUE,3,0.288739172281039,"NHEJ",NA,NA,NA
"672","del",91,65,"SRR3698451.5397",TRUE,TRUE,1,0.0962463907603465,"NHEJ",NA,NA,NA
"673","del",92,8,"SRR3698451.2992",TRUE,TRUE,2,0.192492781520693,"NHEJ",NA,NA,NA
"674","del",92,8,"SRR3698451.3202",TRUE,TRUE,2,0.192492781520693,"NHEJ",NA,NA,NA
"675","del",93,14,"SRR3698451.913",TRUE,TRUE,1,0.0962463907603465,"CAGG",NA,NA,NA
"676","del",120,2,"SRR3698451.137",TRUE,TRUE,1,0.0962463907603465,"G",NA,NA,NA
"677","del",125,1,"SRR3698451.2661",TRUE,TRUE,1,0.0962463907603465,"A",NA,NA,NA
"678","del",135,1,"SRR3698451.3679",TRUE,TRUE,2,0.192492781520693,"G",NA,NA,NA
"679","del",135,1,"SRR3698451.478",TRUE,TRUE,2,0.192492781520693,"G",NA,NA,NA
"680","del",151,1,"SRR3698451.1063",TRUE,TRUE,35,3.36862367661213,"G",NA,NA,NA
"681","del",151,1,"SRR3698451.1134",TRUE,TRUE,35,3.36862367661213,"G",NA,NA,NA
"682","del",151,1,"SRR3698451.1484",TRUE,TRUE,35,3.36862367661213,"G",NA,NA,NA
"683","del",151,1,"SRR3698451.1488",TRUE,TRUE,35,3.36862367661213,"G",NA,NA,NA
"684","del",151,1,"SRR3698451.1695",TRUE,TRUE,35,3.36862367661213,"G",NA,NA,NA
"685","del",151,1,"SRR3698451.1900",TRUE,TRUE,35,3.36862367661213,"G",NA,NA,NA
"686","del",151,1,"SRR3698451.193",TRUE,TRUE,35,3.36862367661213,"G",NA,NA,NA
"687","del",151,1,"SRR3698451.2063",TRUE,TRUE,35,3.36862367661213,"G",NA,NA,NA
"688","del",151,1,"SRR3698451.2156",TRUE,TRUE,35,3.36862367661213,"G",NA,NA,NA
"689","del",151,1,"SRR3698451.2204",TRUE,TRUE,35,3.36862367661213,"G",NA,NA,NA
"690","del",151,1,"SRR3698451.2511",TRUE,TRUE,35,3.36862367661213,"G",NA,NA,NA
"691","del",151,1,"SRR3698451.2783",TRUE,TRUE,35,3.36862367661213,"G",NA,NA,NA
"692","del",151,1,"SRR3698451.324",TRUE,TRUE,35,3.36862367661213,"G",NA,NA,NA
"693","del",151,1,"SRR3698451.351",TRUE,TRUE,35,3.36862367661213,"G",NA,NA,NA
"694","del",151,1,"SRR3698451.4190",TRUE,TRUE,35,3.36862367661213,"G",NA,NA,NA
"695","del",151,1,"SRR3698451.4205",TRUE,TRUE,35,3.36862367661213,"G",NA,NA,NA
"696","del",151,1,"SRR3698451.4488",TRUE,TRUE,35,3.36862367661213,"G",NA,NA,NA
"697","del",151,1,"SRR3698451.4554",TRUE,TRUE,35,3.36862367661213,"G",NA,NA,NA
"698","del",151,1,"SRR3698451.4884",TRUE,TRUE,35,3.36862367661213,"G",NA,NA,NA
"699","del",151,1,"SRR3698451.5098",TRUE,TRUE,35,3.36862367661213,"G",NA,NA,NA
"700","del",151,1,"SRR3698451.5435",TRUE,TRUE,35,3.36862367661213,"G",NA,NA,NA
"701","del",151,1,"SRR3698451.5466",TRUE,TRUE,35,3.36862367661213,"G",NA,NA,NA
"702","del",151,1,"SRR3698451.5539",TRUE,TRUE,35,3.36862367661213,"G",NA,NA,NA
"703","del",151,1,"SRR3698451.5571",TRUE,TRUE,35,3.36862367661213,"G",NA,NA,NA
"704","del",151,1,"SRR3698451.5680",TRUE,TRUE,35,3.36862367661213,"G",NA,NA,NA
"705","del",151,1,"SRR3698451.5882",TRUE,TRUE,35,3.36862367661213,"G",NA,NA,NA
"706","del",151,1,"SRR3698451.5888",TRUE,TRUE,35,3.36862367661213,"G",NA,NA,NA
"707","del",151,1,"SRR3698451.5916",TRUE,TRUE,35,3.36862367661213,"G",NA,NA,NA
"708","del",151,1,"SRR3698451.630",TRUE,TRUE,35,3.36862367661213,"G",NA,NA,NA
"709","del",151,1,"SRR3698451.6358",TRUE,TRUE,35,3.36862367661213,"G",NA,NA,NA
"710","del",151,1,"SRR3698451.694",TRUE,TRUE,35,3.36862367661213,"G",NA,NA,NA
"711","del",151,1,"SRR3698451.825",TRUE,TRUE,35,3.36862367661213,"G",NA,NA,NA
"712","del",151,1,"SRR3698451.85",TRUE,TRUE,35,3.36862367661213,"G",NA,NA,NA
"713","del",151,1,"SRR3698451.891",TRUE,TRUE,35,3.36862367661213,"G",NA,NA,NA
"714","del",151,1,"SRR3698451.945",TRUE,TRUE,35,3.36862367661213,"G",NA,NA,NA
"715","del",161,3,"SRR3698451.1351",TRUE,FALSE,2,0.192492781520693,"GGA",NA,NA,NA
"716","del",161,3,"SRR3698451.4474",TRUE,FALSE,2,0.192492781520693,"GGA",NA,NA,NA
"717","del",211,1,"SRR3698451.6337",FALSE,FALSE,1,0.0962463907603465,"NHEJ",NA,NA,NA
"718","del",212,1,"SRR3698451.4241",FALSE,FALSE,1,0.0962463907603465,"NHEJ",NA,NA,NA
"719","del",212,2,"SRR3698451.6321",FALSE,FALSE,1,0.0962463907603465,"NHEJ",NA,NA,NA
"720","del",212,3,"SRR3698451.2536",FALSE,FALSE,1,0.0962463907603465,"C",NA,NA,NA
"721","del",213,1,"SRR3698451.2234",TRUE,FALSE,5,0.481231953801732,"NHEJ",NA,NA,NA
"722","del",213,1,"SRR3698451.323",TRUE,FALSE,5,0.481231953801732,"NHEJ",NA,NA,NA
"723","del",213,1,"SRR3698451.4262",TRUE,FALSE,5,0.481231953801732,"NHEJ",NA,NA,NA
"724","del",213,1,"SRR3698451.4641",TRUE,FALSE,5,0.481231953801732,"NHEJ",NA,NA,NA
"725","del",213,1,"SRR3698451.6307",TRUE,FALSE,5,0.481231953801732,"NHEJ",NA,NA,NA
"726","del",213,2,"SRR3698451.5814",FALSE,FALSE,1,0.0962463907603465,"NHEJ",NA,NA,NA
"727","del",214,1,"SRR3698451.201",TRUE,FALSE,6,0.577478344562079,"NHEJ",NA,NA,NA
"728","del",214,1,"SRR3698451.3752",TRUE,FALSE,6,0.577478344562079,"NHEJ",NA,NA,NA
"729","del",214,1,"SRR3698451.4035",TRUE,FALSE,6,0.577478344562079,"NHEJ",NA,NA,NA
"730","del",214,1,"SRR3698451.4537",TRUE,FALSE,6,0.577478344562079,"NHEJ",NA,NA,NA
"731","del",214,1,"SRR3698451.5445",TRUE,FALSE,6,0.577478344562079,"NHEJ",NA,NA,NA
"732","del",214,1,"SRR3698451.6374",TRUE,FALSE,6,0.577478344562079,"NHEJ",NA,NA,NA
"733","del",215,1,"SRR3698451.1624",TRUE,FALSE,8,0.769971126082772,"NHEJ",NA,NA,NA
"734","del",215,1,"SRR3698451.2446",TRUE,FALSE,8,0.769971126082772,"NHEJ",NA,NA,NA
"735","del",215,1,"SRR3698451.3360",TRUE,FALSE,8,0.769971126082772,"NHEJ",NA,NA,NA
"736","del",215,1,"SRR3698451.3656",TRUE,FALSE,8,0.769971126082772,"NHEJ",NA,NA,NA
"737","del",215,1,"SRR3698451.3670",TRUE,FALSE,8,0.769971126082772,"NHEJ",NA,NA,NA
"738","del",215,1,"SRR3698451.4054",TRUE,FALSE,8,0.769971126082772,"NHEJ",NA,NA,NA
"739","del",215,1,"SRR3698451.6300",TRUE,FALSE,8,0.769971126082772,"NHEJ",NA,NA,NA
"740","del",215,1,"SRR3698451.6346",TRUE,FALSE,8,0.769971126082772,"NHEJ",NA,NA,NA
"741","del",215,2,"SRR3698451.1978",FALSE,FALSE,5,0.481231953801732,"C",NA,NA,NA
"742","del",215,2,"SRR3698451.2825",FALSE,FALSE,5,0.481231953801732,"C",NA,NA,NA
"743","del",215,2,"SRR3698451.3219",FALSE,FALSE,5,0.481231953801732,"C",NA,NA,NA
"744","del",215,2,"SRR3698451.3857",FALSE,FALSE,5,0.481231953801732,"C",NA,NA,NA
"745","del",215,2,"SRR3698451.5822",FALSE,FALSE,5,0.481231953801732,"C",NA,NA,NA
"746","del",215,3,"SRR3698451.6448",TRUE,FALSE,2,0.192492781520693,"C",NA,NA,NA
"747","del",215,3,"SRR3698451.6451",TRUE,FALSE,2,0.192492781520693,"C",NA,NA,NA
"748","del",216,1,"SRR3698451.1090",TRUE,FALSE,15,1.4436958614052,"NHEJ",NA,NA,NA
"749","del",216,1,"SRR3698451.1869",TRUE,FALSE,15,1.4436958614052,"NHEJ",NA,NA,NA
"750","del",216,1,"SRR3698451.2321",TRUE,FALSE,15,1.4436958614052,"NHEJ",NA,NA,NA
"751","del",216,1,"SRR3698451.4187",TRUE,FALSE,15,1.4436958614052,"NHEJ",NA,NA,NA
"752","del",216,1,"SRR3698451.466",TRUE,FALSE,15,1.4436958614052,"NHEJ",NA,NA,NA
"753","del",216,1,"SRR3698451.4917",TRUE,FALSE,15,1.4436958614052,"NHEJ",NA,NA,NA
"754","del",216,1,"SRR3698451.503",TRUE,FALSE,15,1.4436958614052,"NHEJ",NA,NA,NA
"755","del",216,1,"SRR3698451.5127",TRUE,FALSE,15,1.4436958614052,"NHEJ",NA,NA,NA
"756","del",216,1,"SRR3698451.5350",TRUE,FALSE,15,1.4436958614052,"NHEJ",NA,NA,NA
"757","del",216,1,"SRR3698451.564",TRUE,FALSE,15,1.4436958614052,"NHEJ",NA,NA,NA
"758","del",216,1,"SRR3698451.6003",TRUE,FALSE,15,1.4436958614052,"NHEJ",NA,NA,NA
"759","del",216,1,"SRR3698451.607",TRUE,FALSE,15,1.4436958614052,"NHEJ",NA,NA,NA
"760","del",216,1,"SRR3698451.6449",TRUE,FALSE,15,1.4436958614052,"NHEJ",NA,NA,NA
"761","del",216,1,"SRR3698451.66",TRUE,FALSE,15,1.4436958614052,"NHEJ",NA,NA,NA
"762","del",216,1,"SRR3698451.832",TRUE,FALSE,15,1.4436958614052,"NHEJ",NA,NA,NA
"763","del",217,1,"SRR3698451.102",TRUE,FALSE,33,3.17613089509143,"C",NA,NA,NA
"764","del",217,1,"SRR3698451.1072",TRUE,FALSE,33,3.17613089509143,"C",NA,NA,NA
"765","del",217,1,"SRR3698451.1115",TRUE,FALSE,33,3.17613089509143,"C",NA,NA,NA
"766","del",217,1,"SRR3698451.1410",TRUE,FALSE,33,3.17613089509143,"C",NA,NA,NA
"767","del",217,1,"SRR3698451.2598",TRUE,FALSE,33,3.17613089509143,"C",NA,NA,NA
"768","del",217,1,"SRR3698451.2975",TRUE,FALSE,33,3.17613089509143,"C",NA,NA,NA
"769","del",217,1,"SRR3698451.3231",TRUE,FALSE,33,3.17613089509143,"C",NA,NA,NA
"770","del",217,1,"SRR3698451.3446",TRUE,FALSE,33,3.17613089509143,"C",NA,NA,NA
"771","del",217,1,"SRR3698451.3524",TRUE,FALSE,33,3.17613089509143,"C",NA,NA,NA
"772","del",217,1,"SRR3698451.3643",TRUE,FALSE,33,3.17613089509143,"C",NA,NA,NA
"773","del",217,1,"SRR3698451.3890",TRUE,FALSE,33,3.17613089509143,"C",NA,NA,NA
"774","del",217,1,"SRR3698451.398",TRUE,FALSE,33,3.17613089509143,"C",NA,NA,NA
"775","del",217,1,"SRR3698451.4093",TRUE,FALSE,33,3.17613089509143,"C",NA,NA,NA
"776","del",217,1,"SRR3698451.4123",TRUE,FALSE,33,3.17613089509143,"C",NA,NA,NA
"777","del",217,1,"SRR3698451.4261",TRUE,FALSE,33,3.17613089509143,"C",NA,NA,NA
"778","del",217,1,"SRR3698451.4428",TRUE,FALSE,33,3.17613089509143,"C",NA,NA,NA
"779","del",217,1,"SRR3698451.4563",TRUE,FALSE,33,3.17613089509143,"C",NA,NA,NA
"780","del",217,1,"SRR3698451.4683",TRUE,FALSE,33,3.17613089509143,"C",NA,NA,NA
"781","del",217,1,"SRR3698451.4844",TRUE,FALSE,33,3.17613089509143,"C",NA,NA,NA
"782","del",217,1,"SRR3698451.5453",TRUE,FALSE,33,3.17613089509143,"C",NA,NA,NA
"783","del",217,1,"SRR3698451.5625",TRUE,FALSE,33,3.17613089509143,"C",NA,NA,NA
"784","del",217,1,"SRR3698451.5651",TRUE,FALSE,33,3.17613089509143,"C",NA,NA,NA
"785","del",217,1,"SRR3698451.5920",TRUE,FALSE,33,3.17613089509143,"C",NA,NA,NA
"786","del",217,1,"SRR3698451.5926",TRUE,FALSE,33,3.17613089509143,"C",NA,NA,NA
"787","del",217,1,"SRR3698451.5982",TRUE,FALSE,33,3.17613089509143,"C",NA,NA,NA
"788","del",217,1,"SRR3698451.6084",TRUE,FALSE,33,3.17613089509143,"C",NA,NA,NA
"789","del",217,1,"SRR3698451.6356",TRUE,FALSE,33,3.17613089509143,"C",NA,NA,NA
"790","del",217,1,"SRR3698451.6381",TRUE,FALSE,33,3.17613089509143,"C",NA,NA,NA
"791","del",217,1,"SRR3698451.646",TRUE,FALSE,33,3.17613089509143,"C",NA,NA,NA
"792","del",217,1,"SRR3698451.70",TRUE,FALSE,33,3.17613089509143,"C",NA,NA,NA
"793","del",217,1,"SRR3698451.794",TRUE,FALSE,33,3.17613089509143,"C",NA,NA,NA
"794","del",217,1,"SRR3698451.83",TRUE,FALSE,33,3.17613089509143,"C",NA,NA,NA
"795","del",217,1,"SRR3698451.904",TRUE,FALSE,33,3.17613089509143,"C",NA,NA,NA
"796","del",218,2,"SRR3698451.6444",FALSE,FALSE,1,0.0962463907603465,"NHEJ",NA,NA,NA
"797","del",219,1,"SRR3698451.1313",TRUE,FALSE,13,1.2512030798845,"NHEJ",NA,NA,NA
"798","del",219,1,"SRR3698451.1777",TRUE,FALSE,13,1.2512030798845,"NHEJ",NA,NA,NA
"799","del",219,1,"SRR3698451.1964",TRUE,FALSE,13,1.2512030798845,"NHEJ",NA,NA,NA
"800","del",219,1,"SRR3698451.200",TRUE,FALSE,13,1.2512030798845,"NHEJ",NA,NA,NA
"801","del",219,1,"SRR3698451.4036",TRUE,FALSE,13,1.2512030798845,"NHEJ",NA,NA,NA
"802","del",219,1,"SRR3698451.4162",TRUE,FALSE,13,1.2512030798845,"NHEJ",NA,NA,NA
"803","del",219,1,"SRR3698451.4359",TRUE,FALSE,13,1.2512030798845,"NHEJ",NA,NA,NA
"804","del",219,1,"SRR3698451.4456",TRUE,FALSE,13,1.2512030798845,"NHEJ",NA,NA,NA
"805","del",219,1,"SRR3698451.5100",TRUE,FALSE,13,1.2512030798845,"NHEJ",NA,NA,NA
"806","del",219,1,"SRR3698451.5617",TRUE,FALSE,13,1.2512030798845,"NHEJ",NA,NA,NA
"807","del",219,1,"SRR3698451.568",TRUE,FALSE,13,1.2512030798845,"NHEJ",NA,NA,NA
"808","del",219,1,"SRR3698451.5692",TRUE,FALSE,13,1.2512030798845,"NHEJ",NA,NA,NA
"809","del",219,1,"SRR3698451.612",TRUE,FALSE,13,1.2512030798845,"NHEJ",NA,NA,NA
"810","del",220,1,"SRR3698451.179",TRUE,FALSE,8,0.769971126082772,"NHEJ",NA,NA,NA
"811","del",220,1,"SRR3698451.1884",TRUE,FALSE,8,0.769971126082772,"NHEJ",NA,NA,NA
"812","del",220,1,"SRR3698451.2106",TRUE,FALSE,8,0.769971126082772,"NHEJ",NA,NA,NA
"813","del",220,1,"SRR3698451.3686",TRUE,FALSE,8,0.769971126082772,"NHEJ",NA,NA,NA
"814","del",220,1,"SRR3698451.4931",TRUE,FALSE,8,0.769971126082772,"NHEJ",NA,NA,NA
"815","del",220,1,"SRR3698451.5776",TRUE,FALSE,8,0.769971126082772,"NHEJ",NA,NA,NA
"816","del",220,1,"SRR3698451.6072",TRUE,FALSE,8,0.769971126082772,"NHEJ",NA,NA,NA
"817","del",220,1,"SRR3698451.6272",TRUE,FALSE,8,0.769971126082772,"NHEJ",NA,NA,NA
"818","ins",9,1,"SRR3698451.1068",FALSE,FALSE,2,0.192492781520693,NA,"AGA","C","CAC"
"819","ins",9,1,"SRR3698451.3917",FALSE,FALSE,2,0.192492781520693,NA,"AGA","C","CAC"
"820","ins",11,1,"SRR3698451.443",FALSE,FALSE,1,0.0962463907603465,NA,"ACA","C","CCC"
"821","ins",84,1,"SRR3698451.6474",TRUE,TRUE,2,0.192492781520693,NA,"GCC","G","CCT"
"822","ins",84,1,"SRR3698451.6475",TRUE,TRUE,2,0.192492781520693,NA,"GCC","G","CCT"
"823","ins",212,1,"SRR3698451.6182",FALSE,FALSE,1,0.0962463907603465,NA,"AGT","C","CAG"
"824","ins",217,1,"SRR3698451.5080",FALSE,FALSE,1,0.0962463907603465,NA,"GCT","C","CCA"
"825","ins",88,4,"SRR3698451.113",TRUE,TRUE,2,0.192492781520693,NA,"CTG","GCCA","GCC"
"826","ins",88,4,"SRR3698451.5669",TRUE,TRUE,2,0.192492781520693,NA,"CTG","GCCA","GCC"
"827","ins",91,1,"SRR3698451.1023",TRUE,TRUE,196,18.8642925890279,NA,"GCC","C","TTC"
"828","ins",91,1,"SRR3698451.1073",TRUE,TRUE,196,18.8642925890279,NA,"GCC","C","TTC"
"829","ins",91,1,"SRR3698451.1194",TRUE,TRUE,196,18.8642925890279,NA,"GCC","C","TTC"
"830","ins",91,1,"SRR3698451.1217",TRUE,TRUE,196,18.8642925890279,NA,"GCC","C","TTC"
"831","ins",91,1,"SRR3698451.1275",TRUE,TRUE,196,18.8642925890279,NA,"GCC","C","TTC"
"832","ins",91,1,"SRR3698451.1285",TRUE,TRUE,196,18.8642925890279,NA,"GCC","C","TTC"
"833","ins",91,1,"SRR3698451.1286",TRUE,TRUE,196,18.8642925890279,NA,"GCC","C","TTC"
"834","ins",91,1,"SRR3698451.1296",TRUE,TRUE,196,18.8642925890279,NA,"GCC","C","TTC"
"835","ins",91,1,"SRR3698451.1306",TRUE,TRUE,196,18.8642925890279,NA,"GCC","C","TTC"
"836","ins",91,1,"SRR3698451.131",TRUE,TRUE,196,18.8642925890279,NA,"GCC","C","TTC"
"837","ins",91,1,"SRR3698451.1369",TRUE,TRUE,196,18.8642925890279,NA,"GCC","C","TTC"
"838","ins",91,1,"SRR3698451.1391",TRUE,TRUE,196,18.8642925890279,NA,"GCC","C","TTC"
"839","ins",91,1,"SRR3698451.14",TRUE,TRUE,196,18.8642925890279,NA,"GCC","C","TTC"
"840","ins",91,1,"SRR3698451.1485",TRUE,TRUE,196,18.8642925890279,NA,"GCC","C","TTC"
"841","ins",91,1,"SRR3698451.149",TRUE,TRUE,196,18.8642925890279,NA,"GCC","C","TTC"
"842","ins",91,1,"SRR3698451.1517",TRUE,TRUE,196,18.8642925890279,NA,"GCC","C","TTC"
"843","ins",91,1,"SRR3698451.1546",TRUE,TRUE,196,18.8642925890279,NA,"GCC","C","TTC"
"844","ins",91,1,"SRR3698451.1551",TRUE,TRUE,196,18.8642925890279,NA,"GCC","C","TTC"
"845","ins",91,1,"SRR3698451.1569",TRUE,TRUE,196,18.8642925890279,NA,"GCC","C","TTC"
"846","ins",91,1,"SRR3698451.1584",TRUE,TRUE,196,18.8642925890279,NA,"GCC","C","TTC"
"847","ins",91,1,"SRR3698451.1632",TRUE,TRUE,196,18.8642925890279,NA,"GCC","C","TTC"
"848","ins",91,1,"SRR3698451.1708",TRUE,TRUE,196,18.8642925890279,NA,"GCC","C","TTC"
"849","ins",91,1,"SRR3698451.1711",TRUE,TRUE,196,18.8642925890279,NA,"GCC","C","TTC"
"850","ins",91,1,"SRR3698451.1738",TRUE,TRUE,196,18.8642925890279,NA,"GCC","C","TTC"
"851","ins",91,1,"SRR3698451.1748",TRUE,TRUE,196,18.8642925890279,NA,"GCC","C","TTC"
"852","ins",91,1,"SRR3698451.1753",TRUE,TRUE,196,18.8642925890279,NA,"GCC","C","TTC"
"853","ins",91,1,"SRR3698451.1771",TRUE,TRUE,196,18.8642925890279,NA,"GCC","C","TTC"
"854","ins",91,1,"SRR3698451.18",TRUE,TRUE,196,18.8642925890279,NA,"GCC","C","TTC"
"855","ins",91,1,"SRR3698451.1810",TRUE,TRUE,196,18.8642925890279,NA,"GCC","C","TTC"
"856","ins",91,1,"SRR3698451.1842",TRUE,TRUE,196,18.8642925890279,NA,"GCC","C","TTC"
"857","ins",91,1,"SRR3698451.1874",TRUE,TRUE,196,18.8642925890279,NA,"GCC","C","TTC"
"858","ins",91,1,"SRR3698451.1892",TRUE,TRUE,196,18.8642925890279,NA,"GCC","C","TTC"
"859","ins",91,1,"SRR3698451.1898",TRUE,TRUE,196,18.8642925890279,NA,"GCC","C","TTC"
"860","ins",91,1,"SRR3698451.195",TRUE,TRUE,196,18.8642925890279,NA,"GCC","C","TTC"
"861","ins",91,1,"SRR3698451.1957",TRUE,TRUE,196,18.8642925890279,NA,"GCC","C","TTC"
"862","ins",91,1,"SRR3698451.20",TRUE,TRUE,196,18.8642925890279,NA,"GCC","C","TTC"
"863","ins",91,1,"SRR3698451.2007",TRUE,TRUE,196,18.8642925890279,NA,"GCC","C","TTC"
"864","ins",91,1,"SRR3698451.2023",TRUE,TRUE,196,18.8642925890279,NA,"GCC","C","TTC"
"865","ins",91,1,"SRR3698451.2053",TRUE,TRUE,196,18.8642925890279,NA,"GCC","C","TTC"
"866","ins",91,1,"SRR3698451.2059",TRUE,TRUE,196,18.8642925890279,NA,"GCC","C","TTC"
"867","ins",91,1,"SRR3698451.2086",TRUE,TRUE,196,18.8642925890279,NA,"GCC","C","TTC"
"868","ins",91,1,"SRR3698451.210",TRUE,TRUE,196,18.8642925890279,NA,"GCC","C","TTC"
"869","ins",91,1,"SRR3698451.2111",TRUE,TRUE,196,18.8642925890279,NA,"GCC","C","TTC"
"870","ins",91,1,"SRR3698451.2123",TRUE,TRUE,196,18.8642925890279,NA,"GCC","C","TTC"
"871","ins",91,1,"SRR3698451.216",TRUE,TRUE,196,18.8642925890279,NA,"GCC","C","TTC"
"872","ins",91,1,"SRR3698451.2197",TRUE,TRUE,196,18.8642925890279,NA,"GCC","C","TTC"
"873","ins",91,1,"SRR3698451.2263",TRUE,TRUE,196,18.8642925890279,NA,"GCC","C","TTC"
"874","ins",91,1,"SRR3698451.2279",TRUE,TRUE,196,18.8642925890279,NA,"GCC","C","TTC"
"875","ins",91,1,"SRR3698451.2293",TRUE,TRUE,196,18.8642925890279,NA,"GCC","C","TTC"
"876","ins",91,1,"SRR3698451.2305",TRUE,TRUE,196,18.8642925890279,NA,"GCC","C","TTC"
"877","ins",91,1,"SRR3698451.2368",TRUE,TRUE,196,18.8642925890279,NA,"GCC","C","TTC"
"878","ins",91,1,"SRR3698451.2444",TRUE,TRUE,196,18.8642925890279,NA,"GCC","C","TTC"
"879","ins",91,1,"SRR3698451.249",TRUE,TRUE,196,18.8642925890279,NA,"GCC","C","TTC"
"880","ins",91,1,"SRR3698451.2539",TRUE,TRUE,196,18.8642925890279,NA,"GCC","C","TTC"
"881","ins",91,1,"SRR3698451.2575",TRUE,TRUE,196,18.8642925890279,NA,"GCC","C","TTC"
"882","ins",91,1,"SRR3698451.2638",TRUE,TRUE,196,18.8642925890279,NA,"GCC","C","TTC"
"883","ins",91,1,"SRR3698451.2688",TRUE,TRUE,196,18.8642925890279,NA,"GCC","C","TTC"
"884","ins",91,1,"SRR3698451.276",TRUE,TRUE,196,18.8642925890279,NA,"GCC","C","TTC"
"885","ins",91,1,"SRR3698451.2853",TRUE,TRUE,196,18.8642925890279,NA,"GCC","C","TTC"
"886","ins",91,1,"SRR3698451.2895",TRUE,TRUE,196,18.8642925890279,NA,"GCC","C","TTC"
"887","ins",91,1,"SRR3698451.2934",TRUE,TRUE,196,18.8642925890279,NA,"GCC","C","TTC"
"888","ins",91,1,"SRR3698451.2973",TRUE,TRUE,196,18.8642925890279,NA,"GCC","C","TTC"
"889","ins",91,1,"SRR3698451.2986",TRUE,TRUE,196,18.8642925890279,NA,"GCC","C","TTC"
"890","ins",91,1,"SRR3698451.2987",TRUE,TRUE,196,18.8642925890279,NA,"GCC","C","TTC"
"891","ins",91,1,"SRR3698451.3006",TRUE,TRUE,196,18.8642925890279,NA,"GCC","C","TTC"
"892","ins",91,1,"SRR3698451.3067",TRUE,TRUE,196,18.8642925890279,NA,"GCC","C","TTC"
"893","ins",91,1,"SRR3698451.3079",TRUE,TRUE,196,18.8642925890279,NA,"GCC","C","TTC"
"894","ins",91,1,"SRR3698451.3088",TRUE,TRUE,196,18.8642925890279,NA,"GCC","C","TTC"
"895","ins",91,1,"SRR3698451.3178",TRUE,TRUE,196,18.8642925890279,NA,"GCC","C","TTC"
"896","ins",91,1,"SRR3698451.3331",TRUE,TRUE,196,18.8642925890279,NA,"GCC","C","TTC"
"897","ins",91,1,"SRR3698451.3372",TRUE,TRUE,196,18.8642925890279,NA,"GCC","C","TTC"
"898","ins",91,1,"SRR3698451.3411",TRUE,TRUE,196,18.8642925890279,NA,"GCC","C","TTC"
"899","ins",91,1,"SRR3698451.3488",TRUE,TRUE,196,18.8642925890279,NA,"GCC","C","TTC"
"900","ins",91,1,"SRR3698451.3520",TRUE,TRUE,196,18.8642925890279,NA,"GCC","C","TTC"
"901","ins",91,1,"SRR3698451.3535",TRUE,TRUE,196,18.8642925890279,NA,"GCC","C","TTC"
"902","ins",91,1,"SRR3698451.3541",TRUE,TRUE,196,18.8642925890279,NA,"GCC","C","TTC"
"903","ins",91,1,"SRR3698451.3598",TRUE,TRUE,196,18.8642925890279,NA,"GCC","C","TTC"
"904","ins",91,1,"SRR3698451.3610",TRUE,TRUE,196,18.8642925890279,NA,"GCC","C","TTC"
"905","ins",91,1,"SRR3698451.3616",TRUE,TRUE,196,18.8642925890279,NA,"GCC","C","TTC"
"906","ins",91,1,"SRR3698451.3674",TRUE,TRUE,196,18.8642925890279,NA,"GCC","C","TTC"
"907","ins",91,1,"SRR3698451.372",TRUE,TRUE,196,18.8642925890279,NA,"GCC","C","TTC"
"908","ins",91,1,"SRR3698451.3728",TRUE,TRUE,196,18.8642925890279,NA,"GCC","C","TTC"
"909","ins",91,1,"SRR3698451.3744",TRUE,TRUE,196,18.8642925890279,NA,"GCC","C","TTC"
"910","ins",91,1,"SRR3698451.3755",TRUE,TRUE,196,18.8642925890279,NA,"GCC","C","TTC"
"911","ins",91,1,"SRR3698451.3772",TRUE,TRUE,196,18.8642925890279,NA,"GCC","C","TTC"
"912","ins",91,1,"SRR3698451.3827",TRUE,TRUE,196,18.8642925890279,NA,"GCC","C","TTC"
"913","ins",91,1,"SRR3698451.3839",TRUE,TRUE,196,18.8642925890279,NA,"GCC","C","TTC"
"914","ins",91,1,"SRR3698451.3840",TRUE,TRUE,196,18.8642925890279,NA,"GCC","C","TTC"
"915","ins",91,1,"SRR3698451.3858",TRUE,TRUE,196,18.8642925890279,NA,"GCC","C","TTC"
"916","ins",91,1,"SRR3698451.3876",TRUE,TRUE,196,18.8642925890279,NA,"GCC","C","TTC"
"917","ins",91,1,"SRR3698451.3877",TRUE,TRUE,196,18.8642925890279,NA,"GCC","C","TTC"
"918","ins",91,1,"SRR3698451.3896",TRUE,TRUE,196,18.8642925890279,NA,"GCC","C","TTC"
"919","ins",91,1,"SRR3698451.3905",TRUE,TRUE,196,18.8642925890279,NA,"GCC","C","TTC"
"920","ins",91,1,"SRR3698451.3906",TRUE,TRUE,196,18.8642925890279,NA,"GCC","C","TTC"
"921","ins",91,1,"SRR3698451.3910",TRUE,TRUE,196,18.8642925890279,NA,"GCC","C","TTC"
"922","ins",91,1,"SRR3698451.3971",TRUE,TRUE,196,18.8642925890279,NA,"GCC","C","TTC"
"923","ins",91,1,"SRR3698451.401",TRUE,TRUE,196,18.8642925890279,NA,"GCC","C","TTC"
"924","ins",91,1,"SRR3698451.4028",TRUE,TRUE,196,18.8642925890279,NA,"GCC","C","TTC"
"925","ins",91,1,"SRR3698451.4052",TRUE,TRUE,196,18.8642925890279,NA,"GCC","C","TTC"
"926","ins",91,1,"SRR3698451.4056",TRUE,TRUE,196,18.8642925890279,NA,"GCC","C","TTC"
"927","ins",91,1,"SRR3698451.4057",TRUE,TRUE,196,18.8642925890279,NA,"GCC","C","TTC"
"928","ins",91,1,"SRR3698451.4070",TRUE,TRUE,196,18.8642925890279,NA,"GCC","C","TTC"
"929","ins",91,1,"SRR3698451.4102",TRUE,TRUE,196,18.8642925890279,NA,"GCC","C","TTC"
"930","ins",91,1,"SRR3698451.4138",TRUE,TRUE,196,18.8642925890279,NA,"GCC","C","TTC"
"931","ins",91,1,"SRR3698451.4144",TRUE,TRUE,196,18.8642925890279,NA,"GCC","C","TTC"
"932","ins",91,1,"SRR3698451.4258",TRUE,TRUE,196,18.8642925890279,NA,"GCC","C","TTC"
"933","ins",91,1,"SRR3698451.4275",TRUE,TRUE,196,18.8642925890279,NA,"GCC","C","TTC"
"934","ins",91,1,"SRR3698451.4292",TRUE,TRUE,196,18.8642925890279,NA,"GCC","C","TTC"
"935","ins",91,1,"SRR3698451.4318",TRUE,TRUE,196,18.8642925890279,NA,"GCC","C","TTC"
"936","ins",91,1,"SRR3698451.4347",TRUE,TRUE,196,18.8642925890279,NA,"GCC","C","TTC"
"937","ins",91,1,"SRR3698451.4446",TRUE,TRUE,196,18.8642925890279,NA,"GCC","C","TTC"
"938","ins",91,1,"SRR3698451.4460",TRUE,TRUE,196,18.8642925890279,NA,"GCC","C","TTC"
"939","ins",91,1,"SRR3698451.4476",TRUE,TRUE,196,18.8642925890279,NA,"GCC","C","TTC"
"940","ins",91,1,"SRR3698451.4498",TRUE,TRUE,196,18.8642925890279,NA,"GCC","C","TTC"
"941","ins",91,1,"SRR3698451.4508",TRUE,TRUE,196,18.8642925890279,NA,"GCC","C","TTC"
"942","ins",91,1,"SRR3698451.451",TRUE,TRUE,196,18.8642925890279,NA,"GCC","C","TTC"
"943","ins",91,1,"SRR3698451.4592",TRUE,TRUE,196,18.8642925890279,NA,"GCC","C","TTC"
"944","ins",91,1,"SRR3698451.4593",TRUE,TRUE,196,18.8642925890279,NA,"GCC","C","TTC"
"945","ins",91,1,"SRR3698451.4598",TRUE,TRUE,196,18.8642925890279,NA,"GCC","C","TTC"
"946","ins",91,1,"SRR3698451.4693",TRUE,TRUE,196,18.8642925890279,NA,"GCC","C","TTC"
"947","ins",91,1,"SRR3698451.4714",TRUE,TRUE,196,18.8642925890279,NA,"GCC","C","TTC"
"948","ins",91,1,"SRR3698451.4722",TRUE,TRUE,196,18.8642925890279,NA,"GCC","C","TTC"
"949","ins",91,1,"SRR3698451.4728",TRUE,TRUE,196,18.8642925890279,NA,"GCC","C","TTC"
"950","ins",91,1,"SRR3698451.4735",TRUE,TRUE,196,18.8642925890279,NA,"GCC","C","TTC"
"951","ins",91,1,"SRR3698451.4738",TRUE,TRUE,196,18.8642925890279,NA,"GCC","C","TTC"
"952","ins",91,1,"SRR3698451.4762",TRUE,TRUE,196,18.8642925890279,NA,"GCC","C","TTC"
"953","ins",91,1,"SRR3698451.4771",TRUE,TRUE,196,18.8642925890279,NA,"GCC","C","TTC"
"954","ins",91,1,"SRR3698451.4792",TRUE,TRUE,196,18.8642925890279,NA,"GCC","C","TTC"
"955","ins",91,1,"SRR3698451.481",TRUE,TRUE,196,18.8642925890279,NA,"GCC","C","TTC"
"956","ins",91,1,"SRR3698451.4829",TRUE,TRUE,196,18.8642925890279,NA,"GCC","C","TTC"
"957","ins",91,1,"SRR3698451.4899",TRUE,TRUE,196,18.8642925890279,NA,"GCC","C","TTC"
"958","ins",91,1,"SRR3698451.4939",TRUE,TRUE,196,18.8642925890279,NA,"GCC","C","TTC"
"959","ins",91,1,"SRR3698451.5013",TRUE,TRUE,196,18.8642925890279,NA,"GCC","C","TTC"
"960","ins",91,1,"SRR3698451.5070",TRUE,TRUE,196,18.8642925890279,NA,"GCC","C","TTC"
"961","ins",91,1,"SRR3698451.5076",TRUE,TRUE,196,18.8642925890279,NA,"GCC","C","TTC"
"962","ins",91,1,"SRR3698451.5083",TRUE,TRUE,196,18.8642925890279,NA,"GCC","C","TTC"
"963","ins",91,1,"SRR3698451.5117",TRUE,TRUE,196,18.8642925890279,NA,"GCC","C","TTC"
"964","ins",91,1,"SRR3698451.5156",TRUE,TRUE,196,18.8642925890279,NA,"GCC","C","TTC"
"965","ins",91,1,"SRR3698451.5162",TRUE,TRUE,196,18.8642925890279,NA,"GCC","C","TTC"
"966","ins",91,1,"SRR3698451.5205",TRUE,TRUE,196,18.8642925890279,NA,"GCC","C","TTC"
"967","ins",91,1,"SRR3698451.5226",TRUE,TRUE,196,18.8642925890279,NA,"GCC","C","TTC"
"968","ins",91,1,"SRR3698451.5243",TRUE,TRUE,196,18.8642925890279,NA,"GCC","C","TTC"
"969","ins",91,1,"SRR3698451.5282",TRUE,TRUE,196,18.8642925890279,NA,"GCC","C","TTC"
"970","ins",91,1,"SRR3698451.5286",TRUE,TRUE,196,18.8642925890279,NA,"GCC","C","TTC"
"971","ins",91,1,"SRR3698451.5309",TRUE,TRUE,196,18.8642925890279,NA,"GCC","C","TTC"
"972","ins",91,1,"SRR3698451.5320",TRUE,TRUE,196,18.8642925890279,NA,"GCC","C","TTC"
"973","ins",91,1,"SRR3698451.5347",TRUE,TRUE,196,18.8642925890279,NA,"GCC","C","TTC"
"974","ins",91,1,"SRR3698451.535",TRUE,TRUE,196,18.8642925890279,NA,"GCC","C","TTC"
"975","ins",91,1,"SRR3698451.5363",TRUE,TRUE,196,18.8642925890279,NA,"GCC","C","TTC"
"976","ins",91,1,"SRR3698451.5365",TRUE,TRUE,196,18.8642925890279,NA,"GCC","C","TTC"
"977","ins",91,1,"SRR3698451.5383",TRUE,TRUE,196,18.8642925890279,NA,"GCC","C","TTC"
"978","ins",91,1,"SRR3698451.5442",TRUE,TRUE,196,18.8642925890279,NA,"GCC","C","TTC"
"979","ins",91,1,"SRR3698451.5444",TRUE,TRUE,196,18.8642925890279,NA,"GCC","C","TTC"
"980","ins",91,1,"SRR3698451.546",TRUE,TRUE,196,18.8642925890279,NA,"GCC","C","TTC"
"981","ins",91,1,"SRR3698451.5465",TRUE,TRUE,196,18.8642925890279,NA,"GCC","C","TTC"
"982","ins",91,1,"SRR3698451.5472",TRUE,TRUE,196,18.8642925890279,NA,"GCC","C","TTC"
"983","ins",91,1,"SRR3698451.5514",TRUE,TRUE,196,18.8642925890279,NA,"GCC","C","TTC"
"984","ins",91,1,"SRR3698451.5591",TRUE,TRUE,196,18.8642925890279,NA,"GCC","C","TTC"
"985","ins",91,1,"SRR3698451.5629",TRUE,TRUE,196,18.8642925890279,NA,"GCC","C","TTC"
"986","ins",91,1,"SRR3698451.5716",TRUE,TRUE,196,18.8642925890279,NA,"GCC","C","TTC"
"987","ins",91,1,"SRR3698451.5746",TRUE,TRUE,196,18.8642925890279,NA,"GCC","C","TTC"
"988","ins",91,1,"SRR3698451.5774",TRUE,TRUE,196,18.8642925890279,NA,"GCC","C","TTC"
"989","ins",91,1,"SRR3698451.5813",TRUE,TRUE,196,18.8642925890279,NA,"GCC","C","TTC"
"990","ins",91,1,"SRR3698451.5824",TRUE,TRUE,196,18.8642925890279,NA,"GCC","C","TTC"
"991","ins",91,1,"SRR3698451.5913",TRUE,TRUE,196,18.8642925890279,NA,"GCC","C","TTC"
"992","ins",91,1,"SRR3698451.5921",TRUE,TRUE,196,18.8642925890279,NA,"GCC","C","TTC"
"993","ins",91,1,"SRR3698451.5983",TRUE,TRUE,196,18.8642925890279,NA,"GCC","C","TTC"
"994","ins",91,1,"SRR3698451.599",TRUE,TRUE,196,18.8642925890279,NA,"GCC","C","TTC"
"995","ins",91,1,"SRR3698451.5998",TRUE,TRUE,196,18.8642925890279,NA,"GCC","C","TTC"
"996","ins",91,1,"SRR3698451.6014",TRUE,TRUE,196,18.8642925890279,NA,"GCC","C","TTC"
"997","ins",91,1,"SRR3698451.6124",TRUE,TRUE,196,18.8642925890279,NA,"GCC","C","TTC"
"998","ins",91,1,"SRR3698451.6140",TRUE,TRUE,196,18.8642925890279,NA,"GCC","C","TTC"
"999","ins",91,1,"SRR3698451.620",TRUE,TRUE,196,18.8642925890279,NA,"GCC","C","TTC"
"1000","ins",91,1,"SRR3698451.621",TRUE,TRUE,196,18.8642925890279,NA,"GCC","C","TTC"
"1001","ins",91,1,"SRR3698451.623",TRUE,TRUE,196,18.8642925890279,NA,"GCC","C","TTC"
"1002","ins",91,1,"SRR3698451.6241",TRUE,TRUE,196,18.8642925890279,NA,"GCC","C","TTC"
"1003","ins",91,1,"SRR3698451.6251",TRUE,TRUE,196,18.8642925890279,NA,"GCC","C","TTC"
"1004","ins",91,1,"SRR3698451.6255",TRUE,TRUE,196,18.8642925890279,NA,"GCC","C","TTC"
"1005","ins",91,1,"SRR3698451.6312",TRUE,TRUE,196,18.8642925890279,NA,"GCC","C","TTC"
"1006","ins",91,1,"SRR3698451.6326",TRUE,TRUE,196,18.8642925890279,NA,"GCC","C","TTC"
"1007","ins",91,1,"SRR3698451.6332",TRUE,TRUE,196,18.8642925890279,NA,"GCC","C","TTC"
"1008","ins",91,1,"SRR3698451.6372",TRUE,TRUE,196,18.8642925890279,NA,"GCC","C","TTC"
"1009","ins",91,1,"SRR3698451.6416",TRUE,TRUE,196,18.8642925890279,NA,"GCC","C","TTC"
"1010","ins",91,1,"SRR3698451.6420",TRUE,TRUE,196,18.8642925890279,NA,"GCC","C","TTC"
"1011","ins",91,1,"SRR3698451.65",TRUE,TRUE,196,18.8642925890279,NA,"GCC","C","TTC"
"1012","ins",91,1,"SRR3698451.650",TRUE,TRUE,196,18.8642925890279,NA,"GCC","C","TTC"
"1013","ins",91,1,"SRR3698451.658",TRUE,TRUE,196,18.8642925890279,NA,"GCC","C","TTC"
"1014","ins",91,1,"SRR3698451.681",TRUE,TRUE,196,18.8642925890279,NA,"GCC","C","TTC"
"1015","ins",91,1,"SRR3698451.696",TRUE,TRUE,196,18.8642925890279,NA,"GCC","C","TTC"
"1016","ins",91,1,"SRR3698451.706",TRUE,TRUE,196,18.8642925890279,NA,"GCC","C","TTC"
"1017","ins",91,1,"SRR3698451.745",TRUE,TRUE,196,18.8642925890279,NA,"GCC","C","TTC"
"1018","ins",91,1,"SRR3698451.750",TRUE,TRUE,196,18.8642925890279,NA,"GCC","C","TTC"
"1019","ins",91,1,"SRR3698451.823",TRUE,TRUE,196,18.8642925890279,NA,"GCC","C","TTC"
"1020","ins",91,1,"SRR3698451.885",TRUE,TRUE,196,18.8642925890279,NA,"GCC","C","TTC"
"1021","ins",91,1,"SRR3698451.967",TRUE,TRUE,196,18.8642925890279,NA,"GCC","C","TTC"
"1022","ins",91,1,"SRR3698451.992",TRUE,TRUE,196,18.8642925890279,NA,"GCC","C","TTC"
"1023","ins",91,2,"SRR3698451.1905",TRUE,TRUE,2,0.192492781520693,NA,"GCC","CC","TTC"
"1024","ins",91,2,"SRR3698451.4819",TRUE,TRUE,2,0.192492781520693,NA,"GCC","CC","TTC"
"1025","ins",91,3,"SRR3698451.5209",TRUE,TRUE,1,0.0962463907603465,NA,"GCC","TCC","TTC"
"1026","ins",90,1,"SRR3698451.3167",FALSE,TRUE,6,0.577478344562079,NA,"GGC","T","CTT"
"1027","ins",90,1,"SRR3698451.333",FALSE,TRUE,6,0.577478344562079,NA,"GGC","T","CTT"
"1028","ins",90,1,"SRR3698451.3765",FALSE,TRUE,6,0.577478344562079,NA,"GGC","T","CTT"
"1029","ins",90,1,"SRR3698451.4968",FALSE,TRUE,6,0.577478344562079,NA,"GGC","G","CTT"
"1030","ins",90,1,"SRR3698451.5907",FALSE,TRUE,6,0.577478344562079,NA,"GGC","G","CTT"
"1031","ins",90,1,"SRR3698451.6375",FALSE,TRUE,6,0.577478344562079,NA,"GGC","A","CTT"
"1032","ins",91,2,"SRR3698451.2299",TRUE,TRUE,2,0.192492781520693,NA,"GCC","TC","TTC"
"1033","ins",91,2,"SRR3698451.3297",TRUE,TRUE,2,0.192492781520693,NA,"GCC","TC","TTC"
"1034","ins",91,1,"SRR3698451.1804",TRUE,TRUE,6,0.577478344562079,NA,"GCC","T","TTC"
"1035","ins",91,1,"SRR3698451.2484",TRUE,TRUE,6,0.577478344562079,NA,"GCC","T","TTC"
"1036","ins",91,1,"SRR3698451.3320",TRUE,TRUE,6,0.577478344562079,NA,"GCC","G","TTC"
"1037","ins",91,1,"SRR3698451.399",TRUE,TRUE,6,0.577478344562079,NA,"GCC","T","TTC"
"1038","ins",91,1,"SRR3698451.4366",TRUE,TRUE,6,0.577478344562079,NA,"GCC","T","TTC"
"1039","ins",91,1,"SRR3698451.5854",TRUE,TRUE,6,0.577478344562079,NA,"GCC","T","TTC"
