"","Modification","Start","Length","Ids","above_error_rate","in_pick","freq","Perc","patterns","pre_ins_nt","ins_nt","post_ins_nt"
"1","del",5,1,"SRR3698502.3470",FALSE,FALSE,2,0.256410256410256,"NHEJ",NA,NA,NA
"2","del",5,1,"SRR3698502.5296",FALSE,FALSE,2,0.256410256410256,"NHEJ",NA,NA,NA
"3","del",6,1,"SRR3698502.1245",TRUE,FALSE,5,0.641025641025641,"NHEJ",NA,NA,NA
"4","del",6,1,"SRR3698502.212",TRUE,FALSE,5,0.641025641025641,"NHEJ",NA,NA,NA
"5","del",6,1,"SRR3698502.3459",TRUE,FALSE,5,0.641025641025641,"NHEJ",NA,NA,NA
"6","del",6,1,"SRR3698502.4019",TRUE,FALSE,5,0.641025641025641,"NHEJ",NA,NA,NA
"7","del",6,1,"SRR3698502.6343",TRUE,FALSE,5,0.641025641025641,"NHEJ",NA,NA,NA
"8","del",7,1,"SRR3698502.3634",TRUE,FALSE,2,0.256410256410256,"NHEJ",NA,NA,NA
"9","del",7,1,"SRR3698502.7014",TRUE,FALSE,2,0.256410256410256,"NHEJ",NA,NA,NA
"10","del",8,1,"SRR3698502.2953",TRUE,FALSE,9,1.15384615384615,"NHEJ",NA,NA,NA
"11","del",8,1,"SRR3698502.3624",TRUE,FALSE,9,1.15384615384615,"NHEJ",NA,NA,NA
"12","del",8,1,"SRR3698502.4229",TRUE,FALSE,9,1.15384615384615,"NHEJ",NA,NA,NA
"13","del",8,1,"SRR3698502.4311",TRUE,FALSE,9,1.15384615384615,"NHEJ",NA,NA,NA
"14","del",8,1,"SRR3698502.4600",TRUE,FALSE,9,1.15384615384615,"NHEJ",NA,NA,NA
"15","del",8,1,"SRR3698502.5166",TRUE,FALSE,9,1.15384615384615,"NHEJ",NA,NA,NA
"16","del",8,1,"SRR3698502.6613",TRUE,FALSE,9,1.15384615384615,"NHEJ",NA,NA,NA
"17","del",8,1,"SRR3698502.6766",TRUE,FALSE,9,1.15384615384615,"NHEJ",NA,NA,NA
"18","del",8,1,"SRR3698502.7242",TRUE,FALSE,9,1.15384615384615,"NHEJ",NA,NA,NA
"19","del",9,1,"SRR3698502.151",TRUE,FALSE,7,0.897435897435897,"NHEJ",NA,NA,NA
"20","del",9,1,"SRR3698502.2186",TRUE,FALSE,7,0.897435897435897,"NHEJ",NA,NA,NA
"21","del",9,1,"SRR3698502.2445",TRUE,FALSE,7,0.897435897435897,"NHEJ",NA,NA,NA
"22","del",9,1,"SRR3698502.2662",TRUE,FALSE,7,0.897435897435897,"NHEJ",NA,NA,NA
"23","del",9,1,"SRR3698502.484",TRUE,FALSE,7,0.897435897435897,"NHEJ",NA,NA,NA
"24","del",9,1,"SRR3698502.7508",TRUE,FALSE,7,0.897435897435897,"NHEJ",NA,NA,NA
"25","del",9,1,"SRR3698502.7959",TRUE,FALSE,7,0.897435897435897,"NHEJ",NA,NA,NA
"26","del",10,1,"SRR3698502.260",TRUE,FALSE,5,0.641025641025641,"NHEJ",NA,NA,NA
"27","del",10,1,"SRR3698502.3458",TRUE,FALSE,5,0.641025641025641,"NHEJ",NA,NA,NA
"28","del",10,1,"SRR3698502.4899",TRUE,FALSE,5,0.641025641025641,"NHEJ",NA,NA,NA
"29","del",10,1,"SRR3698502.5850",TRUE,FALSE,5,0.641025641025641,"NHEJ",NA,NA,NA
"30","del",10,1,"SRR3698502.6264",TRUE,FALSE,5,0.641025641025641,"NHEJ",NA,NA,NA
"31","del",11,1,"SRR3698502.3247",TRUE,FALSE,5,0.641025641025641,"A",NA,NA,NA
"32","del",11,1,"SRR3698502.3861",TRUE,FALSE,5,0.641025641025641,"A",NA,NA,NA
"33","del",11,1,"SRR3698502.5507",TRUE,FALSE,5,0.641025641025641,"A",NA,NA,NA
"34","del",11,1,"SRR3698502.836",TRUE,FALSE,5,0.641025641025641,"A",NA,NA,NA
"35","del",11,1,"SRR3698502.851",TRUE,FALSE,5,0.641025641025641,"A",NA,NA,NA
"36","del",13,1,"SRR3698502.2042",FALSE,FALSE,1,0.128205128205128,"C",NA,NA,NA
"37","del",32,1,"SRR3698502.4221",FALSE,FALSE,1,0.128205128205128,"NHEJ",NA,NA,NA
"38","del",48,1,"SRR3698502.4594",FALSE,FALSE,1,0.128205128205128,"C",NA,NA,NA
"39","del",51,1,"SRR3698502.4364",FALSE,FALSE,1,0.128205128205128,"A",NA,NA,NA
"40","del",59,43,"SRR3698502.321",TRUE,FALSE,5,0.641025641025641,"GT",NA,NA,NA
"41","del",59,43,"SRR3698502.3828",TRUE,FALSE,5,0.641025641025641,"GT",NA,NA,NA
"42","del",59,43,"SRR3698502.459",TRUE,FALSE,5,0.641025641025641,"GT",NA,NA,NA
"43","del",59,43,"SRR3698502.4925",TRUE,FALSE,5,0.641025641025641,"GT",NA,NA,NA
"44","del",59,43,"SRR3698502.7345",TRUE,FALSE,5,0.641025641025641,"GT",NA,NA,NA
"45","del",60,37,"SRR3698502.1161",TRUE,FALSE,7,0.897435897435897,"T",NA,NA,NA
"46","del",60,37,"SRR3698502.193",TRUE,FALSE,7,0.897435897435897,"T",NA,NA,NA
"47","del",60,37,"SRR3698502.2465",TRUE,FALSE,7,0.897435897435897,"T",NA,NA,NA
"48","del",60,37,"SRR3698502.2850",TRUE,FALSE,7,0.897435897435897,"T",NA,NA,NA
"49","del",60,37,"SRR3698502.5363",TRUE,FALSE,7,0.897435897435897,"T",NA,NA,NA
"50","del",60,37,"SRR3698502.5593",TRUE,FALSE,7,0.897435897435897,"T",NA,NA,NA
"51","del",60,37,"SRR3698502.5978",TRUE,FALSE,7,0.897435897435897,"T",NA,NA,NA
"52","del",66,30,"SRR3698502.6779",TRUE,TRUE,3,0.384615384615385,"NHEJ",NA,NA,NA
"53","del",66,30,"SRR3698502.7385",TRUE,TRUE,3,0.384615384615385,"NHEJ",NA,NA,NA
"54","del",66,30,"SRR3698502.8211",TRUE,TRUE,3,0.384615384615385,"NHEJ",NA,NA,NA
"55","del",70,26,"SRR3698502.1326",TRUE,TRUE,8,1.02564102564103,"CTG",NA,NA,NA
"56","del",70,26,"SRR3698502.1448",TRUE,TRUE,8,1.02564102564103,"CTG",NA,NA,NA
"57","del",70,26,"SRR3698502.4065",TRUE,TRUE,8,1.02564102564103,"CTG",NA,NA,NA
"58","del",70,26,"SRR3698502.4386",TRUE,TRUE,8,1.02564102564103,"CTG",NA,NA,NA
"59","del",70,26,"SRR3698502.4752",TRUE,TRUE,8,1.02564102564103,"CTG",NA,NA,NA
"60","del",70,26,"SRR3698502.7001",TRUE,TRUE,8,1.02564102564103,"CTG",NA,NA,NA
"61","del",70,26,"SRR3698502.7925",TRUE,TRUE,8,1.02564102564103,"CTG",NA,NA,NA
"62","del",70,26,"SRR3698502.8067",TRUE,TRUE,8,1.02564102564103,"CTG",NA,NA,NA
"63","del",70,29,"SRR3698502.2236",TRUE,TRUE,7,0.897435897435897,"CTGG",NA,NA,NA
"64","del",70,29,"SRR3698502.3663",TRUE,TRUE,7,0.897435897435897,"CTGG",NA,NA,NA
"65","del",70,29,"SRR3698502.3974",TRUE,TRUE,7,0.897435897435897,"CTGG",NA,NA,NA
"66","del",70,29,"SRR3698502.5583",TRUE,TRUE,7,0.897435897435897,"CTGG",NA,NA,NA
"67","del",70,29,"SRR3698502.6117",TRUE,TRUE,7,0.897435897435897,"CTGG",NA,NA,NA
"68","del",70,29,"SRR3698502.7419",TRUE,TRUE,7,0.897435897435897,"CTGG",NA,NA,NA
"69","del",70,29,"SRR3698502.7749",TRUE,TRUE,7,0.897435897435897,"CTGG",NA,NA,NA
"70","del",71,32,"SRR3698502.2276",TRUE,TRUE,10,1.28205128205128,"TGG",NA,NA,NA
"71","del",71,32,"SRR3698502.2469",TRUE,TRUE,10,1.28205128205128,"TGG",NA,NA,NA
"72","del",71,32,"SRR3698502.3239",TRUE,TRUE,10,1.28205128205128,"TGG",NA,NA,NA
"73","del",71,32,"SRR3698502.3666",TRUE,TRUE,10,1.28205128205128,"TGG",NA,NA,NA
"74","del",71,32,"SRR3698502.5750",TRUE,TRUE,10,1.28205128205128,"TGG",NA,NA,NA
"75","del",71,32,"SRR3698502.6431",TRUE,TRUE,10,1.28205128205128,"TGG",NA,NA,NA
"76","del",71,32,"SRR3698502.6595",TRUE,TRUE,10,1.28205128205128,"TGG",NA,NA,NA
"77","del",71,32,"SRR3698502.712",TRUE,TRUE,10,1.28205128205128,"TGG",NA,NA,NA
"78","del",71,32,"SRR3698502.8069",TRUE,TRUE,10,1.28205128205128,"TGG",NA,NA,NA
"79","del",71,32,"SRR3698502.8270",TRUE,TRUE,10,1.28205128205128,"TGG",NA,NA,NA
"80","del",73,28,"SRR3698502.1200",TRUE,TRUE,2,0.256410256410256,"GG",NA,NA,NA
"81","del",73,28,"SRR3698502.1229",TRUE,TRUE,2,0.256410256410256,"GG",NA,NA,NA
"82","del",74,24,"SRR3698502.1539",TRUE,TRUE,8,1.02564102564103,"G",NA,NA,NA
"83","del",74,24,"SRR3698502.329",TRUE,TRUE,8,1.02564102564103,"G",NA,NA,NA
"84","del",74,24,"SRR3698502.340",TRUE,TRUE,8,1.02564102564103,"G",NA,NA,NA
"85","del",74,24,"SRR3698502.4881",TRUE,TRUE,8,1.02564102564103,"G",NA,NA,NA
"86","del",74,24,"SRR3698502.5517",TRUE,TRUE,8,1.02564102564103,"G",NA,NA,NA
"87","del",74,24,"SRR3698502.5979",TRUE,TRUE,8,1.02564102564103,"G",NA,NA,NA
"88","del",74,24,"SRR3698502.5990",TRUE,TRUE,8,1.02564102564103,"G",NA,NA,NA
"89","del",74,24,"SRR3698502.6618",TRUE,TRUE,8,1.02564102564103,"G",NA,NA,NA
"90","del",76,21,"SRR3698502.1105",TRUE,TRUE,8,1.02564102564103,"TG",NA,NA,NA
"91","del",76,21,"SRR3698502.2223",TRUE,TRUE,8,1.02564102564103,"TG",NA,NA,NA
"92","del",76,21,"SRR3698502.3811",TRUE,TRUE,8,1.02564102564103,"TG",NA,NA,NA
"93","del",76,21,"SRR3698502.3921",TRUE,TRUE,8,1.02564102564103,"TG",NA,NA,NA
"94","del",76,21,"SRR3698502.4421",TRUE,TRUE,8,1.02564102564103,"TG",NA,NA,NA
"95","del",76,21,"SRR3698502.5091",TRUE,TRUE,8,1.02564102564103,"TG",NA,NA,NA
"96","del",76,21,"SRR3698502.6391",TRUE,TRUE,8,1.02564102564103,"TG",NA,NA,NA
"97","del",76,21,"SRR3698502.784",TRUE,TRUE,8,1.02564102564103,"TG",NA,NA,NA
"98","del",76,23,"SRR3698502.4353",FALSE,TRUE,1,0.128205128205128,"NHEJ",NA,NA,NA
"99","del",76,24,"SRR3698502.1115",TRUE,TRUE,81,10.3846153846154,"TGGTGG",NA,NA,NA
"100","del",76,24,"SRR3698502.1130",TRUE,TRUE,81,10.3846153846154,"TGGTGG",NA,NA,NA
"101","del",76,24,"SRR3698502.1212",TRUE,TRUE,81,10.3846153846154,"TGGTGG",NA,NA,NA
"102","del",76,24,"SRR3698502.1304",TRUE,TRUE,81,10.3846153846154,"TGGTGG",NA,NA,NA
"103","del",76,24,"SRR3698502.1328",TRUE,TRUE,81,10.3846153846154,"TGGTGG",NA,NA,NA
"104","del",76,24,"SRR3698502.1424",TRUE,TRUE,81,10.3846153846154,"TGGTGG",NA,NA,NA
"105","del",76,24,"SRR3698502.152",TRUE,TRUE,81,10.3846153846154,"TGGTGG",NA,NA,NA
"106","del",76,24,"SRR3698502.1563",TRUE,TRUE,81,10.3846153846154,"TGGTGG",NA,NA,NA
"107","del",76,24,"SRR3698502.1596",TRUE,TRUE,81,10.3846153846154,"TGGTGG",NA,NA,NA
"108","del",76,24,"SRR3698502.164",TRUE,TRUE,81,10.3846153846154,"TGGTGG",NA,NA,NA
"109","del",76,24,"SRR3698502.1949",TRUE,TRUE,81,10.3846153846154,"TGGTGG",NA,NA,NA
"110","del",76,24,"SRR3698502.2013",TRUE,TRUE,81,10.3846153846154,"TGGTGG",NA,NA,NA
"111","del",76,24,"SRR3698502.2015",TRUE,TRUE,81,10.3846153846154,"TGGTGG",NA,NA,NA
"112","del",76,24,"SRR3698502.2123",TRUE,TRUE,81,10.3846153846154,"TGGTGG",NA,NA,NA
"113","del",76,24,"SRR3698502.2266",TRUE,TRUE,81,10.3846153846154,"TGGTGG",NA,NA,NA
"114","del",76,24,"SRR3698502.2375",TRUE,TRUE,81,10.3846153846154,"TGGTGG",NA,NA,NA
"115","del",76,24,"SRR3698502.2497",TRUE,TRUE,81,10.3846153846154,"TGGTGG",NA,NA,NA
"116","del",76,24,"SRR3698502.2506",TRUE,TRUE,81,10.3846153846154,"TGGTGG",NA,NA,NA
"117","del",76,24,"SRR3698502.2535",TRUE,TRUE,81,10.3846153846154,"TGGTGG",NA,NA,NA
"118","del",76,24,"SRR3698502.2663",TRUE,TRUE,81,10.3846153846154,"TGGTGG",NA,NA,NA
"119","del",76,24,"SRR3698502.2834",TRUE,TRUE,81,10.3846153846154,"TGGTGG",NA,NA,NA
"120","del",76,24,"SRR3698502.2908",TRUE,TRUE,81,10.3846153846154,"TGGTGG",NA,NA,NA
"121","del",76,24,"SRR3698502.304",TRUE,TRUE,81,10.3846153846154,"TGGTGG",NA,NA,NA
"122","del",76,24,"SRR3698502.305",TRUE,TRUE,81,10.3846153846154,"TGGTGG",NA,NA,NA
"123","del",76,24,"SRR3698502.3195",TRUE,TRUE,81,10.3846153846154,"TGGTGG",NA,NA,NA
"124","del",76,24,"SRR3698502.3259",TRUE,TRUE,81,10.3846153846154,"TGGTGG",NA,NA,NA
"125","del",76,24,"SRR3698502.3340",TRUE,TRUE,81,10.3846153846154,"TGGTGG",NA,NA,NA
"126","del",76,24,"SRR3698502.3361",TRUE,TRUE,81,10.3846153846154,"TGGTGG",NA,NA,NA
"127","del",76,24,"SRR3698502.3494",TRUE,TRUE,81,10.3846153846154,"TGGTGG",NA,NA,NA
"128","del",76,24,"SRR3698502.3522",TRUE,TRUE,81,10.3846153846154,"TGGTGG",NA,NA,NA
"129","del",76,24,"SRR3698502.3803",TRUE,TRUE,81,10.3846153846154,"TGGTGG",NA,NA,NA
"130","del",76,24,"SRR3698502.3820",TRUE,TRUE,81,10.3846153846154,"TGGTGG",NA,NA,NA
"131","del",76,24,"SRR3698502.3947",TRUE,TRUE,81,10.3846153846154,"TGGTGG",NA,NA,NA
"132","del",76,24,"SRR3698502.4010",TRUE,TRUE,81,10.3846153846154,"TGGTGG",NA,NA,NA
"133","del",76,24,"SRR3698502.4049",TRUE,TRUE,81,10.3846153846154,"TGGTGG",NA,NA,NA
"134","del",76,24,"SRR3698502.410",TRUE,TRUE,81,10.3846153846154,"TGGTGG",NA,NA,NA
"135","del",76,24,"SRR3698502.4163",TRUE,TRUE,81,10.3846153846154,"TGGTGG",NA,NA,NA
"136","del",76,24,"SRR3698502.4228",TRUE,TRUE,81,10.3846153846154,"TGGTGG",NA,NA,NA
"137","del",76,24,"SRR3698502.4252",TRUE,TRUE,81,10.3846153846154,"TGGTGG",NA,NA,NA
"138","del",76,24,"SRR3698502.4527",TRUE,TRUE,81,10.3846153846154,"TGGTGG",NA,NA,NA
"139","del",76,24,"SRR3698502.4826",TRUE,TRUE,81,10.3846153846154,"TGGTGG",NA,NA,NA
"140","del",76,24,"SRR3698502.4855",TRUE,TRUE,81,10.3846153846154,"TGGTGG",NA,NA,NA
"141","del",76,24,"SRR3698502.490",TRUE,TRUE,81,10.3846153846154,"TGGTGG",NA,NA,NA
"142","del",76,24,"SRR3698502.4904",TRUE,TRUE,81,10.3846153846154,"TGGTGG",NA,NA,NA
"143","del",76,24,"SRR3698502.4923",TRUE,TRUE,81,10.3846153846154,"TGGTGG",NA,NA,NA
"144","del",76,24,"SRR3698502.4967",TRUE,TRUE,81,10.3846153846154,"TGGTGG",NA,NA,NA
"145","del",76,24,"SRR3698502.5071",TRUE,TRUE,81,10.3846153846154,"TGGTGG",NA,NA,NA
"146","del",76,24,"SRR3698502.5119",TRUE,TRUE,81,10.3846153846154,"TGGTGG",NA,NA,NA
"147","del",76,24,"SRR3698502.5305",TRUE,TRUE,81,10.3846153846154,"TGGTGG",NA,NA,NA
"148","del",76,24,"SRR3698502.5388",TRUE,TRUE,81,10.3846153846154,"TGGTGG",NA,NA,NA
"149","del",76,24,"SRR3698502.5411",TRUE,TRUE,81,10.3846153846154,"TGGTGG",NA,NA,NA
"150","del",76,24,"SRR3698502.5472",TRUE,TRUE,81,10.3846153846154,"TGGTGG",NA,NA,NA
"151","del",76,24,"SRR3698502.5727",TRUE,TRUE,81,10.3846153846154,"TGGTGG",NA,NA,NA
"152","del",76,24,"SRR3698502.5770",TRUE,TRUE,81,10.3846153846154,"TGGTGG",NA,NA,NA
"153","del",76,24,"SRR3698502.5864",TRUE,TRUE,81,10.3846153846154,"TGGTGG",NA,NA,NA
"154","del",76,24,"SRR3698502.6001",TRUE,TRUE,81,10.3846153846154,"TGGTGG",NA,NA,NA
"155","del",76,24,"SRR3698502.6051",TRUE,TRUE,81,10.3846153846154,"TGGTGG",NA,NA,NA
"156","del",76,24,"SRR3698502.6082",TRUE,TRUE,81,10.3846153846154,"TGGTGG",NA,NA,NA
"157","del",76,24,"SRR3698502.6428",TRUE,TRUE,81,10.3846153846154,"TGGTGG",NA,NA,NA
"158","del",76,24,"SRR3698502.6483",TRUE,TRUE,81,10.3846153846154,"TGGTGG",NA,NA,NA
"159","del",76,24,"SRR3698502.6809",TRUE,TRUE,81,10.3846153846154,"TGGTGG",NA,NA,NA
"160","del",76,24,"SRR3698502.7065",TRUE,TRUE,81,10.3846153846154,"TGGTGG",NA,NA,NA
"161","del",76,24,"SRR3698502.7101",TRUE,TRUE,81,10.3846153846154,"TGGTGG",NA,NA,NA
"162","del",76,24,"SRR3698502.7177",TRUE,TRUE,81,10.3846153846154,"TGGTGG",NA,NA,NA
"163","del",76,24,"SRR3698502.7185",TRUE,TRUE,81,10.3846153846154,"TGGTGG",NA,NA,NA
"164","del",76,24,"SRR3698502.7222",TRUE,TRUE,81,10.3846153846154,"TGGTGG",NA,NA,NA
"165","del",76,24,"SRR3698502.7331",TRUE,TRUE,81,10.3846153846154,"TGGTGG",NA,NA,NA
"166","del",76,24,"SRR3698502.7476",TRUE,TRUE,81,10.3846153846154,"TGGTGG",NA,NA,NA
"167","del",76,24,"SRR3698502.7547",TRUE,TRUE,81,10.3846153846154,"TGGTGG",NA,NA,NA
"168","del",76,24,"SRR3698502.7577",TRUE,TRUE,81,10.3846153846154,"TGGTGG",NA,NA,NA
"169","del",76,24,"SRR3698502.7584",TRUE,TRUE,81,10.3846153846154,"TGGTGG",NA,NA,NA
"170","del",76,24,"SRR3698502.7595",TRUE,TRUE,81,10.3846153846154,"TGGTGG",NA,NA,NA
"171","del",76,24,"SRR3698502.7683",TRUE,TRUE,81,10.3846153846154,"TGGTGG",NA,NA,NA
"172","del",76,24,"SRR3698502.7889",TRUE,TRUE,81,10.3846153846154,"TGGTGG",NA,NA,NA
"173","del",76,24,"SRR3698502.7953",TRUE,TRUE,81,10.3846153846154,"TGGTGG",NA,NA,NA
"174","del",76,24,"SRR3698502.8032",TRUE,TRUE,81,10.3846153846154,"TGGTGG",NA,NA,NA
"175","del",76,24,"SRR3698502.8054",TRUE,TRUE,81,10.3846153846154,"TGGTGG",NA,NA,NA
"176","del",76,24,"SRR3698502.810",TRUE,TRUE,81,10.3846153846154,"TGGTGG",NA,NA,NA
"177","del",76,24,"SRR3698502.8225",TRUE,TRUE,81,10.3846153846154,"TGGTGG",NA,NA,NA
"178","del",76,24,"SRR3698502.824",TRUE,TRUE,81,10.3846153846154,"TGGTGG",NA,NA,NA
"179","del",76,24,"SRR3698502.8259",TRUE,TRUE,81,10.3846153846154,"TGGTGG",NA,NA,NA
"180","del",76,27,"SRR3698502.1557",TRUE,TRUE,19,2.43589743589744,"TGGTGG",NA,NA,NA
"181","del",76,27,"SRR3698502.1598",TRUE,TRUE,19,2.43589743589744,"TGGTGG",NA,NA,NA
"182","del",76,27,"SRR3698502.1777",TRUE,TRUE,19,2.43589743589744,"TGGTGG",NA,NA,NA
"183","del",76,27,"SRR3698502.2500",TRUE,TRUE,19,2.43589743589744,"TGGTGG",NA,NA,NA
"184","del",76,27,"SRR3698502.2808",TRUE,TRUE,19,2.43589743589744,"TGGTGG",NA,NA,NA
"185","del",76,27,"SRR3698502.3412",TRUE,TRUE,19,2.43589743589744,"TGGTGG",NA,NA,NA
"186","del",76,27,"SRR3698502.398",TRUE,TRUE,19,2.43589743589744,"TGGTGG",NA,NA,NA
"187","del",76,27,"SRR3698502.431",TRUE,TRUE,19,2.43589743589744,"TGGTGG",NA,NA,NA
"188","del",76,27,"SRR3698502.5046",TRUE,TRUE,19,2.43589743589744,"TGGTGG",NA,NA,NA
"189","del",76,27,"SRR3698502.5506",TRUE,TRUE,19,2.43589743589744,"TGGTGG",NA,NA,NA
"190","del",76,27,"SRR3698502.5570",TRUE,TRUE,19,2.43589743589744,"TGGTGG",NA,NA,NA
"191","del",76,27,"SRR3698502.5601",TRUE,TRUE,19,2.43589743589744,"TGGTGG",NA,NA,NA
"192","del",76,27,"SRR3698502.5723",TRUE,TRUE,19,2.43589743589744,"TGGTGG",NA,NA,NA
"193","del",76,27,"SRR3698502.5809",TRUE,TRUE,19,2.43589743589744,"TGGTGG",NA,NA,NA
"194","del",76,27,"SRR3698502.6268",TRUE,TRUE,19,2.43589743589744,"TGGTGG",NA,NA,NA
"195","del",76,27,"SRR3698502.6558",TRUE,TRUE,19,2.43589743589744,"TGGTGG",NA,NA,NA
"196","del",76,27,"SRR3698502.6738",TRUE,TRUE,19,2.43589743589744,"TGGTGG",NA,NA,NA
"197","del",76,27,"SRR3698502.7132",TRUE,TRUE,19,2.43589743589744,"TGGTGG",NA,NA,NA
"198","del",76,27,"SRR3698502.8018",TRUE,TRUE,19,2.43589743589744,"TGGTGG",NA,NA,NA
"199","del",78,17,"SRR3698502.2688",TRUE,TRUE,3,0.384615384615385,"G",NA,NA,NA
"200","del",78,17,"SRR3698502.4454",TRUE,TRUE,3,0.384615384615385,"G",NA,NA,NA
"201","del",78,17,"SRR3698502.8241",TRUE,TRUE,3,0.384615384615385,"G",NA,NA,NA
"202","del",79,18,"SRR3698502.2387",TRUE,TRUE,6,0.769230769230769,"TG",NA,NA,NA
"203","del",79,18,"SRR3698502.3700",TRUE,TRUE,6,0.769230769230769,"TG",NA,NA,NA
"204","del",79,18,"SRR3698502.727",TRUE,TRUE,6,0.769230769230769,"TG",NA,NA,NA
"205","del",79,18,"SRR3698502.7381",TRUE,TRUE,6,0.769230769230769,"TG",NA,NA,NA
"206","del",79,18,"SRR3698502.7871",TRUE,TRUE,6,0.769230769230769,"TG",NA,NA,NA
"207","del",79,18,"SRR3698502.970",TRUE,TRUE,6,0.769230769230769,"TG",NA,NA,NA
"208","del",80,1,"SRR3698502.1095",TRUE,TRUE,19,2.43589743589744,"G",NA,NA,NA
"209","del",80,1,"SRR3698502.1226",TRUE,TRUE,19,2.43589743589744,"G",NA,NA,NA
"210","del",80,1,"SRR3698502.1452",TRUE,TRUE,19,2.43589743589744,"G",NA,NA,NA
"211","del",80,1,"SRR3698502.2341",TRUE,TRUE,19,2.43589743589744,"G",NA,NA,NA
"212","del",80,1,"SRR3698502.2722",TRUE,TRUE,19,2.43589743589744,"G",NA,NA,NA
"213","del",80,1,"SRR3698502.3242",TRUE,TRUE,19,2.43589743589744,"G",NA,NA,NA
"214","del",80,1,"SRR3698502.3246",TRUE,TRUE,19,2.43589743589744,"G",NA,NA,NA
"215","del",80,1,"SRR3698502.4545",TRUE,TRUE,19,2.43589743589744,"G",NA,NA,NA
"216","del",80,1,"SRR3698502.4848",TRUE,TRUE,19,2.43589743589744,"G",NA,NA,NA
"217","del",80,1,"SRR3698502.525",TRUE,TRUE,19,2.43589743589744,"G",NA,NA,NA
"218","del",80,1,"SRR3698502.5888",TRUE,TRUE,19,2.43589743589744,"G",NA,NA,NA
"219","del",80,1,"SRR3698502.5891",TRUE,TRUE,19,2.43589743589744,"G",NA,NA,NA
"220","del",80,1,"SRR3698502.6545",TRUE,TRUE,19,2.43589743589744,"G",NA,NA,NA
"221","del",80,1,"SRR3698502.6725",TRUE,TRUE,19,2.43589743589744,"G",NA,NA,NA
"222","del",80,1,"SRR3698502.7297",TRUE,TRUE,19,2.43589743589744,"G",NA,NA,NA
"223","del",80,1,"SRR3698502.7545",TRUE,TRUE,19,2.43589743589744,"G",NA,NA,NA
"224","del",80,1,"SRR3698502.7687",TRUE,TRUE,19,2.43589743589744,"G",NA,NA,NA
"225","del",80,1,"SRR3698502.8059",TRUE,TRUE,19,2.43589743589744,"G",NA,NA,NA
"226","del",80,1,"SRR3698502.912",TRUE,TRUE,19,2.43589743589744,"G",NA,NA,NA
"227","del",80,2,"SRR3698502.1624",FALSE,TRUE,1,0.128205128205128,"GG",NA,NA,NA
"228","del",81,20,"SRR3698502.1883",TRUE,TRUE,11,1.41025641025641,"GG",NA,NA,NA
"229","del",81,20,"SRR3698502.3204",TRUE,TRUE,11,1.41025641025641,"GG",NA,NA,NA
"230","del",81,20,"SRR3698502.3209",TRUE,TRUE,11,1.41025641025641,"GG",NA,NA,NA
"231","del",81,20,"SRR3698502.328",TRUE,TRUE,11,1.41025641025641,"GG",NA,NA,NA
"232","del",81,20,"SRR3698502.466",TRUE,TRUE,11,1.41025641025641,"GG",NA,NA,NA
"233","del",81,20,"SRR3698502.5017",TRUE,TRUE,11,1.41025641025641,"GG",NA,NA,NA
"234","del",81,20,"SRR3698502.6077",TRUE,TRUE,11,1.41025641025641,"GG",NA,NA,NA
"235","del",81,20,"SRR3698502.65",TRUE,TRUE,11,1.41025641025641,"GG",NA,NA,NA
"236","del",81,20,"SRR3698502.6933",TRUE,TRUE,11,1.41025641025641,"GG",NA,NA,NA
"237","del",81,20,"SRR3698502.6989",TRUE,TRUE,11,1.41025641025641,"GG",NA,NA,NA
"238","del",81,20,"SRR3698502.7250",TRUE,TRUE,11,1.41025641025641,"GG",NA,NA,NA
"239","del",82,13,"SRR3698502.461",TRUE,TRUE,2,0.256410256410256,"G",NA,NA,NA
"240","del",82,13,"SRR3698502.7854",TRUE,TRUE,2,0.256410256410256,"G",NA,NA,NA
"241","del",82,16,"SRR3698502.1583",TRUE,TRUE,5,0.641025641025641,"G",NA,NA,NA
"242","del",82,16,"SRR3698502.2580",TRUE,TRUE,5,0.641025641025641,"G",NA,NA,NA
"243","del",82,16,"SRR3698502.2797",TRUE,TRUE,5,0.641025641025641,"G",NA,NA,NA
"244","del",82,16,"SRR3698502.6271",TRUE,TRUE,5,0.641025641025641,"G",NA,NA,NA
"245","del",82,16,"SRR3698502.8003",TRUE,TRUE,5,0.641025641025641,"G",NA,NA,NA
"246","del",82,19,"SRR3698502.2840",TRUE,TRUE,2,0.256410256410256,"GG",NA,NA,NA
"247","del",82,19,"SRR3698502.5373",TRUE,TRUE,2,0.256410256410256,"GG",NA,NA,NA
"248","del",82,31,"SRR3698502.2357",TRUE,TRUE,3,0.384615384615385,"GGG",NA,NA,NA
"249","del",82,31,"SRR3698502.4346",TRUE,TRUE,3,0.384615384615385,"GGG",NA,NA,NA
"250","del",82,31,"SRR3698502.80",TRUE,TRUE,3,0.384615384615385,"GGG",NA,NA,NA
"251","del",83,18,"SRR3698502.1468",TRUE,TRUE,2,0.256410256410256,"GG",NA,NA,NA
"252","del",83,18,"SRR3698502.4780",TRUE,TRUE,2,0.256410256410256,"GG",NA,NA,NA
"253","del",83,21,"SRR3698502.1676",TRUE,TRUE,6,0.769230769230769,"GG",NA,NA,NA
"254","del",83,21,"SRR3698502.2327",TRUE,TRUE,6,0.769230769230769,"GG",NA,NA,NA
"255","del",83,21,"SRR3698502.259",TRUE,TRUE,6,0.769230769230769,"GG",NA,NA,NA
"256","del",83,21,"SRR3698502.4598",TRUE,TRUE,6,0.769230769230769,"GG",NA,NA,NA
"257","del",83,21,"SRR3698502.5449",TRUE,TRUE,6,0.769230769230769,"GG",NA,NA,NA
"258","del",83,21,"SRR3698502.5833",TRUE,TRUE,6,0.769230769230769,"GG",NA,NA,NA
"259","del",83,24,"SRR3698502.1075",TRUE,TRUE,95,12.1794871794872,"GGCCCT",NA,NA,NA
"260","del",83,24,"SRR3698502.1107",TRUE,TRUE,95,12.1794871794872,"GGCCCT",NA,NA,NA
"261","del",83,24,"SRR3698502.1136",TRUE,TRUE,95,12.1794871794872,"GGCCCT",NA,NA,NA
"262","del",83,24,"SRR3698502.1137",TRUE,TRUE,95,12.1794871794872,"GGCCCT",NA,NA,NA
"263","del",83,24,"SRR3698502.1190",TRUE,TRUE,95,12.1794871794872,"GGCCCT",NA,NA,NA
"264","del",83,24,"SRR3698502.1222",TRUE,TRUE,95,12.1794871794872,"GGCCCT",NA,NA,NA
"265","del",83,24,"SRR3698502.1346",TRUE,TRUE,95,12.1794871794872,"GGCCCT",NA,NA,NA
"266","del",83,24,"SRR3698502.1457",TRUE,TRUE,95,12.1794871794872,"GGCCCT",NA,NA,NA
"267","del",83,24,"SRR3698502.1485",TRUE,TRUE,95,12.1794871794872,"GGCCCT",NA,NA,NA
"268","del",83,24,"SRR3698502.1516",TRUE,TRUE,95,12.1794871794872,"GGCCCT",NA,NA,NA
"269","del",83,24,"SRR3698502.1630",TRUE,TRUE,95,12.1794871794872,"GGCCCT",NA,NA,NA
"270","del",83,24,"SRR3698502.1715",TRUE,TRUE,95,12.1794871794872,"GGCCCT",NA,NA,NA
"271","del",83,24,"SRR3698502.1722",TRUE,TRUE,95,12.1794871794872,"GGCCCT",NA,NA,NA
"272","del",83,24,"SRR3698502.1740",TRUE,TRUE,95,12.1794871794872,"GGCCCT",NA,NA,NA
"273","del",83,24,"SRR3698502.1844",TRUE,TRUE,95,12.1794871794872,"GGCCCT",NA,NA,NA
"274","del",83,24,"SRR3698502.1992",TRUE,TRUE,95,12.1794871794872,"GGCCCT",NA,NA,NA
"275","del",83,24,"SRR3698502.2009",TRUE,TRUE,95,12.1794871794872,"GGCCCT",NA,NA,NA
"276","del",83,24,"SRR3698502.2093",TRUE,TRUE,95,12.1794871794872,"GGCCCT",NA,NA,NA
"277","del",83,24,"SRR3698502.2098",TRUE,TRUE,95,12.1794871794872,"GGCCCT",NA,NA,NA
"278","del",83,24,"SRR3698502.2121",TRUE,TRUE,95,12.1794871794872,"GGCCCT",NA,NA,NA
"279","del",83,24,"SRR3698502.2218",TRUE,TRUE,95,12.1794871794872,"GGCCCT",NA,NA,NA
"280","del",83,24,"SRR3698502.2219",TRUE,TRUE,95,12.1794871794872,"GGCCCT",NA,NA,NA
"281","del",83,24,"SRR3698502.2372",TRUE,TRUE,95,12.1794871794872,"GGCCCT",NA,NA,NA
"282","del",83,24,"SRR3698502.2388",TRUE,TRUE,95,12.1794871794872,"GGCCCT",NA,NA,NA
"283","del",83,24,"SRR3698502.243",TRUE,TRUE,95,12.1794871794872,"GGCCCT",NA,NA,NA
"284","del",83,24,"SRR3698502.2471",TRUE,TRUE,95,12.1794871794872,"GGCCCT",NA,NA,NA
"285","del",83,24,"SRR3698502.2653",TRUE,TRUE,95,12.1794871794872,"GGCCCT",NA,NA,NA
"286","del",83,24,"SRR3698502.2657",TRUE,TRUE,95,12.1794871794872,"GGCCCT",NA,NA,NA
"287","del",83,24,"SRR3698502.2756",TRUE,TRUE,95,12.1794871794872,"GGCCCT",NA,NA,NA
"288","del",83,24,"SRR3698502.2971",TRUE,TRUE,95,12.1794871794872,"GGCCCT",NA,NA,NA
"289","del",83,24,"SRR3698502.3106",TRUE,TRUE,95,12.1794871794872,"GGCCCT",NA,NA,NA
"290","del",83,24,"SRR3698502.3264",TRUE,TRUE,95,12.1794871794872,"GGCCCT",NA,NA,NA
"291","del",83,24,"SRR3698502.3305",TRUE,TRUE,95,12.1794871794872,"GGCCCT",NA,NA,NA
"292","del",83,24,"SRR3698502.3519",TRUE,TRUE,95,12.1794871794872,"GGCCCT",NA,NA,NA
"293","del",83,24,"SRR3698502.3571",TRUE,TRUE,95,12.1794871794872,"GGCCCT",NA,NA,NA
"294","del",83,24,"SRR3698502.3682",TRUE,TRUE,95,12.1794871794872,"GGCCCT",NA,NA,NA
"295","del",83,24,"SRR3698502.3708",TRUE,TRUE,95,12.1794871794872,"GGCCCT",NA,NA,NA
"296","del",83,24,"SRR3698502.3741",TRUE,TRUE,95,12.1794871794872,"GGCCCT",NA,NA,NA
"297","del",83,24,"SRR3698502.3745",TRUE,TRUE,95,12.1794871794872,"GGCCCT",NA,NA,NA
"298","del",83,24,"SRR3698502.3799",TRUE,TRUE,95,12.1794871794872,"GGCCCT",NA,NA,NA
"299","del",83,24,"SRR3698502.3846",TRUE,TRUE,95,12.1794871794872,"GGCCCT",NA,NA,NA
"300","del",83,24,"SRR3698502.3901",TRUE,TRUE,95,12.1794871794872,"GGCCCT",NA,NA,NA
"301","del",83,24,"SRR3698502.3950",TRUE,TRUE,95,12.1794871794872,"GGCCCT",NA,NA,NA
"302","del",83,24,"SRR3698502.4316",TRUE,TRUE,95,12.1794871794872,"GGCCCT",NA,NA,NA
"303","del",83,24,"SRR3698502.4355",TRUE,TRUE,95,12.1794871794872,"GGCCCT",NA,NA,NA
"304","del",83,24,"SRR3698502.4457",TRUE,TRUE,95,12.1794871794872,"GGCCCT",NA,NA,NA
"305","del",83,24,"SRR3698502.4561",TRUE,TRUE,95,12.1794871794872,"GGCCCT",NA,NA,NA
"306","del",83,24,"SRR3698502.4588",TRUE,TRUE,95,12.1794871794872,"GGCCCT",NA,NA,NA
"307","del",83,24,"SRR3698502.4611",TRUE,TRUE,95,12.1794871794872,"GGCCCT",NA,NA,NA
"308","del",83,24,"SRR3698502.4670",TRUE,TRUE,95,12.1794871794872,"GGCCCT",NA,NA,NA
"309","del",83,24,"SRR3698502.4794",TRUE,TRUE,95,12.1794871794872,"GGCCCT",NA,NA,NA
"310","del",83,24,"SRR3698502.4805",TRUE,TRUE,95,12.1794871794872,"GGCCCT",NA,NA,NA
"311","del",83,24,"SRR3698502.4843",TRUE,TRUE,95,12.1794871794872,"GGCCCT",NA,NA,NA
"312","del",83,24,"SRR3698502.4902",TRUE,TRUE,95,12.1794871794872,"GGCCCT",NA,NA,NA
"313","del",83,24,"SRR3698502.5022",TRUE,TRUE,95,12.1794871794872,"GGCCCT",NA,NA,NA
"314","del",83,24,"SRR3698502.5090",TRUE,TRUE,95,12.1794871794872,"GGCCCT",NA,NA,NA
"315","del",83,24,"SRR3698502.5124",TRUE,TRUE,95,12.1794871794872,"GGCCCT",NA,NA,NA
"316","del",83,24,"SRR3698502.5272",TRUE,TRUE,95,12.1794871794872,"GGCCCT",NA,NA,NA
"317","del",83,24,"SRR3698502.5275",TRUE,TRUE,95,12.1794871794872,"GGCCCT",NA,NA,NA
"318","del",83,24,"SRR3698502.5306",TRUE,TRUE,95,12.1794871794872,"GGCCCT",NA,NA,NA
"319","del",83,24,"SRR3698502.5342",TRUE,TRUE,95,12.1794871794872,"GGCCCT",NA,NA,NA
"320","del",83,24,"SRR3698502.5360",TRUE,TRUE,95,12.1794871794872,"GGCCCT",NA,NA,NA
"321","del",83,24,"SRR3698502.5600",TRUE,TRUE,95,12.1794871794872,"GGCCCT",NA,NA,NA
"322","del",83,24,"SRR3698502.5666",TRUE,TRUE,95,12.1794871794872,"GGCCCT",NA,NA,NA
"323","del",83,24,"SRR3698502.5676",TRUE,TRUE,95,12.1794871794872,"GGCCCT",NA,NA,NA
"324","del",83,24,"SRR3698502.5903",TRUE,TRUE,95,12.1794871794872,"GGCCCT",NA,NA,NA
"325","del",83,24,"SRR3698502.5972",TRUE,TRUE,95,12.1794871794872,"GGCCCT",NA,NA,NA
"326","del",83,24,"SRR3698502.6029",TRUE,TRUE,95,12.1794871794872,"GGCCCT",NA,NA,NA
"327","del",83,24,"SRR3698502.6068",TRUE,TRUE,95,12.1794871794872,"GGCCCT",NA,NA,NA
"328","del",83,24,"SRR3698502.6091",TRUE,TRUE,95,12.1794871794872,"GGCCCT",NA,NA,NA
"329","del",83,24,"SRR3698502.6249",TRUE,TRUE,95,12.1794871794872,"GGCCCT",NA,NA,NA
"330","del",83,24,"SRR3698502.6306",TRUE,TRUE,95,12.1794871794872,"GGCCCT",NA,NA,NA
"331","del",83,24,"SRR3698502.6414",TRUE,TRUE,95,12.1794871794872,"GGCCCT",NA,NA,NA
"332","del",83,24,"SRR3698502.6514",TRUE,TRUE,95,12.1794871794872,"GGCCCT",NA,NA,NA
"333","del",83,24,"SRR3698502.6588",TRUE,TRUE,95,12.1794871794872,"GGCCCT",NA,NA,NA
"334","del",83,24,"SRR3698502.6619",TRUE,TRUE,95,12.1794871794872,"GGCCCT",NA,NA,NA
"335","del",83,24,"SRR3698502.6698",TRUE,TRUE,95,12.1794871794872,"GGCCCT",NA,NA,NA
"336","del",83,24,"SRR3698502.6776",TRUE,TRUE,95,12.1794871794872,"GGCCCT",NA,NA,NA
"337","del",83,24,"SRR3698502.6869",TRUE,TRUE,95,12.1794871794872,"GGCCCT",NA,NA,NA
"338","del",83,24,"SRR3698502.6956",TRUE,TRUE,95,12.1794871794872,"GGCCCT",NA,NA,NA
"339","del",83,24,"SRR3698502.6978",TRUE,TRUE,95,12.1794871794872,"GGCCCT",NA,NA,NA
"340","del",83,24,"SRR3698502.7207",TRUE,TRUE,95,12.1794871794872,"GGCCCT",NA,NA,NA
"341","del",83,24,"SRR3698502.7241",TRUE,TRUE,95,12.1794871794872,"GGCCCT",NA,NA,NA
"342","del",83,24,"SRR3698502.7300",TRUE,TRUE,95,12.1794871794872,"GGCCCT",NA,NA,NA
"343","del",83,24,"SRR3698502.7322",TRUE,TRUE,95,12.1794871794872,"GGCCCT",NA,NA,NA
"344","del",83,24,"SRR3698502.7480",TRUE,TRUE,95,12.1794871794872,"GGCCCT",NA,NA,NA
"345","del",83,24,"SRR3698502.7956",TRUE,TRUE,95,12.1794871794872,"GGCCCT",NA,NA,NA
"346","del",83,24,"SRR3698502.7966",TRUE,TRUE,95,12.1794871794872,"GGCCCT",NA,NA,NA
"347","del",83,24,"SRR3698502.8071",TRUE,TRUE,95,12.1794871794872,"GGCCCT",NA,NA,NA
"348","del",83,24,"SRR3698502.8165",TRUE,TRUE,95,12.1794871794872,"GGCCCT",NA,NA,NA
"349","del",83,24,"SRR3698502.8236",TRUE,TRUE,95,12.1794871794872,"GGCCCT",NA,NA,NA
"350","del",83,24,"SRR3698502.834",TRUE,TRUE,95,12.1794871794872,"GGCCCT",NA,NA,NA
"351","del",83,24,"SRR3698502.840",TRUE,TRUE,95,12.1794871794872,"GGCCCT",NA,NA,NA
"352","del",83,24,"SRR3698502.910",TRUE,TRUE,95,12.1794871794872,"GGCCCT",NA,NA,NA
"353","del",83,24,"SRR3698502.957",TRUE,TRUE,95,12.1794871794872,"GGCCCT",NA,NA,NA
"354","del",83,30,"SRR3698502.1795",TRUE,TRUE,3,0.384615384615385,"GG",NA,NA,NA
"355","del",83,30,"SRR3698502.3463",TRUE,TRUE,3,0.384615384615385,"GG",NA,NA,NA
"356","del",83,30,"SRR3698502.7159",TRUE,TRUE,3,0.384615384615385,"GG",NA,NA,NA
"357","del",84,11,"SRR3698502.2029",TRUE,TRUE,2,0.256410256410256,"GC",NA,NA,NA
"358","del",84,11,"SRR3698502.6760",TRUE,TRUE,2,0.256410256410256,"GC",NA,NA,NA
"359","del",84,14,"SRR3698502.7704",FALSE,TRUE,1,0.128205128205128,"GC",NA,NA,NA
"360","del",84,26,"SRR3698502.1956",TRUE,TRUE,4,0.512820512820513,"NHEJ",NA,NA,NA
"361","del",84,26,"SRR3698502.2615",TRUE,TRUE,4,0.512820512820513,"NHEJ",NA,NA,NA
"362","del",84,26,"SRR3698502.2799",TRUE,TRUE,4,0.512820512820513,"NHEJ",NA,NA,NA
"363","del",84,26,"SRR3698502.6854",TRUE,TRUE,4,0.512820512820513,"NHEJ",NA,NA,NA
"364","del",85,1,"SRR3698502.181",TRUE,TRUE,3,0.384615384615385,"C",NA,NA,NA
"365","del",85,1,"SRR3698502.5828",TRUE,TRUE,3,0.384615384615385,"C",NA,NA,NA
"366","del",85,1,"SRR3698502.6388",TRUE,TRUE,3,0.384615384615385,"C",NA,NA,NA
"367","del",85,38,"SRR3698502.1496",TRUE,TRUE,8,1.02564102564103,"C",NA,NA,NA
"368","del",85,38,"SRR3698502.1925",TRUE,TRUE,8,1.02564102564103,"C",NA,NA,NA
"369","del",85,38,"SRR3698502.2114",TRUE,TRUE,8,1.02564102564103,"C",NA,NA,NA
"370","del",85,38,"SRR3698502.3282",TRUE,TRUE,8,1.02564102564103,"C",NA,NA,NA
"371","del",85,38,"SRR3698502.4578",TRUE,TRUE,8,1.02564102564103,"C",NA,NA,NA
"372","del",85,38,"SRR3698502.5842",TRUE,TRUE,8,1.02564102564103,"C",NA,NA,NA
"373","del",85,38,"SRR3698502.6827",TRUE,TRUE,8,1.02564102564103,"C",NA,NA,NA
"374","del",85,38,"SRR3698502.7771",TRUE,TRUE,8,1.02564102564103,"C",NA,NA,NA
"375","del",86,13,"SRR3698502.1843",FALSE,TRUE,1,0.128205128205128,"C",NA,NA,NA
"376","del",86,21,"SRR3698502.3314",TRUE,TRUE,3,0.384615384615385,"NHEJ",NA,NA,NA
"377","del",86,21,"SRR3698502.6649",TRUE,TRUE,3,0.384615384615385,"NHEJ",NA,NA,NA
"378","del",86,21,"SRR3698502.7203",TRUE,TRUE,3,0.384615384615385,"NHEJ",NA,NA,NA
"379","del",86,23,"SRR3698502.5378",TRUE,TRUE,4,0.512820512820513,"CC",NA,NA,NA
"380","del",86,23,"SRR3698502.5566",TRUE,TRUE,4,0.512820512820513,"CC",NA,NA,NA
"381","del",86,23,"SRR3698502.7035",TRUE,TRUE,4,0.512820512820513,"CC",NA,NA,NA
"382","del",86,23,"SRR3698502.8007",TRUE,TRUE,4,0.512820512820513,"CC",NA,NA,NA
"383","del",86,33,"SRR3698502.121",TRUE,TRUE,2,0.256410256410256,"C",NA,NA,NA
"384","del",86,33,"SRR3698502.4116",TRUE,TRUE,2,0.256410256410256,"C",NA,NA,NA
"385","del",87,12,"SRR3698502.2827",TRUE,TRUE,2,0.256410256410256,"CT",NA,NA,NA
"386","del",87,12,"SRR3698502.4449",TRUE,TRUE,2,0.256410256410256,"CT",NA,NA,NA
"387","del",87,22,"SRR3698502.2084",TRUE,TRUE,7,0.897435897435897,"C",NA,NA,NA
"388","del",87,22,"SRR3698502.2338",TRUE,TRUE,7,0.897435897435897,"C",NA,NA,NA
"389","del",87,22,"SRR3698502.4399",TRUE,TRUE,7,0.897435897435897,"C",NA,NA,NA
"390","del",87,22,"SRR3698502.4617",TRUE,TRUE,7,0.897435897435897,"C",NA,NA,NA
"391","del",87,22,"SRR3698502.5564",TRUE,TRUE,7,0.897435897435897,"C",NA,NA,NA
"392","del",87,22,"SRR3698502.634",TRUE,TRUE,7,0.897435897435897,"C",NA,NA,NA
"393","del",87,22,"SRR3698502.900",TRUE,TRUE,7,0.897435897435897,"C",NA,NA,NA
"394","del",88,10,"SRR3698502.6660",FALSE,TRUE,1,0.128205128205128,"NHEJ",NA,NA,NA
"395","del",88,25,"SRR3698502.4230",FALSE,TRUE,1,0.128205128205128,"NHEJ",NA,NA,NA
"396","del",89,7,"SRR3698502.615",TRUE,TRUE,3,0.384615384615385,"C",NA,NA,NA
"397","del",89,7,"SRR3698502.6683",TRUE,TRUE,3,0.384615384615385,"C",NA,NA,NA
"398","del",89,7,"SRR3698502.7700",TRUE,TRUE,3,0.384615384615385,"C",NA,NA,NA
"399","del",89,20,"SRR3698502.1593",TRUE,TRUE,6,0.769230769230769,"CC",NA,NA,NA
"400","del",89,20,"SRR3698502.196",TRUE,TRUE,6,0.769230769230769,"CC",NA,NA,NA
"401","del",89,20,"SRR3698502.2049",TRUE,TRUE,6,0.769230769230769,"CC",NA,NA,NA
"402","del",89,20,"SRR3698502.4020",TRUE,TRUE,6,0.769230769230769,"CC",NA,NA,NA
"403","del",89,20,"SRR3698502.5382",TRUE,TRUE,6,0.769230769230769,"CC",NA,NA,NA
"404","del",89,20,"SRR3698502.6762",TRUE,TRUE,6,0.769230769230769,"CC",NA,NA,NA
"405","del",89,21,"SRR3698502.564",TRUE,TRUE,2,0.256410256410256,"CCT",NA,NA,NA
"406","del",89,21,"SRR3698502.809",TRUE,TRUE,2,0.256410256410256,"CCT",NA,NA,NA
"407","del",90,18,"SRR3698502.3393",TRUE,TRUE,4,0.512820512820513,"NHEJ",NA,NA,NA
"408","del",90,18,"SRR3698502.414",TRUE,TRUE,4,0.512820512820513,"NHEJ",NA,NA,NA
"409","del",90,18,"SRR3698502.5743",TRUE,TRUE,4,0.512820512820513,"NHEJ",NA,NA,NA
"410","del",90,18,"SRR3698502.7819",TRUE,TRUE,4,0.512820512820513,"NHEJ",NA,NA,NA
"411","del",91,15,"SRR3698502.8066",FALSE,TRUE,1,0.128205128205128,"T",NA,NA,NA
"412","del",91,18,"SRR3698502.2673",FALSE,TRUE,1,0.128205128205128,"NHEJ",NA,NA,NA
"413","del",91,36,"SRR3698502.1903",TRUE,TRUE,7,0.897435897435897,"TC",NA,NA,NA
"414","del",91,36,"SRR3698502.3645",TRUE,TRUE,7,0.897435897435897,"TC",NA,NA,NA
"415","del",91,36,"SRR3698502.3704",TRUE,TRUE,7,0.897435897435897,"TC",NA,NA,NA
"416","del",91,36,"SRR3698502.4456",TRUE,TRUE,7,0.897435897435897,"TC",NA,NA,NA
"417","del",91,36,"SRR3698502.5848",TRUE,TRUE,7,0.897435897435897,"TC",NA,NA,NA
"418","del",91,36,"SRR3698502.7873",TRUE,TRUE,7,0.897435897435897,"TC",NA,NA,NA
"419","del",91,36,"SRR3698502.81",TRUE,TRUE,7,0.897435897435897,"TC",NA,NA,NA
"420","del",92,4,"SRR3698502.7153",FALSE,TRUE,1,0.128205128205128,"CT",NA,NA,NA
"421","del",92,22,"SRR3698502.1780",FALSE,TRUE,1,0.128205128205128,"NHEJ",NA,NA,NA
"422","del",93,25,"SRR3698502.1560",TRUE,TRUE,6,0.769230769230769,"T",NA,NA,NA
"423","del",93,25,"SRR3698502.2724",TRUE,TRUE,6,0.769230769230769,"T",NA,NA,NA
"424","del",93,25,"SRR3698502.5249",TRUE,TRUE,6,0.769230769230769,"T",NA,NA,NA
"425","del",93,25,"SRR3698502.60",TRUE,TRUE,6,0.769230769230769,"T",NA,NA,NA
"426","del",93,25,"SRR3698502.7680",TRUE,TRUE,6,0.769230769230769,"T",NA,NA,NA
"427","del",93,25,"SRR3698502.7894",TRUE,TRUE,6,0.769230769230769,"T",NA,NA,NA
"428","del",94,3,"SRR3698502.1023",TRUE,TRUE,226,28.974358974359,"TGC",NA,NA,NA
"429","del",94,3,"SRR3698502.1077",TRUE,TRUE,226,28.974358974359,"TGC",NA,NA,NA
"430","del",94,3,"SRR3698502.1104",TRUE,TRUE,226,28.974358974359,"TGC",NA,NA,NA
"431","del",94,3,"SRR3698502.1116",TRUE,TRUE,226,28.974358974359,"TGC",NA,NA,NA
"432","del",94,3,"SRR3698502.1157",TRUE,TRUE,226,28.974358974359,"TGC",NA,NA,NA
"433","del",94,3,"SRR3698502.116",TRUE,TRUE,226,28.974358974359,"TGC",NA,NA,NA
"434","del",94,3,"SRR3698502.1174",TRUE,TRUE,226,28.974358974359,"TGC",NA,NA,NA
"435","del",94,3,"SRR3698502.1180",TRUE,TRUE,226,28.974358974359,"TGC",NA,NA,NA
"436","del",94,3,"SRR3698502.1202",TRUE,TRUE,226,28.974358974359,"TGC",NA,NA,NA
"437","del",94,3,"SRR3698502.1206",TRUE,TRUE,226,28.974358974359,"TGC",NA,NA,NA
"438","del",94,3,"SRR3698502.128",TRUE,TRUE,226,28.974358974359,"TGC",NA,NA,NA
"439","del",94,3,"SRR3698502.1379",TRUE,TRUE,226,28.974358974359,"TGC",NA,NA,NA
"440","del",94,3,"SRR3698502.1399",TRUE,TRUE,226,28.974358974359,"TGC",NA,NA,NA
"441","del",94,3,"SRR3698502.1418",TRUE,TRUE,226,28.974358974359,"TGC",NA,NA,NA
"442","del",94,3,"SRR3698502.142",TRUE,TRUE,226,28.974358974359,"TGC",NA,NA,NA
"443","del",94,3,"SRR3698502.15",TRUE,TRUE,226,28.974358974359,"TGC",NA,NA,NA
"444","del",94,3,"SRR3698502.1523",TRUE,TRUE,226,28.974358974359,"TGC",NA,NA,NA
"445","del",94,3,"SRR3698502.1605",TRUE,TRUE,226,28.974358974359,"TGC",NA,NA,NA
"446","del",94,3,"SRR3698502.1616",TRUE,TRUE,226,28.974358974359,"TGC",NA,NA,NA
"447","del",94,3,"SRR3698502.1627",TRUE,TRUE,226,28.974358974359,"TGC",NA,NA,NA
"448","del",94,3,"SRR3698502.1635",TRUE,TRUE,226,28.974358974359,"TGC",NA,NA,NA
"449","del",94,3,"SRR3698502.1689",TRUE,TRUE,226,28.974358974359,"TGC",NA,NA,NA
"450","del",94,3,"SRR3698502.1704",TRUE,TRUE,226,28.974358974359,"TGC",NA,NA,NA
"451","del",94,3,"SRR3698502.1719",TRUE,TRUE,226,28.974358974359,"TGC",NA,NA,NA
"452","del",94,3,"SRR3698502.1731",TRUE,TRUE,226,28.974358974359,"TGC",NA,NA,NA
"453","del",94,3,"SRR3698502.1783",TRUE,TRUE,226,28.974358974359,"TGC",NA,NA,NA
"454","del",94,3,"SRR3698502.1835",TRUE,TRUE,226,28.974358974359,"TGC",NA,NA,NA
"455","del",94,3,"SRR3698502.1894",TRUE,TRUE,226,28.974358974359,"TGC",NA,NA,NA
"456","del",94,3,"SRR3698502.1972",TRUE,TRUE,226,28.974358974359,"TGC",NA,NA,NA
"457","del",94,3,"SRR3698502.1976",TRUE,TRUE,226,28.974358974359,"TGC",NA,NA,NA
"458","del",94,3,"SRR3698502.1993",TRUE,TRUE,226,28.974358974359,"TGC",NA,NA,NA
"459","del",94,3,"SRR3698502.2008",TRUE,TRUE,226,28.974358974359,"TGC",NA,NA,NA
"460","del",94,3,"SRR3698502.2061",TRUE,TRUE,226,28.974358974359,"TGC",NA,NA,NA
"461","del",94,3,"SRR3698502.2077",TRUE,TRUE,226,28.974358974359,"TGC",NA,NA,NA
"462","del",94,3,"SRR3698502.21",TRUE,TRUE,226,28.974358974359,"TGC",NA,NA,NA
"463","del",94,3,"SRR3698502.2131",TRUE,TRUE,226,28.974358974359,"TGC",NA,NA,NA
"464","del",94,3,"SRR3698502.2150",TRUE,TRUE,226,28.974358974359,"TGC",NA,NA,NA
"465","del",94,3,"SRR3698502.2178",TRUE,TRUE,226,28.974358974359,"TGC",NA,NA,NA
"466","del",94,3,"SRR3698502.2273",TRUE,TRUE,226,28.974358974359,"TGC",NA,NA,NA
"467","del",94,3,"SRR3698502.2292",TRUE,TRUE,226,28.974358974359,"TGC",NA,NA,NA
"468","del",94,3,"SRR3698502.2302",TRUE,TRUE,226,28.974358974359,"TGC",NA,NA,NA
"469","del",94,3,"SRR3698502.2376",TRUE,TRUE,226,28.974358974359,"TGC",NA,NA,NA
"470","del",94,3,"SRR3698502.2380",TRUE,TRUE,226,28.974358974359,"TGC",NA,NA,NA
"471","del",94,3,"SRR3698502.2394",TRUE,TRUE,226,28.974358974359,"TGC",NA,NA,NA
"472","del",94,3,"SRR3698502.2398",TRUE,TRUE,226,28.974358974359,"TGC",NA,NA,NA
"473","del",94,3,"SRR3698502.2410",TRUE,TRUE,226,28.974358974359,"TGC",NA,NA,NA
"474","del",94,3,"SRR3698502.2428",TRUE,TRUE,226,28.974358974359,"TGC",NA,NA,NA
"475","del",94,3,"SRR3698502.2475",TRUE,TRUE,226,28.974358974359,"TGC",NA,NA,NA
"476","del",94,3,"SRR3698502.2492",TRUE,TRUE,226,28.974358974359,"TGC",NA,NA,NA
"477","del",94,3,"SRR3698502.2508",TRUE,TRUE,226,28.974358974359,"TGC",NA,NA,NA
"478","del",94,3,"SRR3698502.2579",TRUE,TRUE,226,28.974358974359,"TGC",NA,NA,NA
"479","del",94,3,"SRR3698502.2613",TRUE,TRUE,226,28.974358974359,"TGC",NA,NA,NA
"480","del",94,3,"SRR3698502.2616",TRUE,TRUE,226,28.974358974359,"TGC",NA,NA,NA
"481","del",94,3,"SRR3698502.2627",TRUE,TRUE,226,28.974358974359,"TGC",NA,NA,NA
"482","del",94,3,"SRR3698502.2690",TRUE,TRUE,226,28.974358974359,"TGC",NA,NA,NA
"483","del",94,3,"SRR3698502.2699",TRUE,TRUE,226,28.974358974359,"TGC",NA,NA,NA
"484","del",94,3,"SRR3698502.2781",TRUE,TRUE,226,28.974358974359,"TGC",NA,NA,NA
"485","del",94,3,"SRR3698502.2820",TRUE,TRUE,226,28.974358974359,"TGC",NA,NA,NA
"486","del",94,3,"SRR3698502.2849",TRUE,TRUE,226,28.974358974359,"TGC",NA,NA,NA
"487","del",94,3,"SRR3698502.2851",TRUE,TRUE,226,28.974358974359,"TGC",NA,NA,NA
"488","del",94,3,"SRR3698502.2929",TRUE,TRUE,226,28.974358974359,"TGC",NA,NA,NA
"489","del",94,3,"SRR3698502.2934",TRUE,TRUE,226,28.974358974359,"TGC",NA,NA,NA
"490","del",94,3,"SRR3698502.2973",TRUE,TRUE,226,28.974358974359,"TGC",NA,NA,NA
"491","del",94,3,"SRR3698502.3005",TRUE,TRUE,226,28.974358974359,"TGC",NA,NA,NA
"492","del",94,3,"SRR3698502.3059",TRUE,TRUE,226,28.974358974359,"TGC",NA,NA,NA
"493","del",94,3,"SRR3698502.3119",TRUE,TRUE,226,28.974358974359,"TGC",NA,NA,NA
"494","del",94,3,"SRR3698502.3123",TRUE,TRUE,226,28.974358974359,"TGC",NA,NA,NA
"495","del",94,3,"SRR3698502.3136",TRUE,TRUE,226,28.974358974359,"TGC",NA,NA,NA
"496","del",94,3,"SRR3698502.3180",TRUE,TRUE,226,28.974358974359,"TGC",NA,NA,NA
"497","del",94,3,"SRR3698502.3199",TRUE,TRUE,226,28.974358974359,"TGC",NA,NA,NA
"498","del",94,3,"SRR3698502.3215",TRUE,TRUE,226,28.974358974359,"TGC",NA,NA,NA
"499","del",94,3,"SRR3698502.3240",TRUE,TRUE,226,28.974358974359,"TGC",NA,NA,NA
"500","del",94,3,"SRR3698502.3258",TRUE,TRUE,226,28.974358974359,"TGC",NA,NA,NA
"501","del",94,3,"SRR3698502.3268",TRUE,TRUE,226,28.974358974359,"TGC",NA,NA,NA
"502","del",94,3,"SRR3698502.3301",TRUE,TRUE,226,28.974358974359,"TGC",NA,NA,NA
"503","del",94,3,"SRR3698502.3349",TRUE,TRUE,226,28.974358974359,"TGC",NA,NA,NA
"504","del",94,3,"SRR3698502.3371",TRUE,TRUE,226,28.974358974359,"TGC",NA,NA,NA
"505","del",94,3,"SRR3698502.3404",TRUE,TRUE,226,28.974358974359,"TGC",NA,NA,NA
"506","del",94,3,"SRR3698502.3421",TRUE,TRUE,226,28.974358974359,"TGC",NA,NA,NA
"507","del",94,3,"SRR3698502.3434",TRUE,TRUE,226,28.974358974359,"TGC",NA,NA,NA
"508","del",94,3,"SRR3698502.3483",TRUE,TRUE,226,28.974358974359,"TGC",NA,NA,NA
"509","del",94,3,"SRR3698502.3546",TRUE,TRUE,226,28.974358974359,"TGC",NA,NA,NA
"510","del",94,3,"SRR3698502.3611",TRUE,TRUE,226,28.974358974359,"TGC",NA,NA,NA
"511","del",94,3,"SRR3698502.364",TRUE,TRUE,226,28.974358974359,"TGC",NA,NA,NA
"512","del",94,3,"SRR3698502.3734",TRUE,TRUE,226,28.974358974359,"TGC",NA,NA,NA
"513","del",94,3,"SRR3698502.3779",TRUE,TRUE,226,28.974358974359,"TGC",NA,NA,NA
"514","del",94,3,"SRR3698502.3785",TRUE,TRUE,226,28.974358974359,"TGC",NA,NA,NA
"515","del",94,3,"SRR3698502.3806",TRUE,TRUE,226,28.974358974359,"TGC",NA,NA,NA
"516","del",94,3,"SRR3698502.3875",TRUE,TRUE,226,28.974358974359,"TGC",NA,NA,NA
"517","del",94,3,"SRR3698502.3912",TRUE,TRUE,226,28.974358974359,"TGC",NA,NA,NA
"518","del",94,3,"SRR3698502.3942",TRUE,TRUE,226,28.974358974359,"TGC",NA,NA,NA
"519","del",94,3,"SRR3698502.3961",TRUE,TRUE,226,28.974358974359,"TGC",NA,NA,NA
"520","del",94,3,"SRR3698502.3967",TRUE,TRUE,226,28.974358974359,"TGC",NA,NA,NA
"521","del",94,3,"SRR3698502.4018",TRUE,TRUE,226,28.974358974359,"TGC",NA,NA,NA
"522","del",94,3,"SRR3698502.4027",TRUE,TRUE,226,28.974358974359,"TGC",NA,NA,NA
"523","del",94,3,"SRR3698502.4068",TRUE,TRUE,226,28.974358974359,"TGC",NA,NA,NA
"524","del",94,3,"SRR3698502.4127",TRUE,TRUE,226,28.974358974359,"TGC",NA,NA,NA
"525","del",94,3,"SRR3698502.4174",TRUE,TRUE,226,28.974358974359,"TGC",NA,NA,NA
"526","del",94,3,"SRR3698502.4175",TRUE,TRUE,226,28.974358974359,"TGC",NA,NA,NA
"527","del",94,3,"SRR3698502.4198",TRUE,TRUE,226,28.974358974359,"TGC",NA,NA,NA
"528","del",94,3,"SRR3698502.4232",TRUE,TRUE,226,28.974358974359,"TGC",NA,NA,NA
"529","del",94,3,"SRR3698502.4233",TRUE,TRUE,226,28.974358974359,"TGC",NA,NA,NA
"530","del",94,3,"SRR3698502.4244",TRUE,TRUE,226,28.974358974359,"TGC",NA,NA,NA
"531","del",94,3,"SRR3698502.4247",TRUE,TRUE,226,28.974358974359,"TGC",NA,NA,NA
"532","del",94,3,"SRR3698502.4351",TRUE,TRUE,226,28.974358974359,"TGC",NA,NA,NA
"533","del",94,3,"SRR3698502.4392",TRUE,TRUE,226,28.974358974359,"TGC",NA,NA,NA
"534","del",94,3,"SRR3698502.4420",TRUE,TRUE,226,28.974358974359,"TGC",NA,NA,NA
"535","del",94,3,"SRR3698502.4425",TRUE,TRUE,226,28.974358974359,"TGC",NA,NA,NA
"536","del",94,3,"SRR3698502.4451",TRUE,TRUE,226,28.974358974359,"TGC",NA,NA,NA
"537","del",94,3,"SRR3698502.4513",TRUE,TRUE,226,28.974358974359,"TGC",NA,NA,NA
"538","del",94,3,"SRR3698502.456",TRUE,TRUE,226,28.974358974359,"TGC",NA,NA,NA
"539","del",94,3,"SRR3698502.4647",TRUE,TRUE,226,28.974358974359,"TGC",NA,NA,NA
"540","del",94,3,"SRR3698502.4665",TRUE,TRUE,226,28.974358974359,"TGC",NA,NA,NA
"541","del",94,3,"SRR3698502.4718",TRUE,TRUE,226,28.974358974359,"TGC",NA,NA,NA
"542","del",94,3,"SRR3698502.4731",TRUE,TRUE,226,28.974358974359,"TGC",NA,NA,NA
"543","del",94,3,"SRR3698502.4756",TRUE,TRUE,226,28.974358974359,"TGC",NA,NA,NA
"544","del",94,3,"SRR3698502.4867",TRUE,TRUE,226,28.974358974359,"TGC",NA,NA,NA
"545","del",94,3,"SRR3698502.4894",TRUE,TRUE,226,28.974358974359,"TGC",NA,NA,NA
"546","del",94,3,"SRR3698502.4933",TRUE,TRUE,226,28.974358974359,"TGC",NA,NA,NA
"547","del",94,3,"SRR3698502.4942",TRUE,TRUE,226,28.974358974359,"TGC",NA,NA,NA
"548","del",94,3,"SRR3698502.4981",TRUE,TRUE,226,28.974358974359,"TGC",NA,NA,NA
"549","del",94,3,"SRR3698502.502",TRUE,TRUE,226,28.974358974359,"TGC",NA,NA,NA
"550","del",94,3,"SRR3698502.5034",TRUE,TRUE,226,28.974358974359,"TGC",NA,NA,NA
"551","del",94,3,"SRR3698502.509",TRUE,TRUE,226,28.974358974359,"TGC",NA,NA,NA
"552","del",94,3,"SRR3698502.5179",TRUE,TRUE,226,28.974358974359,"TGC",NA,NA,NA
"553","del",94,3,"SRR3698502.5237",TRUE,TRUE,226,28.974358974359,"TGC",NA,NA,NA
"554","del",94,3,"SRR3698502.5246",TRUE,TRUE,226,28.974358974359,"TGC",NA,NA,NA
"555","del",94,3,"SRR3698502.5258",TRUE,TRUE,226,28.974358974359,"TGC",NA,NA,NA
"556","del",94,3,"SRR3698502.5334",TRUE,TRUE,226,28.974358974359,"TGC",NA,NA,NA
"557","del",94,3,"SRR3698502.5357",TRUE,TRUE,226,28.974358974359,"TGC",NA,NA,NA
"558","del",94,3,"SRR3698502.538",TRUE,TRUE,226,28.974358974359,"TGC",NA,NA,NA
"559","del",94,3,"SRR3698502.5448",TRUE,TRUE,226,28.974358974359,"TGC",NA,NA,NA
"560","del",94,3,"SRR3698502.5502",TRUE,TRUE,226,28.974358974359,"TGC",NA,NA,NA
"561","del",94,3,"SRR3698502.5513",TRUE,TRUE,226,28.974358974359,"TGC",NA,NA,NA
"562","del",94,3,"SRR3698502.5553",TRUE,TRUE,226,28.974358974359,"TGC",NA,NA,NA
"563","del",94,3,"SRR3698502.5636",TRUE,TRUE,226,28.974358974359,"TGC",NA,NA,NA
"564","del",94,3,"SRR3698502.5661",TRUE,TRUE,226,28.974358974359,"TGC",NA,NA,NA
"565","del",94,3,"SRR3698502.5695",TRUE,TRUE,226,28.974358974359,"TGC",NA,NA,NA
"566","del",94,3,"SRR3698502.5707",TRUE,TRUE,226,28.974358974359,"TGC",NA,NA,NA
"567","del",94,3,"SRR3698502.5725",TRUE,TRUE,226,28.974358974359,"TGC",NA,NA,NA
"568","del",94,3,"SRR3698502.5734",TRUE,TRUE,226,28.974358974359,"TGC",NA,NA,NA
"569","del",94,3,"SRR3698502.5794",TRUE,TRUE,226,28.974358974359,"TGC",NA,NA,NA
"570","del",94,3,"SRR3698502.5879",TRUE,TRUE,226,28.974358974359,"TGC",NA,NA,NA
"571","del",94,3,"SRR3698502.5930",TRUE,TRUE,226,28.974358974359,"TGC",NA,NA,NA
"572","del",94,3,"SRR3698502.6",TRUE,TRUE,226,28.974358974359,"TGC",NA,NA,NA
"573","del",94,3,"SRR3698502.6032",TRUE,TRUE,226,28.974358974359,"TGC",NA,NA,NA
"574","del",94,3,"SRR3698502.6129",TRUE,TRUE,226,28.974358974359,"TGC",NA,NA,NA
"575","del",94,3,"SRR3698502.6131",TRUE,TRUE,226,28.974358974359,"TGC",NA,NA,NA
"576","del",94,3,"SRR3698502.6139",TRUE,TRUE,226,28.974358974359,"TGC",NA,NA,NA
"577","del",94,3,"SRR3698502.6203",TRUE,TRUE,226,28.974358974359,"TGC",NA,NA,NA
"578","del",94,3,"SRR3698502.6210",TRUE,TRUE,226,28.974358974359,"TGC",NA,NA,NA
"579","del",94,3,"SRR3698502.6244",TRUE,TRUE,226,28.974358974359,"TGC",NA,NA,NA
"580","del",94,3,"SRR3698502.6277",TRUE,TRUE,226,28.974358974359,"TGC",NA,NA,NA
"581","del",94,3,"SRR3698502.6288",TRUE,TRUE,226,28.974358974359,"TGC",NA,NA,NA
"582","del",94,3,"SRR3698502.6497",TRUE,TRUE,226,28.974358974359,"TGC",NA,NA,NA
"583","del",94,3,"SRR3698502.6534",TRUE,TRUE,226,28.974358974359,"TGC",NA,NA,NA
"584","del",94,3,"SRR3698502.6560",TRUE,TRUE,226,28.974358974359,"TGC",NA,NA,NA
"585","del",94,3,"SRR3698502.6612",TRUE,TRUE,226,28.974358974359,"TGC",NA,NA,NA
"586","del",94,3,"SRR3698502.6648",TRUE,TRUE,226,28.974358974359,"TGC",NA,NA,NA
"587","del",94,3,"SRR3698502.6658",TRUE,TRUE,226,28.974358974359,"TGC",NA,NA,NA
"588","del",94,3,"SRR3698502.6706",TRUE,TRUE,226,28.974358974359,"TGC",NA,NA,NA
"589","del",94,3,"SRR3698502.6709",TRUE,TRUE,226,28.974358974359,"TGC",NA,NA,NA
"590","del",94,3,"SRR3698502.6730",TRUE,TRUE,226,28.974358974359,"TGC",NA,NA,NA
"591","del",94,3,"SRR3698502.6754",TRUE,TRUE,226,28.974358974359,"TGC",NA,NA,NA
"592","del",94,3,"SRR3698502.6755",TRUE,TRUE,226,28.974358974359,"TGC",NA,NA,NA
"593","del",94,3,"SRR3698502.6783",TRUE,TRUE,226,28.974358974359,"TGC",NA,NA,NA
"594","del",94,3,"SRR3698502.6802",TRUE,TRUE,226,28.974358974359,"TGC",NA,NA,NA
"595","del",94,3,"SRR3698502.6808",TRUE,TRUE,226,28.974358974359,"TGC",NA,NA,NA
"596","del",94,3,"SRR3698502.6814",TRUE,TRUE,226,28.974358974359,"TGC",NA,NA,NA
"597","del",94,3,"SRR3698502.6817",TRUE,TRUE,226,28.974358974359,"TGC",NA,NA,NA
"598","del",94,3,"SRR3698502.6856",TRUE,TRUE,226,28.974358974359,"TGC",NA,NA,NA
"599","del",94,3,"SRR3698502.6859",TRUE,TRUE,226,28.974358974359,"TGC",NA,NA,NA
"600","del",94,3,"SRR3698502.6868",TRUE,TRUE,226,28.974358974359,"TGC",NA,NA,NA
"601","del",94,3,"SRR3698502.6907",TRUE,TRUE,226,28.974358974359,"TGC",NA,NA,NA
"602","del",94,3,"SRR3698502.6946",TRUE,TRUE,226,28.974358974359,"TGC",NA,NA,NA
"603","del",94,3,"SRR3698502.6957",TRUE,TRUE,226,28.974358974359,"TGC",NA,NA,NA
"604","del",94,3,"SRR3698502.7061",TRUE,TRUE,226,28.974358974359,"TGC",NA,NA,NA
"605","del",94,3,"SRR3698502.7078",TRUE,TRUE,226,28.974358974359,"TGC",NA,NA,NA
"606","del",94,3,"SRR3698502.7138",TRUE,TRUE,226,28.974358974359,"TGC",NA,NA,NA
"607","del",94,3,"SRR3698502.7192",TRUE,TRUE,226,28.974358974359,"TGC",NA,NA,NA
"608","del",94,3,"SRR3698502.720",TRUE,TRUE,226,28.974358974359,"TGC",NA,NA,NA
"609","del",94,3,"SRR3698502.7286",TRUE,TRUE,226,28.974358974359,"TGC",NA,NA,NA
"610","del",94,3,"SRR3698502.73",TRUE,TRUE,226,28.974358974359,"TGC",NA,NA,NA
"611","del",94,3,"SRR3698502.7328",TRUE,TRUE,226,28.974358974359,"TGC",NA,NA,NA
"612","del",94,3,"SRR3698502.7350",TRUE,TRUE,226,28.974358974359,"TGC",NA,NA,NA
"613","del",94,3,"SRR3698502.7365",TRUE,TRUE,226,28.974358974359,"TGC",NA,NA,NA
"614","del",94,3,"SRR3698502.7397",TRUE,TRUE,226,28.974358974359,"TGC",NA,NA,NA
"615","del",94,3,"SRR3698502.7443",TRUE,TRUE,226,28.974358974359,"TGC",NA,NA,NA
"616","del",94,3,"SRR3698502.746",TRUE,TRUE,226,28.974358974359,"TGC",NA,NA,NA
"617","del",94,3,"SRR3698502.751",TRUE,TRUE,226,28.974358974359,"TGC",NA,NA,NA
"618","del",94,3,"SRR3698502.7519",TRUE,TRUE,226,28.974358974359,"TGC",NA,NA,NA
"619","del",94,3,"SRR3698502.7527",TRUE,TRUE,226,28.974358974359,"TGC",NA,NA,NA
"620","del",94,3,"SRR3698502.7530",TRUE,TRUE,226,28.974358974359,"TGC",NA,NA,NA
"621","del",94,3,"SRR3698502.7538",TRUE,TRUE,226,28.974358974359,"TGC",NA,NA,NA
"622","del",94,3,"SRR3698502.7599",TRUE,TRUE,226,28.974358974359,"TGC",NA,NA,NA
"623","del",94,3,"SRR3698502.76",TRUE,TRUE,226,28.974358974359,"TGC",NA,NA,NA
"624","del",94,3,"SRR3698502.7607",TRUE,TRUE,226,28.974358974359,"TGC",NA,NA,NA
"625","del",94,3,"SRR3698502.7614",TRUE,TRUE,226,28.974358974359,"TGC",NA,NA,NA
"626","del",94,3,"SRR3698502.7618",TRUE,TRUE,226,28.974358974359,"TGC",NA,NA,NA
"627","del",94,3,"SRR3698502.7622",TRUE,TRUE,226,28.974358974359,"TGC",NA,NA,NA
"628","del",94,3,"SRR3698502.7646",TRUE,TRUE,226,28.974358974359,"TGC",NA,NA,NA
"629","del",94,3,"SRR3698502.7677",TRUE,TRUE,226,28.974358974359,"TGC",NA,NA,NA
"630","del",94,3,"SRR3698502.7686",TRUE,TRUE,226,28.974358974359,"TGC",NA,NA,NA
"631","del",94,3,"SRR3698502.7693",TRUE,TRUE,226,28.974358974359,"TGC",NA,NA,NA
"632","del",94,3,"SRR3698502.7718",TRUE,TRUE,226,28.974358974359,"TGC",NA,NA,NA
"633","del",94,3,"SRR3698502.7813",TRUE,TRUE,226,28.974358974359,"TGC",NA,NA,NA
"634","del",94,3,"SRR3698502.7831",TRUE,TRUE,226,28.974358974359,"TGC",NA,NA,NA
"635","del",94,3,"SRR3698502.7865",TRUE,TRUE,226,28.974358974359,"TGC",NA,NA,NA
"636","del",94,3,"SRR3698502.789",TRUE,TRUE,226,28.974358974359,"TGC",NA,NA,NA
"637","del",94,3,"SRR3698502.7916",TRUE,TRUE,226,28.974358974359,"TGC",NA,NA,NA
"638","del",94,3,"SRR3698502.801",TRUE,TRUE,226,28.974358974359,"TGC",NA,NA,NA
"639","del",94,3,"SRR3698502.8012",TRUE,TRUE,226,28.974358974359,"TGC",NA,NA,NA
"640","del",94,3,"SRR3698502.8052",TRUE,TRUE,226,28.974358974359,"TGC",NA,NA,NA
"641","del",94,3,"SRR3698502.8064",TRUE,TRUE,226,28.974358974359,"TGC",NA,NA,NA
"642","del",94,3,"SRR3698502.8079",TRUE,TRUE,226,28.974358974359,"TGC",NA,NA,NA
"643","del",94,3,"SRR3698502.8125",TRUE,TRUE,226,28.974358974359,"TGC",NA,NA,NA
"644","del",94,3,"SRR3698502.8137",TRUE,TRUE,226,28.974358974359,"TGC",NA,NA,NA
"645","del",94,3,"SRR3698502.8162",TRUE,TRUE,226,28.974358974359,"TGC",NA,NA,NA
"646","del",94,3,"SRR3698502.8221",TRUE,TRUE,226,28.974358974359,"TGC",NA,NA,NA
"647","del",94,3,"SRR3698502.8229",TRUE,TRUE,226,28.974358974359,"TGC",NA,NA,NA
"648","del",94,3,"SRR3698502.8262",TRUE,TRUE,226,28.974358974359,"TGC",NA,NA,NA
"649","del",94,3,"SRR3698502.868",TRUE,TRUE,226,28.974358974359,"TGC",NA,NA,NA
"650","del",94,3,"SRR3698502.886",TRUE,TRUE,226,28.974358974359,"TGC",NA,NA,NA
"651","del",94,3,"SRR3698502.889",TRUE,TRUE,226,28.974358974359,"TGC",NA,NA,NA
"652","del",94,3,"SRR3698502.895",TRUE,TRUE,226,28.974358974359,"TGC",NA,NA,NA
"653","del",94,3,"SRR3698502.96",TRUE,TRUE,226,28.974358974359,"TGC",NA,NA,NA
"654","del",94,12,"SRR3698502.1737",TRUE,TRUE,5,0.641025641025641,"TG",NA,NA,NA
"655","del",94,12,"SRR3698502.397",TRUE,TRUE,5,0.641025641025641,"TG",NA,NA,NA
"656","del",94,12,"SRR3698502.4254",TRUE,TRUE,5,0.641025641025641,"TG",NA,NA,NA
"657","del",94,12,"SRR3698502.4285",TRUE,TRUE,5,0.641025641025641,"TG",NA,NA,NA
"658","del",94,12,"SRR3698502.5538",TRUE,TRUE,5,0.641025641025641,"TG",NA,NA,NA
"659","del",94,18,"SRR3698502.1775",TRUE,TRUE,8,1.02564102564103,"TG",NA,NA,NA
"660","del",94,18,"SRR3698502.3382",TRUE,TRUE,8,1.02564102564103,"TG",NA,NA,NA
"661","del",94,18,"SRR3698502.3882",TRUE,TRUE,8,1.02564102564103,"TG",NA,NA,NA
"662","del",94,18,"SRR3698502.4749",TRUE,TRUE,8,1.02564102564103,"TG",NA,NA,NA
"663","del",94,18,"SRR3698502.5146",TRUE,TRUE,8,1.02564102564103,"TG",NA,NA,NA
"664","del",94,18,"SRR3698502.5339",TRUE,TRUE,8,1.02564102564103,"TG",NA,NA,NA
"665","del",94,18,"SRR3698502.5634",TRUE,TRUE,8,1.02564102564103,"TG",NA,NA,NA
"666","del",94,18,"SRR3698502.7540",TRUE,TRUE,8,1.02564102564103,"TG",NA,NA,NA
"667","del",95,7,"SRR3698502.5108",FALSE,TRUE,1,0.128205128205128,"G",NA,NA,NA
"668","del",95,13,"SRR3698502.3260",TRUE,TRUE,9,1.15384615384615,"GC",NA,NA,NA
"669","del",95,13,"SRR3698502.3345",TRUE,TRUE,9,1.15384615384615,"GC",NA,NA,NA
"670","del",95,13,"SRR3698502.3582",TRUE,TRUE,9,1.15384615384615,"GC",NA,NA,NA
"671","del",95,13,"SRR3698502.4748",TRUE,TRUE,9,1.15384615384615,"GC",NA,NA,NA
"672","del",95,13,"SRR3698502.5419",TRUE,TRUE,9,1.15384615384615,"GC",NA,NA,NA
"673","del",95,13,"SRR3698502.5437",TRUE,TRUE,9,1.15384615384615,"GC",NA,NA,NA
"674","del",95,13,"SRR3698502.5579",TRUE,TRUE,9,1.15384615384615,"GC",NA,NA,NA
"675","del",95,13,"SRR3698502.5693",TRUE,TRUE,9,1.15384615384615,"GC",NA,NA,NA
"676","del",95,13,"SRR3698502.7423",TRUE,TRUE,9,1.15384615384615,"GC",NA,NA,NA
"677","del",96,1,"SRR3698502.1634",TRUE,TRUE,5,0.641025641025641,"NHEJ",NA,NA,NA
"678","del",96,1,"SRR3698502.1675",TRUE,TRUE,5,0.641025641025641,"NHEJ",NA,NA,NA
"679","del",96,1,"SRR3698502.2720",TRUE,TRUE,5,0.641025641025641,"NHEJ",NA,NA,NA
"680","del",96,1,"SRR3698502.4260",TRUE,TRUE,5,0.641025641025641,"NHEJ",NA,NA,NA
"681","del",96,1,"SRR3698502.6058",TRUE,TRUE,5,0.641025641025641,"NHEJ",NA,NA,NA
"682","del",96,2,"SRR3698502.2922",TRUE,TRUE,2,0.256410256410256,"NHEJ",NA,NA,NA
"683","del",96,2,"SRR3698502.3444",TRUE,TRUE,2,0.256410256410256,"NHEJ",NA,NA,NA
"684","del",96,14,"SRR3698502.1374",TRUE,TRUE,6,0.769230769230769,"C",NA,NA,NA
"685","del",96,14,"SRR3698502.36",TRUE,TRUE,6,0.769230769230769,"C",NA,NA,NA
"686","del",96,14,"SRR3698502.3890",TRUE,TRUE,6,0.769230769230769,"C",NA,NA,NA
"687","del",96,14,"SRR3698502.5814",TRUE,TRUE,6,0.769230769230769,"C",NA,NA,NA
"688","del",96,14,"SRR3698502.7110",TRUE,TRUE,6,0.769230769230769,"C",NA,NA,NA
"689","del",96,14,"SRR3698502.7292",TRUE,TRUE,6,0.769230769230769,"C",NA,NA,NA
"690","del",97,1,"SRR3698502.250",TRUE,TRUE,5,0.641025641025641,"NHEJ",NA,NA,NA
"691","del",97,1,"SRR3698502.3981",TRUE,TRUE,5,0.641025641025641,"NHEJ",NA,NA,NA
"692","del",97,1,"SRR3698502.4257",TRUE,TRUE,5,0.641025641025641,"NHEJ",NA,NA,NA
"693","del",97,1,"SRR3698502.6005",TRUE,TRUE,5,0.641025641025641,"NHEJ",NA,NA,NA
"694","del",97,1,"SRR3698502.6798",TRUE,TRUE,5,0.641025641025641,"NHEJ",NA,NA,NA
"695","del",97,2,"SRR3698502.5412",FALSE,TRUE,1,0.128205128205128,"NHEJ",NA,NA,NA
"696","del",97,4,"SRR3698502.1098",TRUE,TRUE,6,0.769230769230769,"NHEJ",NA,NA,NA
"697","del",97,4,"SRR3698502.2082",TRUE,TRUE,6,0.769230769230769,"NHEJ",NA,NA,NA
"698","del",97,4,"SRR3698502.5963",TRUE,TRUE,6,0.769230769230769,"NHEJ",NA,NA,NA
"699","del",97,4,"SRR3698502.6254",TRUE,TRUE,6,0.769230769230769,"NHEJ",NA,NA,NA
"700","del",97,4,"SRR3698502.71",TRUE,TRUE,6,0.769230769230769,"NHEJ",NA,NA,NA
"701","del",97,4,"SRR3698502.7155",TRUE,TRUE,6,0.769230769230769,"NHEJ",NA,NA,NA
"702","del",97,6,"SRR3698502.415",FALSE,TRUE,1,0.128205128205128,"TG",NA,NA,NA
"703","del",97,9,"SRR3698502.1977",TRUE,TRUE,4,0.512820512820513,"TG",NA,NA,NA
"704","del",97,9,"SRR3698502.3372",TRUE,TRUE,4,0.512820512820513,"TG",NA,NA,NA
"705","del",97,9,"SRR3698502.3445",TRUE,TRUE,4,0.512820512820513,"TG",NA,NA,NA
"706","del",97,9,"SRR3698502.4806",TRUE,TRUE,4,0.512820512820513,"TG",NA,NA,NA
"707","del",97,18,"SRR3698502.1097",TRUE,TRUE,6,0.769230769230769,"NHEJ",NA,NA,NA
"708","del",97,18,"SRR3698502.3147",TRUE,TRUE,6,0.769230769230769,"NHEJ",NA,NA,NA
"709","del",97,18,"SRR3698502.3647",TRUE,TRUE,6,0.769230769230769,"NHEJ",NA,NA,NA
"710","del",97,18,"SRR3698502.730",TRUE,TRUE,6,0.769230769230769,"NHEJ",NA,NA,NA
"711","del",97,18,"SRR3698502.7524",TRUE,TRUE,6,0.769230769230769,"NHEJ",NA,NA,NA
"712","del",97,18,"SRR3698502.8057",TRUE,TRUE,6,0.769230769230769,"NHEJ",NA,NA,NA
"713","del",97,19,"SRR3698502.2677",FALSE,TRUE,1,0.128205128205128,"NHEJ",NA,NA,NA
"714","del",109,1,"SRR3698502.2297",TRUE,TRUE,3,0.384615384615385,"C",NA,NA,NA
"715","del",109,1,"SRR3698502.3965",TRUE,TRUE,3,0.384615384615385,"C",NA,NA,NA
"716","del",109,1,"SRR3698502.6432",TRUE,TRUE,3,0.384615384615385,"C",NA,NA,NA
"717","del",113,1,"SRR3698502.4817",TRUE,TRUE,3,0.384615384615385,"G",NA,NA,NA
"718","del",113,1,"SRR3698502.5491",TRUE,TRUE,3,0.384615384615385,"G",NA,NA,NA
"719","del",113,1,"SRR3698502.6133",TRUE,TRUE,3,0.384615384615385,"G",NA,NA,NA
"720","del",120,1,"SRR3698502.3909",FALSE,TRUE,1,0.128205128205128,"G",NA,NA,NA
"721","del",122,1,"SRR3698502.1315",FALSE,TRUE,1,0.128205128205128,"C",NA,NA,NA
"722","del",134,1,"SRR3698502.7698",FALSE,FALSE,1,0.128205128205128,"A",NA,NA,NA
"723","del",166,1,"SRR3698502.6430",FALSE,FALSE,1,0.128205128205128,"G",NA,NA,NA
"724","del",178,1,"SRR3698502.7668",FALSE,FALSE,1,0.128205128205128,"NHEJ",NA,NA,NA
"725","del",184,1,"SRR3698502.822",FALSE,FALSE,1,0.128205128205128,"G",NA,NA,NA
"726","del",188,1,"SRR3698502.3556",TRUE,FALSE,7,0.897435897435897,"G",NA,NA,NA
"727","del",188,1,"SRR3698502.4215",TRUE,FALSE,7,0.897435897435897,"G",NA,NA,NA
"728","del",188,1,"SRR3698502.4698",TRUE,FALSE,7,0.897435897435897,"G",NA,NA,NA
"729","del",188,1,"SRR3698502.6209",TRUE,FALSE,7,0.897435897435897,"G",NA,NA,NA
"730","del",188,1,"SRR3698502.7574",TRUE,FALSE,7,0.897435897435897,"G",NA,NA,NA
"731","del",188,1,"SRR3698502.7830",TRUE,FALSE,7,0.897435897435897,"G",NA,NA,NA
"732","del",188,1,"SRR3698502.8122",TRUE,FALSE,7,0.897435897435897,"G",NA,NA,NA
"733","del",188,3,"SRR3698502.5495",FALSE,FALSE,1,0.128205128205128,"G",NA,NA,NA
"734","del",190,1,"SRR3698502.2714",TRUE,FALSE,4,0.512820512820513,"NHEJ",NA,NA,NA
"735","del",190,1,"SRR3698502.2998",TRUE,FALSE,4,0.512820512820513,"NHEJ",NA,NA,NA
"736","del",190,1,"SRR3698502.3872",TRUE,FALSE,4,0.512820512820513,"NHEJ",NA,NA,NA
"737","del",190,1,"SRR3698502.6563",TRUE,FALSE,4,0.512820512820513,"NHEJ",NA,NA,NA
"738","del",191,1,"SRR3698502.2162",FALSE,FALSE,1,0.128205128205128,"NHEJ",NA,NA,NA
"739","del",191,2,"SRR3698502.4262",FALSE,FALSE,1,0.128205128205128,"G",NA,NA,NA
"740","del",192,1,"SRR3698502.309",TRUE,FALSE,4,0.512820512820513,"NHEJ",NA,NA,NA
"741","del",192,1,"SRR3698502.3572",TRUE,FALSE,4,0.512820512820513,"NHEJ",NA,NA,NA
"742","del",192,1,"SRR3698502.4409",TRUE,FALSE,4,0.512820512820513,"NHEJ",NA,NA,NA
"743","del",192,1,"SRR3698502.7229",TRUE,FALSE,4,0.512820512820513,"NHEJ",NA,NA,NA
"744","del",192,3,"SRR3698502.1470",FALSE,FALSE,1,0.128205128205128,"NHEJ",NA,NA,NA
"745","del",193,1,"SRR3698502.3918",TRUE,FALSE,3,0.384615384615385,"NHEJ",NA,NA,NA
"746","del",193,1,"SRR3698502.5714",TRUE,FALSE,3,0.384615384615385,"NHEJ",NA,NA,NA
"747","del",193,1,"SRR3698502.7202",TRUE,FALSE,3,0.384615384615385,"NHEJ",NA,NA,NA
"748","del",193,2,"SRR3698502.3716",TRUE,FALSE,4,0.512820512820513,"G",NA,NA,NA
"749","del",193,2,"SRR3698502.4678",TRUE,FALSE,4,0.512820512820513,"G",NA,NA,NA
"750","del",193,2,"SRR3698502.5859",TRUE,FALSE,4,0.512820512820513,"G",NA,NA,NA
"751","del",193,2,"SRR3698502.7147",TRUE,FALSE,4,0.512820512820513,"G",NA,NA,NA
"752","del",194,1,"SRR3698502.4444",TRUE,FALSE,4,0.512820512820513,"NHEJ",NA,NA,NA
"753","del",194,1,"SRR3698502.5615",TRUE,FALSE,4,0.512820512820513,"NHEJ",NA,NA,NA
"754","del",194,1,"SRR3698502.763",TRUE,FALSE,4,0.512820512820513,"NHEJ",NA,NA,NA
"755","del",194,1,"SRR3698502.7664",TRUE,FALSE,4,0.512820512820513,"NHEJ",NA,NA,NA
"756","del",195,1,"SRR3698502.154",TRUE,FALSE,2,0.256410256410256,"NHEJ",NA,NA,NA
"757","del",195,1,"SRR3698502.7436",TRUE,FALSE,2,0.256410256410256,"NHEJ",NA,NA,NA
"758","ins",8,1,"SRR3698502.2489",FALSE,FALSE,1,0.128205128205128,NA,"GTC","A","AGC"
"759","ins",15,1,"SRR3698502.3897",FALSE,FALSE,1,0.128205128205128,NA,"ACC","T","TCA"
"760","ins",188,1,"SRR3698502.3263",FALSE,FALSE,1,0.128205128205128,NA,"GGA","G","GGT"
"761","ins",191,1,"SRR3698502.3825",FALSE,FALSE,1,0.128205128205128,NA,"GGT","G","GAG"
"762","ins",97,1,"SRR3698502.1167",TRUE,TRUE,11,1.41025641025641,NA,"TGC","C","TGC"
"763","ins",97,1,NA,TRUE,TRUE,11,1.41025641025641,NA,"TGC","C","TGC"
"764","ins",97,1,NA,TRUE,TRUE,11,1.41025641025641,NA,"TGC","C","TGC"
"765","ins",97,1,NA,TRUE,TRUE,11,1.41025641025641,NA,"TGC","C","TGC"
"766","ins",97,1,NA,TRUE,TRUE,11,1.41025641025641,NA,"TGC","C","TGC"
"767","ins",97,1,NA,TRUE,TRUE,11,1.41025641025641,NA,"TGC","C","TGC"
"768","ins",97,1,NA,TRUE,TRUE,11,1.41025641025641,NA,"TGC","C","TGC"
"769","ins",97,1,NA,TRUE,TRUE,11,1.41025641025641,NA,"TGC","C","TGC"
"770","ins",97,1,NA,TRUE,TRUE,11,1.41025641025641,NA,"TGC","C","TGC"
"771","ins",97,1,NA,TRUE,TRUE,11,1.41025641025641,NA,"TGC","C","TGC"
"772","ins",97,1,NA,TRUE,TRUE,11,1.41025641025641,NA,"TGC","C","TGC"
"773","ins",97,1,"SRR3698502.1406",TRUE,TRUE,6,0.769230769230769,NA,"TGC","T","TGC"
"774","ins",97,1,"SRR3698502.2225",TRUE,TRUE,6,0.769230769230769,NA,"TGC","G","TGC"
"775","ins",97,1,"SRR3698502.3374",TRUE,TRUE,6,0.769230769230769,NA,"TGC","T","TGC"
"776","ins",97,1,"SRR3698502.726",TRUE,TRUE,6,0.769230769230769,NA,"TGC","T","TGC"
"777","ins",97,1,"SRR3698502.7987",TRUE,TRUE,6,0.769230769230769,NA,"TGC","G","TGC"
"778","ins",97,1,"SRR3698502.949",TRUE,TRUE,6,0.769230769230769,NA,"TGC","T","TGC"
"779","ins",97,3,"SRR3698502.2665",TRUE,TRUE,2,0.256410256410256,NA,"TCC","TCT","TGC"
"780","ins",97,3,"SRR3698502.7978",TRUE,TRUE,2,0.256410256410256,NA,"TCC","TCT","TGC"
