"","Modification","Start","Length","Ids","above_error_rate","in_pick","freq","Perc","patterns","pre_ins_nt","ins_nt","post_ins_nt"
"1","del",5,1,"SRR3698463.2091",TRUE,FALSE,12,3.1413612565445,"NHEJ",NA,NA,NA
"2","del",5,1,"SRR3698463.2229",TRUE,FALSE,12,3.1413612565445,"NHEJ",NA,NA,NA
"3","del",5,1,"SRR3698463.2488",TRUE,FALSE,12,3.1413612565445,"NHEJ",NA,NA,NA
"4","del",5,1,"SRR3698463.2622",TRUE,FALSE,12,3.1413612565445,"NHEJ",NA,NA,NA
"5","del",5,1,"SRR3698463.335",TRUE,FALSE,12,3.1413612565445,"NHEJ",NA,NA,NA
"6","del",5,1,"SRR3698463.4745",TRUE,FALSE,12,3.1413612565445,"NHEJ",NA,NA,NA
"7","del",5,1,"SRR3698463.4802",TRUE,FALSE,12,3.1413612565445,"NHEJ",NA,NA,NA
"8","del",5,1,"SRR3698463.4864",TRUE,FALSE,12,3.1413612565445,"NHEJ",NA,NA,NA
"9","del",5,1,"SRR3698463.5478",TRUE,FALSE,12,3.1413612565445,"NHEJ",NA,NA,NA
"10","del",5,1,"SRR3698463.6550",TRUE,FALSE,12,3.1413612565445,"NHEJ",NA,NA,NA
"11","del",5,1,"SRR3698463.6795",TRUE,FALSE,12,3.1413612565445,"NHEJ",NA,NA,NA
"12","del",5,1,"SRR3698463.977",TRUE,FALSE,12,3.1413612565445,"NHEJ",NA,NA,NA
"13","del",6,1,"SRR3698463.1140",TRUE,FALSE,7,1.83246073298429,"NHEJ",NA,NA,NA
"14","del",6,1,"SRR3698463.1243",TRUE,FALSE,7,1.83246073298429,"NHEJ",NA,NA,NA
"15","del",6,1,"SRR3698463.230",TRUE,FALSE,7,1.83246073298429,"NHEJ",NA,NA,NA
"16","del",6,1,"SRR3698463.2660",TRUE,FALSE,7,1.83246073298429,"NHEJ",NA,NA,NA
"17","del",6,1,"SRR3698463.4780",TRUE,FALSE,7,1.83246073298429,"NHEJ",NA,NA,NA
"18","del",6,1,"SRR3698463.6778",TRUE,FALSE,7,1.83246073298429,"NHEJ",NA,NA,NA
"19","del",6,1,"SRR3698463.850",TRUE,FALSE,7,1.83246073298429,"NHEJ",NA,NA,NA
"20","del",7,1,"SRR3698463.2458",TRUE,FALSE,6,1.57068062827225,"C",NA,NA,NA
"21","del",7,1,"SRR3698463.3781",TRUE,FALSE,6,1.57068062827225,"C",NA,NA,NA
"22","del",7,1,"SRR3698463.4858",TRUE,FALSE,6,1.57068062827225,"C",NA,NA,NA
"23","del",7,1,"SRR3698463.5545",TRUE,FALSE,6,1.57068062827225,"C",NA,NA,NA
"24","del",7,1,"SRR3698463.702",TRUE,FALSE,6,1.57068062827225,"C",NA,NA,NA
"25","del",7,1,"SRR3698463.7308",TRUE,FALSE,6,1.57068062827225,"C",NA,NA,NA
"26","del",7,3,"SRR3698463.7528",FALSE,FALSE,1,0.261780104712042,"C",NA,NA,NA
"27","del",8,2,"SRR3698463.4566",FALSE,FALSE,1,0.261780104712042,"C",NA,NA,NA
"28","del",9,1,"SRR3698463.1195",FALSE,FALSE,4,1.04712041884817,"NHEJ",NA,NA,NA
"29","del",9,1,"SRR3698463.2402",FALSE,FALSE,4,1.04712041884817,"NHEJ",NA,NA,NA
"30","del",9,1,"SRR3698463.2693",FALSE,FALSE,4,1.04712041884817,"NHEJ",NA,NA,NA
"31","del",9,1,"SRR3698463.6137",FALSE,FALSE,4,1.04712041884817,"NHEJ",NA,NA,NA
"32","del",9,3,"SRR3698463.3846",FALSE,FALSE,1,0.261780104712042,"NHEJ",NA,NA,NA
"33","del",10,1,"SRR3698463.1513",TRUE,FALSE,4,1.04712041884817,"NHEJ",NA,NA,NA
"34","del",10,1,"SRR3698463.2575",TRUE,FALSE,4,1.04712041884817,"NHEJ",NA,NA,NA
"35","del",10,1,"SRR3698463.2851",TRUE,FALSE,4,1.04712041884817,"NHEJ",NA,NA,NA
"36","del",10,1,"SRR3698463.5953",TRUE,FALSE,4,1.04712041884817,"NHEJ",NA,NA,NA
"37","del",10,2,"SRR3698463.2050",TRUE,FALSE,2,0.523560209424084,"NHEJ",NA,NA,NA
"38","del",10,2,"SRR3698463.6748",TRUE,FALSE,2,0.523560209424084,"NHEJ",NA,NA,NA
"39","del",11,1,"SRR3698463.279",TRUE,FALSE,5,1.30890052356021,"NHEJ",NA,NA,NA
"40","del",11,1,"SRR3698463.4456",TRUE,FALSE,5,1.30890052356021,"NHEJ",NA,NA,NA
"41","del",11,1,"SRR3698463.5934",TRUE,FALSE,5,1.30890052356021,"NHEJ",NA,NA,NA
"42","del",11,1,"SRR3698463.6755",TRUE,FALSE,5,1.30890052356021,"NHEJ",NA,NA,NA
"43","del",11,1,"SRR3698463.758",TRUE,FALSE,5,1.30890052356021,"NHEJ",NA,NA,NA
"44","del",12,1,"SRR3698463.4799",TRUE,FALSE,3,0.785340314136126,"NHEJ",NA,NA,NA
"45","del",12,1,"SRR3698463.5704",TRUE,FALSE,3,0.785340314136126,"NHEJ",NA,NA,NA
"46","del",12,1,"SRR3698463.7160",TRUE,FALSE,3,0.785340314136126,"NHEJ",NA,NA,NA
"47","del",16,1,"SRR3698463.3988",FALSE,FALSE,1,0.261780104712042,"T",NA,NA,NA
"48","del",23,1,"SRR3698463.1270",TRUE,FALSE,1,0.261780104712042,"NHEJ",NA,NA,NA
"49","del",25,1,"SRR3698463.1591",TRUE,FALSE,2,0.523560209424084,"T",NA,NA,NA
"50","del",25,1,"SRR3698463.2218",TRUE,FALSE,2,0.523560209424084,"T",NA,NA,NA
"51","del",34,1,"SRR3698463.2520",TRUE,FALSE,1,0.261780104712042,"C",NA,NA,NA
"52","del",44,1,"SRR3698463.4124",TRUE,FALSE,1,0.261780104712042,"C",NA,NA,NA
"53","del",83,1,"SRR3698463.5725",TRUE,FALSE,1,0.261780104712042,"NHEJ",NA,NA,NA
"54","del",89,1,"SRR3698463.1139",TRUE,FALSE,1,0.261780104712042,"T",NA,NA,NA
"55","del",94,1,"SRR3698463.1913",FALSE,FALSE,1,0.261780104712042,"G",NA,NA,NA
"56","del",100,32,"SRR3698463.2268",TRUE,FALSE,2,0.523560209424084,"GC",NA,NA,NA
"57","del",100,32,"SRR3698463.903",TRUE,FALSE,2,0.523560209424084,"GC",NA,NA,NA
"58","del",101,33,"SRR3698463.6143",TRUE,FALSE,2,0.523560209424084,"CA",NA,NA,NA
"59","del",101,33,"SRR3698463.6247",TRUE,FALSE,2,0.523560209424084,"CA",NA,NA,NA
"60","del",106,29,"SRR3698463.39",TRUE,TRUE,3,0.785340314136126,"AC",NA,NA,NA
"61","del",106,29,"SRR3698463.5154",TRUE,TRUE,3,0.785340314136126,"AC",NA,NA,NA
"62","del",106,29,"SRR3698463.5986",TRUE,TRUE,3,0.785340314136126,"AC",NA,NA,NA
"63","del",107,34,"SRR3698463.1249",TRUE,TRUE,4,1.04712041884817,"C",NA,NA,NA
"64","del",107,34,"SRR3698463.2257",TRUE,TRUE,4,1.04712041884817,"C",NA,NA,NA
"65","del",107,34,"SRR3698463.5172",TRUE,TRUE,4,1.04712041884817,"C",NA,NA,NA
"66","del",107,34,"SRR3698463.5710",TRUE,TRUE,4,1.04712041884817,"C",NA,NA,NA
"67","del",108,1,"SRR3698463.1196",TRUE,TRUE,14,3.66492146596859,"A",NA,NA,NA
"68","del",108,1,"SRR3698463.1746",TRUE,TRUE,14,3.66492146596859,"A",NA,NA,NA
"69","del",108,1,"SRR3698463.2190",TRUE,TRUE,14,3.66492146596859,"A",NA,NA,NA
"70","del",108,1,"SRR3698463.2232",TRUE,TRUE,14,3.66492146596859,"A",NA,NA,NA
"71","del",108,1,"SRR3698463.2449",TRUE,TRUE,14,3.66492146596859,"A",NA,NA,NA
"72","del",108,1,"SRR3698463.2923",TRUE,TRUE,14,3.66492146596859,"A",NA,NA,NA
"73","del",108,1,"SRR3698463.307",TRUE,TRUE,14,3.66492146596859,"A",NA,NA,NA
"74","del",108,1,"SRR3698463.3124",TRUE,TRUE,14,3.66492146596859,"A",NA,NA,NA
"75","del",108,1,"SRR3698463.3410",TRUE,TRUE,14,3.66492146596859,"A",NA,NA,NA
"76","del",108,1,"SRR3698463.3761",TRUE,TRUE,14,3.66492146596859,"A",NA,NA,NA
"77","del",108,1,"SRR3698463.3852",TRUE,TRUE,14,3.66492146596859,"A",NA,NA,NA
"78","del",108,1,"SRR3698463.4119",TRUE,TRUE,14,3.66492146596859,"A",NA,NA,NA
"79","del",108,1,"SRR3698463.477",TRUE,TRUE,14,3.66492146596859,"A",NA,NA,NA
"80","del",108,1,"SRR3698463.939",TRUE,TRUE,14,3.66492146596859,"A",NA,NA,NA
"81","del",110,15,"SRR3698463.6195",TRUE,TRUE,2,0.523560209424084,"A",NA,NA,NA
"82","del",110,15,"SRR3698463.855",TRUE,TRUE,2,0.523560209424084,"A",NA,NA,NA
"83","del",110,17,"SRR3698463.4534",TRUE,TRUE,2,0.523560209424084,"NHEJ",NA,NA,NA
"84","del",110,17,"SRR3698463.6015",TRUE,TRUE,2,0.523560209424084,"NHEJ",NA,NA,NA
"85","del",111,28,"SRR3698463.129",TRUE,TRUE,4,1.04712041884817,"A",NA,NA,NA
"86","del",111,28,"SRR3698463.4536",TRUE,TRUE,4,1.04712041884817,"A",NA,NA,NA
"87","del",111,28,"SRR3698463.4619",TRUE,TRUE,4,1.04712041884817,"A",NA,NA,NA
"88","del",111,28,"SRR3698463.6448",TRUE,TRUE,4,1.04712041884817,"A",NA,NA,NA
"89","del",112,15,"SRR3698463.1660",TRUE,TRUE,2,0.523560209424084,"NHEJ",NA,NA,NA
"90","del",112,15,"SRR3698463.3329",TRUE,TRUE,2,0.523560209424084,"NHEJ",NA,NA,NA
"91","del",112,23,"SRR3698463.2568",TRUE,TRUE,2,0.523560209424084,"ACG",NA,NA,NA
"92","del",112,23,"SRR3698463.6790",TRUE,TRUE,2,0.523560209424084,"ACG",NA,NA,NA
"93","del",113,21,"SRR3698463.1962",TRUE,TRUE,2,0.523560209424084,"C",NA,NA,NA
"94","del",113,21,"SRR3698463.4664",TRUE,TRUE,2,0.523560209424084,"C",NA,NA,NA
"95","del",114,13,"SRR3698463.3905",TRUE,TRUE,1,0.261780104712042,"G",NA,NA,NA
"96","del",115,11,"SRR3698463.1540",TRUE,TRUE,1,0.261780104712042,"T",NA,NA,NA
"97","del",115,21,"SRR3698463.7527",TRUE,TRUE,1,0.261780104712042,"NHEJ",NA,NA,NA
"98","del",115,38,"SRR3698463.5766",TRUE,TRUE,1,0.261780104712042,"T",NA,NA,NA
"99","del",116,10,"SRR3698463.3836",TRUE,TRUE,1,0.261780104712042,"T",NA,NA,NA
"100","del",116,24,"SRR3698463.4653",TRUE,TRUE,1,0.261780104712042,"T",NA,NA,NA
"101","del",117,23,"SRR3698463.1718",TRUE,TRUE,6,1.57068062827225,"TC",NA,NA,NA
"102","del",117,23,"SRR3698463.1753",TRUE,TRUE,6,1.57068062827225,"TC",NA,NA,NA
"103","del",117,23,"SRR3698463.441",TRUE,TRUE,6,1.57068062827225,"TC",NA,NA,NA
"104","del",117,23,"SRR3698463.5913",TRUE,TRUE,6,1.57068062827225,"TC",NA,NA,NA
"105","del",117,23,"SRR3698463.6018",TRUE,TRUE,6,1.57068062827225,"TC",NA,NA,NA
"106","del",117,23,"SRR3698463.6298",TRUE,TRUE,6,1.57068062827225,"TC",NA,NA,NA
"107","del",117,54,"SRR3698463.13",TRUE,TRUE,2,0.523560209424084,"TC",NA,NA,NA
"108","del",117,54,"SRR3698463.3941",TRUE,TRUE,2,0.523560209424084,"TC",NA,NA,NA
"109","del",118,1,"SRR3698463.1826",TRUE,TRUE,1,0.261780104712042,"C",NA,NA,NA
"110","del",118,7,"SRR3698463.1515",TRUE,TRUE,4,1.04712041884817,"NHEJ",NA,NA,NA
"111","del",118,7,"SRR3698463.1601",TRUE,TRUE,4,1.04712041884817,"NHEJ",NA,NA,NA
"112","del",118,7,"SRR3698463.1996",TRUE,TRUE,4,1.04712041884817,"NHEJ",NA,NA,NA
"113","del",118,7,"SRR3698463.5278",TRUE,TRUE,4,1.04712041884817,"NHEJ",NA,NA,NA
"114","del",118,8,"SRR3698463.211",TRUE,TRUE,1,0.261780104712042,"NHEJ",NA,NA,NA
"115","del",118,15,"SRR3698463.2344",TRUE,TRUE,4,1.04712041884817,"CCA",NA,NA,NA
"116","del",118,15,"SRR3698463.2543",TRUE,TRUE,4,1.04712041884817,"CCA",NA,NA,NA
"117","del",118,15,"SRR3698463.3970",TRUE,TRUE,4,1.04712041884817,"CCA",NA,NA,NA
"118","del",118,15,"SRR3698463.4287",TRUE,TRUE,4,1.04712041884817,"CCA",NA,NA,NA
"119","del",118,21,"SRR3698463.3755",TRUE,TRUE,1,0.261780104712042,"NHEJ",NA,NA,NA
"120","del",119,22,"SRR3698463.5200",TRUE,TRUE,1,0.261780104712042,"C",NA,NA,NA
"121","del",119,35,"SRR3698463.7225",TRUE,TRUE,1,0.261780104712042,"CA",NA,NA,NA
"122","del",120,1,"SRR3698463.5427",TRUE,TRUE,1,0.261780104712042,"A",NA,NA,NA
"123","del",120,6,"SRR3698463.1337",TRUE,TRUE,2,0.523560209424084,"NHEJ",NA,NA,NA
"124","del",120,6,"SRR3698463.2271",TRUE,TRUE,2,0.523560209424084,"NHEJ",NA,NA,NA
"125","del",120,20,"SRR3698463.2932",TRUE,TRUE,1,0.261780104712042,"NHEJ",NA,NA,NA
"126","del",121,29,"SRR3698463.5181",TRUE,TRUE,1,0.261780104712042,"NHEJ",NA,NA,NA
"127","del",122,5,"SRR3698463.2519",TRUE,TRUE,9,2.35602094240838,"GA",NA,NA,NA
"128","del",122,5,"SRR3698463.2800",TRUE,TRUE,9,2.35602094240838,"GA",NA,NA,NA
"129","del",122,5,"SRR3698463.3128",TRUE,TRUE,9,2.35602094240838,"GA",NA,NA,NA
"130","del",122,5,"SRR3698463.5225",TRUE,TRUE,9,2.35602094240838,"GA",NA,NA,NA
"131","del",122,5,"SRR3698463.540",TRUE,TRUE,9,2.35602094240838,"GA",NA,NA,NA
"132","del",122,5,"SRR3698463.5461",TRUE,TRUE,9,2.35602094240838,"GA",NA,NA,NA
"133","del",122,5,"SRR3698463.5531",TRUE,TRUE,9,2.35602094240838,"GA",NA,NA,NA
"134","del",122,5,"SRR3698463.6776",TRUE,TRUE,9,2.35602094240838,"GA",NA,NA,NA
"135","del",122,5,"SRR3698463.856",TRUE,TRUE,9,2.35602094240838,"GA",NA,NA,NA
"136","del",122,10,"SRR3698463.2442",TRUE,TRUE,1,0.261780104712042,"G",NA,NA,NA
"137","del",122,44,"SRR3698463.1549",TRUE,TRUE,1,0.261780104712042,"G",NA,NA,NA
"138","del",123,2,"SRR3698463.1643",TRUE,TRUE,6,1.57068062827225,"A",NA,NA,NA
"139","del",123,2,"SRR3698463.2163",TRUE,TRUE,6,1.57068062827225,"A",NA,NA,NA
"140","del",123,2,"SRR3698463.2597",TRUE,TRUE,6,1.57068062827225,"A",NA,NA,NA
"141","del",123,2,"SRR3698463.5895",TRUE,TRUE,6,1.57068062827225,"A",NA,NA,NA
"142","del",123,2,"SRR3698463.6576",TRUE,TRUE,6,1.57068062827225,"A",NA,NA,NA
"143","del",123,2,"SRR3698463.927",TRUE,TRUE,6,1.57068062827225,"A",NA,NA,NA
"144","del",123,3,"SRR3698463.3450",TRUE,TRUE,1,0.261780104712042,"NHEJ",NA,NA,NA
"145","del",123,12,"SRR3698463.2534",TRUE,TRUE,8,2.09424083769634,"AC",NA,NA,NA
"146","del",123,12,"SRR3698463.3287",TRUE,TRUE,8,2.09424083769634,"AC",NA,NA,NA
"147","del",123,12,"SRR3698463.4026",TRUE,TRUE,8,2.09424083769634,"AC",NA,NA,NA
"148","del",123,12,"SRR3698463.4258",TRUE,TRUE,8,2.09424083769634,"AC",NA,NA,NA
"149","del",123,12,"SRR3698463.4618",TRUE,TRUE,8,2.09424083769634,"AC",NA,NA,NA
"150","del",123,12,"SRR3698463.5003",TRUE,TRUE,8,2.09424083769634,"AC",NA,NA,NA
"151","del",123,12,"SRR3698463.5642",TRUE,TRUE,8,2.09424083769634,"AC",NA,NA,NA
"152","del",123,12,"SRR3698463.691",TRUE,TRUE,8,2.09424083769634,"AC",NA,NA,NA
"153","del",124,3,"SRR3698463.556",TRUE,TRUE,1,0.261780104712042,"NHEJ",NA,NA,NA
"154","del",124,9,"SRR3698463.1324",TRUE,TRUE,9,2.35602094240838,"C",NA,NA,NA
"155","del",124,9,"SRR3698463.149",TRUE,TRUE,9,2.35602094240838,"C",NA,NA,NA
"156","del",124,9,"SRR3698463.2787",TRUE,TRUE,9,2.35602094240838,"C",NA,NA,NA
"157","del",124,9,"SRR3698463.3033",TRUE,TRUE,9,2.35602094240838,"C",NA,NA,NA
"158","del",124,9,"SRR3698463.4475",TRUE,TRUE,9,2.35602094240838,"C",NA,NA,NA
"159","del",124,9,"SRR3698463.5668",TRUE,TRUE,9,2.35602094240838,"C",NA,NA,NA
"160","del",124,9,"SRR3698463.5681",TRUE,TRUE,9,2.35602094240838,"C",NA,NA,NA
"161","del",124,9,"SRR3698463.6202",TRUE,TRUE,9,2.35602094240838,"C",NA,NA,NA
"162","del",124,9,"SRR3698463.671",TRUE,TRUE,9,2.35602094240838,"C",NA,NA,NA
"163","del",124,10,"SRR3698463.1280",TRUE,TRUE,12,3.1413612565445,"CA",NA,NA,NA
"164","del",124,10,"SRR3698463.2047",TRUE,TRUE,12,3.1413612565445,"CA",NA,NA,NA
"165","del",124,10,"SRR3698463.2836",TRUE,TRUE,12,3.1413612565445,"CA",NA,NA,NA
"166","del",124,10,"SRR3698463.3561",TRUE,TRUE,12,3.1413612565445,"CA",NA,NA,NA
"167","del",124,10,"SRR3698463.4052",TRUE,TRUE,12,3.1413612565445,"CA",NA,NA,NA
"168","del",124,10,"SRR3698463.4292",TRUE,TRUE,12,3.1413612565445,"CA",NA,NA,NA
"169","del",124,10,"SRR3698463.5440",TRUE,TRUE,12,3.1413612565445,"CA",NA,NA,NA
"170","del",124,10,"SRR3698463.5450",TRUE,TRUE,12,3.1413612565445,"CA",NA,NA,NA
"171","del",124,10,"SRR3698463.7235",TRUE,TRUE,12,3.1413612565445,"CA",NA,NA,NA
"172","del",124,10,"SRR3698463.7403",TRUE,TRUE,12,3.1413612565445,"CA",NA,NA,NA
"173","del",124,10,"SRR3698463.957",TRUE,TRUE,12,3.1413612565445,"CA",NA,NA,NA
"174","del",124,10,"SRR3698463.991",TRUE,TRUE,12,3.1413612565445,"CA",NA,NA,NA
"175","del",125,1,"SRR3698463.2236",TRUE,TRUE,6,1.57068062827225,"NHEJ",NA,NA,NA
"176","del",125,1,"SRR3698463.4225",TRUE,TRUE,6,1.57068062827225,"NHEJ",NA,NA,NA
"177","del",125,1,"SRR3698463.4691",TRUE,TRUE,6,1.57068062827225,"NHEJ",NA,NA,NA
"178","del",125,1,"SRR3698463.6543",TRUE,TRUE,6,1.57068062827225,"NHEJ",NA,NA,NA
"179","del",125,1,"SRR3698463.6773",TRUE,TRUE,6,1.57068062827225,"NHEJ",NA,NA,NA
"180","del",125,1,"SRR3698463.7196",TRUE,TRUE,6,1.57068062827225,"NHEJ",NA,NA,NA
"181","del",125,2,"SRR3698463.3351",TRUE,TRUE,1,0.261780104712042,"NHEJ",NA,NA,NA
"182","del",125,16,"SRR3698463.2000",TRUE,TRUE,3,0.785340314136126,"NHEJ",NA,NA,NA
"183","del",125,16,"SRR3698463.5851",TRUE,TRUE,3,0.785340314136126,"NHEJ",NA,NA,NA
"184","del",125,16,"SRR3698463.6553",TRUE,TRUE,3,0.785340314136126,"NHEJ",NA,NA,NA
"185","del",125,22,"SRR3698463.4633",TRUE,TRUE,1,0.261780104712042,"A",NA,NA,NA
"186","del",126,5,"SRR3698463.1884",TRUE,TRUE,2,0.523560209424084,"NHEJ",NA,NA,NA
"187","del",126,5,"SRR3698463.4796",TRUE,TRUE,2,0.523560209424084,"NHEJ",NA,NA,NA
"188","del",126,6,"SRR3698463.3622",TRUE,TRUE,2,0.523560209424084,"NHEJ",NA,NA,NA
"189","del",126,6,"SRR3698463.4731",TRUE,TRUE,2,0.523560209424084,"NHEJ",NA,NA,NA
"190","del",126,8,"SRR3698463.1098",TRUE,TRUE,3,0.785340314136126,"NHEJ",NA,NA,NA
"191","del",126,8,"SRR3698463.5546",TRUE,TRUE,3,0.785340314136126,"NHEJ",NA,NA,NA
"192","del",126,8,"SRR3698463.5740",TRUE,TRUE,3,0.785340314136126,"NHEJ",NA,NA,NA
"193","del",126,11,"SRR3698463.423",TRUE,TRUE,2,0.523560209424084,"NHEJ",NA,NA,NA
"194","del",126,11,"SRR3698463.5510",TRUE,TRUE,2,0.523560209424084,"NHEJ",NA,NA,NA
"195","del",126,20,"SRR3698463.5901",TRUE,TRUE,1,0.261780104712042,"T",NA,NA,NA
"196","del",129,12,"SRR3698463.6182",TRUE,TRUE,2,0.523560209424084,"NHEJ",NA,NA,NA
"197","del",129,12,"SRR3698463.7347",TRUE,TRUE,2,0.523560209424084,"NHEJ",NA,NA,NA
"198","del",133,1,"SRR3698463.3747",TRUE,TRUE,1,0.261780104712042,"C",NA,NA,NA
"199","del",146,1,"SRR3698463.3387",TRUE,TRUE,1,0.261780104712042,"NHEJ",NA,NA,NA
"200","del",159,1,"SRR3698463.985",TRUE,TRUE,1,0.261780104712042,"A",NA,NA,NA
"201","del",168,1,"SRR3698463.1938",TRUE,TRUE,1,0.261780104712042,"G",NA,NA,NA
"202","del",175,1,"SRR3698463.1276",FALSE,FALSE,1,0.261780104712042,"NHEJ",NA,NA,NA
"203","del",177,1,"SRR3698463.5405",TRUE,FALSE,1,0.261780104712042,"C",NA,NA,NA
"204","del",185,1,"SRR3698463.134",TRUE,FALSE,3,0.785340314136126,"T",NA,NA,NA
"205","del",185,1,"SRR3698463.2958",TRUE,FALSE,3,0.785340314136126,"T",NA,NA,NA
"206","del",185,1,"SRR3698463.4909",TRUE,FALSE,3,0.785340314136126,"T",NA,NA,NA
"207","del",218,1,"SRR3698463.7268",FALSE,FALSE,1,0.261780104712042,"NHEJ",NA,NA,NA
"208","del",234,1,"SRR3698463.1801",FALSE,FALSE,1,0.261780104712042,"C",NA,NA,NA
"209","del",236,1,"SRR3698463.3426",FALSE,FALSE,1,0.261780104712042,"A",NA,NA,NA
"210","del",238,1,"SRR3698463.159",TRUE,FALSE,9,2.35602094240838,"NHEJ",NA,NA,NA
"211","del",238,1,"SRR3698463.1942",TRUE,FALSE,9,2.35602094240838,"NHEJ",NA,NA,NA
"212","del",238,1,"SRR3698463.1997",TRUE,FALSE,9,2.35602094240838,"NHEJ",NA,NA,NA
"213","del",238,1,"SRR3698463.3489",TRUE,FALSE,9,2.35602094240838,"NHEJ",NA,NA,NA
"214","del",238,1,"SRR3698463.4280",TRUE,FALSE,9,2.35602094240838,"NHEJ",NA,NA,NA
"215","del",238,1,"SRR3698463.6506",TRUE,FALSE,9,2.35602094240838,"NHEJ",NA,NA,NA
"216","del",238,1,"SRR3698463.6667",TRUE,FALSE,9,2.35602094240838,"NHEJ",NA,NA,NA
"217","del",238,1,"SRR3698463.6825",TRUE,FALSE,9,2.35602094240838,"NHEJ",NA,NA,NA
"218","del",238,1,"SRR3698463.92",TRUE,FALSE,9,2.35602094240838,"NHEJ",NA,NA,NA
"219","del",238,2,"SRR3698463.2629",TRUE,FALSE,2,0.523560209424084,"NHEJ",NA,NA,NA
"220","del",238,2,"SRR3698463.4861",TRUE,FALSE,2,0.523560209424084,"NHEJ",NA,NA,NA
"221","del",239,1,"SRR3698463.248",TRUE,FALSE,21,5.49738219895288,"NHEJ",NA,NA,NA
"222","del",239,1,"SRR3698463.2694",TRUE,FALSE,21,5.49738219895288,"NHEJ",NA,NA,NA
"223","del",239,1,"SRR3698463.2957",TRUE,FALSE,21,5.49738219895288,"NHEJ",NA,NA,NA
"224","del",239,1,"SRR3698463.3485",TRUE,FALSE,21,5.49738219895288,"NHEJ",NA,NA,NA
"225","del",239,1,"SRR3698463.4274",TRUE,FALSE,21,5.49738219895288,"NHEJ",NA,NA,NA
"226","del",239,1,"SRR3698463.4700",TRUE,FALSE,21,5.49738219895288,"NHEJ",NA,NA,NA
"227","del",239,1,"SRR3698463.4730",TRUE,FALSE,21,5.49738219895288,"NHEJ",NA,NA,NA
"228","del",239,1,"SRR3698463.4771",TRUE,FALSE,21,5.49738219895288,"NHEJ",NA,NA,NA
"229","del",239,1,"SRR3698463.4934",TRUE,FALSE,21,5.49738219895288,"NHEJ",NA,NA,NA
"230","del",239,1,"SRR3698463.4944",TRUE,FALSE,21,5.49738219895288,"NHEJ",NA,NA,NA
"231","del",239,1,"SRR3698463.5750",TRUE,FALSE,21,5.49738219895288,"NHEJ",NA,NA,NA
"232","del",239,1,"SRR3698463.6297",TRUE,FALSE,21,5.49738219895288,"NHEJ",NA,NA,NA
"233","del",239,1,"SRR3698463.6544",TRUE,FALSE,21,5.49738219895288,"NHEJ",NA,NA,NA
"234","del",239,1,"SRR3698463.6594",TRUE,FALSE,21,5.49738219895288,"NHEJ",NA,NA,NA
"235","del",239,1,"SRR3698463.6832",TRUE,FALSE,21,5.49738219895288,"NHEJ",NA,NA,NA
"236","del",239,1,"SRR3698463.6879",TRUE,FALSE,21,5.49738219895288,"NHEJ",NA,NA,NA
"237","del",239,1,"SRR3698463.7219",TRUE,FALSE,21,5.49738219895288,"NHEJ",NA,NA,NA
"238","del",239,1,"SRR3698463.7242",TRUE,FALSE,21,5.49738219895288,"NHEJ",NA,NA,NA
"239","del",239,1,"SRR3698463.7318",TRUE,FALSE,21,5.49738219895288,"NHEJ",NA,NA,NA
"240","del",239,1,"SRR3698463.746",TRUE,FALSE,21,5.49738219895288,"NHEJ",NA,NA,NA
"241","del",239,1,"SRR3698463.752",TRUE,FALSE,21,5.49738219895288,"NHEJ",NA,NA,NA
"242","del",239,2,"SRR3698463.4320",FALSE,FALSE,1,0.261780104712042,"NHEJ",NA,NA,NA
"243","del",239,3,"SRR3698463.1832",TRUE,FALSE,3,0.785340314136126,"GA",NA,NA,NA
"244","del",239,3,"SRR3698463.2376",TRUE,FALSE,3,0.785340314136126,"GA",NA,NA,NA
"245","del",239,3,"SRR3698463.2645",TRUE,FALSE,3,0.785340314136126,"GA",NA,NA,NA
"246","del",240,1,"SRR3698463.1271",TRUE,FALSE,30,7.85340314136126,"A",NA,NA,NA
"247","del",240,1,"SRR3698463.1371",TRUE,FALSE,30,7.85340314136126,"A",NA,NA,NA
"248","del",240,1,"SRR3698463.1551",TRUE,FALSE,30,7.85340314136126,"A",NA,NA,NA
"249","del",240,1,"SRR3698463.1552",TRUE,FALSE,30,7.85340314136126,"A",NA,NA,NA
"250","del",240,1,"SRR3698463.1651",TRUE,FALSE,30,7.85340314136126,"A",NA,NA,NA
"251","del",240,1,"SRR3698463.2536",TRUE,FALSE,30,7.85340314136126,"A",NA,NA,NA
"252","del",240,1,"SRR3698463.284",TRUE,FALSE,30,7.85340314136126,"A",NA,NA,NA
"253","del",240,1,"SRR3698463.3164",TRUE,FALSE,30,7.85340314136126,"A",NA,NA,NA
"254","del",240,1,"SRR3698463.3447",TRUE,FALSE,30,7.85340314136126,"A",NA,NA,NA
"255","del",240,1,"SRR3698463.3570",TRUE,FALSE,30,7.85340314136126,"A",NA,NA,NA
"256","del",240,1,"SRR3698463.3779",TRUE,FALSE,30,7.85340314136126,"A",NA,NA,NA
"257","del",240,1,"SRR3698463.3862",TRUE,FALSE,30,7.85340314136126,"A",NA,NA,NA
"258","del",240,1,"SRR3698463.4144",TRUE,FALSE,30,7.85340314136126,"A",NA,NA,NA
"259","del",240,1,"SRR3698463.4404",TRUE,FALSE,30,7.85340314136126,"A",NA,NA,NA
"260","del",240,1,"SRR3698463.4655",TRUE,FALSE,30,7.85340314136126,"A",NA,NA,NA
"261","del",240,1,"SRR3698463.4845",TRUE,FALSE,30,7.85340314136126,"A",NA,NA,NA
"262","del",240,1,"SRR3698463.4908",TRUE,FALSE,30,7.85340314136126,"A",NA,NA,NA
"263","del",240,1,"SRR3698463.5137",TRUE,FALSE,30,7.85340314136126,"A",NA,NA,NA
"264","del",240,1,"SRR3698463.5146",TRUE,FALSE,30,7.85340314136126,"A",NA,NA,NA
"265","del",240,1,"SRR3698463.5176",TRUE,FALSE,30,7.85340314136126,"A",NA,NA,NA
"266","del",240,1,"SRR3698463.5332",TRUE,FALSE,30,7.85340314136126,"A",NA,NA,NA
"267","del",240,1,"SRR3698463.5411",TRUE,FALSE,30,7.85340314136126,"A",NA,NA,NA
"268","del",240,1,"SRR3698463.5918",TRUE,FALSE,30,7.85340314136126,"A",NA,NA,NA
"269","del",240,1,"SRR3698463.5957",TRUE,FALSE,30,7.85340314136126,"A",NA,NA,NA
"270","del",240,1,"SRR3698463.6314",TRUE,FALSE,30,7.85340314136126,"A",NA,NA,NA
"271","del",240,1,"SRR3698463.6355",TRUE,FALSE,30,7.85340314136126,"A",NA,NA,NA
"272","del",240,1,"SRR3698463.661",TRUE,FALSE,30,7.85340314136126,"A",NA,NA,NA
"273","del",240,1,"SRR3698463.6899",TRUE,FALSE,30,7.85340314136126,"A",NA,NA,NA
"274","del",240,1,"SRR3698463.7336",TRUE,FALSE,30,7.85340314136126,"A",NA,NA,NA
"275","del",240,1,"SRR3698463.7389",TRUE,FALSE,30,7.85340314136126,"A",NA,NA,NA
"276","del",242,1,"SRR3698463.1064",TRUE,FALSE,5,1.30890052356021,"NHEJ",NA,NA,NA
"277","del",242,1,"SRR3698463.155",TRUE,FALSE,5,1.30890052356021,"NHEJ",NA,NA,NA
"278","del",242,1,"SRR3698463.3705",TRUE,FALSE,5,1.30890052356021,"NHEJ",NA,NA,NA
"279","del",242,1,"SRR3698463.4561",TRUE,FALSE,5,1.30890052356021,"NHEJ",NA,NA,NA
"280","del",242,1,"SRR3698463.470",TRUE,FALSE,5,1.30890052356021,"NHEJ",NA,NA,NA
"281","del",242,3,"SRR3698463.6192",FALSE,FALSE,1,0.261780104712042,"NHEJ",NA,NA,NA
"282","del",243,1,"SRR3698463.1302",TRUE,FALSE,15,3.92670157068063,"NHEJ",NA,NA,NA
"283","del",243,1,"SRR3698463.1435",TRUE,FALSE,15,3.92670157068063,"NHEJ",NA,NA,NA
"284","del",243,1,"SRR3698463.1667",TRUE,FALSE,15,3.92670157068063,"NHEJ",NA,NA,NA
"285","del",243,1,"SRR3698463.2107",TRUE,FALSE,15,3.92670157068063,"NHEJ",NA,NA,NA
"286","del",243,1,"SRR3698463.2748",TRUE,FALSE,15,3.92670157068063,"NHEJ",NA,NA,NA
"287","del",243,1,"SRR3698463.3586",TRUE,FALSE,15,3.92670157068063,"NHEJ",NA,NA,NA
"288","del",243,1,"SRR3698463.3621",TRUE,FALSE,15,3.92670157068063,"NHEJ",NA,NA,NA
"289","del",243,1,"SRR3698463.4742",TRUE,FALSE,15,3.92670157068063,"NHEJ",NA,NA,NA
"290","del",243,1,"SRR3698463.5380",TRUE,FALSE,15,3.92670157068063,"NHEJ",NA,NA,NA
"291","del",243,1,"SRR3698463.553",TRUE,FALSE,15,3.92670157068063,"NHEJ",NA,NA,NA
"292","del",243,1,"SRR3698463.5591",TRUE,FALSE,15,3.92670157068063,"NHEJ",NA,NA,NA
"293","del",243,1,"SRR3698463.6211",TRUE,FALSE,15,3.92670157068063,"NHEJ",NA,NA,NA
"294","del",243,1,"SRR3698463.6224",TRUE,FALSE,15,3.92670157068063,"NHEJ",NA,NA,NA
"295","del",243,1,"SRR3698463.634",TRUE,FALSE,15,3.92670157068063,"NHEJ",NA,NA,NA
"296","del",243,1,"SRR3698463.867",TRUE,FALSE,15,3.92670157068063,"NHEJ",NA,NA,NA
"297","del",243,2,"SRR3698463.3022",TRUE,FALSE,7,1.83246073298429,"A",NA,NA,NA
"298","del",243,2,"SRR3698463.5501",TRUE,FALSE,7,1.83246073298429,"A",NA,NA,NA
"299","del",243,2,"SRR3698463.570",TRUE,FALSE,7,1.83246073298429,"A",NA,NA,NA
"300","del",243,2,"SRR3698463.623",TRUE,FALSE,7,1.83246073298429,"A",NA,NA,NA
"301","del",243,2,"SRR3698463.6361",TRUE,FALSE,7,1.83246073298429,"A",NA,NA,NA
"302","del",243,2,"SRR3698463.7062",TRUE,FALSE,7,1.83246073298429,"A",NA,NA,NA
"303","del",243,2,"SRR3698463.7259",TRUE,FALSE,7,1.83246073298429,"A",NA,NA,NA
"304","del",244,1,"SRR3698463.1403",TRUE,FALSE,9,2.35602094240838,"NHEJ",NA,NA,NA
"305","del",244,1,"SRR3698463.2099",TRUE,FALSE,9,2.35602094240838,"NHEJ",NA,NA,NA
"306","del",244,1,"SRR3698463.254",TRUE,FALSE,9,2.35602094240838,"NHEJ",NA,NA,NA
"307","del",244,1,"SRR3698463.2853",TRUE,FALSE,9,2.35602094240838,"NHEJ",NA,NA,NA
"308","del",244,1,"SRR3698463.3473",TRUE,FALSE,9,2.35602094240838,"NHEJ",NA,NA,NA
"309","del",244,1,"SRR3698463.4692",TRUE,FALSE,9,2.35602094240838,"NHEJ",NA,NA,NA
"310","del",244,1,"SRR3698463.5091",TRUE,FALSE,9,2.35602094240838,"NHEJ",NA,NA,NA
"311","del",244,1,"SRR3698463.5633",TRUE,FALSE,9,2.35602094240838,"NHEJ",NA,NA,NA
"312","del",244,1,"SRR3698463.938",TRUE,FALSE,9,2.35602094240838,"NHEJ",NA,NA,NA
"313","ins",5,1,"SRR3698463.7130",FALSE,FALSE,1,0.261780104712042,NA,"GGC","A","AGC"
"314","ins",6,1,"SRR3698463.2195",FALSE,FALSE,1,0.261780104712042,NA,"GCA","G","GCC"
"315","ins",12,1,"SRR3698463.624",FALSE,FALSE,1,0.261780104712042,NA,"ACT","G","GAC"
"316","ins",15,1,"SRR3698463.2155",TRUE,FALSE,3,0.785340314136126,NA,"GAC","A","ATT"
"317","ins",15,1,"SRR3698463.3032",TRUE,FALSE,3,0.785340314136126,NA,"GAC","A","ATT"
"318","ins",15,1,"SRR3698463.5262",TRUE,FALSE,3,0.785340314136126,NA,"GAC","A","ATT"
"319","ins",86,12,"SRR3698463.6515",TRUE,FALSE,1,0.261780104712042,NA,"GAC","CAGTTTAAGGGG","CAG"
"320","ins",236,1,"SRR3698463.4573",FALSE,FALSE,1,0.261780104712042,NA,"ACC","A","AAT"
"321","ins",238,1,"SRR3698463.614",FALSE,FALSE,1,0.261780104712042,NA,"CAA","T","TGA"
"322","ins",243,1,"SRR3698463.5485",FALSE,FALSE,1,0.261780104712042,NA,"AAG","A","ACA"
"323","ins",126,2,"SRR3698463.5101",TRUE,TRUE,1,0.261780104712042,NA,"ACA","CA","TGA"
"324","ins",124,2,"SRR3698463.3286",TRUE,TRUE,2,0.523560209424084,NA,"AGA","TC","CGT"
"325","ins",124,2,"SRR3698463.5141",TRUE,TRUE,2,0.523560209424084,NA,"AGA","TC","CGT"
"326","ins",126,1,NA,TRUE,TRUE,53,13.8743455497382,NA,"ACA",NA,"TGA"
"327","ins",126,1,NA,TRUE,TRUE,53,13.8743455497382,NA,"ACA",NA,"TGA"
"328","ins",126,1,NA,TRUE,TRUE,53,13.8743455497382,NA,"ACA",NA,"TGA"
"329","ins",126,1,NA,TRUE,TRUE,53,13.8743455497382,NA,"ACA",NA,"TGA"
"330","ins",126,1,NA,TRUE,TRUE,53,13.8743455497382,NA,"ACA",NA,"TGA"
"331","ins",126,1,NA,TRUE,TRUE,53,13.8743455497382,NA,"ACA",NA,"TGA"
"332","ins",126,1,NA,TRUE,TRUE,53,13.8743455497382,NA,"ACA",NA,"TGA"
"333","ins",126,1,NA,TRUE,TRUE,53,13.8743455497382,NA,"ACA",NA,"TGA"
"334","ins",126,1,NA,TRUE,TRUE,53,13.8743455497382,NA,"ACA",NA,"TGA"
"335","ins",126,1,NA,TRUE,TRUE,53,13.8743455497382,NA,"ACA",NA,"TGA"
"336","ins",126,1,NA,TRUE,TRUE,53,13.8743455497382,NA,"ACA",NA,"TGA"
"337","ins",126,1,NA,TRUE,TRUE,53,13.8743455497382,NA,"ACA",NA,"TGA"
"338","ins",126,1,NA,TRUE,TRUE,53,13.8743455497382,NA,"ACA",NA,"TGA"
"339","ins",126,1,NA,TRUE,TRUE,53,13.8743455497382,NA,"ACA",NA,"TGA"
"340","ins",126,1,NA,TRUE,TRUE,53,13.8743455497382,NA,"ACA",NA,"TGA"
"341","ins",126,1,NA,TRUE,TRUE,53,13.8743455497382,NA,"ACA",NA,"TGA"
"342","ins",126,1,NA,TRUE,TRUE,53,13.8743455497382,NA,"ACA",NA,"TGA"
"343","ins",126,1,NA,TRUE,TRUE,53,13.8743455497382,NA,"ACA",NA,"TGA"
"344","ins",126,1,NA,TRUE,TRUE,53,13.8743455497382,NA,"ACA",NA,"TGA"
"345","ins",126,1,NA,TRUE,TRUE,53,13.8743455497382,NA,"ACA",NA,"TGA"
"346","ins",126,1,NA,TRUE,TRUE,53,13.8743455497382,NA,"ACA",NA,"TGA"
"347","ins",126,1,NA,TRUE,TRUE,53,13.8743455497382,NA,"ACA",NA,"TGA"
"348","ins",126,1,NA,TRUE,TRUE,53,13.8743455497382,NA,"ACA",NA,"TGA"
"349","ins",126,1,NA,TRUE,TRUE,53,13.8743455497382,NA,"ACA",NA,"TGA"
"350","ins",126,1,NA,TRUE,TRUE,53,13.8743455497382,NA,"ACA",NA,"TGA"
"351","ins",126,1,NA,TRUE,TRUE,53,13.8743455497382,NA,"ACA",NA,"TGA"
"352","ins",126,1,NA,TRUE,TRUE,53,13.8743455497382,NA,"ACA",NA,"TGA"
"353","ins",126,1,NA,TRUE,TRUE,53,13.8743455497382,NA,"ACA",NA,"TGA"
"354","ins",126,1,NA,TRUE,TRUE,53,13.8743455497382,NA,"ACA",NA,"TGA"
"355","ins",126,1,NA,TRUE,TRUE,53,13.8743455497382,NA,"ACA",NA,"TGA"
"356","ins",126,1,NA,TRUE,TRUE,53,13.8743455497382,NA,"ACA",NA,"TGA"
"357","ins",126,1,NA,TRUE,TRUE,53,13.8743455497382,NA,"ACA",NA,"TGA"
"358","ins",126,1,NA,TRUE,TRUE,53,13.8743455497382,NA,"ACA",NA,"TGA"
"359","ins",126,1,NA,TRUE,TRUE,53,13.8743455497382,NA,"ACA",NA,"TGA"
"360","ins",126,1,NA,TRUE,TRUE,53,13.8743455497382,NA,"ACA",NA,"TGA"
"361","ins",126,1,NA,TRUE,TRUE,53,13.8743455497382,NA,"ACA",NA,"TGA"
"362","ins",126,1,NA,TRUE,TRUE,53,13.8743455497382,NA,"ACA",NA,"TGA"
"363","ins",126,1,NA,TRUE,TRUE,53,13.8743455497382,NA,"ACA",NA,"TGA"
"364","ins",126,1,NA,TRUE,TRUE,53,13.8743455497382,NA,"ACA",NA,"TGA"
"365","ins",126,1,NA,TRUE,TRUE,53,13.8743455497382,NA,"ACA",NA,"TGA"
"366","ins",126,1,NA,TRUE,TRUE,53,13.8743455497382,NA,"ACA",NA,"TGA"
"367","ins",126,1,NA,TRUE,TRUE,53,13.8743455497382,NA,"ACA",NA,"TGA"
"368","ins",126,1,NA,TRUE,TRUE,53,13.8743455497382,NA,"ACA",NA,"TGA"
"369","ins",126,1,NA,TRUE,TRUE,53,13.8743455497382,NA,"ACA",NA,"TGA"
"370","ins",126,1,NA,TRUE,TRUE,53,13.8743455497382,NA,"ACA",NA,"TGA"
"371","ins",126,1,NA,TRUE,TRUE,53,13.8743455497382,NA,"ACA",NA,"TGA"
"372","ins",126,1,NA,TRUE,TRUE,53,13.8743455497382,NA,"ACA",NA,"TGA"
"373","ins",126,1,NA,TRUE,TRUE,53,13.8743455497382,NA,"ACA",NA,"TGA"
"374","ins",126,1,NA,TRUE,TRUE,53,13.8743455497382,NA,"ACA",NA,"TGA"
"375","ins",126,1,NA,TRUE,TRUE,53,13.8743455497382,NA,"ACA",NA,"TGA"
"376","ins",126,1,NA,TRUE,TRUE,53,13.8743455497382,NA,"ACA",NA,"TGA"
"377","ins",126,1,NA,TRUE,TRUE,53,13.8743455497382,NA,"ACA",NA,"TGA"
"378","ins",126,1,NA,TRUE,TRUE,53,13.8743455497382,NA,"ACA",NA,"TGA"
"379","ins",126,1,"SRR3698463.2498",TRUE,TRUE,2,0.523560209424084,NA,"ACA","T","TGA"
"380","ins",126,1,"SRR3698463.6912",TRUE,TRUE,2,0.523560209424084,NA,"ACA","T","TGA"
"381","ins",126,2,"SRR3698463.1674",TRUE,TRUE,2,0.523560209424084,NA,"ACA","CG","TGA"
"382","ins",126,2,"SRR3698463.6244",TRUE,TRUE,2,0.523560209424084,NA,"ACA","CG","TGA"
