"","gRNA_num","cellLine","rep","edition"
"1",1,"1","1",1
"2",1,"HCT116","R1",56.8957511028558
"3",2,"HCT116","R1",75.1277505475023
"4",3,"HCT116","R1",83.9168490153173
"5",4,"HCT116","R1",96.7737838181125
"6",5,"HCT116","R1",75.5070202808112
"7",6,"HCT116","R1",99.2584602939194
"8",7,"HCT116","R1",94.3268976461254
"9",8,"HCT116","R1",96.5944272445821
"10",9,"HCT116","R1",64.2691415313225
"11",10,"HCT116","R1",11.6047242388124
"12",11,"HCT116","R1",61.0509333947914
"13",12,"HCT116","R1",98.6895161290323
"14",13,"HCT116","R1",89.6957340025094
"15",14,"HCT116","R1",49.3453724604966
"16",15,"HCT116","R1",97.7920883164673
"17",16,"HCT116","R1",74.2047283079589
"18",17,"HCT116","R1",44.9629481273783
"19",18,"HCT116","R1",90.5442009357301
"20",19,"HCT116","R1",93.2604735883424
"21",20,"HCT116","R1",98.6173759560698
"22",21,"HCT116","R1",96.6504966504966
"23",22,"HCT116","R1",64.7748375116063
"24",23,"HCT116","R1",58.6563032367973
"25",24,"HCT116","R1",62.829006266786
"26",25,"HCT116","R1",54.2957334891876
"27",26,"HCT116","R1",97.5161213279197
"28",27,"HCT116","R1",92.9587831207066
"29",28,"HCT116","R1",41.9833810107615
"30",29,"HCT116","R1",37.024581631836
"31",30,"HCT116","R1",95.7769617317356
"32",31,"HCT116","R1",96.6342790516906
"33",32,"HCT116","R1",98.7605918806121
"34",33,"HCT116","R1",90.8461780434099
"35",34,"HCT116","R1",71.642166101269
"36",35,"HCT116","R1",52.2748091603053
"37",36,"HCT116","R1",94.0212373037858
"38",37,"HCT116","R1",33.2381370826011
"39",38,"HCT116","R1",30.0091491308326
"40",39,"HCT116","R1",31.1884797666788
"41",40,"HCT116","R1",85.9226640979771
"42",41,"HCT116","R1",15.9417137886037
"43",42,"HCT116","R1",97.7536793183579
"44",43,"HCT116","R1",49.3370654095463
"45",44,"HCT116","R1",61.9181247936613
"46",45,"HCT116","R1",26.360908701243
"47",46,"HCT116","R1",96.7181956411556
"48",47,"HCT116","R1",87.5538745712024
"49",48,"HCT116","R1",35.8178930651138
"50",49,"HCT116","R1",97.8644501278772
"51",50,"HCT116","R1",41.9895820099098
"52",51,"HCT116","R1",33.6963624482684
"53",52,"HCT116","R1",98.4298440979955
"54",53,"HCT116","R1",32.3052149139106
"55",54,"HCT116","R1",82.6264880952381
"56",55,"HCT116","R1",21.2602665948566
"57",56,"HCT116","R1",7.71303469181543
"58",57,"HCT116","R1",95.8220586643576
"59",58,"HCT116","R1",97.1943151188434
"60",59,"HCT116","R1",97.9574285099978
"61",60,"HCT116","R1",24.9411148913897
"62",61,"HCT116","R1",95.981795981796
"63",62,"HCT116","R1",3.7826168575183
"64",63,"HCT116","R1",89.6779200620877
"65",64,"HCT116","R1",97.1811361200429
"66",65,"HCT116","R1",93.4976107935913
"67",66,"HCT116","R1",39.7369106538161
"68",67,"HCT116","R1",24.8977022348127
"69",68,"HCT116","R1",69.3826027082855
"70",69,"HCT116","R1",96.5846443458384
"71",70,"HCT116","R1",42.0558633947755
"72",71,"HCT116","R1",98.5365853658537
"73",72,"HCT116","R1",87.5590020229265
"74",73,"HCT116","R1",89.1695416461311
"75",74,"HCT116","R1",9.56893916233568
"76",75,"HCT116","R1",70.8735188757233
"77",76,"HCT116","R1",81.9617105917454
"78",77,"HCT116","R1",53.929164360819
"79",78,"HCT116","R1",25.3875533587958
"80",79,"HCT116","R1",86.9615384615385
"81",80,"HCT116","R1",50.6982325987344
"82",81,"HCT116","R1",55.9376623376623
"83",82,"HCT116","R1",95.2681737588652
"84",83,"HCT116","R1",24.7299155372225
"85",84,"HCT116","R1",89.6274559836693
"86",85,"HCT116","R1",37.2573463935886
"87",86,"HCT116","R1",20.3889475536783
"88",87,"HCT116","R1",90.7349844580367
"89",88,"HCT116","R1",98.1077147016012
"90",89,"HCT116","R1",94.9438202247191
"91",90,"HCT116","R1",98.1516716499049
"92",91,"HCT116","R1",92.5812315382868
"93",92,"HCT116","R1",65.8403318830315
"94",93,"HCT116","R1",44.191633691351
"95",94,"HCT116","R1",64.9350649350649
"96",95,"HCT116","R1",96.5324384787472
"97",96,"HCT116","R1",13.4195634599838
"98",1,"HCT116","R2",54.4603562696472
"99",2,"HCT116","R2",72.7408248739973
"100",3,"HCT116","R2",83.4022988505747
"101",4,"HCT116","R2",96.4408443789887
"102",5,"HCT116","R2",73.713313483624
"103",6,"HCT116","R2",99.4105903603004
"104",7,"HCT116","R2",93.4294871794872
"105",8,"HCT116","R2",96.4653726335969
"106",9,"HCT116","R2",60.8272347098798
"107",10,"HCT116","R2",10.9199815696514
"108",11,"HCT116","R2",59.2061150596755
"109",12,"HCT116","R2",98.7680167485305
"110",13,"HCT116","R2",87.3894708202966
"111",14,"HCT116","R2",50.1550314760876
"112",15,"HCT116","R2",96.8814638027048
"113",16,"HCT116","R2",74.0156837118118
"114",17,"HCT116","R2",42.8878303913328
"115",18,"HCT116","R2",89.4443849694893
"116",19,"HCT116","R2",92.9462875197472
"117",20,"HCT116","R2",98.6866791744841
"118",21,"HCT116","R2",97.2059606173496
"119",22,"HCT116","R2",63.2172387872714
"120",23,"HCT116","R2",58.1444609192968
"121",24,"HCT116","R2",64.3320017754106
"122",25,"HCT116","R2",52.3983554134308
"123",26,"HCT116","R2",96.2900355871886
"124",27,"HCT116","R2",92.6976882627245
"125",28,"HCT116","R2",41.103825136612
"126",29,"HCT116","R2",35.5385022492723
"127",30,"HCT116","R2",95.8660938639864
"128",31,"HCT116","R2",96.5294535131299
"129",32,"HCT116","R2",98.4839369510288
"130",33,"HCT116","R2",90.2894491129785
"131",34,"HCT116","R2",68.7072206690446
"132",35,"HCT116","R2",50.0447027268663
"133",36,"HCT116","R2",94.3037434979108
"134",37,"HCT116","R2",33.9331436699858
"135",38,"HCT116","R2",29.2284866468843
"136",39,"HCT116","R2",31.2914269065482
"137",40,"HCT116","R2",85.7823518200877
"138",41,"HCT116","R2",16.1522532294645
"139",42,"HCT116","R2",98.4900308667723
"140",43,"HCT116","R2",46.7854287998173
"141",44,"HCT116","R2",58.0800701344243
"142",45,"HCT116","R2",23.4641006661732
"143",46,"HCT116","R2",96.9660194174757
"144",47,"HCT116","R2",87.4591605931139
"145",48,"HCT116","R2",39.7009165460685
"146",49,"HCT116","R2",98.0201765447667
"147",50,"HCT116","R2",40.441609421001
"148",51,"HCT116","R2",33.2329317269076
"149",52,"HCT116","R2",98.2474016710821
"150",53,"HCT116","R2",32.6016351215142
"151",54,"HCT116","R2",80.9399786906594
"152",55,"HCT116","R2",20.8696875879538
"153",56,"HCT116","R2",7.76523072633487
"154",57,"HCT116","R2",96.148666846216
"155",58,"HCT116","R2",97.2940589116325
"156",59,"HCT116","R2",98.3020260848167
"157",60,"HCT116","R2",25.8708943551827
"158",61,"HCT116","R2",95.8830285360898
"159",62,"HCT116","R2",4.31556735416241
"160",63,"HCT116","R2",89.1264226391879
"161",64,"HCT116","R2",97.1048439988757
"162",65,"HCT116","R2",92.9486246543443
"163",66,"HCT116","R2",37.7491492464754
"164",67,"HCT116","R2",27.1714729753065
"165",68,"HCT116","R2",67.6532071735064
"166",69,"HCT116","R2",96.4535901926445
"167",70,"HCT116","R2",39.0758547008547
"168",71,"HCT116","R2",98.3490566037736
"169",72,"HCT116","R2",85.6059914147411
"170",73,"HCT116","R2",87.7964974506761
"171",74,"HCT116","R2",8.91891891891892
"172",75,"HCT116","R2",69.1499835904168
"173",76,"HCT116","R2",80.7588328516827
"174",77,"HCT116","R2",57.9070675517376
"175",78,"HCT116","R2",25.5963376435628
"176",79,"HCT116","R2",86.8251410153102
"177",80,"HCT116","R2",51.3794954374664
"178",81,"HCT116","R2",56.2410914274079
"179",82,"HCT116","R2",94.8485518461198
"180",83,"HCT116","R2",23.896285914506
"181",84,"HCT116","R2",89.2667898952557
"182",85,"HCT116","R2",35.8338415667141
"183",86,"HCT116","R2",18.6630286493861
"184",87,"HCT116","R2",89.7977713578209
"185",88,"HCT116","R2",98.1707317073171
"186",89,"HCT116","R2",96.4324324324324
"187",90,"HCT116","R2",99.0159574468085
"188",91,"HCT116","R2",92.5309385609462
"189",92,"HCT116","R2",64.0733157843424
"190",93,"HCT116","R2",46.9695114485123
"191",94,"HCT116","R2",63.6885036961509
"192",95,"HCT116","R2",93.4623430962343
"193",96,"HCT116","R2",12.7272727272727
"194",1,"HCT116","R3",48.7475442043222
"195",2,"HCT116","R3",67.701579067816
"196",3,"HCT116","R3",77.3722627737226
"197",4,"HCT116","R3",95.0987810004203
"198",5,"HCT116","R3",70.0204384986994
"199",6,"HCT116","R3",99.394790878634
"200",7,"HCT116","R3",93.5192234488009
"201",8,"HCT116","R3",95.0065399707625
"202",9,"HCT116","R3",58.6220441511509
"203",10,"HCT116","R3",10.4661319780831
"204",11,"HCT116","R3",56.3799120012138
"205",12,"HCT116","R3",99.0821678321678
"206",13,"HCT116","R3",86.8996593032201
"207",14,"HCT116","R3",49.5326163433511
"208",15,"HCT116","R3",97.7076001141444
"209",16,"HCT116","R3",71.7916854948034
"210",17,"HCT116","R3",35.5965082444229
"211",18,"HCT116","R3",87.0433511933756
"212",19,"HCT116","R3",90.7194913940146
"213",20,"HCT116","R3",98.398353614889
"214",21,"HCT116","R3",97.0830216903515
"215",22,"HCT116","R3",61.34871506284
"216",23,"HCT116","R3",56.7386748347574
"217",24,"HCT116","R3",62.1487603305785
"218",25,"HCT116","R3",49.5404771216269
"219",26,"HCT116","R3",96.5108233666107
"220",27,"HCT116","R3",92.1520479324231
"221",28,"HCT116","R3",39.0504374678332
"222",29,"HCT116","R3",32.2365621897603
"223",30,"HCT116","R3",95.4951363418912
"224",31,"HCT116","R3",95.6897689768977
"225",32,"HCT116","R3",99.2536102547461
"226",33,"HCT116","R3",89.9099099099099
"227",34,"HCT116","R3",67.6545300592718
"228",35,"HCT116","R3",42.4175824175824
"229",36,"HCT116","R3",92.2107674684994
"230",37,"HCT116","R3",31.0883990542293
"231",38,"HCT116","R3",21.76
"232",39,"HCT116","R3",30.2037657982977
"233",40,"HCT116","R3",84.4534412955466
"234",41,"HCT116","R3",14.3761638733706
"235",42,"HCT116","R3",98.6578761478691
"236",43,"HCT116","R3",41.8543395232451
"237",44,"HCT116","R3",55
"238",45,"HCT116","R3",22.0048899755501
"239",46,"HCT116","R3",96.8939994713191
"240",47,"HCT116","R3",84.6605343845817
"241",48,"HCT116","R3",35.6918068366793
"242",49,"HCT116","R3",98.1134157105031
"243",50,"HCT116","R3",37.0245307379084
"244",51,"HCT116","R3",31.5276176966043
"245",52,"HCT116","R3",98.6088918131403
"246",53,"HCT116","R3",28.7400706090027
"247",54,"HCT116","R3",77.1956194975306
"248",55,"HCT116","R3",19.642301710731
"249",56,"HCT116","R3",7.34235217106699
"250",57,"HCT116","R3",96.1298786487373
"251",58,"HCT116","R3",97.7695539107822
"252",59,"HCT116","R3",97.4255523535062
"253",60,"HCT116","R3",23.5589149477253
"254",61,"HCT116","R3",95.656495378193
"255",62,"HCT116","R3",5.20612306759624
"256",63,"HCT116","R3",88.1438721136767
"257",64,"HCT116","R3",97.2066489623291
"258",65,"HCT116","R3",91.9076266252668
"259",66,"HCT116","R3",36.5866957470011
"260",67,"HCT116","R3",21.985742328753
"261",68,"HCT116","R3",65.796654407403
"262",69,"HCT116","R3",97.363932392619
"263",70,"HCT116","R3",36.7231638418079
"264",71,"HCT116","R3",97.9330708661417
"265",72,"HCT116","R3",82.9712683952348
"266",73,"HCT116","R3",87.4679412450455
"267",74,"HCT116","R3",8.95522388059701
"268",75,"HCT116","R3",66.3294797687861
"269",76,"HCT116","R3",78.9927104042412
"270",77,"HCT116","R3",55.5431630604506
"271",78,"HCT116","R3",24.535010940919
"272",79,"HCT116","R3",85.3696906135291
"273",80,"HCT116","R3",44.9546827794562
"274",81,"HCT116","R3",50.1689042875704
"275",82,"HCT116","R3",93.5905680600214
"276",83,"HCT116","R3",23.5747303543914
"277",84,"HCT116","R3",87.0987730821663
"278",85,"HCT116","R3",32.2191455696203
"279",86,"HCT116","R3",18.0876707436836
"280",87,"HCT116","R3",86.6807004114439
"281",88,"HCT116","R3",99.1573033707865
"282",89,"HCT116","R3",98.4454638124363
"283",90,"HCT116","R3",99.5174150230801
"284",91,"HCT116","R3",91.9430814524043
"285",92,"HCT116","R3",63.4993824619185
"286",93,"HCT116","R3",38.3903052475134
"287",94,"HCT116","R3",61.6666666666667
"288",95,"HCT116","R3",89.5622895622896
"289",96,"HCT116","R3",14.890771288453
"290",1,"HEK293","R1",59.9360388178209
"291",2,"HEK293","R1",69.5641091001784
"292",3,"HEK293","R1",82.9103974848417
"293",4,"HEK293","R1",93.7387052195174
"294",5,"HEK293","R1",60.819430814524
"295",6,"HEK293","R1",95.2457264957265
"296",7,"HEK293","R1",90.9566810626881
"297",8,"HEK293","R1",90.9805544062888
"298",9,"HEK293","R1",59.7469498418437
"299",10,"HEK293","R1",23.2448377581121
"300",11,"HEK293","R1",81.1654299432562
"301",12,"HEK293","R1",95.6229735988884
"302",13,"HEK293","R1",80.6269499331452
"303",14,"HEK293","R1",35.9198998748436
"304",15,"HEK293","R1",97.7494373593398
"305",16,"HEK293","R1",74.4454774870501
"306",17,"HEK293","R1",45.5056179775281
"307",18,"HEK293","R1",90.0879200289052
"308",19,"HEK293","R1",82.8160799833368
"309",20,"HEK293","R1",91.3967349054159
"310",21,"HEK293","R1",95.8056771642423
"311",22,"HEK293","R1",47.6983349657199
"312",23,"HEK293","R1",32.2231676188161
"313",24,"HEK293","R1",42.5188860074417
"314",25,"HEK293","R1",35.8485055009249
"315",26,"HEK293","R1",91.0945558739255
"316",27,"HEK293","R1",81.6140776699029
"317",28,"HEK293","R1",36.938612808929
"318",29,"HEK293","R1",22.0846139938528
"319",30,"HEK293","R1",95.3935359175346
"320",31,"HEK293","R1",92.338043677739
"321",32,"HEK293","R1",94.7340330901975
"322",33,"HEK293","R1",90.4182509505703
"323",34,"HEK293","R1",77.3844849512505
"324",35,"HEK293","R1",43.196405648267
"325",36,"HEK293","R1",80.2105870474542
"326",37,"HEK293","R1",23.1546779501646
"327",38,"HEK293","R1",25.3481894150418
"328",39,"HEK293","R1",20.1455381080046
"329",40,"HEK293","R1",78.2533792737874
"330",41,"HEK293","R1",10.2620941452601
"331",42,"HEK293","R1",97.7327935222672
"332",43,"HEK293","R1",24.5982289275172
"333",44,"HEK293","R1",48.9110889110889
"334",45,"HEK293","R1",19.2190359975595
"335",46,"HEK293","R1",92.182846932698
"336",47,"HEK293","R1",91.0791695185946
"337",48,"HEK293","R1",52.6941917424773
"338",49,"HEK293","R1",97.5354282193469
"339",50,"HEK293","R1",14.1271924591338
"340",51,"HEK293","R1",25.2310419040385
"341",52,"HEK293","R1",92.9758206132649
"342",53,"HEK293","R1",8.92588883324987
"343",54,"HEK293","R1",75.7897801717863
"344",55,"HEK293","R1",14.3469656992084
"345",56,"HEK293","R1",8.84137532505056
"346",57,"HEK293","R1",94.4329630586412
"347",58,"HEK293","R1",96.2844525658596
"348",59,"HEK293","R1",95.3113318380861
"349",60,"HEK293","R1",10.9971171782262
"350",61,"HEK293","R1",90.9912750972354
"351",62,"HEK293","R1",3.66403607666291
"352",63,"HEK293","R1",93.2169433314253
"353",64,"HEK293","R1",96.4007657945118
"354",65,"HEK293","R1",87.2358233940155
"355",66,"HEK293","R1",24.9651713569239
"356",67,"HEK293","R1",19.7572961588607
"357",68,"HEK293","R1",55.3802186878728
"358",69,"HEK293","R1",96.602747999396
"359",70,"HEK293","R1",14.5655392324337
"360",71,"HEK293","R1",96.0776384957541
"361",72,"HEK293","R1",44.2107807590041
"362",73,"HEK293","R1",76.3651181744091
"363",75,"HEK293","R1",81.6763868167639
"364",76,"HEK293","R1",90.1497504159734
"365",77,"HEK293","R1",51.1670761670762
"366",78,"HEK293","R1",12.6563940471487
"367",79,"HEK293","R1",75.0682990994637
"368",80,"HEK293","R1",31.5403761061947
"369",81,"HEK293","R1",53.4820658202884
"370",82,"HEK293","R1",81.8736383442266
"371",84,"HEK293","R1",83.8714660899119
"372",85,"HEK293","R1",28.6351200729557
"373",86,"HEK293","R1",15.2212389380531
"374",87,"HEK293","R1",42.1736078614881
"375",88,"HEK293","R1",76.9230769230769
"376",89,"HEK293","R1",88.8283378746594
"377",90,"HEK293","R1",87.6644152150729
"378",91,"HEK293","R1",39.7416501803794
"379",92,"HEK293","R1",61.1977856064419
"380",93,"HEK293","R1",37.9153605015674
"381",94,"HEK293","R1",71.664943123061
"382",95,"HEK293","R1",77.6483050847458
"383",96,"HEK293","R1",28.3471837488458
"384",1,"HEK293","R2",59.0984513274336
"385",2,"HEK293","R2",70.0165163257528
"386",3,"HEK293","R2",81.8170119675717
"387",4,"HEK293","R2",94.4129661351957
"388",5,"HEK293","R2",60.2108393026085
"389",6,"HEK293","R2",94.8497854077253
"390",7,"HEK293","R2",91.6607472652365
"391",8,"HEK293","R2",92.2011598718947
"392",9,"HEK293","R2",59.1059743350047
"393",10,"HEK293","R2",22.638227755401
"394",11,"HEK293","R2",81.9318181818182
"395",12,"HEK293","R2",93.8507462686567
"396",13,"HEK293","R2",79.3056397816859
"397",14,"HEK293","R2",33.840811965812
"398",15,"HEK293","R2",97.8650609005064
"399",16,"HEK293","R2",74.4485045337664
"400",17,"HEK293","R2",43.3824488199244
"401",18,"HEK293","R2",86.7327487609607
"402",19,"HEK293","R2",83.5758323057953
"403",20,"HEK293","R2",91.358361774744
"404",21,"HEK293","R2",96.0479811502624
"405",22,"HEK293","R2",47.3255221599592
"406",23,"HEK293","R2",32.2554473806212
"407",25,"HEK293","R2",33.682499548492
"408",26,"HEK293","R2",89.7311659893717
"409",27,"HEK293","R2",77.5496974935177
"410",28,"HEK293","R2",35.0915912602075
"411",29,"HEK293","R2",21.4380825565912
"412",30,"HEK293","R2",94.3320317122234
"413",31,"HEK293","R2",92.1497347219493
"414",32,"HEK293","R2",94.0872302158273
"415",33,"HEK293","R2",90.801857196637
"416",34,"HEK293","R2",73.8065522620905
"417",35,"HEK293","R2",40.5110075526273
"418",36,"HEK293","R2",77.2964633277949
"419",37,"HEK293","R2",22.3610243597751
"420",38,"HEK293","R2",69.2537313432836
"421",39,"HEK293","R2",18.3667820069204
"422",41,"HEK293","R2",10.9744331886155
"423",42,"HEK293","R2",95.6466990465911
"424",43,"HEK293","R2",24.3375259494444
"425",44,"HEK293","R2",49.9256566991574
"426",45,"HEK293","R2",18.0891719745223
"427",46,"HEK293","R2",90.9413854351687
"428",47,"HEK293","R2",85.2811118130133
"429",48,"HEK293","R2",58.7653661143773
"430",49,"HEK293","R2",97.0754156769596
"431",50,"HEK293","R2",13.542600896861
"432",51,"HEK293","R2",23.1368296529968
"433",52,"HEK293","R2",90.6173743289409
"434",53,"HEK293","R2",8.60031931878659
"435",54,"HEK293","R2",72.074050831503
"436",55,"HEK293","R2",12.5616573495561
"437",56,"HEK293","R2",8.88142102736438
"438",57,"HEK293","R2",93.6436597110754
"439",58,"HEK293","R2",95.785748753418
"440",59,"HEK293","R2",94.190049024721
"441",60,"HEK293","R2",10.9484014413862
"442",61,"HEK293","R2",88.6891971088103
"443",62,"HEK293","R2",5.54443888610972
"444",63,"HEK293","R2",90.8803275637446
"445",64,"HEK293","R2",95.5675675675676
"446",65,"HEK293","R2",84.9801249290176
"447",66,"HEK293","R2",26.2699564586357
"448",67,"HEK293","R2",16.4505119453925
"449",68,"HEK293","R2",54.9546365028868
"450",69,"HEK293","R2",96.9843633655994
"451",70,"HEK293","R2",16.0952630201518
"452",71,"HEK293","R2",94.9702183984116
"453",72,"HEK293","R2",44.7109618613576
"454",73,"HEK293","R2",73.0471314165682
"455",74,"HEK293","R2",18.1818181818182
"456",75,"HEK293","R2",54.4620015048909
"457",76,"HEK293","R2",89.3248062968885
"458",77,"HEK293","R2",47.568988173456
"459",78,"HEK293","R2",12.6094570928196
"460",79,"HEK293","R2",75.7308508900866
"461",80,"HEK293","R2",31.7036428375787
"462",81,"HEK293","R2",52.426940925624
"463",82,"HEK293","R2",81.5843497162179
"464",83,"HEK293","R2",12.9224864058002
"465",84,"HEK293","R2",83.2968345610193
"466",85,"HEK293","R2",26.5456271508247
"467",86,"HEK293","R2",16.0919540229885
"468",87,"HEK293","R2",42.6244043001219
"469",88,"HEK293","R2",84.7953216374269
"470",89,"HEK293","R2",88.135593220339
"471",90,"HEK293","R2",86.7425968109339
"472",91,"HEK293","R2",38.2337274954725
"473",92,"HEK293","R2",54.971579207513
"474",93,"HEK293","R2",31.9003476245655
"475",94,"HEK293","R2",67.312661498708
"476",95,"HEK293","R2",93.5909090909091
"477",96,"HEK293","R2",29.9617759482505
"478",1,"HEK293","R3",51.5334947538337
"479",2,"HEK293","R3",67.0472399706714
"480",3,"HEK293","R3",75.4756352031423
"481",4,"HEK293","R3",92.0006237330422
"482",5,"HEK293","R3",57.6271186440678
"483",6,"HEK293","R3",94.3236074270557
"484",7,"HEK293","R3",90.2200096354585
"485",8,"HEK293","R3",91.6918103448276
"486",9,"HEK293","R3",56.1673331282682
"487",10,"HEK293","R3",20.4865556978233
"488",11,"HEK293","R3",77.9831587594989
"489",12,"HEK293","R3",94.8858981860737
"490",13,"HEK293","R3",81.1769240652705
"491",14,"HEK293","R3",34.2335079940884
"492",15,"HEK293","R3",98.0836829572514
"493",16,"HEK293","R3",73.8853503184713
"494",17,"HEK293","R3",40.5323482049825
"495",18,"HEK293","R3",88.6242746615087
"496",19,"HEK293","R3",79.4848206071757
"497",20,"HEK293","R3",89.8556921432389
"498",21,"HEK293","R3",93.6431900569653
"499",22,"HEK293","R3",44.7153642113854
"500",23,"HEK293","R3",32.7357097658722
"501",24,"HEK293","R3",41.679609496339
"502",25,"HEK293","R3",31.0289083301636
"503",26,"HEK293","R3",89.8851939825812
"504",27,"HEK293","R3",76.6684520621318
"505",28,"HEK293","R3",36.6609294320138
"506",29,"HEK293","R3",19.5202981930152
"507",30,"HEK293","R3",91.2881201638598
"508",31,"HEK293","R3",93.1790027872406
"509",32,"HEK293","R3",93.7387901516387
"510",33,"HEK293","R3",89.5351398986561
"511",34,"HEK293","R3",73.7266397947966
"512",35,"HEK293","R3",37.8193522430095
"513",36,"HEK293","R3",77.0664906781059
"514",37,"HEK293","R3",22.8529707036598
"515",38,"HEK293","R3",42.7527405602923
"516",39,"HEK293","R3",18.6469891198966
"517",40,"HEK293","R3",75.0832408435072
"518",41,"HEK293","R3",10.575324243432
"519",42,"HEK293","R3",95.7338101928727
"520",43,"HEK293","R3",25.4230293025175
"521",44,"HEK293","R3",47.1952010376135
"522",45,"HEK293","R3",16.5237278444826
"523",46,"HEK293","R3",90.5231757687012
"524",47,"HEK293","R3",86.2730781266298
"525",48,"HEK293","R3",57.7326901248581
"526",49,"HEK293","R3",96.142219663164
"527",50,"HEK293","R3",12.6687970312339
"528",51,"HEK293","R3",22.0652606446478
"529",52,"HEK293","R3",87.9473985134362
"530",53,"HEK293","R3",9.12092917330904
"531",54,"HEK293","R3",68.9781859931114
"532",55,"HEK293","R3",12.9934840935224
"533",56,"HEK293","R3",8.26343584964275
"534",57,"HEK293","R3",93.8894397620228
"535",58,"HEK293","R3",95.0466271042752
"536",59,"HEK293","R3",94.0364759239602
"537",60,"HEK293","R3",10.7407746543357
"538",61,"HEK293","R3",88.4169440936747
"539",62,"HEK293","R3",4.9925974666886
"540",63,"HEK293","R3",91.3562895291637
"541",64,"HEK293","R3",95.2266257937377
"542",65,"HEK293","R3",85.5348419898315
"543",66,"HEK293","R3",25.3901208494662
"544",67,"HEK293","R3",15.6030193858295
"545",68,"HEK293","R3",53.4443944169293
"546",69,"HEK293","R3",96.6424535916061
"547",70,"HEK293","R3",13.9894036748957
"548",71,"HEK293","R3",94.3143408981169
"549",72,"HEK293","R3",42.602415077305
"550",73,"HEK293","R3",71.9127332601537
"551",74,"HEK293","R3",21.4285714285714
"552",75,"HEK293","R3",76.0052668894966
"553",76,"HEK293","R3",87.7688870414632
"554",77,"HEK293","R3",46.0712542703758
"555",78,"HEK293","R3",12.0521487204249
"556",79,"HEK293","R3",72.6689921749788
"557",80,"HEK293","R3",28.9219179476738
"558",81,"HEK293","R3",50.7675217127853
"559",82,"HEK293","R3",81.2584472142964
"560",83,"HEK293","R3",11.889414124051
"561",84,"HEK293","R3",78.8853872947421
"562",85,"HEK293","R3",27.011109623879
"563",86,"HEK293","R3",13.1440421119796
"564",87,"HEK293","R3",41.9440451177706
"565",88,"HEK293","R3",77.4725274725275
"566",89,"HEK293","R3",89.1208791208791
"567",90,"HEK293","R3",84.8262969309861
"568",91,"HEK293","R3",39.9849284099473
"569",92,"HEK293","R3",54.0455840455841
"570",93,"HEK293","R3",33.635790800252
"571",94,"HEK293","R3",68.8152240638428
"572",95,"HEK293","R3",95.409429280397
"573",96,"HEK293","R3",29.8550035654861
"574",1,"K562","R1",23.0778260359197
"575",2,"K562","R1",22.4307036247335
"576",3,"K562","R1",45.1997727703087
"577",4,"K562","R1",64.3406337371855
"578",5,"K562","R1",15.4051945156616
"579",6,"K562","R1",55.2894211576846
"580",7,"K562","R1",81.5362292554639
"581",8,"K562","R1",70.02002002002
"582",9,"K562","R1",25.7443082311734
"583",10,"K562","R1",8.40116571198875
"584",11,"K562","R1",38.8048744677727
"585",12,"K562","R1",72.9583192138258
"586",13,"K562","R1",58.3767013610889
"587",14,"K562","R1",13.2665832290363
"588",15,"K562","R1",96.0652002453773
"589",16,"K562","R1",59.78597578147
"590",17,"K562","R1",31.1953017042837
"591",18,"K562","R1",68.664406779661
"592",19,"K562","R1",47.2499445553338
"593",20,"K562","R1",50.6890561667632
"594",21,"K562","R1",75.2656864172369
"595",22,"K562","R1",22.982517077689
"596",23,"K562","R1",27.833615285103
"597",24,"K562","R1",34.6858503260532
"598",25,"K562","R1",13.2072285086979
"599",26,"K562","R1",85.9733385610665
"600",27,"K562","R1",89.6982810433946
"601",28,"K562","R1",77.9702612963765
"602",29,"K562","R1",12.7925509604899
"603",30,"K562","R1",65.8674446166469
"604",31,"K562","R1",67.7487908544629
"605",32,"K562","R1",96.3599595551062
"606",33,"K562","R1",79.4617224880383
"607",34,"K562","R1",81.7900905700586
"608",35,"K562","R1",25.3923129406413
"609",36,"K562","R1",69.3137456338607
"610",37,"K562","R1",22.9960784313725
"611",38,"K562","R1",97.6958525345622
"612",39,"K562","R1",8.25872464827334
"613",40,"K562","R1",75.7557251908397
"614",41,"K562","R1",7.70710592761813
"615",42,"K562","R1",90.4291593180482
"616",43,"K562","R1",34.9194283976893
"617",44,"K562","R1",67.5431215818258
"618",45,"K562","R1",69.6762425900593
"619",46,"K562","R1",92.7481785063752
"620",47,"K562","R1",92.4967398936704
"621",48,"K562","R1",98.1392334752824
"622",49,"K562","R1",89.9155083128918
"623",50,"K562","R1",26.313709996049
"624",51,"K562","R1",21.7791411042945
"625",52,"K562","R1",96.8494595307145
"626",53,"K562","R1",12.5330979699912
"627",54,"K562","R1",46.752986048379
"628",55,"K562","R1",15.3302293498879
"629",56,"K562","R1",8.0842659644503
"630",57,"K562","R1",94.8234702852117
"631",58,"K562","R1",96.7100026532237
"632",59,"K562","R1",83.7263920148742
"633",60,"K562","R1",6.68541080912215
"634",61,"K562","R1",59.9400931883736
"635",62,"K562","R1",6.3998663213301
"636",63,"K562","R1",82.6058012363291
"637",64,"K562","R1",85.2118644067797
"638",65,"K562","R1",73.7360832268662
"639",66,"K562","R1",19.008875739645
"640",67,"K562","R1",13.5238679028427
"641",68,"K562","R1",44.2900985301244
"642",69,"K562","R1",98.525721455458
"643",70,"K562","R1",5.48895358794314
"644",71,"K562","R1",82.1420996818664
"645",72,"K562","R1",19.5202791103358
"646",73,"K562","R1",43.2137518684604
"647",74,"K562","R1",0.904275933341945
"648",75,"K562","R1",10.6015210878083
"649",76,"K562","R1",21.6087577344122
"650",77,"K562","R1",13.5690701885185
"651",78,"K562","R1",12.2022313800382
"652",79,"K562","R1",52.0885320603233
"653",80,"K562","R1",17.6709546377793
"654",81,"K562","R1",29.947023995014
"655",82,"K562","R1",32.7876923076923
"656",83,"K562","R1",11.5593016255268
"657",84,"K562","R1",44.5924967658474
"658",85,"K562","R1",29.9638242894057
"659",86,"K562","R1",12.170350772382
"660",87,"K562","R1",70.4372355430183
"661",88,"K562","R1",100
"662",89,"K562","R1",99.5169082125604
"663",90,"K562","R1",99.2994746059545
"664",91,"K562","R1",64.5845030881527
"665",92,"K562","R1",40.0030248033878
"666",93,"K562","R1",30.5486284289277
"667",94,"K562","R1",57.4471086036671
"668",95,"K562","R1",70.2533625273694
"669",96,"K562","R1",12.2311001843884
"670",1,"K562","R2",19.0510058931112
"671",2,"K562","R2",20.4561977462741
"672",3,"K562","R2",45.0659208949261
"673",4,"K562","R2",59.8912078152753
"674",5,"K562","R2",13.8480256608782
"675",6,"K562","R2",52.6016356524831
"676",7,"K562","R2",79.2289156626506
"677",8,"K562","R2",60.9772727272727
"678",9,"K562","R2",25.6204500330907
"679",10,"K562","R2",7.62423417290674
"680",11,"K562","R2",33.10206317327
"681",12,"K562","R2",66.6313839640116
"682",13,"K562","R2",50.263091956903
"683",14,"K562","R2",11.6766467065868
"684",15,"K562","R2",95.1669288585912
"685",16,"K562","R2",52.3702330508475
"686",17,"K562","R2",27.1381764772342
"687",18,"K562","R2",65.4047148995471
"688",19,"K562","R2",39.5041465100207
"689",20,"K562","R2",44.9990213348992
"690",21,"K562","R2",69.2056273980389
"691",22,"K562","R2",21.2339093123043
"692",23,"K562","R2",25.127669452182
"693",24,"K562","R2",32.4674188751859
"694",25,"K562","R2",10.7945205479452
"695",26,"K562","R2",80.4914150384843
"696",27,"K562","R2",90.735458266154
"697",28,"K562","R2",74.5816503173687
"698",29,"K562","R2",9.66285794893497
"699",30,"K562","R2",56.0796790704108
"700",31,"K562","R2",61.145222490514
"701",32,"K562","R2",96.4251577136303
"702",33,"K562","R2",79.450473331794
"703",34,"K562","R2",79.0058115400581
"704",35,"K562","R2",24.0895602913407
"705",36,"K562","R2",60.6710074154458
"706",37,"K562","R2",19.8006486828574
"707",38,"K562","R2",98.348623853211
"708",39,"K562","R2",7.58606682238245
"709",40,"K562","R2",72.5479856570344
"710",41,"K562","R2",7.99749687108886
"711",42,"K562","R2",86.1452773265259
"712",43,"K562","R2",33.2350679312997
"713",44,"K562","R2",59.1604938271605
"714",45,"K562","R2",61.620760300478
"715",46,"K562","R2",90.0784396862413
"716",47,"K562","R2",90.5890003716091
"717",48,"K562","R2",98.4859032370344
"718",49,"K562","R2",86.5330188679245
"719",50,"K562","R2",25.634810710988
"720",51,"K562","R2",19.5916383082158
"721",52,"K562","R2",95.6861044873184
"722",53,"K562","R2",12.232905982906
"723",54,"K562","R2",39.1493433069496
"724",55,"K562","R2",13.1030228254164
"725",56,"K562","R2",7.32115465067634
"726",57,"K562","R2",94.3980667838313
"727",58,"K562","R2",97.412109375
"728",59,"K562","R2",74.2220514790626
"729",60,"K562","R2",6.46739130434783
"730",61,"K562","R2",50.4413239719158
"731",62,"K562","R2",5.31085888531255
"732",63,"K562","R2",77.6516254245512
"733",64,"K562","R2",80.1318003365115
"734",65,"K562","R2",64.6192832146736
"735",66,"K562","R2",17.4427579109853
"736",67,"K562","R2",11.0760869565217
"737",68,"K562","R2",35.0125156445557
"738",69,"K562","R2",97.4023475081778
"739",70,"K562","R2",5.05215123859192
"740",71,"K562","R2",76.9938650306748
"741",72,"K562","R2",16.5792846324129
"742",73,"K562","R2",40.1807143865594
"743",74,"K562","R2",1.03696098562628
"744",75,"K562","R2",8.40178849953208
"745",76,"K562","R2",19.1129032258065
"746",77,"K562","R2",12.1918335901387
"747",78,"K562","R2",11.127154588936
"748",79,"K562","R2",44.8279404211608
"749",80,"K562","R2",14.9342105263158
"750",81,"K562","R2",26.775956284153
"751",82,"K562","R2",28.6499766027141
"752",83,"K562","R2",9.13173652694611
"753",84,"K562","R2",38.7142545295787
"754",85,"K562","R2",27.2621687255834
"755",86,"K562","R2",10.1860687022901
"756",87,"K562","R2",64.9904112507991
"757",88,"K562","R2",100
"758",89,"K562","R2",99.0875912408759
"759",90,"K562","R2",99.0555555555556
"760",91,"K562","R2",59.1210324380886
"761",92,"K562","R2",30.6350914962325
"762",93,"K562","R2",23.6136158701533
"763",94,"K562","R2",51.8850193477059
"764",95,"K562","R2",64.909155682223
"765",96,"K562","R2",12.0222634508349
"766",1,"K562","R3",17.1498629741815
"767",2,"K562","R3",18.132560483871
"768",3,"K562","R3",45.7088122605364
"769",4,"K562","R3",55.1170938594874
"770",5,"K562","R3",12.6784572767952
"771",6,"K562","R3",51.9172443674177
"772",7,"K562","R3",79.7867335737808
"773",8,"K562","R3",55.2218114602588
"774",9,"K562","R3",21.8343600273785
"775",10,"K562","R3",7.01882845188285
"776",11,"K562","R3",30.330837961845
"777",12,"K562","R3",63.8850254983774
"778",13,"K562","R3",46.5958284140102
"779",14,"K562","R3",12.9214220123311
"780",15,"K562","R3",93.0890845403768
"781",16,"K562","R3",51.4193702290076
"782",17,"K562","R3",24.9860982391103
"783",18,"K562","R3",58.2849994313659
"784",19,"K562","R3",38.6367401027
"785",20,"K562","R3",43.6856421216242
"786",21,"K562","R3",64.7029604609577
"787",22,"K562","R3",21.9425314652102
"788",23,"K562","R3",22.3483267962948
"789",24,"K562","R3",31.5305269027042
"790",25,"K562","R3",10.9442481350609
"791",26,"K562","R3",80.6412213740458
"792",27,"K562","R3",88.0453407143799
"793",28,"K562","R3",70.8788740829466
"794",29,"K562","R3",8.45626763401854
"795",30,"K562","R3",54.0118934758252
"796",31,"K562","R3",54.6590558469608
"797",32,"K562","R3",95.7451058729525
"798",33,"K562","R3",74.7912885662432
"799",34,"K562","R3",76.2770682953914
"800",35,"K562","R3",22.5799877725698
"801",36,"K562","R3",54.7644256220222
"802",37,"K562","R3",20.2599266464679
"803",38,"K562","R3",94.578313253012
"804",39,"K562","R3",6.5
"805",40,"K562","R3",70.019055684946
"806",41,"K562","R3",7.36126840317101
"807",42,"K562","R3",83.614088820827
"808",43,"K562","R3",28.6151960784314
"809",44,"K562","R3",55.5660022564874
"810",45,"K562","R3",56.3995837669095
"811",46,"K562","R3",87.8537735849057
"812",47,"K562","R3",88.8116668565569
"813",48,"K562","R3",96.3108706345303
"814",49,"K562","R3",76.7301905717151
"815",50,"K562","R3",24.2496318948918
"816",51,"K562","R3",19.1899070385126
"817",52,"K562","R3",94.5385871784402
"818",53,"K562","R3",12.174875484228
"819",54,"K562","R3",37.7406800491602
"820",55,"K562","R3",12.9044441646733
"821",56,"K562","R3",5.73998001554347
"822",57,"K562","R3",89.2414860681115
"823",58,"K562","R3",93.322632423756
"824",59,"K562","R3",68.5221567343375
"825",60,"K562","R3",6.20607740275166
"826",61,"K562","R3",44.3486460999596
"827",62,"K562","R3",5.18232263178755
"828",63,"K562","R3",72.7290167865707
"829",64,"K562","R3",78.6967127424788
"830",65,"K562","R3",61.648016276704
"831",66,"K562","R3",16.341616860648
"832",67,"K562","R3",10.326409495549
"833",68,"K562","R3",42.6630783032167
"834",69,"K562","R3",96.5980795610425
"835",70,"K562","R3",5.09945267654519
"836",71,"K562","R3",70.2802151146335
"837",72,"K562","R3",16.6712441636913
"838",73,"K562","R3",34.0729001584786
"839",74,"K562","R3",0.444205142011038
"840",75,"K562","R3",9.26584396569755
"841",76,"K562","R3",18.2948102921936
"842",77,"K562","R3",11.4583333333333
"843",78,"K562","R3",10.6711998245229
"844",79,"K562","R3",40.0877921461621
"845",80,"K562","R3",14.2203001780717
"846",81,"K562","R3",28.0573065902579
"847",82,"K562","R3",29.7068847989093
"848",83,"K562","R3",9.45913170021829
"849",84,"K562","R3",37.5985040737278
"850",85,"K562","R3",27.5417895771878
"851",86,"K562","R3",10.1134068665527
"852",87,"K562","R3",62.7379041504242
"853",89,"K562","R3",98.1804678796881
"854",90,"K562","R3",99.1758241758242
"855",91,"K562","R3",53.9756299049979
"856",92,"K562","R3",31.7365817915369
"857",93,"K562","R3",22.9955523500421
"858",94,"K562","R3",48.1429325822918
"859",95,"K562","R3",72.2819593787336
"860",96,"K562","R3",11.3273453093812
