replicate,site,position,CRISPR-A,CRISPResso2
rep_1,Site 1,A5,64.12,64.1
rep_1,Site 1,A7,9.16,7.8
rep_1,Site 1,A8,7.6,5.7
rep_1,Site 2,A5,70.83,65.9
rep_1,Site 2,A8,4.92,6.2
rep_1,Site 3,A5,40.38,40.2
rep_1,Site 3,A7,7.75,5.00
rep_1,Site 4,A5,48.12,46.5
rep_1,Site 4,A6,15.79,12.6
rep_1,Site 4,A7,4.51,5.1
rep_2,Site 1,A5,75.86,74.6
rep_2,Site 1,A7,10.34,9.9
rep_2,Site 1,A8,7.28,6.8
rep_2,Site 2,A5,49.43,51.6
rep_2,Site 2,A8,4.92,3.9
rep_2,Site 3,A5,23.64,25.5
rep_2,Site 3,A7,1.94,3.3
rep_2,Site 4,A5,37.08,40.5
rep_2,Site 4,A6,10.49,13.5
rep_2,Site 4,A7,5.6,5.00
rep_3,Site 1,A5,63.67,66.7
rep_3,Site 1,A7,5.79,9.00
rep_3,Site 1,A8,4.26,6.8
rep_3,Site 2,A5,43.38,47.3
rep_3,Site 2,A8,3.46,3.4
rep_3,Site 3,A5,31.84,33.8
rep_3,Site 3,A7,4.12,5.3
rep_3,Site 4,A5,39.85,39.74
rep_3,Site 4,A6,16.61,13.65
rep_3,Site 4,A7,5.54,4.49
