"","Modification","Start","Length","Ids","above_error_rate","in_pick","freq","Perc","patterns","pre_ins_nt","ins_nt","post_ins_nt"
"1","del",5,1,"SRR3699974.10266",TRUE,FALSE,19,2.99684542586751,"NHEJ",NA,NA,NA
"2","del",5,1,"SRR3699974.10870",TRUE,FALSE,19,2.99684542586751,"NHEJ",NA,NA,NA
"3","del",5,1,"SRR3699974.110",TRUE,FALSE,19,2.99684542586751,"NHEJ",NA,NA,NA
"4","del",5,1,"SRR3699974.11167",TRUE,FALSE,19,2.99684542586751,"NHEJ",NA,NA,NA
"5","del",5,1,"SRR3699974.11320",TRUE,FALSE,19,2.99684542586751,"NHEJ",NA,NA,NA
"6","del",5,1,"SRR3699974.11676",TRUE,FALSE,19,2.99684542586751,"NHEJ",NA,NA,NA
"7","del",5,1,"SRR3699974.12124",TRUE,FALSE,19,2.99684542586751,"NHEJ",NA,NA,NA
"8","del",5,1,"SRR3699974.12758",TRUE,FALSE,19,2.99684542586751,"NHEJ",NA,NA,NA
"9","del",5,1,"SRR3699974.14382",TRUE,FALSE,19,2.99684542586751,"NHEJ",NA,NA,NA
"10","del",5,1,"SRR3699974.3110",TRUE,FALSE,19,2.99684542586751,"NHEJ",NA,NA,NA
"11","del",5,1,"SRR3699974.3748",TRUE,FALSE,19,2.99684542586751,"NHEJ",NA,NA,NA
"12","del",5,1,"SRR3699974.526",TRUE,FALSE,19,2.99684542586751,"NHEJ",NA,NA,NA
"13","del",5,1,"SRR3699974.5755",TRUE,FALSE,19,2.99684542586751,"NHEJ",NA,NA,NA
"14","del",5,1,"SRR3699974.6188",TRUE,FALSE,19,2.99684542586751,"NHEJ",NA,NA,NA
"15","del",5,1,"SRR3699974.6735",TRUE,FALSE,19,2.99684542586751,"NHEJ",NA,NA,NA
"16","del",5,1,"SRR3699974.7084",TRUE,FALSE,19,2.99684542586751,"NHEJ",NA,NA,NA
"17","del",5,1,"SRR3699974.734",TRUE,FALSE,19,2.99684542586751,"NHEJ",NA,NA,NA
"18","del",5,1,"SRR3699974.8888",TRUE,FALSE,19,2.99684542586751,"NHEJ",NA,NA,NA
"19","del",5,1,"SRR3699974.8939",TRUE,FALSE,19,2.99684542586751,"NHEJ",NA,NA,NA
"20","del",6,1,"SRR3699974.10664",TRUE,FALSE,28,4.41640378548896,"NHEJ",NA,NA,NA
"21","del",6,1,"SRR3699974.11227",TRUE,FALSE,28,4.41640378548896,"NHEJ",NA,NA,NA
"22","del",6,1,"SRR3699974.11401",TRUE,FALSE,28,4.41640378548896,"NHEJ",NA,NA,NA
"23","del",6,1,"SRR3699974.1195",TRUE,FALSE,28,4.41640378548896,"NHEJ",NA,NA,NA
"24","del",6,1,"SRR3699974.12602",TRUE,FALSE,28,4.41640378548896,"NHEJ",NA,NA,NA
"25","del",6,1,"SRR3699974.12869",TRUE,FALSE,28,4.41640378548896,"NHEJ",NA,NA,NA
"26","del",6,1,"SRR3699974.13628",TRUE,FALSE,28,4.41640378548896,"NHEJ",NA,NA,NA
"27","del",6,1,"SRR3699974.13652",TRUE,FALSE,28,4.41640378548896,"NHEJ",NA,NA,NA
"28","del",6,1,"SRR3699974.1394",TRUE,FALSE,28,4.41640378548896,"NHEJ",NA,NA,NA
"29","del",6,1,"SRR3699974.14195",TRUE,FALSE,28,4.41640378548896,"NHEJ",NA,NA,NA
"30","del",6,1,"SRR3699974.266",TRUE,FALSE,28,4.41640378548896,"NHEJ",NA,NA,NA
"31","del",6,1,"SRR3699974.3245",TRUE,FALSE,28,4.41640378548896,"NHEJ",NA,NA,NA
"32","del",6,1,"SRR3699974.3302",TRUE,FALSE,28,4.41640378548896,"NHEJ",NA,NA,NA
"33","del",6,1,"SRR3699974.3360",TRUE,FALSE,28,4.41640378548896,"NHEJ",NA,NA,NA
"34","del",6,1,"SRR3699974.3705",TRUE,FALSE,28,4.41640378548896,"NHEJ",NA,NA,NA
"35","del",6,1,"SRR3699974.4139",TRUE,FALSE,28,4.41640378548896,"NHEJ",NA,NA,NA
"36","del",6,1,"SRR3699974.4455",TRUE,FALSE,28,4.41640378548896,"NHEJ",NA,NA,NA
"37","del",6,1,"SRR3699974.4905",TRUE,FALSE,28,4.41640378548896,"NHEJ",NA,NA,NA
"38","del",6,1,"SRR3699974.5727",TRUE,FALSE,28,4.41640378548896,"NHEJ",NA,NA,NA
"39","del",6,1,"SRR3699974.5896",TRUE,FALSE,28,4.41640378548896,"NHEJ",NA,NA,NA
"40","del",6,1,"SRR3699974.665",TRUE,FALSE,28,4.41640378548896,"NHEJ",NA,NA,NA
"41","del",6,1,"SRR3699974.6843",TRUE,FALSE,28,4.41640378548896,"NHEJ",NA,NA,NA
"42","del",6,1,"SRR3699974.834",TRUE,FALSE,28,4.41640378548896,"NHEJ",NA,NA,NA
"43","del",6,1,"SRR3699974.8484",TRUE,FALSE,28,4.41640378548896,"NHEJ",NA,NA,NA
"44","del",6,1,"SRR3699974.859",TRUE,FALSE,28,4.41640378548896,"NHEJ",NA,NA,NA
"45","del",6,1,"SRR3699974.9493",TRUE,FALSE,28,4.41640378548896,"NHEJ",NA,NA,NA
"46","del",6,1,"SRR3699974.9653",TRUE,FALSE,28,4.41640378548896,"NHEJ",NA,NA,NA
"47","del",6,1,"SRR3699974.9990",TRUE,FALSE,28,4.41640378548896,"NHEJ",NA,NA,NA
"48","del",7,1,"SRR3699974.11325",TRUE,FALSE,7,1.10410094637224,"NHEJ",NA,NA,NA
"49","del",7,1,"SRR3699974.13347",TRUE,FALSE,7,1.10410094637224,"NHEJ",NA,NA,NA
"50","del",7,1,"SRR3699974.13434",TRUE,FALSE,7,1.10410094637224,"NHEJ",NA,NA,NA
"51","del",7,1,"SRR3699974.1810",TRUE,FALSE,7,1.10410094637224,"NHEJ",NA,NA,NA
"52","del",7,1,"SRR3699974.242",TRUE,FALSE,7,1.10410094637224,"NHEJ",NA,NA,NA
"53","del",7,1,"SRR3699974.2637",TRUE,FALSE,7,1.10410094637224,"NHEJ",NA,NA,NA
"54","del",7,1,"SRR3699974.9966",TRUE,FALSE,7,1.10410094637224,"NHEJ",NA,NA,NA
"55","del",7,2,"SRR3699974.14810",TRUE,FALSE,3,0.473186119873817,"NHEJ",NA,NA,NA
"56","del",7,2,"SRR3699974.14814",TRUE,FALSE,3,0.473186119873817,"NHEJ",NA,NA,NA
"57","del",7,2,"SRR3699974.6852",TRUE,FALSE,3,0.473186119873817,"NHEJ",NA,NA,NA
"58","del",8,1,"SRR3699974.1072",TRUE,FALSE,14,2.20820189274448,"NHEJ",NA,NA,NA
"59","del",8,1,"SRR3699974.10938",TRUE,FALSE,14,2.20820189274448,"NHEJ",NA,NA,NA
"60","del",8,1,"SRR3699974.11006",TRUE,FALSE,14,2.20820189274448,"NHEJ",NA,NA,NA
"61","del",8,1,"SRR3699974.11126",TRUE,FALSE,14,2.20820189274448,"NHEJ",NA,NA,NA
"62","del",8,1,"SRR3699974.123",TRUE,FALSE,14,2.20820189274448,"NHEJ",NA,NA,NA
"63","del",8,1,"SRR3699974.12992",TRUE,FALSE,14,2.20820189274448,"NHEJ",NA,NA,NA
"64","del",8,1,"SRR3699974.13051",TRUE,FALSE,14,2.20820189274448,"NHEJ",NA,NA,NA
"65","del",8,1,"SRR3699974.14235",TRUE,FALSE,14,2.20820189274448,"NHEJ",NA,NA,NA
"66","del",8,1,"SRR3699974.2772",TRUE,FALSE,14,2.20820189274448,"NHEJ",NA,NA,NA
"67","del",8,1,"SRR3699974.3688",TRUE,FALSE,14,2.20820189274448,"NHEJ",NA,NA,NA
"68","del",8,1,"SRR3699974.4922",TRUE,FALSE,14,2.20820189274448,"NHEJ",NA,NA,NA
"69","del",8,1,"SRR3699974.7163",TRUE,FALSE,14,2.20820189274448,"NHEJ",NA,NA,NA
"70","del",8,1,"SRR3699974.7447",TRUE,FALSE,14,2.20820189274448,"NHEJ",NA,NA,NA
"71","del",8,1,"SRR3699974.7471",TRUE,FALSE,14,2.20820189274448,"NHEJ",NA,NA,NA
"72","del",8,2,"SRR3699974.9335",FALSE,FALSE,1,0.157728706624606,"NHEJ",NA,NA,NA
"73","del",8,4,"SRR3699974.14817",FALSE,FALSE,1,0.157728706624606,"NHEJ",NA,NA,NA
"74","del",9,1,"SRR3699974.10041",TRUE,FALSE,16,2.52365930599369,"NHEJ",NA,NA,NA
"75","del",9,1,"SRR3699974.1032",TRUE,FALSE,16,2.52365930599369,"NHEJ",NA,NA,NA
"76","del",9,1,"SRR3699974.10954",TRUE,FALSE,16,2.52365930599369,"NHEJ",NA,NA,NA
"77","del",9,1,"SRR3699974.11090",TRUE,FALSE,16,2.52365930599369,"NHEJ",NA,NA,NA
"78","del",9,1,"SRR3699974.11251",TRUE,FALSE,16,2.52365930599369,"NHEJ",NA,NA,NA
"79","del",9,1,"SRR3699974.11316",TRUE,FALSE,16,2.52365930599369,"NHEJ",NA,NA,NA
"80","del",9,1,"SRR3699974.11559",TRUE,FALSE,16,2.52365930599369,"NHEJ",NA,NA,NA
"81","del",9,1,"SRR3699974.12166",TRUE,FALSE,16,2.52365930599369,"NHEJ",NA,NA,NA
"82","del",9,1,"SRR3699974.3553",TRUE,FALSE,16,2.52365930599369,"NHEJ",NA,NA,NA
"83","del",9,1,"SRR3699974.3978",TRUE,FALSE,16,2.52365930599369,"NHEJ",NA,NA,NA
"84","del",9,1,"SRR3699974.4027",TRUE,FALSE,16,2.52365930599369,"NHEJ",NA,NA,NA
"85","del",9,1,"SRR3699974.497",TRUE,FALSE,16,2.52365930599369,"NHEJ",NA,NA,NA
"86","del",9,1,"SRR3699974.6204",TRUE,FALSE,16,2.52365930599369,"NHEJ",NA,NA,NA
"87","del",9,1,"SRR3699974.6246",TRUE,FALSE,16,2.52365930599369,"NHEJ",NA,NA,NA
"88","del",9,1,"SRR3699974.7151",TRUE,FALSE,16,2.52365930599369,"NHEJ",NA,NA,NA
"89","del",9,1,"SRR3699974.9780",TRUE,FALSE,16,2.52365930599369,"NHEJ",NA,NA,NA
"90","del",9,2,"SRR3699974.10472",TRUE,FALSE,5,0.788643533123028,"T",NA,NA,NA
"91","del",9,2,"SRR3699974.12456",TRUE,FALSE,5,0.788643533123028,"T",NA,NA,NA
"92","del",9,2,"SRR3699974.13321",TRUE,FALSE,5,0.788643533123028,"T",NA,NA,NA
"93","del",9,2,"SRR3699974.1517",TRUE,FALSE,5,0.788643533123028,"T",NA,NA,NA
"94","del",9,2,"SRR3699974.3897",TRUE,FALSE,5,0.788643533123028,"T",NA,NA,NA
"95","del",9,3,"SRR3699974.10025",TRUE,FALSE,4,0.630914826498423,"NHEJ",NA,NA,NA
"96","del",9,3,"SRR3699974.1600",TRUE,FALSE,4,0.630914826498423,"NHEJ",NA,NA,NA
"97","del",9,3,"SRR3699974.3530",TRUE,FALSE,4,0.630914826498423,"NHEJ",NA,NA,NA
"98","del",9,3,"SRR3699974.6168",TRUE,FALSE,4,0.630914826498423,"NHEJ",NA,NA,NA
"99","del",10,1,"SRR3699974.10739",TRUE,FALSE,18,2.8391167192429,"NHEJ",NA,NA,NA
"100","del",10,1,"SRR3699974.11292",TRUE,FALSE,18,2.8391167192429,"NHEJ",NA,NA,NA
"101","del",10,1,"SRR3699974.12640",TRUE,FALSE,18,2.8391167192429,"NHEJ",NA,NA,NA
"102","del",10,1,"SRR3699974.12761",TRUE,FALSE,18,2.8391167192429,"NHEJ",NA,NA,NA
"103","del",10,1,"SRR3699974.1291",TRUE,FALSE,18,2.8391167192429,"NHEJ",NA,NA,NA
"104","del",10,1,"SRR3699974.13819",TRUE,FALSE,18,2.8391167192429,"NHEJ",NA,NA,NA
"105","del",10,1,"SRR3699974.14174",TRUE,FALSE,18,2.8391167192429,"NHEJ",NA,NA,NA
"106","del",10,1,"SRR3699974.2326",TRUE,FALSE,18,2.8391167192429,"NHEJ",NA,NA,NA
"107","del",10,1,"SRR3699974.235",TRUE,FALSE,18,2.8391167192429,"NHEJ",NA,NA,NA
"108","del",10,1,"SRR3699974.4939",TRUE,FALSE,18,2.8391167192429,"NHEJ",NA,NA,NA
"109","del",10,1,"SRR3699974.5067",TRUE,FALSE,18,2.8391167192429,"NHEJ",NA,NA,NA
"110","del",10,1,"SRR3699974.8114",TRUE,FALSE,18,2.8391167192429,"NHEJ",NA,NA,NA
"111","del",10,1,"SRR3699974.8563",TRUE,FALSE,18,2.8391167192429,"NHEJ",NA,NA,NA
"112","del",10,1,"SRR3699974.8714",TRUE,FALSE,18,2.8391167192429,"NHEJ",NA,NA,NA
"113","del",10,1,"SRR3699974.8823",TRUE,FALSE,18,2.8391167192429,"NHEJ",NA,NA,NA
"114","del",10,1,"SRR3699974.8930",TRUE,FALSE,18,2.8391167192429,"NHEJ",NA,NA,NA
"115","del",10,1,"SRR3699974.9269",TRUE,FALSE,18,2.8391167192429,"NHEJ",NA,NA,NA
"116","del",10,1,"SRR3699974.956",TRUE,FALSE,18,2.8391167192429,"NHEJ",NA,NA,NA
"117","del",11,1,"SRR3699974.10211",TRUE,FALSE,34,5.36277602523659,"NHEJ",NA,NA,NA
"118","del",11,1,"SRR3699974.10397",TRUE,FALSE,34,5.36277602523659,"NHEJ",NA,NA,NA
"119","del",11,1,"SRR3699974.10438",TRUE,FALSE,34,5.36277602523659,"NHEJ",NA,NA,NA
"120","del",11,1,"SRR3699974.10895",TRUE,FALSE,34,5.36277602523659,"NHEJ",NA,NA,NA
"121","del",11,1,"SRR3699974.11125",TRUE,FALSE,34,5.36277602523659,"NHEJ",NA,NA,NA
"122","del",11,1,"SRR3699974.11378",TRUE,FALSE,34,5.36277602523659,"NHEJ",NA,NA,NA
"123","del",11,1,"SRR3699974.12205",TRUE,FALSE,34,5.36277602523659,"NHEJ",NA,NA,NA
"124","del",11,1,"SRR3699974.12371",TRUE,FALSE,34,5.36277602523659,"NHEJ",NA,NA,NA
"125","del",11,1,"SRR3699974.12426",TRUE,FALSE,34,5.36277602523659,"NHEJ",NA,NA,NA
"126","del",11,1,"SRR3699974.12617",TRUE,FALSE,34,5.36277602523659,"NHEJ",NA,NA,NA
"127","del",11,1,"SRR3699974.12998",TRUE,FALSE,34,5.36277602523659,"NHEJ",NA,NA,NA
"128","del",11,1,"SRR3699974.13049",TRUE,FALSE,34,5.36277602523659,"NHEJ",NA,NA,NA
"129","del",11,1,"SRR3699974.13078",TRUE,FALSE,34,5.36277602523659,"NHEJ",NA,NA,NA
"130","del",11,1,"SRR3699974.13135",TRUE,FALSE,34,5.36277602523659,"NHEJ",NA,NA,NA
"131","del",11,1,"SRR3699974.1323",TRUE,FALSE,34,5.36277602523659,"NHEJ",NA,NA,NA
"132","del",11,1,"SRR3699974.14096",TRUE,FALSE,34,5.36277602523659,"NHEJ",NA,NA,NA
"133","del",11,1,"SRR3699974.14364",TRUE,FALSE,34,5.36277602523659,"NHEJ",NA,NA,NA
"134","del",11,1,"SRR3699974.1443",TRUE,FALSE,34,5.36277602523659,"NHEJ",NA,NA,NA
"135","del",11,1,"SRR3699974.1591",TRUE,FALSE,34,5.36277602523659,"NHEJ",NA,NA,NA
"136","del",11,1,"SRR3699974.2154",TRUE,FALSE,34,5.36277602523659,"NHEJ",NA,NA,NA
"137","del",11,1,"SRR3699974.2394",TRUE,FALSE,34,5.36277602523659,"NHEJ",NA,NA,NA
"138","del",11,1,"SRR3699974.2995",TRUE,FALSE,34,5.36277602523659,"NHEJ",NA,NA,NA
"139","del",11,1,"SRR3699974.3052",TRUE,FALSE,34,5.36277602523659,"NHEJ",NA,NA,NA
"140","del",11,1,"SRR3699974.308",TRUE,FALSE,34,5.36277602523659,"NHEJ",NA,NA,NA
"141","del",11,1,"SRR3699974.3149",TRUE,FALSE,34,5.36277602523659,"NHEJ",NA,NA,NA
"142","del",11,1,"SRR3699974.3311",TRUE,FALSE,34,5.36277602523659,"NHEJ",NA,NA,NA
"143","del",11,1,"SRR3699974.3739",TRUE,FALSE,34,5.36277602523659,"NHEJ",NA,NA,NA
"144","del",11,1,"SRR3699974.4835",TRUE,FALSE,34,5.36277602523659,"NHEJ",NA,NA,NA
"145","del",11,1,"SRR3699974.4990",TRUE,FALSE,34,5.36277602523659,"NHEJ",NA,NA,NA
"146","del",11,1,"SRR3699974.6524",TRUE,FALSE,34,5.36277602523659,"NHEJ",NA,NA,NA
"147","del",11,1,"SRR3699974.6925",TRUE,FALSE,34,5.36277602523659,"NHEJ",NA,NA,NA
"148","del",11,1,"SRR3699974.8149",TRUE,FALSE,34,5.36277602523659,"NHEJ",NA,NA,NA
"149","del",11,1,"SRR3699974.8186",TRUE,FALSE,34,5.36277602523659,"NHEJ",NA,NA,NA
"150","del",11,1,"SRR3699974.8734",TRUE,FALSE,34,5.36277602523659,"NHEJ",NA,NA,NA
"151","del",11,2,"SRR3699974.1718",FALSE,FALSE,2,0.315457413249211,"TG",NA,NA,NA
"152","del",11,2,"SRR3699974.9396",FALSE,FALSE,2,0.315457413249211,"TG",NA,NA,NA
"153","del",11,3,"SRR3699974.5390",FALSE,FALSE,1,0.157728706624606,"NHEJ",NA,NA,NA
"154","del",12,1,"SRR3699974.10655",TRUE,FALSE,12,1.89274447949527,"NHEJ",NA,NA,NA
"155","del",12,1,"SRR3699974.1120",TRUE,FALSE,12,1.89274447949527,"NHEJ",NA,NA,NA
"156","del",12,1,"SRR3699974.11449",TRUE,FALSE,12,1.89274447949527,"NHEJ",NA,NA,NA
"157","del",12,1,"SRR3699974.12483",TRUE,FALSE,12,1.89274447949527,"NHEJ",NA,NA,NA
"158","del",12,1,"SRR3699974.13064",TRUE,FALSE,12,1.89274447949527,"NHEJ",NA,NA,NA
"159","del",12,1,"SRR3699974.4400",TRUE,FALSE,12,1.89274447949527,"NHEJ",NA,NA,NA
"160","del",12,1,"SRR3699974.5207",TRUE,FALSE,12,1.89274447949527,"NHEJ",NA,NA,NA
"161","del",12,1,"SRR3699974.7142",TRUE,FALSE,12,1.89274447949527,"NHEJ",NA,NA,NA
"162","del",12,1,"SRR3699974.730",TRUE,FALSE,12,1.89274447949527,"NHEJ",NA,NA,NA
"163","del",12,1,"SRR3699974.8993",TRUE,FALSE,12,1.89274447949527,"NHEJ",NA,NA,NA
"164","del",12,1,"SRR3699974.916",TRUE,FALSE,12,1.89274447949527,"NHEJ",NA,NA,NA
"165","del",12,1,"SRR3699974.9259",TRUE,FALSE,12,1.89274447949527,"NHEJ",NA,NA,NA
"166","del",13,1,"SRR3699974.12189",TRUE,FALSE,13,2.05047318611987,"NHEJ",NA,NA,NA
"167","del",13,1,"SRR3699974.14083",TRUE,FALSE,13,2.05047318611987,"NHEJ",NA,NA,NA
"168","del",13,1,"SRR3699974.14102",TRUE,FALSE,13,2.05047318611987,"NHEJ",NA,NA,NA
"169","del",13,1,"SRR3699974.2231",TRUE,FALSE,13,2.05047318611987,"NHEJ",NA,NA,NA
"170","del",13,1,"SRR3699974.2390",TRUE,FALSE,13,2.05047318611987,"NHEJ",NA,NA,NA
"171","del",13,1,"SRR3699974.3003",TRUE,FALSE,13,2.05047318611987,"NHEJ",NA,NA,NA
"172","del",13,1,"SRR3699974.304",TRUE,FALSE,13,2.05047318611987,"NHEJ",NA,NA,NA
"173","del",13,1,"SRR3699974.3887",TRUE,FALSE,13,2.05047318611987,"NHEJ",NA,NA,NA
"174","del",13,1,"SRR3699974.4018",TRUE,FALSE,13,2.05047318611987,"NHEJ",NA,NA,NA
"175","del",13,1,"SRR3699974.5396",TRUE,FALSE,13,2.05047318611987,"NHEJ",NA,NA,NA
"176","del",13,1,"SRR3699974.5430",TRUE,FALSE,13,2.05047318611987,"NHEJ",NA,NA,NA
"177","del",13,1,"SRR3699974.6763",TRUE,FALSE,13,2.05047318611987,"NHEJ",NA,NA,NA
"178","del",13,1,"SRR3699974.8936",TRUE,FALSE,13,2.05047318611987,"NHEJ",NA,NA,NA
"179","del",14,1,"SRR3699974.1383",TRUE,FALSE,4,0.630914826498423,"NHEJ",NA,NA,NA
"180","del",14,1,"SRR3699974.4941",TRUE,FALSE,4,0.630914826498423,"NHEJ",NA,NA,NA
"181","del",14,1,"SRR3699974.6689",TRUE,FALSE,4,0.630914826498423,"NHEJ",NA,NA,NA
"182","del",14,1,"SRR3699974.8158",TRUE,FALSE,4,0.630914826498423,"NHEJ",NA,NA,NA
"183","del",15,1,"SRR3699974.10357",TRUE,FALSE,8,1.26182965299685,"C",NA,NA,NA
"184","del",15,1,"SRR3699974.13460",TRUE,FALSE,8,1.26182965299685,"C",NA,NA,NA
"185","del",15,1,"SRR3699974.14343",TRUE,FALSE,8,1.26182965299685,"C",NA,NA,NA
"186","del",15,1,"SRR3699974.3593",TRUE,FALSE,8,1.26182965299685,"C",NA,NA,NA
"187","del",15,1,"SRR3699974.5135",TRUE,FALSE,8,1.26182965299685,"C",NA,NA,NA
"188","del",15,1,"SRR3699974.514",TRUE,FALSE,8,1.26182965299685,"C",NA,NA,NA
"189","del",15,1,"SRR3699974.7013",TRUE,FALSE,8,1.26182965299685,"C",NA,NA,NA
"190","del",15,1,"SRR3699974.9156",TRUE,FALSE,8,1.26182965299685,"C",NA,NA,NA
"191","del",16,4,"SRR3699974.11566",TRUE,FALSE,7,1.10410094637224,"CCCT",NA,NA,NA
"192","del",16,4,"SRR3699974.11978",TRUE,FALSE,7,1.10410094637224,"CCCT",NA,NA,NA
"193","del",16,4,"SRR3699974.13276",TRUE,FALSE,7,1.10410094637224,"CCCT",NA,NA,NA
"194","del",16,4,"SRR3699974.13325",TRUE,FALSE,7,1.10410094637224,"CCCT",NA,NA,NA
"195","del",16,4,"SRR3699974.5022",TRUE,FALSE,7,1.10410094637224,"CCCT",NA,NA,NA
"196","del",16,4,"SRR3699974.7844",TRUE,FALSE,7,1.10410094637224,"CCCT",NA,NA,NA
"197","del",16,4,"SRR3699974.8370",TRUE,FALSE,7,1.10410094637224,"CCCT",NA,NA,NA
"198","del",19,1,"SRR3699974.10732",FALSE,FALSE,1,0.157728706624606,"NHEJ",NA,NA,NA
"199","del",20,1,"SRR3699974.4882",FALSE,FALSE,2,0.315457413249211,"C",NA,NA,NA
"200","del",20,1,"SRR3699974.6567",FALSE,FALSE,2,0.315457413249211,"C",NA,NA,NA
"201","del",60,1,"SRR3699974.6885",FALSE,FALSE,1,0.157728706624606,"G",NA,NA,NA
"202","del",61,56,"SRR3699974.10656",TRUE,FALSE,2,0.315457413249211,"NHEJ",NA,NA,NA
"203","del",61,56,"SRR3699974.2377",TRUE,FALSE,2,0.315457413249211,"NHEJ",NA,NA,NA
"204","del",64,1,"SRR3699974.13986",TRUE,TRUE,2,0.315457413249211,"A",NA,NA,NA
"205","del",64,1,"SRR3699974.1561",TRUE,TRUE,2,0.315457413249211,"A",NA,NA,NA
"206","del",85,1,"SRR3699974.5313",FALSE,TRUE,1,0.157728706624606,"G",NA,NA,NA
"207","del",92,26,"SRR3699974.14173",TRUE,TRUE,4,0.630914826498423,"GAAGGGC",NA,NA,NA
"208","del",92,26,"SRR3699974.3389",TRUE,TRUE,4,0.630914826498423,"GAAGGGC",NA,NA,NA
"209","del",92,26,"SRR3699974.6170",TRUE,TRUE,4,0.630914826498423,"GAAGGGC",NA,NA,NA
"210","del",92,26,"SRR3699974.8131",TRUE,TRUE,4,0.630914826498423,"GAAGGGC",NA,NA,NA
"211","del",93,1,"SRR3699974.1388",TRUE,TRUE,2,0.315457413249211,"A",NA,NA,NA
"212","del",93,1,"SRR3699974.6477",TRUE,TRUE,2,0.315457413249211,"A",NA,NA,NA
"213","del",99,25,"SRR3699974.12361",FALSE,TRUE,1,0.157728706624606,"CT",NA,NA,NA
"214","del",102,15,"SRR3699974.2531",TRUE,TRUE,2,0.315457413249211,"AG",NA,NA,NA
"215","del",102,15,"SRR3699974.2712",TRUE,TRUE,2,0.315457413249211,"AG",NA,NA,NA
"216","del",102,18,"SRR3699974.12435",TRUE,TRUE,8,1.26182965299685,"AG",NA,NA,NA
"217","del",102,18,"SRR3699974.13031",TRUE,TRUE,8,1.26182965299685,"AG",NA,NA,NA
"218","del",102,18,"SRR3699974.5009",TRUE,TRUE,8,1.26182965299685,"AG",NA,NA,NA
"219","del",102,18,"SRR3699974.5292",TRUE,TRUE,8,1.26182965299685,"AG",NA,NA,NA
"220","del",102,18,"SRR3699974.5503",TRUE,TRUE,8,1.26182965299685,"AG",NA,NA,NA
"221","del",102,18,"SRR3699974.6629",TRUE,TRUE,8,1.26182965299685,"AG",NA,NA,NA
"222","del",102,18,"SRR3699974.7799",TRUE,TRUE,8,1.26182965299685,"AG",NA,NA,NA
"223","del",102,18,"SRR3699974.7901",TRUE,TRUE,8,1.26182965299685,"AG",NA,NA,NA
"224","del",103,19,"SRR3699974.11242",FALSE,TRUE,1,0.157728706624606,"G",NA,NA,NA
"225","del",103,20,"SRR3699974.12538",FALSE,TRUE,1,0.157728706624606,"G",NA,NA,NA
"226","del",104,21,"SRR3699974.2072",TRUE,TRUE,3,0.473186119873817,"TCC",NA,NA,NA
"227","del",104,21,"SRR3699974.5958",TRUE,TRUE,3,0.473186119873817,"TCC",NA,NA,NA
"228","del",104,21,"SRR3699974.5979",TRUE,TRUE,3,0.473186119873817,"TCC",NA,NA,NA
"229","del",105,1,"SRR3699974.4061",FALSE,TRUE,1,0.157728706624606,"C",NA,NA,NA
"230","del",106,11,"SRR3699974.6486",FALSE,TRUE,1,0.157728706624606,"NHEJ",NA,NA,NA
"231","del",106,20,"SRR3699974.3129",TRUE,TRUE,3,0.473186119873817,"C",NA,NA,NA
"232","del",106,20,"SRR3699974.7138",TRUE,TRUE,3,0.473186119873817,"C",NA,NA,NA
"233","del",106,20,"SRR3699974.8757",TRUE,TRUE,3,0.473186119873817,"C",NA,NA,NA
"234","del",107,1,"SRR3699974.9566",FALSE,TRUE,1,0.157728706624606,"NHEJ",NA,NA,NA
"235","del",107,8,"SRR3699974.11499",TRUE,TRUE,3,0.473186119873817,"GA",NA,NA,NA
"236","del",107,8,"SRR3699974.14564",TRUE,TRUE,3,0.473186119873817,"GA",NA,NA,NA
"237","del",107,8,"SRR3699974.7570",TRUE,TRUE,3,0.473186119873817,"GA",NA,NA,NA
"238","del",107,9,"SRR3699974.12939",FALSE,TRUE,1,0.157728706624606,"NHEJ",NA,NA,NA
"239","del",108,7,"SRR3699974.589",FALSE,TRUE,1,0.157728706624606,"NHEJ",NA,NA,NA
"240","del",108,9,"SRR3699974.10875",FALSE,TRUE,1,0.157728706624606,"AG",NA,NA,NA
"241","del",108,12,"SRR3699974.14797",FALSE,TRUE,1,0.157728706624606,"AG",NA,NA,NA
"242","del",109,14,"SRR3699974.12228",TRUE,TRUE,5,0.788643533123028,"GC",NA,NA,NA
"243","del",109,14,"SRR3699974.14522",TRUE,TRUE,5,0.788643533123028,"GC",NA,NA,NA
"244","del",109,14,"SRR3699974.6733",TRUE,TRUE,5,0.788643533123028,"GC",NA,NA,NA
"245","del",109,14,"SRR3699974.8482",TRUE,TRUE,5,0.788643533123028,"GC",NA,NA,NA
"246","del",109,14,"SRR3699974.9030",TRUE,TRUE,5,0.788643533123028,"GC",NA,NA,NA
"247","del",109,33,"SRR3699974.1642",TRUE,TRUE,2,0.315457413249211,"G",NA,NA,NA
"248","del",109,33,"SRR3699974.699",TRUE,TRUE,2,0.315457413249211,"G",NA,NA,NA
"249","del",110,18,"SRR3699974.4987",FALSE,TRUE,1,0.157728706624606,"CA",NA,NA,NA
"250","del",111,3,"SRR3699974.1132",TRUE,TRUE,34,5.36277602523659,"AGA",NA,NA,NA
"251","del",111,3,"SRR3699974.1150",TRUE,TRUE,34,5.36277602523659,"AGA",NA,NA,NA
"252","del",111,3,"SRR3699974.11875",TRUE,TRUE,34,5.36277602523659,"AGA",NA,NA,NA
"253","del",111,3,"SRR3699974.12142",TRUE,TRUE,34,5.36277602523659,"AGA",NA,NA,NA
"254","del",111,3,"SRR3699974.12181",TRUE,TRUE,34,5.36277602523659,"AGA",NA,NA,NA
"255","del",111,3,"SRR3699974.12238",TRUE,TRUE,34,5.36277602523659,"AGA",NA,NA,NA
"256","del",111,3,"SRR3699974.12874",TRUE,TRUE,34,5.36277602523659,"AGA",NA,NA,NA
"257","del",111,3,"SRR3699974.12942",TRUE,TRUE,34,5.36277602523659,"AGA",NA,NA,NA
"258","del",111,3,"SRR3699974.13091",TRUE,TRUE,34,5.36277602523659,"AGA",NA,NA,NA
"259","del",111,3,"SRR3699974.13811",TRUE,TRUE,34,5.36277602523659,"AGA",NA,NA,NA
"260","del",111,3,"SRR3699974.13837",TRUE,TRUE,34,5.36277602523659,"AGA",NA,NA,NA
"261","del",111,3,"SRR3699974.13973",TRUE,TRUE,34,5.36277602523659,"AGA",NA,NA,NA
"262","del",111,3,"SRR3699974.14241",TRUE,TRUE,34,5.36277602523659,"AGA",NA,NA,NA
"263","del",111,3,"SRR3699974.14355",TRUE,TRUE,34,5.36277602523659,"AGA",NA,NA,NA
"264","del",111,3,"SRR3699974.14756",TRUE,TRUE,34,5.36277602523659,"AGA",NA,NA,NA
"265","del",111,3,"SRR3699974.1511",TRUE,TRUE,34,5.36277602523659,"AGA",NA,NA,NA
"266","del",111,3,"SRR3699974.2062",TRUE,TRUE,34,5.36277602523659,"AGA",NA,NA,NA
"267","del",111,3,"SRR3699974.2147",TRUE,TRUE,34,5.36277602523659,"AGA",NA,NA,NA
"268","del",111,3,"SRR3699974.2659",TRUE,TRUE,34,5.36277602523659,"AGA",NA,NA,NA
"269","del",111,3,"SRR3699974.2760",TRUE,TRUE,34,5.36277602523659,"AGA",NA,NA,NA
"270","del",111,3,"SRR3699974.2803",TRUE,TRUE,34,5.36277602523659,"AGA",NA,NA,NA
"271","del",111,3,"SRR3699974.2851",TRUE,TRUE,34,5.36277602523659,"AGA",NA,NA,NA
"272","del",111,3,"SRR3699974.2943",TRUE,TRUE,34,5.36277602523659,"AGA",NA,NA,NA
"273","del",111,3,"SRR3699974.3492",TRUE,TRUE,34,5.36277602523659,"AGA",NA,NA,NA
"274","del",111,3,"SRR3699974.3513",TRUE,TRUE,34,5.36277602523659,"AGA",NA,NA,NA
"275","del",111,3,"SRR3699974.3659",TRUE,TRUE,34,5.36277602523659,"AGA",NA,NA,NA
"276","del",111,3,"SRR3699974.4578",TRUE,TRUE,34,5.36277602523659,"AGA",NA,NA,NA
"277","del",111,3,"SRR3699974.4693",TRUE,TRUE,34,5.36277602523659,"AGA",NA,NA,NA
"278","del",111,3,"SRR3699974.4727",TRUE,TRUE,34,5.36277602523659,"AGA",NA,NA,NA
"279","del",111,3,"SRR3699974.4906",TRUE,TRUE,34,5.36277602523659,"AGA",NA,NA,NA
"280","del",111,3,"SRR3699974.5631",TRUE,TRUE,34,5.36277602523659,"AGA",NA,NA,NA
"281","del",111,3,"SRR3699974.5778",TRUE,TRUE,34,5.36277602523659,"AGA",NA,NA,NA
"282","del",111,3,"SRR3699974.7588",TRUE,TRUE,34,5.36277602523659,"AGA",NA,NA,NA
"283","del",111,3,"SRR3699974.9094",TRUE,TRUE,34,5.36277602523659,"AGA",NA,NA,NA
"284","del",111,6,"SRR3699974.10049",TRUE,TRUE,75,11.8296529968454,"AGAAG",NA,NA,NA
"285","del",111,6,"SRR3699974.10434",TRUE,TRUE,75,11.8296529968454,"AGAAG",NA,NA,NA
"286","del",111,6,"SRR3699974.10462",TRUE,TRUE,75,11.8296529968454,"AGAAG",NA,NA,NA
"287","del",111,6,"SRR3699974.10684",TRUE,TRUE,75,11.8296529968454,"AGAAG",NA,NA,NA
"288","del",111,6,"SRR3699974.11163",TRUE,TRUE,75,11.8296529968454,"AGAAG",NA,NA,NA
"289","del",111,6,"SRR3699974.11237",TRUE,TRUE,75,11.8296529968454,"AGAAG",NA,NA,NA
"290","del",111,6,"SRR3699974.11252",TRUE,TRUE,75,11.8296529968454,"AGAAG",NA,NA,NA
"291","del",111,6,"SRR3699974.11396",TRUE,TRUE,75,11.8296529968454,"AGAAG",NA,NA,NA
"292","del",111,6,"SRR3699974.11421",TRUE,TRUE,75,11.8296529968454,"AGAAG",NA,NA,NA
"293","del",111,6,"SRR3699974.11445",TRUE,TRUE,75,11.8296529968454,"AGAAG",NA,NA,NA
"294","del",111,6,"SRR3699974.11757",TRUE,TRUE,75,11.8296529968454,"AGAAG",NA,NA,NA
"295","del",111,6,"SRR3699974.11816",TRUE,TRUE,75,11.8296529968454,"AGAAG",NA,NA,NA
"296","del",111,6,"SRR3699974.11904",TRUE,TRUE,75,11.8296529968454,"AGAAG",NA,NA,NA
"297","del",111,6,"SRR3699974.12410",TRUE,TRUE,75,11.8296529968454,"AGAAG",NA,NA,NA
"298","del",111,6,"SRR3699974.12620",TRUE,TRUE,75,11.8296529968454,"AGAAG",NA,NA,NA
"299","del",111,6,"SRR3699974.1273",TRUE,TRUE,75,11.8296529968454,"AGAAG",NA,NA,NA
"300","del",111,6,"SRR3699974.12733",TRUE,TRUE,75,11.8296529968454,"AGAAG",NA,NA,NA
"301","del",111,6,"SRR3699974.12937",TRUE,TRUE,75,11.8296529968454,"AGAAG",NA,NA,NA
"302","del",111,6,"SRR3699974.13256",TRUE,TRUE,75,11.8296529968454,"AGAAG",NA,NA,NA
"303","del",111,6,"SRR3699974.1329",TRUE,TRUE,75,11.8296529968454,"AGAAG",NA,NA,NA
"304","del",111,6,"SRR3699974.13387",TRUE,TRUE,75,11.8296529968454,"AGAAG",NA,NA,NA
"305","del",111,6,"SRR3699974.13542",TRUE,TRUE,75,11.8296529968454,"AGAAG",NA,NA,NA
"306","del",111,6,"SRR3699974.13607",TRUE,TRUE,75,11.8296529968454,"AGAAG",NA,NA,NA
"307","del",111,6,"SRR3699974.13736",TRUE,TRUE,75,11.8296529968454,"AGAAG",NA,NA,NA
"308","del",111,6,"SRR3699974.13771",TRUE,TRUE,75,11.8296529968454,"AGAAG",NA,NA,NA
"309","del",111,6,"SRR3699974.14013",TRUE,TRUE,75,11.8296529968454,"AGAAG",NA,NA,NA
"310","del",111,6,"SRR3699974.14079",TRUE,TRUE,75,11.8296529968454,"AGAAG",NA,NA,NA
"311","del",111,6,"SRR3699974.14142",TRUE,TRUE,75,11.8296529968454,"AGAAG",NA,NA,NA
"312","del",111,6,"SRR3699974.14316",TRUE,TRUE,75,11.8296529968454,"AGAAG",NA,NA,NA
"313","del",111,6,"SRR3699974.1625",TRUE,TRUE,75,11.8296529968454,"AGAAG",NA,NA,NA
"314","del",111,6,"SRR3699974.2168",TRUE,TRUE,75,11.8296529968454,"AGAAG",NA,NA,NA
"315","del",111,6,"SRR3699974.2361",TRUE,TRUE,75,11.8296529968454,"AGAAG",NA,NA,NA
"316","del",111,6,"SRR3699974.2418",TRUE,TRUE,75,11.8296529968454,"AGAAG",NA,NA,NA
"317","del",111,6,"SRR3699974.2509",TRUE,TRUE,75,11.8296529968454,"AGAAG",NA,NA,NA
"318","del",111,6,"SRR3699974.2650",TRUE,TRUE,75,11.8296529968454,"AGAAG",NA,NA,NA
"319","del",111,6,"SRR3699974.284",TRUE,TRUE,75,11.8296529968454,"AGAAG",NA,NA,NA
"320","del",111,6,"SRR3699974.2956",TRUE,TRUE,75,11.8296529968454,"AGAAG",NA,NA,NA
"321","del",111,6,"SRR3699974.2970",TRUE,TRUE,75,11.8296529968454,"AGAAG",NA,NA,NA
"322","del",111,6,"SRR3699974.3037",TRUE,TRUE,75,11.8296529968454,"AGAAG",NA,NA,NA
"323","del",111,6,"SRR3699974.3368",TRUE,TRUE,75,11.8296529968454,"AGAAG",NA,NA,NA
"324","del",111,6,"SRR3699974.3405",TRUE,TRUE,75,11.8296529968454,"AGAAG",NA,NA,NA
"325","del",111,6,"SRR3699974.349",TRUE,TRUE,75,11.8296529968454,"AGAAG",NA,NA,NA
"326","del",111,6,"SRR3699974.3690",TRUE,TRUE,75,11.8296529968454,"AGAAG",NA,NA,NA
"327","del",111,6,"SRR3699974.3732",TRUE,TRUE,75,11.8296529968454,"AGAAG",NA,NA,NA
"328","del",111,6,"SRR3699974.3805",TRUE,TRUE,75,11.8296529968454,"AGAAG",NA,NA,NA
"329","del",111,6,"SRR3699974.4291",TRUE,TRUE,75,11.8296529968454,"AGAAG",NA,NA,NA
"330","del",111,6,"SRR3699974.4376",TRUE,TRUE,75,11.8296529968454,"AGAAG",NA,NA,NA
"331","del",111,6,"SRR3699974.4545",TRUE,TRUE,75,11.8296529968454,"AGAAG",NA,NA,NA
"332","del",111,6,"SRR3699974.4919",TRUE,TRUE,75,11.8296529968454,"AGAAG",NA,NA,NA
"333","del",111,6,"SRR3699974.4968",TRUE,TRUE,75,11.8296529968454,"AGAAG",NA,NA,NA
"334","del",111,6,"SRR3699974.5179",TRUE,TRUE,75,11.8296529968454,"AGAAG",NA,NA,NA
"335","del",111,6,"SRR3699974.5231",TRUE,TRUE,75,11.8296529968454,"AGAAG",NA,NA,NA
"336","del",111,6,"SRR3699974.5586",TRUE,TRUE,75,11.8296529968454,"AGAAG",NA,NA,NA
"337","del",111,6,"SRR3699974.5636",TRUE,TRUE,75,11.8296529968454,"AGAAG",NA,NA,NA
"338","del",111,6,"SRR3699974.5681",TRUE,TRUE,75,11.8296529968454,"AGAAG",NA,NA,NA
"339","del",111,6,"SRR3699974.6255",TRUE,TRUE,75,11.8296529968454,"AGAAG",NA,NA,NA
"340","del",111,6,"SRR3699974.6401",TRUE,TRUE,75,11.8296529968454,"AGAAG",NA,NA,NA
"341","del",111,6,"SRR3699974.6695",TRUE,TRUE,75,11.8296529968454,"AGAAG",NA,NA,NA
"342","del",111,6,"SRR3699974.7117",TRUE,TRUE,75,11.8296529968454,"AGAAG",NA,NA,NA
"343","del",111,6,"SRR3699974.7297",TRUE,TRUE,75,11.8296529968454,"AGAAG",NA,NA,NA
"344","del",111,6,"SRR3699974.7398",TRUE,TRUE,75,11.8296529968454,"AGAAG",NA,NA,NA
"345","del",111,6,"SRR3699974.7808",TRUE,TRUE,75,11.8296529968454,"AGAAG",NA,NA,NA
"346","del",111,6,"SRR3699974.785",TRUE,TRUE,75,11.8296529968454,"AGAAG",NA,NA,NA
"347","del",111,6,"SRR3699974.8060",TRUE,TRUE,75,11.8296529968454,"AGAAG",NA,NA,NA
"348","del",111,6,"SRR3699974.8192",TRUE,TRUE,75,11.8296529968454,"AGAAG",NA,NA,NA
"349","del",111,6,"SRR3699974.8405",TRUE,TRUE,75,11.8296529968454,"AGAAG",NA,NA,NA
"350","del",111,6,"SRR3699974.8457",TRUE,TRUE,75,11.8296529968454,"AGAAG",NA,NA,NA
"351","del",111,6,"SRR3699974.8522",TRUE,TRUE,75,11.8296529968454,"AGAAG",NA,NA,NA
"352","del",111,6,"SRR3699974.8915",TRUE,TRUE,75,11.8296529968454,"AGAAG",NA,NA,NA
"353","del",111,6,"SRR3699974.9096",TRUE,TRUE,75,11.8296529968454,"AGAAG",NA,NA,NA
"354","del",111,6,"SRR3699974.9172",TRUE,TRUE,75,11.8296529968454,"AGAAG",NA,NA,NA
"355","del",111,6,"SRR3699974.933",TRUE,TRUE,75,11.8296529968454,"AGAAG",NA,NA,NA
"356","del",111,6,"SRR3699974.9420",TRUE,TRUE,75,11.8296529968454,"AGAAG",NA,NA,NA
"357","del",111,6,"SRR3699974.9471",TRUE,TRUE,75,11.8296529968454,"AGAAG",NA,NA,NA
"358","del",111,6,"SRR3699974.969",TRUE,TRUE,75,11.8296529968454,"AGAAG",NA,NA,NA
"359","del",111,9,"SRR3699974.3234",FALSE,TRUE,2,0.315457413249211,"AG",NA,NA,NA
"360","del",111,9,"SRR3699974.7831",FALSE,TRUE,2,0.315457413249211,"AG",NA,NA,NA
"361","del",111,11,"SRR3699974.12990",FALSE,TRUE,2,0.315457413249211,"NHEJ",NA,NA,NA
"362","del",111,11,"SRR3699974.9836",FALSE,TRUE,2,0.315457413249211,"NHEJ",NA,NA,NA
"363","del",112,11,"SRR3699974.1252",TRUE,TRUE,3,0.473186119873817,"G",NA,NA,NA
"364","del",112,11,"SRR3699974.13457",TRUE,TRUE,3,0.473186119873817,"G",NA,NA,NA
"365","del",112,11,"SRR3699974.8122",TRUE,TRUE,3,0.473186119873817,"G",NA,NA,NA
"366","del",113,18,"SRR3699974.14644",TRUE,TRUE,2,0.315457413249211,"NHEJ",NA,NA,NA
"367","del",113,18,"SRR3699974.5301",TRUE,TRUE,2,0.315457413249211,"NHEJ",NA,NA,NA
"368","del",114,2,"SRR3699974.12832",TRUE,TRUE,2,0.315457413249211,"A",NA,NA,NA
"369","del",114,2,"SRR3699974.5671",TRUE,TRUE,2,0.315457413249211,"A",NA,NA,NA
"370","del",114,18,"SRR3699974.9892",FALSE,TRUE,1,0.157728706624606,"A",NA,NA,NA
"371","del",115,1,"SRR3699974.10015",FALSE,TRUE,1,0.157728706624606,"NHEJ",NA,NA,NA
"372","del",115,7,"SRR3699974.14366",TRUE,TRUE,2,0.315457413249211,"G",NA,NA,NA
"373","del",115,7,"SRR3699974.6466",TRUE,TRUE,2,0.315457413249211,"G",NA,NA,NA
"374","del",115,8,"SRR3699974.11284",TRUE,TRUE,5,0.788643533123028,"G",NA,NA,NA
"375","del",115,8,"SRR3699974.13936",TRUE,TRUE,5,0.788643533123028,"G",NA,NA,NA
"376","del",115,8,"SRR3699974.5089",TRUE,TRUE,5,0.788643533123028,"G",NA,NA,NA
"377","del",115,8,"SRR3699974.7036",TRUE,TRUE,5,0.788643533123028,"G",NA,NA,NA
"378","del",115,8,"SRR3699974.7342",TRUE,TRUE,5,0.788643533123028,"G",NA,NA,NA
"379","del",115,42,"SRR3699974.10578",TRUE,TRUE,2,0.315457413249211,"GAAG",NA,NA,NA
"380","del",115,42,"SRR3699974.5720",TRUE,TRUE,2,0.315457413249211,"GAAG",NA,NA,NA
"381","del",116,1,"SRR3699974.7494",FALSE,TRUE,1,0.157728706624606,"A",NA,NA,NA
"382","del",116,11,"SRR3699974.12364",TRUE,TRUE,2,0.315457413249211,"NHEJ",NA,NA,NA
"383","del",116,11,"SRR3699974.13939",TRUE,TRUE,2,0.315457413249211,"NHEJ",NA,NA,NA
"384","del",116,19,"SRR3699974.1579",TRUE,TRUE,3,0.473186119873817,"NHEJ",NA,NA,NA
"385","del",116,19,"SRR3699974.5927",TRUE,TRUE,3,0.473186119873817,"NHEJ",NA,NA,NA
"386","del",116,19,"SRR3699974.5947",TRUE,TRUE,3,0.473186119873817,"NHEJ",NA,NA,NA
"387","del",117,2,"SRR3699974.12666",TRUE,TRUE,2,0.315457413249211,"A",NA,NA,NA
"388","del",117,2,"SRR3699974.3846",TRUE,TRUE,2,0.315457413249211,"A",NA,NA,NA
"389","del",117,6,"SRR3699974.10078",FALSE,TRUE,1,0.157728706624606,"NHEJ",NA,NA,NA
"390","del",117,7,"SRR3699974.9840",FALSE,TRUE,1,0.157728706624606,"NHEJ",NA,NA,NA
"391","del",117,8,"SRR3699974.3946",FALSE,TRUE,1,0.157728706624606,"NHEJ",NA,NA,NA
"392","del",118,4,"SRR3699974.4310",FALSE,TRUE,1,0.157728706624606,"G",NA,NA,NA
"393","del",119,2,"SRR3699974.9480",FALSE,TRUE,2,0.315457413249211,"NHEJ",NA,NA,NA
"394","del",119,2,"SRR3699974.9599",FALSE,TRUE,2,0.315457413249211,"NHEJ",NA,NA,NA
"395","del",153,1,"SRR3699974.6035",FALSE,TRUE,1,0.157728706624606,"C",NA,NA,NA
"396","del",167,1,"SRR3699974.11847",FALSE,FALSE,1,0.157728706624606,"A",NA,NA,NA
"397","del",170,1,"SRR3699974.4920",FALSE,FALSE,1,0.157728706624606,"G",NA,NA,NA
"398","del",199,1,"SRR3699974.13903",FALSE,FALSE,1,0.157728706624606,"NHEJ",NA,NA,NA
"399","del",200,1,"SRR3699974.10252",TRUE,FALSE,32,5.04731861198738,"NHEJ",NA,NA,NA
"400","del",200,1,"SRR3699974.1076",TRUE,FALSE,32,5.04731861198738,"NHEJ",NA,NA,NA
"401","del",200,1,"SRR3699974.11096",TRUE,FALSE,32,5.04731861198738,"NHEJ",NA,NA,NA
"402","del",200,1,"SRR3699974.11352",TRUE,FALSE,32,5.04731861198738,"NHEJ",NA,NA,NA
"403","del",200,1,"SRR3699974.11596",TRUE,FALSE,32,5.04731861198738,"NHEJ",NA,NA,NA
"404","del",200,1,"SRR3699974.11725",TRUE,FALSE,32,5.04731861198738,"NHEJ",NA,NA,NA
"405","del",200,1,"SRR3699974.12282",TRUE,FALSE,32,5.04731861198738,"NHEJ",NA,NA,NA
"406","del",200,1,"SRR3699974.12307",TRUE,FALSE,32,5.04731861198738,"NHEJ",NA,NA,NA
"407","del",200,1,"SRR3699974.1238",TRUE,FALSE,32,5.04731861198738,"NHEJ",NA,NA,NA
"408","del",200,1,"SRR3699974.12484",TRUE,FALSE,32,5.04731861198738,"NHEJ",NA,NA,NA
"409","del",200,1,"SRR3699974.13530",TRUE,FALSE,32,5.04731861198738,"NHEJ",NA,NA,NA
"410","del",200,1,"SRR3699974.14288",TRUE,FALSE,32,5.04731861198738,"NHEJ",NA,NA,NA
"411","del",200,1,"SRR3699974.1478",TRUE,FALSE,32,5.04731861198738,"NHEJ",NA,NA,NA
"412","del",200,1,"SRR3699974.14783",TRUE,FALSE,32,5.04731861198738,"NHEJ",NA,NA,NA
"413","del",200,1,"SRR3699974.2754",TRUE,FALSE,32,5.04731861198738,"NHEJ",NA,NA,NA
"414","del",200,1,"SRR3699974.2838",TRUE,FALSE,32,5.04731861198738,"NHEJ",NA,NA,NA
"415","del",200,1,"SRR3699974.2865",TRUE,FALSE,32,5.04731861198738,"NHEJ",NA,NA,NA
"416","del",200,1,"SRR3699974.4298",TRUE,FALSE,32,5.04731861198738,"NHEJ",NA,NA,NA
"417","del",200,1,"SRR3699974.4453",TRUE,FALSE,32,5.04731861198738,"NHEJ",NA,NA,NA
"418","del",200,1,"SRR3699974.5341",TRUE,FALSE,32,5.04731861198738,"NHEJ",NA,NA,NA
"419","del",200,1,"SRR3699974.6650",TRUE,FALSE,32,5.04731861198738,"NHEJ",NA,NA,NA
"420","del",200,1,"SRR3699974.6675",TRUE,FALSE,32,5.04731861198738,"NHEJ",NA,NA,NA
"421","del",200,1,"SRR3699974.7249",TRUE,FALSE,32,5.04731861198738,"NHEJ",NA,NA,NA
"422","del",200,1,"SRR3699974.7315",TRUE,FALSE,32,5.04731861198738,"NHEJ",NA,NA,NA
"423","del",200,1,"SRR3699974.7487",TRUE,FALSE,32,5.04731861198738,"NHEJ",NA,NA,NA
"424","del",200,1,"SRR3699974.7772",TRUE,FALSE,32,5.04731861198738,"NHEJ",NA,NA,NA
"425","del",200,1,"SRR3699974.8367",TRUE,FALSE,32,5.04731861198738,"NHEJ",NA,NA,NA
"426","del",200,1,"SRR3699974.8435",TRUE,FALSE,32,5.04731861198738,"NHEJ",NA,NA,NA
"427","del",200,1,"SRR3699974.9413",TRUE,FALSE,32,5.04731861198738,"NHEJ",NA,NA,NA
"428","del",200,1,"SRR3699974.9730",TRUE,FALSE,32,5.04731861198738,"NHEJ",NA,NA,NA
"429","del",200,1,"SRR3699974.9784",TRUE,FALSE,32,5.04731861198738,"NHEJ",NA,NA,NA
"430","del",200,1,"SRR3699974.9876",TRUE,FALSE,32,5.04731861198738,"NHEJ",NA,NA,NA
"431","del",200,2,"SRR3699974.663",FALSE,FALSE,1,0.157728706624606,"NHEJ",NA,NA,NA
"432","del",200,3,"SRR3699974.8057",FALSE,FALSE,1,0.157728706624606,"NHEJ",NA,NA,NA
"433","del",201,1,"SRR3699974.1006",TRUE,FALSE,15,2.36593059936909,"NHEJ",NA,NA,NA
"434","del",201,1,"SRR3699974.10820",TRUE,FALSE,15,2.36593059936909,"NHEJ",NA,NA,NA
"435","del",201,1,"SRR3699974.11280",TRUE,FALSE,15,2.36593059936909,"NHEJ",NA,NA,NA
"436","del",201,1,"SRR3699974.11433",TRUE,FALSE,15,2.36593059936909,"NHEJ",NA,NA,NA
"437","del",201,1,"SRR3699974.13281",TRUE,FALSE,15,2.36593059936909,"NHEJ",NA,NA,NA
"438","del",201,1,"SRR3699974.14445",TRUE,FALSE,15,2.36593059936909,"NHEJ",NA,NA,NA
"439","del",201,1,"SRR3699974.1942",TRUE,FALSE,15,2.36593059936909,"NHEJ",NA,NA,NA
"440","del",201,1,"SRR3699974.4316",TRUE,FALSE,15,2.36593059936909,"NHEJ",NA,NA,NA
"441","del",201,1,"SRR3699974.5945",TRUE,FALSE,15,2.36593059936909,"NHEJ",NA,NA,NA
"442","del",201,1,"SRR3699974.639",TRUE,FALSE,15,2.36593059936909,"NHEJ",NA,NA,NA
"443","del",201,1,"SRR3699974.6484",TRUE,FALSE,15,2.36593059936909,"NHEJ",NA,NA,NA
"444","del",201,1,"SRR3699974.6585",TRUE,FALSE,15,2.36593059936909,"NHEJ",NA,NA,NA
"445","del",201,1,"SRR3699974.7359",TRUE,FALSE,15,2.36593059936909,"NHEJ",NA,NA,NA
"446","del",201,1,"SRR3699974.7882",TRUE,FALSE,15,2.36593059936909,"NHEJ",NA,NA,NA
"447","del",201,1,"SRR3699974.8480",TRUE,FALSE,15,2.36593059936909,"NHEJ",NA,NA,NA
"448","del",201,2,"SRR3699974.5096",FALSE,FALSE,1,0.157728706624606,"NHEJ",NA,NA,NA
"449","del",202,1,"SRR3699974.10043",TRUE,FALSE,47,7.41324921135647,"G",NA,NA,NA
"450","del",202,1,"SRR3699974.11192",TRUE,FALSE,47,7.41324921135647,"G",NA,NA,NA
"451","del",202,1,"SRR3699974.11538",TRUE,FALSE,47,7.41324921135647,"G",NA,NA,NA
"452","del",202,1,"SRR3699974.11571",TRUE,FALSE,47,7.41324921135647,"G",NA,NA,NA
"453","del",202,1,"SRR3699974.11599",TRUE,FALSE,47,7.41324921135647,"G",NA,NA,NA
"454","del",202,1,"SRR3699974.12029",TRUE,FALSE,47,7.41324921135647,"G",NA,NA,NA
"455","del",202,1,"SRR3699974.12345",TRUE,FALSE,47,7.41324921135647,"G",NA,NA,NA
"456","del",202,1,"SRR3699974.12864",TRUE,FALSE,47,7.41324921135647,"G",NA,NA,NA
"457","del",202,1,"SRR3699974.12968",TRUE,FALSE,47,7.41324921135647,"G",NA,NA,NA
"458","del",202,1,"SRR3699974.13037",TRUE,FALSE,47,7.41324921135647,"G",NA,NA,NA
"459","del",202,1,"SRR3699974.1321",TRUE,FALSE,47,7.41324921135647,"G",NA,NA,NA
"460","del",202,1,"SRR3699974.13299",TRUE,FALSE,47,7.41324921135647,"G",NA,NA,NA
"461","del",202,1,"SRR3699974.14415",TRUE,FALSE,47,7.41324921135647,"G",NA,NA,NA
"462","del",202,1,"SRR3699974.14458",TRUE,FALSE,47,7.41324921135647,"G",NA,NA,NA
"463","del",202,1,"SRR3699974.14786",TRUE,FALSE,47,7.41324921135647,"G",NA,NA,NA
"464","del",202,1,"SRR3699974.14811",TRUE,FALSE,47,7.41324921135647,"G",NA,NA,NA
"465","del",202,1,"SRR3699974.2048",TRUE,FALSE,47,7.41324921135647,"G",NA,NA,NA
"466","del",202,1,"SRR3699974.2255",TRUE,FALSE,47,7.41324921135647,"G",NA,NA,NA
"467","del",202,1,"SRR3699974.2535",TRUE,FALSE,47,7.41324921135647,"G",NA,NA,NA
"468","del",202,1,"SRR3699974.2981",TRUE,FALSE,47,7.41324921135647,"G",NA,NA,NA
"469","del",202,1,"SRR3699974.3140",TRUE,FALSE,47,7.41324921135647,"G",NA,NA,NA
"470","del",202,1,"SRR3699974.3680",TRUE,FALSE,47,7.41324921135647,"G",NA,NA,NA
"471","del",202,1,"SRR3699974.3962",TRUE,FALSE,47,7.41324921135647,"G",NA,NA,NA
"472","del",202,1,"SRR3699974.3973",TRUE,FALSE,47,7.41324921135647,"G",NA,NA,NA
"473","del",202,1,"SRR3699974.4039",TRUE,FALSE,47,7.41324921135647,"G",NA,NA,NA
"474","del",202,1,"SRR3699974.4165",TRUE,FALSE,47,7.41324921135647,"G",NA,NA,NA
"475","del",202,1,"SRR3699974.4174",TRUE,FALSE,47,7.41324921135647,"G",NA,NA,NA
"476","del",202,1,"SRR3699974.451",TRUE,FALSE,47,7.41324921135647,"G",NA,NA,NA
"477","del",202,1,"SRR3699974.4647",TRUE,FALSE,47,7.41324921135647,"G",NA,NA,NA
"478","del",202,1,"SRR3699974.5134",TRUE,FALSE,47,7.41324921135647,"G",NA,NA,NA
"479","del",202,1,"SRR3699974.6427",TRUE,FALSE,47,7.41324921135647,"G",NA,NA,NA
"480","del",202,1,"SRR3699974.6709",TRUE,FALSE,47,7.41324921135647,"G",NA,NA,NA
"481","del",202,1,"SRR3699974.6958",TRUE,FALSE,47,7.41324921135647,"G",NA,NA,NA
"482","del",202,1,"SRR3699974.7023",TRUE,FALSE,47,7.41324921135647,"G",NA,NA,NA
"483","del",202,1,"SRR3699974.7099",TRUE,FALSE,47,7.41324921135647,"G",NA,NA,NA
"484","del",202,1,"SRR3699974.7127",TRUE,FALSE,47,7.41324921135647,"G",NA,NA,NA
"485","del",202,1,"SRR3699974.728",TRUE,FALSE,47,7.41324921135647,"G",NA,NA,NA
"486","del",202,1,"SRR3699974.7313",TRUE,FALSE,47,7.41324921135647,"G",NA,NA,NA
"487","del",202,1,"SRR3699974.7546",TRUE,FALSE,47,7.41324921135647,"G",NA,NA,NA
"488","del",202,1,"SRR3699974.7549",TRUE,FALSE,47,7.41324921135647,"G",NA,NA,NA
"489","del",202,1,"SRR3699974.7814",TRUE,FALSE,47,7.41324921135647,"G",NA,NA,NA
"490","del",202,1,"SRR3699974.7916",TRUE,FALSE,47,7.41324921135647,"G",NA,NA,NA
"491","del",202,1,"SRR3699974.8098",TRUE,FALSE,47,7.41324921135647,"G",NA,NA,NA
"492","del",202,1,"SRR3699974.8416",TRUE,FALSE,47,7.41324921135647,"G",NA,NA,NA
"493","del",202,1,"SRR3699974.872",TRUE,FALSE,47,7.41324921135647,"G",NA,NA,NA
"494","del",202,1,"SRR3699974.8722",TRUE,FALSE,47,7.41324921135647,"G",NA,NA,NA
"495","del",202,1,"SRR3699974.9193",TRUE,FALSE,47,7.41324921135647,"G",NA,NA,NA
"496","del",202,2,"SRR3699974.2287",FALSE,FALSE,1,0.157728706624606,"G",NA,NA,NA
"497","del",202,3,"SRR3699974.6311",FALSE,FALSE,1,0.157728706624606,"NHEJ",NA,NA,NA
"498","del",204,2,"SRR3699974.13336",TRUE,FALSE,6,0.946372239747634,"G",NA,NA,NA
"499","del",204,2,"SRR3699974.3200",TRUE,FALSE,6,0.946372239747634,"G",NA,NA,NA
"500","del",204,2,"SRR3699974.4963",TRUE,FALSE,6,0.946372239747634,"G",NA,NA,NA
"501","del",204,2,"SRR3699974.7535",TRUE,FALSE,6,0.946372239747634,"G",NA,NA,NA
"502","del",204,2,"SRR3699974.8203",TRUE,FALSE,6,0.946372239747634,"G",NA,NA,NA
"503","del",204,2,"SRR3699974.9309",TRUE,FALSE,6,0.946372239747634,"G",NA,NA,NA
"504","del",205,1,"SRR3699974.11060",TRUE,FALSE,21,3.31230283911672,"NHEJ",NA,NA,NA
"505","del",205,1,"SRR3699974.11587",TRUE,FALSE,21,3.31230283911672,"NHEJ",NA,NA,NA
"506","del",205,1,"SRR3699974.11677",TRUE,FALSE,21,3.31230283911672,"NHEJ",NA,NA,NA
"507","del",205,1,"SRR3699974.12574",TRUE,FALSE,21,3.31230283911672,"NHEJ",NA,NA,NA
"508","del",205,1,"SRR3699974.1362",TRUE,FALSE,21,3.31230283911672,"NHEJ",NA,NA,NA
"509","del",205,1,"SRR3699974.14274",TRUE,FALSE,21,3.31230283911672,"NHEJ",NA,NA,NA
"510","del",205,1,"SRR3699974.1803",TRUE,FALSE,21,3.31230283911672,"NHEJ",NA,NA,NA
"511","del",205,1,"SRR3699974.3098",TRUE,FALSE,21,3.31230283911672,"NHEJ",NA,NA,NA
"512","del",205,1,"SRR3699974.3803",TRUE,FALSE,21,3.31230283911672,"NHEJ",NA,NA,NA
"513","del",205,1,"SRR3699974.4289",TRUE,FALSE,21,3.31230283911672,"NHEJ",NA,NA,NA
"514","del",205,1,"SRR3699974.4709",TRUE,FALSE,21,3.31230283911672,"NHEJ",NA,NA,NA
"515","del",205,1,"SRR3699974.4836",TRUE,FALSE,21,3.31230283911672,"NHEJ",NA,NA,NA
"516","del",205,1,"SRR3699974.5062",TRUE,FALSE,21,3.31230283911672,"NHEJ",NA,NA,NA
"517","del",205,1,"SRR3699974.5560",TRUE,FALSE,21,3.31230283911672,"NHEJ",NA,NA,NA
"518","del",205,1,"SRR3699974.6434",TRUE,FALSE,21,3.31230283911672,"NHEJ",NA,NA,NA
"519","del",205,1,"SRR3699974.7083",TRUE,FALSE,21,3.31230283911672,"NHEJ",NA,NA,NA
"520","del",205,1,"SRR3699974.795",TRUE,FALSE,21,3.31230283911672,"NHEJ",NA,NA,NA
"521","del",205,1,"SRR3699974.8889",TRUE,FALSE,21,3.31230283911672,"NHEJ",NA,NA,NA
"522","del",205,1,"SRR3699974.9229",TRUE,FALSE,21,3.31230283911672,"NHEJ",NA,NA,NA
"523","del",205,1,"SRR3699974.9520",TRUE,FALSE,21,3.31230283911672,"NHEJ",NA,NA,NA
"524","del",205,1,"SRR3699974.9898",TRUE,FALSE,21,3.31230283911672,"NHEJ",NA,NA,NA
"525","del",206,1,"SRR3699974.10428",TRUE,FALSE,33,5.20504731861199,"G",NA,NA,NA
"526","del",206,1,"SRR3699974.10588",TRUE,FALSE,33,5.20504731861199,"G",NA,NA,NA
"527","del",206,1,"SRR3699974.10631",TRUE,FALSE,33,5.20504731861199,"G",NA,NA,NA
"528","del",206,1,"SRR3699974.10791",TRUE,FALSE,33,5.20504731861199,"G",NA,NA,NA
"529","del",206,1,"SRR3699974.11199",TRUE,FALSE,33,5.20504731861199,"G",NA,NA,NA
"530","del",206,1,"SRR3699974.11698",TRUE,FALSE,33,5.20504731861199,"G",NA,NA,NA
"531","del",206,1,"SRR3699974.12040",TRUE,FALSE,33,5.20504731861199,"G",NA,NA,NA
"532","del",206,1,"SRR3699974.12844",TRUE,FALSE,33,5.20504731861199,"G",NA,NA,NA
"533","del",206,1,"SRR3699974.13036",TRUE,FALSE,33,5.20504731861199,"G",NA,NA,NA
"534","del",206,1,"SRR3699974.13217",TRUE,FALSE,33,5.20504731861199,"G",NA,NA,NA
"535","del",206,1,"SRR3699974.13828",TRUE,FALSE,33,5.20504731861199,"G",NA,NA,NA
"536","del",206,1,"SRR3699974.14008",TRUE,FALSE,33,5.20504731861199,"G",NA,NA,NA
"537","del",206,1,"SRR3699974.14130",TRUE,FALSE,33,5.20504731861199,"G",NA,NA,NA
"538","del",206,1,"SRR3699974.14369",TRUE,FALSE,33,5.20504731861199,"G",NA,NA,NA
"539","del",206,1,"SRR3699974.1506",TRUE,FALSE,33,5.20504731861199,"G",NA,NA,NA
"540","del",206,1,"SRR3699974.1754",TRUE,FALSE,33,5.20504731861199,"G",NA,NA,NA
"541","del",206,1,"SRR3699974.1882",TRUE,FALSE,33,5.20504731861199,"G",NA,NA,NA
"542","del",206,1,"SRR3699974.2314",TRUE,FALSE,33,5.20504731861199,"G",NA,NA,NA
"543","del",206,1,"SRR3699974.2533",TRUE,FALSE,33,5.20504731861199,"G",NA,NA,NA
"544","del",206,1,"SRR3699974.2810",TRUE,FALSE,33,5.20504731861199,"G",NA,NA,NA
"545","del",206,1,"SRR3699974.3779",TRUE,FALSE,33,5.20504731861199,"G",NA,NA,NA
"546","del",206,1,"SRR3699974.4066",TRUE,FALSE,33,5.20504731861199,"G",NA,NA,NA
"547","del",206,1,"SRR3699974.4276",TRUE,FALSE,33,5.20504731861199,"G",NA,NA,NA
"548","del",206,1,"SRR3699974.447",TRUE,FALSE,33,5.20504731861199,"G",NA,NA,NA
"549","del",206,1,"SRR3699974.4819",TRUE,FALSE,33,5.20504731861199,"G",NA,NA,NA
"550","del",206,1,"SRR3699974.5073",TRUE,FALSE,33,5.20504731861199,"G",NA,NA,NA
"551","del",206,1,"SRR3699974.5342",TRUE,FALSE,33,5.20504731861199,"G",NA,NA,NA
"552","del",206,1,"SRR3699974.748",TRUE,FALSE,33,5.20504731861199,"G",NA,NA,NA
"553","del",206,1,"SRR3699974.8276",TRUE,FALSE,33,5.20504731861199,"G",NA,NA,NA
"554","del",206,1,"SRR3699974.8797",TRUE,FALSE,33,5.20504731861199,"G",NA,NA,NA
"555","del",206,1,"SRR3699974.9467",TRUE,FALSE,33,5.20504731861199,"G",NA,NA,NA
"556","del",206,1,"SRR3699974.9667",TRUE,FALSE,33,5.20504731861199,"G",NA,NA,NA
"557","del",206,1,"SRR3699974.9704",TRUE,FALSE,33,5.20504731861199,"G",NA,NA,NA
"558","ins",11,1,"SRR3699974.11365",FALSE,FALSE,2,0.315457413249211,NA,"ATC","T","TGT"
"559","ins",11,1,"SRR3699974.9614",FALSE,FALSE,2,0.315457413249211,NA,"ATC","T","TGT"
"560","ins",12,1,"SRR3699974.3640",FALSE,FALSE,2,0.315457413249211,NA,"TCT","C","GTG"
"561","ins",12,1,"SRR3699974.755",FALSE,FALSE,2,0.315457413249211,NA,"TCT","G","GTG"
"562","ins",14,1,"SRR3699974.9129",FALSE,FALSE,1,0.157728706624606,NA,"TGT","G","GCC"
"563","ins",111,3,"SRR3699974.14679",FALSE,TRUE,1,0.157728706624606,NA,"AGC","AGA","AGA"
"564","ins",200,1,"SRR3699974.2508",FALSE,FALSE,1,0.157728706624606,NA,"GAC","T","TAG"
"565","ins",202,1,"SRR3699974.4467",FALSE,FALSE,2,0.315457413249211,NA,"CTA","G","GGG"
"566","ins",202,1,"SRR3699974.9165",FALSE,FALSE,2,0.315457413249211,NA,"CTA","G","GGG"
"567","ins",205,1,"SRR3699974.4487",FALSE,FALSE,1,0.157728706624606,NA,"GGG","T","TGG"
"568","ins",206,1,"SRR3699974.13992",FALSE,FALSE,1,0.157728706624606,NA,"GGT","G","GGG"
"569","ins",117,1,"SRR3699974.10130",TRUE,TRUE,62,9.77917981072555,NA,"AGA","A","AGA"
"570","ins",117,1,NA,TRUE,TRUE,62,9.77917981072555,NA,"AGA","A","AGA"
"571","ins",117,1,NA,TRUE,TRUE,62,9.77917981072555,NA,"AGA","A","AGA"
"572","ins",117,1,NA,TRUE,TRUE,62,9.77917981072555,NA,"AGA","A","AGA"
"573","ins",117,1,NA,TRUE,TRUE,62,9.77917981072555,NA,"AGA","A","AGA"
"574","ins",117,1,NA,TRUE,TRUE,62,9.77917981072555,NA,"AGA","A","AGA"
"575","ins",117,1,NA,TRUE,TRUE,62,9.77917981072555,NA,"AGA","A","AGA"
"576","ins",117,1,NA,TRUE,TRUE,62,9.77917981072555,NA,"AGA","A","AGA"
"577","ins",117,1,NA,TRUE,TRUE,62,9.77917981072555,NA,"AGA","A","AGA"
"578","ins",117,1,NA,TRUE,TRUE,62,9.77917981072555,NA,"AGA","A","AGA"
"579","ins",117,1,NA,TRUE,TRUE,62,9.77917981072555,NA,"AGA","A","AGA"
"580","ins",117,1,NA,TRUE,TRUE,62,9.77917981072555,NA,"AGA","A","AGA"
"581","ins",117,1,NA,TRUE,TRUE,62,9.77917981072555,NA,"AGA","A","AGA"
"582","ins",117,1,NA,TRUE,TRUE,62,9.77917981072555,NA,"AGA","A","AGA"
"583","ins",117,1,NA,TRUE,TRUE,62,9.77917981072555,NA,"AGA","A","AGA"
"584","ins",117,1,NA,TRUE,TRUE,62,9.77917981072555,NA,"AGA","A","AGA"
"585","ins",117,1,NA,TRUE,TRUE,62,9.77917981072555,NA,"AGA","A","AGA"
"586","ins",117,1,NA,TRUE,TRUE,62,9.77917981072555,NA,"AGA","A","AGA"
"587","ins",117,1,NA,TRUE,TRUE,62,9.77917981072555,NA,"AGA","A","AGA"
"588","ins",117,1,NA,TRUE,TRUE,62,9.77917981072555,NA,"AGA","A","AGA"
"589","ins",117,1,NA,TRUE,TRUE,62,9.77917981072555,NA,"AGA","A","AGA"
"590","ins",117,1,NA,TRUE,TRUE,62,9.77917981072555,NA,"AGA","A","AGA"
"591","ins",117,1,NA,TRUE,TRUE,62,9.77917981072555,NA,"AGA","A","AGA"
"592","ins",117,1,NA,TRUE,TRUE,62,9.77917981072555,NA,"AGA","A","AGA"
"593","ins",117,1,NA,TRUE,TRUE,62,9.77917981072555,NA,"AGA","A","AGA"
"594","ins",117,1,NA,TRUE,TRUE,62,9.77917981072555,NA,"AGA","A","AGA"
"595","ins",117,1,NA,TRUE,TRUE,62,9.77917981072555,NA,"AGA","A","AGA"
"596","ins",117,1,NA,TRUE,TRUE,62,9.77917981072555,NA,"AGA","A","AGA"
"597","ins",117,1,NA,TRUE,TRUE,62,9.77917981072555,NA,"AGA","A","AGA"
"598","ins",117,1,NA,TRUE,TRUE,62,9.77917981072555,NA,"AGA","A","AGA"
"599","ins",117,1,NA,TRUE,TRUE,62,9.77917981072555,NA,"AGA","A","AGA"
"600","ins",117,1,NA,TRUE,TRUE,62,9.77917981072555,NA,"AGA","A","AGA"
"601","ins",117,1,NA,TRUE,TRUE,62,9.77917981072555,NA,"AGA","A","AGA"
"602","ins",117,1,NA,TRUE,TRUE,62,9.77917981072555,NA,"AGA","A","AGA"
"603","ins",117,1,NA,TRUE,TRUE,62,9.77917981072555,NA,"AGA","A","AGA"
"604","ins",117,1,NA,TRUE,TRUE,62,9.77917981072555,NA,"AGA","A","AGA"
"605","ins",117,1,NA,TRUE,TRUE,62,9.77917981072555,NA,"AGA","A","AGA"
"606","ins",117,1,NA,TRUE,TRUE,62,9.77917981072555,NA,"AGA","A","AGA"
"607","ins",117,1,NA,TRUE,TRUE,62,9.77917981072555,NA,"AGA","A","AGA"
"608","ins",117,1,NA,TRUE,TRUE,62,9.77917981072555,NA,"AGA","A","AGA"
"609","ins",117,1,NA,TRUE,TRUE,62,9.77917981072555,NA,"AGA","A","AGA"
"610","ins",117,1,NA,TRUE,TRUE,62,9.77917981072555,NA,"AGA","A","AGA"
"611","ins",117,1,NA,TRUE,TRUE,62,9.77917981072555,NA,"AGA","A","AGA"
"612","ins",117,1,NA,TRUE,TRUE,62,9.77917981072555,NA,"AGA","A","AGA"
"613","ins",117,1,NA,TRUE,TRUE,62,9.77917981072555,NA,"AGA","A","AGA"
"614","ins",117,1,NA,TRUE,TRUE,62,9.77917981072555,NA,"AGA","A","AGA"
"615","ins",117,1,NA,TRUE,TRUE,62,9.77917981072555,NA,"AGA","A","AGA"
"616","ins",117,1,NA,TRUE,TRUE,62,9.77917981072555,NA,"AGA","A","AGA"
"617","ins",117,1,NA,TRUE,TRUE,62,9.77917981072555,NA,"AGA","A","AGA"
"618","ins",117,1,NA,TRUE,TRUE,62,9.77917981072555,NA,"AGA","A","AGA"
"619","ins",117,1,NA,TRUE,TRUE,62,9.77917981072555,NA,"AGA","A","AGA"
"620","ins",117,1,NA,TRUE,TRUE,62,9.77917981072555,NA,"AGA","A","AGA"
"621","ins",117,1,NA,TRUE,TRUE,62,9.77917981072555,NA,"AGA","A","AGA"
"622","ins",117,1,NA,TRUE,TRUE,62,9.77917981072555,NA,"AGA","A","AGA"
"623","ins",117,1,NA,TRUE,TRUE,62,9.77917981072555,NA,"AGA","A","AGA"
"624","ins",117,1,NA,TRUE,TRUE,62,9.77917981072555,NA,"AGA","A","AGA"
"625","ins",117,1,NA,TRUE,TRUE,62,9.77917981072555,NA,"AGA","A","AGA"
"626","ins",117,1,NA,TRUE,TRUE,62,9.77917981072555,NA,"AGA","A","AGA"
"627","ins",117,1,NA,TRUE,TRUE,62,9.77917981072555,NA,"AGA","A","AGA"
"628","ins",117,1,NA,TRUE,TRUE,62,9.77917981072555,NA,"AGA","A","AGA"
"629","ins",117,1,NA,TRUE,TRUE,62,9.77917981072555,NA,"AGA","A","AGA"
"630","ins",117,1,NA,TRUE,TRUE,62,9.77917981072555,NA,"AGA","A","AGA"
"631","ins",117,2,NA,FALSE,TRUE,1,0.157728706624606,NA,"AGA",NA,"AGA"
"632","ins",116,3,"SRR3699974.1119",FALSE,TRUE,1,0.157728706624606,NA,"AAG","TCC","GAG"
"633","ins",117,1,"SRR3699974.4246",FALSE,TRUE,1,0.157728706624606,NA,"AGA","C","AGA"
"634","ins",117,35,"SRR3699974.1497",FALSE,TRUE,1,0.157728706624606,NA,"AGA","ACTCCCATCACATCAACCGGTGGGATGGTGATGGG","AGA"
