"","Modification","Start","Length","Ids","above_error_rate","in_pick","freq","Perc","patterns","pre_ins_nt","ins_nt","post_ins_nt"
"1","del",5,1,"SRR3699956.1209",TRUE,FALSE,39,7.00179533213645,"C",NA,NA,NA
"2","del",5,1,"SRR3699956.1220",TRUE,FALSE,39,7.00179533213645,"C",NA,NA,NA
"3","del",5,1,"SRR3699956.1463",TRUE,FALSE,39,7.00179533213645,"C",NA,NA,NA
"4","del",5,1,"SRR3699956.1703",TRUE,FALSE,39,7.00179533213645,"C",NA,NA,NA
"5","del",5,1,"SRR3699956.1884",TRUE,FALSE,39,7.00179533213645,"C",NA,NA,NA
"6","del",5,1,"SRR3699956.1900",TRUE,FALSE,39,7.00179533213645,"C",NA,NA,NA
"7","del",5,1,"SRR3699956.1993",TRUE,FALSE,39,7.00179533213645,"C",NA,NA,NA
"8","del",5,1,"SRR3699956.2346",TRUE,FALSE,39,7.00179533213645,"C",NA,NA,NA
"9","del",5,1,"SRR3699956.2353",TRUE,FALSE,39,7.00179533213645,"C",NA,NA,NA
"10","del",5,1,"SRR3699956.283",TRUE,FALSE,39,7.00179533213645,"C",NA,NA,NA
"11","del",5,1,"SRR3699956.2997",TRUE,FALSE,39,7.00179533213645,"C",NA,NA,NA
"12","del",5,1,"SRR3699956.3180",TRUE,FALSE,39,7.00179533213645,"C",NA,NA,NA
"13","del",5,1,"SRR3699956.3300",TRUE,FALSE,39,7.00179533213645,"C",NA,NA,NA
"14","del",5,1,"SRR3699956.3454",TRUE,FALSE,39,7.00179533213645,"C",NA,NA,NA
"15","del",5,1,"SRR3699956.3483",TRUE,FALSE,39,7.00179533213645,"C",NA,NA,NA
"16","del",5,1,"SRR3699956.3527",TRUE,FALSE,39,7.00179533213645,"C",NA,NA,NA
"17","del",5,1,"SRR3699956.3592",TRUE,FALSE,39,7.00179533213645,"C",NA,NA,NA
"18","del",5,1,"SRR3699956.366",TRUE,FALSE,39,7.00179533213645,"C",NA,NA,NA
"19","del",5,1,"SRR3699956.3715",TRUE,FALSE,39,7.00179533213645,"C",NA,NA,NA
"20","del",5,1,"SRR3699956.4155",TRUE,FALSE,39,7.00179533213645,"C",NA,NA,NA
"21","del",5,1,"SRR3699956.4483",TRUE,FALSE,39,7.00179533213645,"C",NA,NA,NA
"22","del",5,1,"SRR3699956.4702",TRUE,FALSE,39,7.00179533213645,"C",NA,NA,NA
"23","del",5,1,"SRR3699956.4809",TRUE,FALSE,39,7.00179533213645,"C",NA,NA,NA
"24","del",5,1,"SRR3699956.4918",TRUE,FALSE,39,7.00179533213645,"C",NA,NA,NA
"25","del",5,1,"SRR3699956.5261",TRUE,FALSE,39,7.00179533213645,"C",NA,NA,NA
"26","del",5,1,"SRR3699956.5346",TRUE,FALSE,39,7.00179533213645,"C",NA,NA,NA
"27","del",5,1,"SRR3699956.5415",TRUE,FALSE,39,7.00179533213645,"C",NA,NA,NA
"28","del",5,1,"SRR3699956.563",TRUE,FALSE,39,7.00179533213645,"C",NA,NA,NA
"29","del",5,1,"SRR3699956.5706",TRUE,FALSE,39,7.00179533213645,"C",NA,NA,NA
"30","del",5,1,"SRR3699956.5817",TRUE,FALSE,39,7.00179533213645,"C",NA,NA,NA
"31","del",5,1,"SRR3699956.6007",TRUE,FALSE,39,7.00179533213645,"C",NA,NA,NA
"32","del",5,1,"SRR3699956.6304",TRUE,FALSE,39,7.00179533213645,"C",NA,NA,NA
"33","del",5,1,"SRR3699956.661",TRUE,FALSE,39,7.00179533213645,"C",NA,NA,NA
"34","del",5,1,"SRR3699956.677",TRUE,FALSE,39,7.00179533213645,"C",NA,NA,NA
"35","del",5,1,"SRR3699956.6893",TRUE,FALSE,39,7.00179533213645,"C",NA,NA,NA
"36","del",5,1,"SRR3699956.6925",TRUE,FALSE,39,7.00179533213645,"C",NA,NA,NA
"37","del",5,1,"SRR3699956.782",TRUE,FALSE,39,7.00179533213645,"C",NA,NA,NA
"38","del",5,1,"SRR3699956.814",TRUE,FALSE,39,7.00179533213645,"C",NA,NA,NA
"39","del",5,1,"SRR3699956.91",TRUE,FALSE,39,7.00179533213645,"C",NA,NA,NA
"40","del",6,2,"SRR3699956.2444",FALSE,FALSE,2,0.359066427289048,"NHEJ",NA,NA,NA
"41","del",6,2,"SRR3699956.633",FALSE,FALSE,2,0.359066427289048,"NHEJ",NA,NA,NA
"42","del",7,1,"SRR3699956.1066",TRUE,FALSE,42,7.54039497307002,"G",NA,NA,NA
"43","del",7,1,"SRR3699956.1069",TRUE,FALSE,42,7.54039497307002,"G",NA,NA,NA
"44","del",7,1,"SRR3699956.1200",TRUE,FALSE,42,7.54039497307002,"G",NA,NA,NA
"45","del",7,1,"SRR3699956.1370",TRUE,FALSE,42,7.54039497307002,"G",NA,NA,NA
"46","del",7,1,"SRR3699956.1648",TRUE,FALSE,42,7.54039497307002,"G",NA,NA,NA
"47","del",7,1,"SRR3699956.2081",TRUE,FALSE,42,7.54039497307002,"G",NA,NA,NA
"48","del",7,1,"SRR3699956.2707",TRUE,FALSE,42,7.54039497307002,"G",NA,NA,NA
"49","del",7,1,"SRR3699956.2828",TRUE,FALSE,42,7.54039497307002,"G",NA,NA,NA
"50","del",7,1,"SRR3699956.2883",TRUE,FALSE,42,7.54039497307002,"G",NA,NA,NA
"51","del",7,1,"SRR3699956.2912",TRUE,FALSE,42,7.54039497307002,"G",NA,NA,NA
"52","del",7,1,"SRR3699956.2930",TRUE,FALSE,42,7.54039497307002,"G",NA,NA,NA
"53","del",7,1,"SRR3699956.3194",TRUE,FALSE,42,7.54039497307002,"G",NA,NA,NA
"54","del",7,1,"SRR3699956.3522",TRUE,FALSE,42,7.54039497307002,"G",NA,NA,NA
"55","del",7,1,"SRR3699956.4005",TRUE,FALSE,42,7.54039497307002,"G",NA,NA,NA
"56","del",7,1,"SRR3699956.4163",TRUE,FALSE,42,7.54039497307002,"G",NA,NA,NA
"57","del",7,1,"SRR3699956.4173",TRUE,FALSE,42,7.54039497307002,"G",NA,NA,NA
"58","del",7,1,"SRR3699956.4441",TRUE,FALSE,42,7.54039497307002,"G",NA,NA,NA
"59","del",7,1,"SRR3699956.4479",TRUE,FALSE,42,7.54039497307002,"G",NA,NA,NA
"60","del",7,1,"SRR3699956.4543",TRUE,FALSE,42,7.54039497307002,"G",NA,NA,NA
"61","del",7,1,"SRR3699956.4710",TRUE,FALSE,42,7.54039497307002,"G",NA,NA,NA
"62","del",7,1,"SRR3699956.4727",TRUE,FALSE,42,7.54039497307002,"G",NA,NA,NA
"63","del",7,1,"SRR3699956.4877",TRUE,FALSE,42,7.54039497307002,"G",NA,NA,NA
"64","del",7,1,"SRR3699956.4921",TRUE,FALSE,42,7.54039497307002,"G",NA,NA,NA
"65","del",7,1,"SRR3699956.5072",TRUE,FALSE,42,7.54039497307002,"G",NA,NA,NA
"66","del",7,1,"SRR3699956.5126",TRUE,FALSE,42,7.54039497307002,"G",NA,NA,NA
"67","del",7,1,"SRR3699956.5335",TRUE,FALSE,42,7.54039497307002,"G",NA,NA,NA
"68","del",7,1,"SRR3699956.5357",TRUE,FALSE,42,7.54039497307002,"G",NA,NA,NA
"69","del",7,1,"SRR3699956.5367",TRUE,FALSE,42,7.54039497307002,"G",NA,NA,NA
"70","del",7,1,"SRR3699956.5456",TRUE,FALSE,42,7.54039497307002,"G",NA,NA,NA
"71","del",7,1,"SRR3699956.5680",TRUE,FALSE,42,7.54039497307002,"G",NA,NA,NA
"72","del",7,1,"SRR3699956.5984",TRUE,FALSE,42,7.54039497307002,"G",NA,NA,NA
"73","del",7,1,"SRR3699956.6362",TRUE,FALSE,42,7.54039497307002,"G",NA,NA,NA
"74","del",7,1,"SRR3699956.6557",TRUE,FALSE,42,7.54039497307002,"G",NA,NA,NA
"75","del",7,1,"SRR3699956.6701",TRUE,FALSE,42,7.54039497307002,"G",NA,NA,NA
"76","del",7,1,"SRR3699956.6704",TRUE,FALSE,42,7.54039497307002,"G",NA,NA,NA
"77","del",7,1,"SRR3699956.6947",TRUE,FALSE,42,7.54039497307002,"G",NA,NA,NA
"78","del",7,1,"SRR3699956.6978",TRUE,FALSE,42,7.54039497307002,"G",NA,NA,NA
"79","del",7,1,"SRR3699956.7019",TRUE,FALSE,42,7.54039497307002,"G",NA,NA,NA
"80","del",7,1,"SRR3699956.7098",TRUE,FALSE,42,7.54039497307002,"G",NA,NA,NA
"81","del",7,1,"SRR3699956.7162",TRUE,FALSE,42,7.54039497307002,"G",NA,NA,NA
"82","del",7,1,"SRR3699956.956",TRUE,FALSE,42,7.54039497307002,"G",NA,NA,NA
"83","del",7,1,"SRR3699956.974",TRUE,FALSE,42,7.54039497307002,"G",NA,NA,NA
"84","del",8,2,"SRR3699956.6980",TRUE,FALSE,3,0.538599640933573,"G",NA,NA,NA
"85","del",8,2,"SRR3699956.7039",TRUE,FALSE,3,0.538599640933573,"G",NA,NA,NA
"86","del",8,2,"SRR3699956.752",TRUE,FALSE,3,0.538599640933573,"G",NA,NA,NA
"87","del",9,1,"SRR3699956.1082",TRUE,FALSE,14,2.51346499102334,"NHEJ",NA,NA,NA
"88","del",9,1,"SRR3699956.119",TRUE,FALSE,14,2.51346499102334,"NHEJ",NA,NA,NA
"89","del",9,1,"SRR3699956.1382",TRUE,FALSE,14,2.51346499102334,"NHEJ",NA,NA,NA
"90","del",9,1,"SRR3699956.1903",TRUE,FALSE,14,2.51346499102334,"NHEJ",NA,NA,NA
"91","del",9,1,"SRR3699956.2203",TRUE,FALSE,14,2.51346499102334,"NHEJ",NA,NA,NA
"92","del",9,1,"SRR3699956.2939",TRUE,FALSE,14,2.51346499102334,"NHEJ",NA,NA,NA
"93","del",9,1,"SRR3699956.3171",TRUE,FALSE,14,2.51346499102334,"NHEJ",NA,NA,NA
"94","del",9,1,"SRR3699956.3496",TRUE,FALSE,14,2.51346499102334,"NHEJ",NA,NA,NA
"95","del",9,1,"SRR3699956.3790",TRUE,FALSE,14,2.51346499102334,"NHEJ",NA,NA,NA
"96","del",9,1,"SRR3699956.3842",TRUE,FALSE,14,2.51346499102334,"NHEJ",NA,NA,NA
"97","del",9,1,"SRR3699956.5369",TRUE,FALSE,14,2.51346499102334,"NHEJ",NA,NA,NA
"98","del",9,1,"SRR3699956.619",TRUE,FALSE,14,2.51346499102334,"NHEJ",NA,NA,NA
"99","del",9,1,"SRR3699956.649",TRUE,FALSE,14,2.51346499102334,"NHEJ",NA,NA,NA
"100","del",9,1,"SRR3699956.698",TRUE,FALSE,14,2.51346499102334,"NHEJ",NA,NA,NA
"101","del",10,1,"SRR3699956.1321",TRUE,FALSE,9,1.61579892280072,"G",NA,NA,NA
"102","del",10,1,"SRR3699956.2194",TRUE,FALSE,9,1.61579892280072,"G",NA,NA,NA
"103","del",10,1,"SRR3699956.3904",TRUE,FALSE,9,1.61579892280072,"G",NA,NA,NA
"104","del",10,1,"SRR3699956.3996",TRUE,FALSE,9,1.61579892280072,"G",NA,NA,NA
"105","del",10,1,"SRR3699956.5200",TRUE,FALSE,9,1.61579892280072,"G",NA,NA,NA
"106","del",10,1,"SRR3699956.5401",TRUE,FALSE,9,1.61579892280072,"G",NA,NA,NA
"107","del",10,1,"SRR3699956.5827",TRUE,FALSE,9,1.61579892280072,"G",NA,NA,NA
"108","del",10,1,"SRR3699956.720",TRUE,FALSE,9,1.61579892280072,"G",NA,NA,NA
"109","del",10,1,"SRR3699956.734",TRUE,FALSE,9,1.61579892280072,"G",NA,NA,NA
"110","del",12,1,"SRR3699956.1481",TRUE,FALSE,4,0.718132854578097,"A",NA,NA,NA
"111","del",12,1,"SRR3699956.594",TRUE,FALSE,4,0.718132854578097,"A",NA,NA,NA
"112","del",12,1,"SRR3699956.605",TRUE,FALSE,4,0.718132854578097,"A",NA,NA,NA
"113","del",12,1,"SRR3699956.621",TRUE,FALSE,4,0.718132854578097,"A",NA,NA,NA
"114","del",15,1,"SRR3699956.1405",FALSE,FALSE,1,0.179533213644524,"NHEJ",NA,NA,NA
"115","del",16,1,"SRR3699956.1738",FALSE,FALSE,1,0.179533213644524,"NHEJ",NA,NA,NA
"116","del",17,1,"SRR3699956.2813",TRUE,FALSE,3,0.538599640933573,"C",NA,NA,NA
"117","del",17,1,"SRR3699956.3289",TRUE,FALSE,3,0.538599640933573,"C",NA,NA,NA
"118","del",17,1,"SRR3699956.6652",TRUE,FALSE,3,0.538599640933573,"C",NA,NA,NA
"119","del",42,1,"SRR3699956.302",FALSE,FALSE,1,0.179533213644524,"C",NA,NA,NA
"120","del",63,68,"SRR3699956.5605",TRUE,FALSE,1,0.179533213644524,"G",NA,NA,NA
"121","del",64,1,"SRR3699956.293",FALSE,FALSE,1,0.179533213644524,"C",NA,NA,NA
"122","del",83,36,"SRR3699956.1944",FALSE,TRUE,1,0.179533213644524,"NHEJ",NA,NA,NA
"123","del",101,34,"SRR3699956.1583",FALSE,TRUE,1,0.179533213644524,"G",NA,NA,NA
"124","del",105,1,"SRR3699956.2630",FALSE,TRUE,1,0.179533213644524,"C",NA,NA,NA
"125","del",111,20,"SRR3699956.2757",FALSE,TRUE,1,0.179533213644524,"G",NA,NA,NA
"126","del",111,21,"SRR3699956.1581",FALSE,TRUE,1,0.179533213644524,"G",NA,NA,NA
"127","del",114,18,"SRR3699956.2007",FALSE,TRUE,1,0.179533213644524,"NHEJ",NA,NA,NA
"128","del",115,16,"SRR3699956.3009",TRUE,TRUE,5,0.897666068222621,"GG",NA,NA,NA
"129","del",115,16,"SRR3699956.4046",TRUE,TRUE,5,0.897666068222621,"GG",NA,NA,NA
"130","del",115,16,"SRR3699956.5362",TRUE,TRUE,5,0.897666068222621,"GG",NA,NA,NA
"131","del",115,16,"SRR3699956.6071",TRUE,TRUE,5,0.897666068222621,"GG",NA,NA,NA
"132","del",115,16,"SRR3699956.6892",TRUE,TRUE,5,0.897666068222621,"GG",NA,NA,NA
"133","del",115,17,"SRR3699956.1453",TRUE,TRUE,2,0.359066427289048,"G",NA,NA,NA
"134","del",115,17,"SRR3699956.295",TRUE,TRUE,2,0.359066427289048,"G",NA,NA,NA
"135","del",115,20,"SRR3699956.5608",FALSE,TRUE,1,0.179533213644524,"GG",NA,NA,NA
"136","del",115,24,"SRR3699956.5670",FALSE,TRUE,1,0.179533213644524,"G",NA,NA,NA
"137","del",115,28,"SRR3699956.5193",FALSE,TRUE,1,0.179533213644524,"G",NA,NA,NA
"138","del",116,27,"SRR3699956.1374",TRUE,TRUE,2,0.359066427289048,"G",NA,NA,NA
"139","del",116,27,"SRR3699956.722",TRUE,TRUE,2,0.359066427289048,"G",NA,NA,NA
"140","del",117,25,"SRR3699956.1074",FALSE,TRUE,1,0.179533213644524,"NHEJ",NA,NA,NA
"141","del",117,42,"SRR3699956.2004",FALSE,TRUE,1,0.179533213644524,"TG",NA,NA,NA
"142","del",118,1,"SRR3699956.2237",TRUE,TRUE,3,0.538599640933573,"G",NA,NA,NA
"143","del",118,1,"SRR3699956.287",TRUE,TRUE,3,0.538599640933573,"G",NA,NA,NA
"144","del",118,1,"SRR3699956.5221",TRUE,TRUE,3,0.538599640933573,"G",NA,NA,NA
"145","del",118,10,"SRR3699956.3310",TRUE,TRUE,2,0.359066427289048,"GGGGGC",NA,NA,NA
"146","del",118,10,"SRR3699956.6849",TRUE,TRUE,2,0.359066427289048,"GGGGGC",NA,NA,NA
"147","del",118,11,"SRR3699956.2175",TRUE,TRUE,2,0.359066427289048,"GGGG",NA,NA,NA
"148","del",118,11,"SRR3699956.2634",TRUE,TRUE,2,0.359066427289048,"GGGG",NA,NA,NA
"149","del",118,12,"SRR3699956.1789",TRUE,TRUE,4,0.718132854578097,"GGG",NA,NA,NA
"150","del",118,12,"SRR3699956.1804",TRUE,TRUE,4,0.718132854578097,"GGG",NA,NA,NA
"151","del",118,12,"SRR3699956.5542",TRUE,TRUE,4,0.718132854578097,"GGG",NA,NA,NA
"152","del",118,12,"SRR3699956.824",TRUE,TRUE,4,0.718132854578097,"GGG",NA,NA,NA
"153","del",118,20,"SRR3699956.641",TRUE,TRUE,3,0.538599640933573,"NHEJ",NA,NA,NA
"154","del",118,20,"SRR3699956.6571",TRUE,TRUE,3,0.538599640933573,"NHEJ",NA,NA,NA
"155","del",118,20,"SRR3699956.97",TRUE,TRUE,3,0.538599640933573,"NHEJ",NA,NA,NA
"156","del",118,22,"SRR3699956.1089",TRUE,TRUE,1,0.179533213644524,"NHEJ",NA,NA,NA
"157","del",120,15,"SRR3699956.1115",TRUE,TRUE,10,1.79533213644524,"GGGCG",NA,NA,NA
"158","del",120,15,"SRR3699956.1638",TRUE,TRUE,10,1.79533213644524,"GGGCG",NA,NA,NA
"159","del",120,15,"SRR3699956.1693",TRUE,TRUE,10,1.79533213644524,"GGGCG",NA,NA,NA
"160","del",120,15,"SRR3699956.1800",TRUE,TRUE,10,1.79533213644524,"GGGCG",NA,NA,NA
"161","del",120,15,"SRR3699956.1832",TRUE,TRUE,10,1.79533213644524,"GGGCG",NA,NA,NA
"162","del",120,15,"SRR3699956.3316",TRUE,TRUE,10,1.79533213644524,"GGGCG",NA,NA,NA
"163","del",120,15,"SRR3699956.3708",TRUE,TRUE,10,1.79533213644524,"GGGCG",NA,NA,NA
"164","del",120,15,"SRR3699956.371",TRUE,TRUE,10,1.79533213644524,"GGGCG",NA,NA,NA
"165","del",120,15,"SRR3699956.4831",TRUE,TRUE,10,1.79533213644524,"GGGCG",NA,NA,NA
"166","del",120,15,"SRR3699956.816",TRUE,TRUE,10,1.79533213644524,"GGGCG",NA,NA,NA
"167","del",120,21,"SRR3699956.4561",FALSE,TRUE,1,0.179533213644524,"NHEJ",NA,NA,NA
"168","del",122,23,"SRR3699956.2120",TRUE,TRUE,3,0.538599640933573,"GC",NA,NA,NA
"169","del",122,23,"SRR3699956.2509",TRUE,TRUE,3,0.538599640933573,"GC",NA,NA,NA
"170","del",122,23,"SRR3699956.3388",TRUE,TRUE,3,0.538599640933573,"GC",NA,NA,NA
"171","del",123,11,"SRR3699956.1091",TRUE,TRUE,4,0.718132854578097,"CGG",NA,NA,NA
"172","del",123,11,"SRR3699956.2657",TRUE,TRUE,4,0.718132854578097,"CGG",NA,NA,NA
"173","del",123,11,"SRR3699956.4797",TRUE,TRUE,4,0.718132854578097,"CGG",NA,NA,NA
"174","del",123,11,"SRR3699956.5875",TRUE,TRUE,4,0.718132854578097,"CGG",NA,NA,NA
"175","del",123,39,"SRR3699956.3809",FALSE,TRUE,1,0.179533213644524,"CGG",NA,NA,NA
"176","del",124,8,"SRR3699956.4644",FALSE,TRUE,1,0.179533213644524,"G",NA,NA,NA
"177","del",124,24,"SRR3699956.6667",TRUE,TRUE,1,0.179533213644524,"G",NA,NA,NA
"178","del",125,18,"SRR3699956.107",FALSE,TRUE,1,0.179533213644524,"G",NA,NA,NA
"179","del",125,20,"SRR3699956.3322",TRUE,TRUE,1,0.179533213644524,"G",NA,NA,NA
"180","del",126,1,"SRR3699956.3859",FALSE,TRUE,1,0.179533213644524,"A",NA,NA,NA
"181","del",126,16,"SRR3699956.3341",TRUE,TRUE,2,0.359066427289048,"A",NA,NA,NA
"182","del",126,16,"SRR3699956.4230",TRUE,TRUE,2,0.359066427289048,"A",NA,NA,NA
"183","del",127,5,"SRR3699956.889",FALSE,TRUE,1,0.179533213644524,"NHEJ",NA,NA,NA
"184","del",127,6,"SRR3699956.3070",FALSE,TRUE,1,0.179533213644524,"NHEJ",NA,NA,NA
"185","del",127,15,"SRR3699956.4555",TRUE,TRUE,3,0.538599640933573,"AG",NA,NA,NA
"186","del",127,15,"SRR3699956.5975",TRUE,TRUE,3,0.538599640933573,"AG",NA,NA,NA
"187","del",127,15,"SRR3699956.6055",TRUE,TRUE,3,0.538599640933573,"AG",NA,NA,NA
"188","del",127,40,"SRR3699956.7026",TRUE,TRUE,1,0.179533213644524,"AG",NA,NA,NA
"189","del",128,1,"SRR3699956.2260",TRUE,TRUE,12,2.15439856373429,"G",NA,NA,NA
"190","del",128,1,"SRR3699956.3212",TRUE,TRUE,12,2.15439856373429,"G",NA,NA,NA
"191","del",128,1,"SRR3699956.3253",TRUE,TRUE,12,2.15439856373429,"G",NA,NA,NA
"192","del",128,1,"SRR3699956.3564",TRUE,TRUE,12,2.15439856373429,"G",NA,NA,NA
"193","del",128,1,"SRR3699956.3729",TRUE,TRUE,12,2.15439856373429,"G",NA,NA,NA
"194","del",128,1,"SRR3699956.4213",TRUE,TRUE,12,2.15439856373429,"G",NA,NA,NA
"195","del",128,1,"SRR3699956.4360",TRUE,TRUE,12,2.15439856373429,"G",NA,NA,NA
"196","del",128,1,"SRR3699956.5303",TRUE,TRUE,12,2.15439856373429,"G",NA,NA,NA
"197","del",128,1,"SRR3699956.5810",TRUE,TRUE,12,2.15439856373429,"G",NA,NA,NA
"198","del",128,1,"SRR3699956.5933",TRUE,TRUE,12,2.15439856373429,"G",NA,NA,NA
"199","del",128,1,"SRR3699956.6058",TRUE,TRUE,12,2.15439856373429,"G",NA,NA,NA
"200","del",128,1,"SRR3699956.7020",TRUE,TRUE,12,2.15439856373429,"G",NA,NA,NA
"201","del",128,2,"SRR3699956.2549",TRUE,TRUE,5,0.897666068222621,"GG",NA,NA,NA
"202","del",128,2,"SRR3699956.410",TRUE,TRUE,5,0.897666068222621,"GG",NA,NA,NA
"203","del",128,2,"SRR3699956.6728",TRUE,TRUE,5,0.897666068222621,"GG",NA,NA,NA
"204","del",128,2,"SRR3699956.891",TRUE,TRUE,5,0.897666068222621,"GG",NA,NA,NA
"205","del",128,2,"SRR3699956.903",TRUE,TRUE,5,0.897666068222621,"GG",NA,NA,NA
"206","del",128,3,"SRR3699956.3836",TRUE,TRUE,2,0.359066427289048,"GG",NA,NA,NA
"207","del",128,3,"SRR3699956.6860",TRUE,TRUE,2,0.359066427289048,"GG",NA,NA,NA
"208","del",128,6,"SRR3699956.5134",TRUE,TRUE,1,0.179533213644524,"NHEJ",NA,NA,NA
"209","del",128,7,"SRR3699956.2228",TRUE,TRUE,10,1.79533213644524,"GGG",NA,NA,NA
"210","del",128,7,"SRR3699956.2456",TRUE,TRUE,10,1.79533213644524,"GGG",NA,NA,NA
"211","del",128,7,"SRR3699956.2774",TRUE,TRUE,10,1.79533213644524,"GGG",NA,NA,NA
"212","del",128,7,"SRR3699956.3089",TRUE,TRUE,10,1.79533213644524,"GGG",NA,NA,NA
"213","del",128,7,"SRR3699956.4368",TRUE,TRUE,10,1.79533213644524,"GGG",NA,NA,NA
"214","del",128,7,"SRR3699956.5642",TRUE,TRUE,10,1.79533213644524,"GGG",NA,NA,NA
"215","del",128,7,"SRR3699956.577",TRUE,TRUE,10,1.79533213644524,"GGG",NA,NA,NA
"216","del",128,7,"SRR3699956.5917",TRUE,TRUE,10,1.79533213644524,"GGG",NA,NA,NA
"217","del",128,7,"SRR3699956.7087",TRUE,TRUE,10,1.79533213644524,"GGG",NA,NA,NA
"218","del",128,7,"SRR3699956.7147",TRUE,TRUE,10,1.79533213644524,"GGG",NA,NA,NA
"219","del",128,8,"SRR3699956.6135",FALSE,TRUE,1,0.179533213644524,"GG",NA,NA,NA
"220","del",128,16,"SRR3699956.5380",FALSE,TRUE,1,0.179533213644524,"NHEJ",NA,NA,NA
"221","del",129,6,"SRR3699956.1110",TRUE,TRUE,13,2.33393177737881,"GGG",NA,NA,NA
"222","del",129,6,"SRR3699956.1827",TRUE,TRUE,13,2.33393177737881,"GGG",NA,NA,NA
"223","del",129,6,"SRR3699956.2420",TRUE,TRUE,13,2.33393177737881,"GGG",NA,NA,NA
"224","del",129,6,"SRR3699956.2845",TRUE,TRUE,13,2.33393177737881,"GGG",NA,NA,NA
"225","del",129,6,"SRR3699956.2947",TRUE,TRUE,13,2.33393177737881,"GGG",NA,NA,NA
"226","del",129,6,"SRR3699956.3461",TRUE,TRUE,13,2.33393177737881,"GGG",NA,NA,NA
"227","del",129,6,"SRR3699956.4211",TRUE,TRUE,13,2.33393177737881,"GGG",NA,NA,NA
"228","del",129,6,"SRR3699956.606",TRUE,TRUE,13,2.33393177737881,"GGG",NA,NA,NA
"229","del",129,6,"SRR3699956.6140",TRUE,TRUE,13,2.33393177737881,"GGG",NA,NA,NA
"230","del",129,6,"SRR3699956.7170",TRUE,TRUE,13,2.33393177737881,"GGG",NA,NA,NA
"231","del",129,6,"SRR3699956.7175",TRUE,TRUE,13,2.33393177737881,"GGG",NA,NA,NA
"232","del",129,6,"SRR3699956.7183",TRUE,TRUE,13,2.33393177737881,"GGG",NA,NA,NA
"233","del",129,6,"SRR3699956.773",TRUE,TRUE,13,2.33393177737881,"GGG",NA,NA,NA
"234","del",129,12,"SRR3699956.4467",FALSE,TRUE,1,0.179533213644524,"NHEJ",NA,NA,NA
"235","del",130,5,"SRR3699956.3238",TRUE,TRUE,2,0.359066427289048,"GGGC",NA,NA,NA
"236","del",130,5,"SRR3699956.873",TRUE,TRUE,2,0.359066427289048,"GGGC",NA,NA,NA
"237","del",130,11,"SRR3699956.928",FALSE,TRUE,1,0.179533213644524,"NHEJ",NA,NA,NA
"238","del",130,12,"SRR3699956.2938",TRUE,TRUE,2,0.359066427289048,"NHEJ",NA,NA,NA
"239","del",130,12,"SRR3699956.695",TRUE,TRUE,2,0.359066427289048,"NHEJ",NA,NA,NA
"240","del",130,13,"SRR3699956.4079",FALSE,TRUE,1,0.179533213644524,"G",NA,NA,NA
"241","del",130,15,"SRR3699956.2770",TRUE,TRUE,3,0.538599640933573,"G",NA,NA,NA
"242","del",130,15,"SRR3699956.6282",TRUE,TRUE,3,0.538599640933573,"G",NA,NA,NA
"243","del",130,15,"SRR3699956.7179",TRUE,TRUE,3,0.538599640933573,"G",NA,NA,NA
"244","del",130,18,"SRR3699956.1383",TRUE,TRUE,3,0.538599640933573,"G",NA,NA,NA
"245","del",130,18,"SRR3699956.1961",TRUE,TRUE,3,0.538599640933573,"G",NA,NA,NA
"246","del",130,18,"SRR3699956.2763",TRUE,TRUE,3,0.538599640933573,"G",NA,NA,NA
"247","del",131,8,"SRR3699956.1117",TRUE,TRUE,13,2.33393177737881,"G",NA,NA,NA
"248","del",131,8,"SRR3699956.1274",TRUE,TRUE,13,2.33393177737881,"G",NA,NA,NA
"249","del",131,8,"SRR3699956.1336",TRUE,TRUE,13,2.33393177737881,"G",NA,NA,NA
"250","del",131,8,"SRR3699956.1624",TRUE,TRUE,13,2.33393177737881,"G",NA,NA,NA
"251","del",131,8,"SRR3699956.3603",TRUE,TRUE,13,2.33393177737881,"G",NA,NA,NA
"252","del",131,8,"SRR3699956.4746",TRUE,TRUE,13,2.33393177737881,"G",NA,NA,NA
"253","del",131,8,"SRR3699956.4830",TRUE,TRUE,13,2.33393177737881,"G",NA,NA,NA
"254","del",131,8,"SRR3699956.4886",TRUE,TRUE,13,2.33393177737881,"G",NA,NA,NA
"255","del",131,8,"SRR3699956.5249",TRUE,TRUE,13,2.33393177737881,"G",NA,NA,NA
"256","del",131,8,"SRR3699956.5252",TRUE,TRUE,13,2.33393177737881,"G",NA,NA,NA
"257","del",131,8,"SRR3699956.5892",TRUE,TRUE,13,2.33393177737881,"G",NA,NA,NA
"258","del",131,8,"SRR3699956.6036",TRUE,TRUE,13,2.33393177737881,"G",NA,NA,NA
"259","del",131,8,"SRR3699956.6037",TRUE,TRUE,13,2.33393177737881,"G",NA,NA,NA
"260","del",131,12,"SRR3699956.1216",TRUE,TRUE,4,0.718132854578097,"G",NA,NA,NA
"261","del",131,12,"SRR3699956.1532",TRUE,TRUE,4,0.718132854578097,"G",NA,NA,NA
"262","del",131,12,"SRR3699956.3271",TRUE,TRUE,4,0.718132854578097,"G",NA,NA,NA
"263","del",131,12,"SRR3699956.598",TRUE,TRUE,4,0.718132854578097,"G",NA,NA,NA
"264","del",131,14,"SRR3699956.3415",TRUE,TRUE,3,0.538599640933573,"G",NA,NA,NA
"265","del",131,14,"SRR3699956.6124",TRUE,TRUE,3,0.538599640933573,"G",NA,NA,NA
"266","del",131,14,"SRR3699956.6817",TRUE,TRUE,3,0.538599640933573,"G",NA,NA,NA
"267","del",131,17,"SRR3699956.5526",TRUE,TRUE,1,0.179533213644524,"G",NA,NA,NA
"268","del",132,7,"SRR3699956.1320",TRUE,TRUE,2,0.359066427289048,"GCC",NA,NA,NA
"269","del",132,7,"SRR3699956.7055",TRUE,TRUE,2,0.359066427289048,"GCC",NA,NA,NA
"270","del",132,9,"SRR3699956.2210",TRUE,TRUE,4,0.718132854578097,"NHEJ",NA,NA,NA
"271","del",132,9,"SRR3699956.3939",TRUE,TRUE,4,0.718132854578097,"NHEJ",NA,NA,NA
"272","del",132,9,"SRR3699956.4596",TRUE,TRUE,4,0.718132854578097,"NHEJ",NA,NA,NA
"273","del",132,9,"SRR3699956.4914",TRUE,TRUE,4,0.718132854578097,"NHEJ",NA,NA,NA
"274","del",132,11,"SRR3699956.3108",FALSE,TRUE,1,0.179533213644524,"GC",NA,NA,NA
"275","del",134,4,"SRR3699956.7127",FALSE,TRUE,1,0.179533213644524,"CG",NA,NA,NA
"276","del",135,1,"SRR3699956.3422",FALSE,TRUE,1,0.179533213644524,"G",NA,NA,NA
"277","del",151,1,"SRR3699956.1939",TRUE,TRUE,1,0.179533213644524,"T",NA,NA,NA
"278","del",197,1,"SRR3699956.3968",TRUE,FALSE,1,0.179533213644524,"G",NA,NA,NA
"279","del",205,3,"SRR3699956.624",TRUE,FALSE,1,0.179533213644524,"GC",NA,NA,NA
"280","del",208,1,"SRR3699956.1952",FALSE,FALSE,1,0.179533213644524,"NHEJ",NA,NA,NA
"281","del",213,1,"SRR3699956.1634",TRUE,FALSE,11,1.97486535008977,"G",NA,NA,NA
"282","del",213,1,"SRR3699956.199",TRUE,FALSE,11,1.97486535008977,"G",NA,NA,NA
"283","del",213,1,"SRR3699956.2679",TRUE,FALSE,11,1.97486535008977,"G",NA,NA,NA
"284","del",213,1,"SRR3699956.2958",TRUE,FALSE,11,1.97486535008977,"G",NA,NA,NA
"285","del",213,1,"SRR3699956.3157",TRUE,FALSE,11,1.97486535008977,"G",NA,NA,NA
"286","del",213,1,"SRR3699956.4492",TRUE,FALSE,11,1.97486535008977,"G",NA,NA,NA
"287","del",213,1,"SRR3699956.4565",TRUE,FALSE,11,1.97486535008977,"G",NA,NA,NA
"288","del",213,1,"SRR3699956.4823",TRUE,FALSE,11,1.97486535008977,"G",NA,NA,NA
"289","del",213,1,"SRR3699956.730",TRUE,FALSE,11,1.97486535008977,"G",NA,NA,NA
"290","del",213,1,"SRR3699956.751",TRUE,FALSE,11,1.97486535008977,"G",NA,NA,NA
"291","del",213,1,"SRR3699956.896",TRUE,FALSE,11,1.97486535008977,"G",NA,NA,NA
"292","del",234,1,"SRR3699956.1071",TRUE,FALSE,20,3.59066427289048,"C",NA,NA,NA
"293","del",234,1,"SRR3699956.1605",TRUE,FALSE,20,3.59066427289048,"C",NA,NA,NA
"294","del",234,1,"SRR3699956.1679",TRUE,FALSE,20,3.59066427289048,"C",NA,NA,NA
"295","del",234,1,"SRR3699956.1721",TRUE,FALSE,20,3.59066427289048,"C",NA,NA,NA
"296","del",234,1,"SRR3699956.2551",TRUE,FALSE,20,3.59066427289048,"C",NA,NA,NA
"297","del",234,1,"SRR3699956.260",TRUE,FALSE,20,3.59066427289048,"C",NA,NA,NA
"298","del",234,1,"SRR3699956.284",TRUE,FALSE,20,3.59066427289048,"C",NA,NA,NA
"299","del",234,1,"SRR3699956.2942",TRUE,FALSE,20,3.59066427289048,"C",NA,NA,NA
"300","del",234,1,"SRR3699956.314",TRUE,FALSE,20,3.59066427289048,"C",NA,NA,NA
"301","del",234,1,"SRR3699956.4218",TRUE,FALSE,20,3.59066427289048,"C",NA,NA,NA
"302","del",234,1,"SRR3699956.5158",TRUE,FALSE,20,3.59066427289048,"C",NA,NA,NA
"303","del",234,1,"SRR3699956.5256",TRUE,FALSE,20,3.59066427289048,"C",NA,NA,NA
"304","del",234,1,"SRR3699956.5772",TRUE,FALSE,20,3.59066427289048,"C",NA,NA,NA
"305","del",234,1,"SRR3699956.6136",TRUE,FALSE,20,3.59066427289048,"C",NA,NA,NA
"306","del",234,1,"SRR3699956.6264",TRUE,FALSE,20,3.59066427289048,"C",NA,NA,NA
"307","del",234,1,"SRR3699956.648",TRUE,FALSE,20,3.59066427289048,"C",NA,NA,NA
"308","del",234,1,"SRR3699956.6755",TRUE,FALSE,20,3.59066427289048,"C",NA,NA,NA
"309","del",234,1,"SRR3699956.7005",TRUE,FALSE,20,3.59066427289048,"C",NA,NA,NA
"310","del",234,1,"SRR3699956.7152",TRUE,FALSE,20,3.59066427289048,"C",NA,NA,NA
"311","del",234,1,"SRR3699956.725",TRUE,FALSE,20,3.59066427289048,"C",NA,NA,NA
"312","del",237,3,"SRR3699956.3306",FALSE,FALSE,1,0.179533213644524,"NHEJ",NA,NA,NA
"313","del",238,1,"SRR3699956.116",TRUE,FALSE,32,5.74506283662478,"NHEJ",NA,NA,NA
"314","del",238,1,"SRR3699956.1449",TRUE,FALSE,32,5.74506283662478,"NHEJ",NA,NA,NA
"315","del",238,1,"SRR3699956.1468",TRUE,FALSE,32,5.74506283662478,"NHEJ",NA,NA,NA
"316","del",238,1,"SRR3699956.1538",TRUE,FALSE,32,5.74506283662478,"NHEJ",NA,NA,NA
"317","del",238,1,"SRR3699956.1541",TRUE,FALSE,32,5.74506283662478,"NHEJ",NA,NA,NA
"318","del",238,1,"SRR3699956.1582",TRUE,FALSE,32,5.74506283662478,"NHEJ",NA,NA,NA
"319","del",238,1,"SRR3699956.2196",TRUE,FALSE,32,5.74506283662478,"NHEJ",NA,NA,NA
"320","del",238,1,"SRR3699956.24",TRUE,FALSE,32,5.74506283662478,"NHEJ",NA,NA,NA
"321","del",238,1,"SRR3699956.2741",TRUE,FALSE,32,5.74506283662478,"NHEJ",NA,NA,NA
"322","del",238,1,"SRR3699956.2768",TRUE,FALSE,32,5.74506283662478,"NHEJ",NA,NA,NA
"323","del",238,1,"SRR3699956.304",TRUE,FALSE,32,5.74506283662478,"NHEJ",NA,NA,NA
"324","del",238,1,"SRR3699956.3219",TRUE,FALSE,32,5.74506283662478,"NHEJ",NA,NA,NA
"325","del",238,1,"SRR3699956.3789",TRUE,FALSE,32,5.74506283662478,"NHEJ",NA,NA,NA
"326","del",238,1,"SRR3699956.4220",TRUE,FALSE,32,5.74506283662478,"NHEJ",NA,NA,NA
"327","del",238,1,"SRR3699956.443",TRUE,FALSE,32,5.74506283662478,"NHEJ",NA,NA,NA
"328","del",238,1,"SRR3699956.4466",TRUE,FALSE,32,5.74506283662478,"NHEJ",NA,NA,NA
"329","del",238,1,"SRR3699956.4564",TRUE,FALSE,32,5.74506283662478,"NHEJ",NA,NA,NA
"330","del",238,1,"SRR3699956.4577",TRUE,FALSE,32,5.74506283662478,"NHEJ",NA,NA,NA
"331","del",238,1,"SRR3699956.4645",TRUE,FALSE,32,5.74506283662478,"NHEJ",NA,NA,NA
"332","del",238,1,"SRR3699956.4648",TRUE,FALSE,32,5.74506283662478,"NHEJ",NA,NA,NA
"333","del",238,1,"SRR3699956.4669",TRUE,FALSE,32,5.74506283662478,"NHEJ",NA,NA,NA
"334","del",238,1,"SRR3699956.4747",TRUE,FALSE,32,5.74506283662478,"NHEJ",NA,NA,NA
"335","del",238,1,"SRR3699956.4965",TRUE,FALSE,32,5.74506283662478,"NHEJ",NA,NA,NA
"336","del",238,1,"SRR3699956.5182",TRUE,FALSE,32,5.74506283662478,"NHEJ",NA,NA,NA
"337","del",238,1,"SRR3699956.5374",TRUE,FALSE,32,5.74506283662478,"NHEJ",NA,NA,NA
"338","del",238,1,"SRR3699956.6256",TRUE,FALSE,32,5.74506283662478,"NHEJ",NA,NA,NA
"339","del",238,1,"SRR3699956.6343",TRUE,FALSE,32,5.74506283662478,"NHEJ",NA,NA,NA
"340","del",238,1,"SRR3699956.6449",TRUE,FALSE,32,5.74506283662478,"NHEJ",NA,NA,NA
"341","del",238,1,"SRR3699956.6496",TRUE,FALSE,32,5.74506283662478,"NHEJ",NA,NA,NA
"342","del",238,1,"SRR3699956.7134",TRUE,FALSE,32,5.74506283662478,"NHEJ",NA,NA,NA
"343","del",238,1,"SRR3699956.770",TRUE,FALSE,32,5.74506283662478,"NHEJ",NA,NA,NA
"344","del",238,1,"SRR3699956.883",TRUE,FALSE,32,5.74506283662478,"NHEJ",NA,NA,NA
"345","del",238,2,"SRR3699956.1302",FALSE,FALSE,3,0.538599640933573,"A",NA,NA,NA
"346","del",238,2,"SRR3699956.2360",FALSE,FALSE,3,0.538599640933573,"A",NA,NA,NA
"347","del",238,2,"SRR3699956.792",FALSE,FALSE,3,0.538599640933573,"A",NA,NA,NA
"348","del",239,1,"SRR3699956.1197",TRUE,FALSE,33,5.9245960502693,"NHEJ",NA,NA,NA
"349","del",239,1,"SRR3699956.159",TRUE,FALSE,33,5.9245960502693,"NHEJ",NA,NA,NA
"350","del",239,1,"SRR3699956.1606",TRUE,FALSE,33,5.9245960502693,"NHEJ",NA,NA,NA
"351","del",239,1,"SRR3699956.212",TRUE,FALSE,33,5.9245960502693,"NHEJ",NA,NA,NA
"352","del",239,1,"SRR3699956.2185",TRUE,FALSE,33,5.9245960502693,"NHEJ",NA,NA,NA
"353","del",239,1,"SRR3699956.2428",TRUE,FALSE,33,5.9245960502693,"NHEJ",NA,NA,NA
"354","del",239,1,"SRR3699956.2754",TRUE,FALSE,33,5.9245960502693,"NHEJ",NA,NA,NA
"355","del",239,1,"SRR3699956.2916",TRUE,FALSE,33,5.9245960502693,"NHEJ",NA,NA,NA
"356","del",239,1,"SRR3699956.2979",TRUE,FALSE,33,5.9245960502693,"NHEJ",NA,NA,NA
"357","del",239,1,"SRR3699956.2982",TRUE,FALSE,33,5.9245960502693,"NHEJ",NA,NA,NA
"358","del",239,1,"SRR3699956.3342",TRUE,FALSE,33,5.9245960502693,"NHEJ",NA,NA,NA
"359","del",239,1,"SRR3699956.3511",TRUE,FALSE,33,5.9245960502693,"NHEJ",NA,NA,NA
"360","del",239,1,"SRR3699956.3542",TRUE,FALSE,33,5.9245960502693,"NHEJ",NA,NA,NA
"361","del",239,1,"SRR3699956.3549",TRUE,FALSE,33,5.9245960502693,"NHEJ",NA,NA,NA
"362","del",239,1,"SRR3699956.3820",TRUE,FALSE,33,5.9245960502693,"NHEJ",NA,NA,NA
"363","del",239,1,"SRR3699956.4372",TRUE,FALSE,33,5.9245960502693,"NHEJ",NA,NA,NA
"364","del",239,1,"SRR3699956.4409",TRUE,FALSE,33,5.9245960502693,"NHEJ",NA,NA,NA
"365","del",239,1,"SRR3699956.4414",TRUE,FALSE,33,5.9245960502693,"NHEJ",NA,NA,NA
"366","del",239,1,"SRR3699956.4450",TRUE,FALSE,33,5.9245960502693,"NHEJ",NA,NA,NA
"367","del",239,1,"SRR3699956.4503",TRUE,FALSE,33,5.9245960502693,"NHEJ",NA,NA,NA
"368","del",239,1,"SRR3699956.457",TRUE,FALSE,33,5.9245960502693,"NHEJ",NA,NA,NA
"369","del",239,1,"SRR3699956.5015",TRUE,FALSE,33,5.9245960502693,"NHEJ",NA,NA,NA
"370","del",239,1,"SRR3699956.5035",TRUE,FALSE,33,5.9245960502693,"NHEJ",NA,NA,NA
"371","del",239,1,"SRR3699956.5802",TRUE,FALSE,33,5.9245960502693,"NHEJ",NA,NA,NA
"372","del",239,1,"SRR3699956.5905",TRUE,FALSE,33,5.9245960502693,"NHEJ",NA,NA,NA
"373","del",239,1,"SRR3699956.632",TRUE,FALSE,33,5.9245960502693,"NHEJ",NA,NA,NA
"374","del",239,1,"SRR3699956.6523",TRUE,FALSE,33,5.9245960502693,"NHEJ",NA,NA,NA
"375","del",239,1,"SRR3699956.6943",TRUE,FALSE,33,5.9245960502693,"NHEJ",NA,NA,NA
"376","del",239,1,"SRR3699956.7129",TRUE,FALSE,33,5.9245960502693,"NHEJ",NA,NA,NA
"377","del",239,1,"SRR3699956.7229",TRUE,FALSE,33,5.9245960502693,"NHEJ",NA,NA,NA
"378","del",239,1,"SRR3699956.73",TRUE,FALSE,33,5.9245960502693,"NHEJ",NA,NA,NA
"379","del",239,1,"SRR3699956.817",TRUE,FALSE,33,5.9245960502693,"NHEJ",NA,NA,NA
"380","del",239,1,"SRR3699956.819",TRUE,FALSE,33,5.9245960502693,"NHEJ",NA,NA,NA
"381","del",239,3,"SRR3699956.7225",FALSE,FALSE,2,0.359066427289048,"NHEJ",NA,NA,NA
"382","del",239,3,"SRR3699956.7228",FALSE,FALSE,2,0.359066427289048,"NHEJ",NA,NA,NA
"383","del",240,1,"SRR3699956.1212",TRUE,FALSE,31,5.56552962298025,"NHEJ",NA,NA,NA
"384","del",240,1,"SRR3699956.1314",TRUE,FALSE,31,5.56552962298025,"NHEJ",NA,NA,NA
"385","del",240,1,"SRR3699956.1810",TRUE,FALSE,31,5.56552962298025,"NHEJ",NA,NA,NA
"386","del",240,1,"SRR3699956.1947",TRUE,FALSE,31,5.56552962298025,"NHEJ",NA,NA,NA
"387","del",240,1,"SRR3699956.2507",TRUE,FALSE,31,5.56552962298025,"NHEJ",NA,NA,NA
"388","del",240,1,"SRR3699956.280",TRUE,FALSE,31,5.56552962298025,"NHEJ",NA,NA,NA
"389","del",240,1,"SRR3699956.3010",TRUE,FALSE,31,5.56552962298025,"NHEJ",NA,NA,NA
"390","del",240,1,"SRR3699956.3052",TRUE,FALSE,31,5.56552962298025,"NHEJ",NA,NA,NA
"391","del",240,1,"SRR3699956.3111",TRUE,FALSE,31,5.56552962298025,"NHEJ",NA,NA,NA
"392","del",240,1,"SRR3699956.3536",TRUE,FALSE,31,5.56552962298025,"NHEJ",NA,NA,NA
"393","del",240,1,"SRR3699956.3737",TRUE,FALSE,31,5.56552962298025,"NHEJ",NA,NA,NA
"394","del",240,1,"SRR3699956.3861",TRUE,FALSE,31,5.56552962298025,"NHEJ",NA,NA,NA
"395","del",240,1,"SRR3699956.3962",TRUE,FALSE,31,5.56552962298025,"NHEJ",NA,NA,NA
"396","del",240,1,"SRR3699956.4540",TRUE,FALSE,31,5.56552962298025,"NHEJ",NA,NA,NA
"397","del",240,1,"SRR3699956.4546",TRUE,FALSE,31,5.56552962298025,"NHEJ",NA,NA,NA
"398","del",240,1,"SRR3699956.4668",TRUE,FALSE,31,5.56552962298025,"NHEJ",NA,NA,NA
"399","del",240,1,"SRR3699956.4729",TRUE,FALSE,31,5.56552962298025,"NHEJ",NA,NA,NA
"400","del",240,1,"SRR3699956.4836",TRUE,FALSE,31,5.56552962298025,"NHEJ",NA,NA,NA
"401","del",240,1,"SRR3699956.497",TRUE,FALSE,31,5.56552962298025,"NHEJ",NA,NA,NA
"402","del",240,1,"SRR3699956.5179",TRUE,FALSE,31,5.56552962298025,"NHEJ",NA,NA,NA
"403","del",240,1,"SRR3699956.5609",TRUE,FALSE,31,5.56552962298025,"NHEJ",NA,NA,NA
"404","del",240,1,"SRR3699956.5648",TRUE,FALSE,31,5.56552962298025,"NHEJ",NA,NA,NA
"405","del",240,1,"SRR3699956.580",TRUE,FALSE,31,5.56552962298025,"NHEJ",NA,NA,NA
"406","del",240,1,"SRR3699956.5809",TRUE,FALSE,31,5.56552962298025,"NHEJ",NA,NA,NA
"407","del",240,1,"SRR3699956.587",TRUE,FALSE,31,5.56552962298025,"NHEJ",NA,NA,NA
"408","del",240,1,"SRR3699956.5987",TRUE,FALSE,31,5.56552962298025,"NHEJ",NA,NA,NA
"409","del",240,1,"SRR3699956.6030",TRUE,FALSE,31,5.56552962298025,"NHEJ",NA,NA,NA
"410","del",240,1,"SRR3699956.765",TRUE,FALSE,31,5.56552962298025,"NHEJ",NA,NA,NA
"411","del",240,1,"SRR3699956.768",TRUE,FALSE,31,5.56552962298025,"NHEJ",NA,NA,NA
"412","del",240,1,"SRR3699956.77",TRUE,FALSE,31,5.56552962298025,"NHEJ",NA,NA,NA
"413","del",240,1,"SRR3699956.791",TRUE,FALSE,31,5.56552962298025,"NHEJ",NA,NA,NA
"414","del",240,2,"SRR3699956.3265",TRUE,FALSE,3,0.538599640933573,"NHEJ",NA,NA,NA
"415","del",240,2,"SRR3699956.564",TRUE,FALSE,3,0.538599640933573,"NHEJ",NA,NA,NA
"416","del",240,2,"SRR3699956.6420",TRUE,FALSE,3,0.538599640933573,"NHEJ",NA,NA,NA
"417","del",241,1,"SRR3699956.1016",TRUE,FALSE,54,9.69479353680431,"C",NA,NA,NA
"418","del",241,1,"SRR3699956.1043",TRUE,FALSE,54,9.69479353680431,"C",NA,NA,NA
"419","del",241,1,"SRR3699956.1068",TRUE,FALSE,54,9.69479353680431,"C",NA,NA,NA
"420","del",241,1,"SRR3699956.1072",TRUE,FALSE,54,9.69479353680431,"C",NA,NA,NA
"421","del",241,1,"SRR3699956.125",TRUE,FALSE,54,9.69479353680431,"C",NA,NA,NA
"422","del",241,1,"SRR3699956.1373",TRUE,FALSE,54,9.69479353680431,"C",NA,NA,NA
"423","del",241,1,"SRR3699956.1458",TRUE,FALSE,54,9.69479353680431,"C",NA,NA,NA
"424","del",241,1,"SRR3699956.1584",TRUE,FALSE,54,9.69479353680431,"C",NA,NA,NA
"425","del",241,1,"SRR3699956.1599",TRUE,FALSE,54,9.69479353680431,"C",NA,NA,NA
"426","del",241,1,"SRR3699956.1908",TRUE,FALSE,54,9.69479353680431,"C",NA,NA,NA
"427","del",241,1,"SRR3699956.2302",TRUE,FALSE,54,9.69479353680431,"C",NA,NA,NA
"428","del",241,1,"SRR3699956.2341",TRUE,FALSE,54,9.69479353680431,"C",NA,NA,NA
"429","del",241,1,"SRR3699956.2486",TRUE,FALSE,54,9.69479353680431,"C",NA,NA,NA
"430","del",241,1,"SRR3699956.2660",TRUE,FALSE,54,9.69479353680431,"C",NA,NA,NA
"431","del",241,1,"SRR3699956.2734",TRUE,FALSE,54,9.69479353680431,"C",NA,NA,NA
"432","del",241,1,"SRR3699956.2906",TRUE,FALSE,54,9.69479353680431,"C",NA,NA,NA
"433","del",241,1,"SRR3699956.2960",TRUE,FALSE,54,9.69479353680431,"C",NA,NA,NA
"434","del",241,1,"SRR3699956.3054",TRUE,FALSE,54,9.69479353680431,"C",NA,NA,NA
"435","del",241,1,"SRR3699956.3061",TRUE,FALSE,54,9.69479353680431,"C",NA,NA,NA
"436","del",241,1,"SRR3699956.3117",TRUE,FALSE,54,9.69479353680431,"C",NA,NA,NA
"437","del",241,1,"SRR3699956.347",TRUE,FALSE,54,9.69479353680431,"C",NA,NA,NA
"438","del",241,1,"SRR3699956.3776",TRUE,FALSE,54,9.69479353680431,"C",NA,NA,NA
"439","del",241,1,"SRR3699956.4064",TRUE,FALSE,54,9.69479353680431,"C",NA,NA,NA
"440","del",241,1,"SRR3699956.4125",TRUE,FALSE,54,9.69479353680431,"C",NA,NA,NA
"441","del",241,1,"SRR3699956.4312",TRUE,FALSE,54,9.69479353680431,"C",NA,NA,NA
"442","del",241,1,"SRR3699956.4482",TRUE,FALSE,54,9.69479353680431,"C",NA,NA,NA
"443","del",241,1,"SRR3699956.4554",TRUE,FALSE,54,9.69479353680431,"C",NA,NA,NA
"444","del",241,1,"SRR3699956.4580",TRUE,FALSE,54,9.69479353680431,"C",NA,NA,NA
"445","del",241,1,"SRR3699956.4726",TRUE,FALSE,54,9.69479353680431,"C",NA,NA,NA
"446","del",241,1,"SRR3699956.4781",TRUE,FALSE,54,9.69479353680431,"C",NA,NA,NA
"447","del",241,1,"SRR3699956.485",TRUE,FALSE,54,9.69479353680431,"C",NA,NA,NA
"448","del",241,1,"SRR3699956.4975",TRUE,FALSE,54,9.69479353680431,"C",NA,NA,NA
"449","del",241,1,"SRR3699956.528",TRUE,FALSE,54,9.69479353680431,"C",NA,NA,NA
"450","del",241,1,"SRR3699956.5309",TRUE,FALSE,54,9.69479353680431,"C",NA,NA,NA
"451","del",241,1,"SRR3699956.5328",TRUE,FALSE,54,9.69479353680431,"C",NA,NA,NA
"452","del",241,1,"SRR3699956.5448",TRUE,FALSE,54,9.69479353680431,"C",NA,NA,NA
"453","del",241,1,"SRR3699956.5496",TRUE,FALSE,54,9.69479353680431,"C",NA,NA,NA
"454","del",241,1,"SRR3699956.5515",TRUE,FALSE,54,9.69479353680431,"C",NA,NA,NA
"455","del",241,1,"SRR3699956.5548",TRUE,FALSE,54,9.69479353680431,"C",NA,NA,NA
"456","del",241,1,"SRR3699956.5560",TRUE,FALSE,54,9.69479353680431,"C",NA,NA,NA
"457","del",241,1,"SRR3699956.5780",TRUE,FALSE,54,9.69479353680431,"C",NA,NA,NA
"458","del",241,1,"SRR3699956.5782",TRUE,FALSE,54,9.69479353680431,"C",NA,NA,NA
"459","del",241,1,"SRR3699956.5806",TRUE,FALSE,54,9.69479353680431,"C",NA,NA,NA
"460","del",241,1,"SRR3699956.604",TRUE,FALSE,54,9.69479353680431,"C",NA,NA,NA
"461","del",241,1,"SRR3699956.6096",TRUE,FALSE,54,9.69479353680431,"C",NA,NA,NA
"462","del",241,1,"SRR3699956.6186",TRUE,FALSE,54,9.69479353680431,"C",NA,NA,NA
"463","del",241,1,"SRR3699956.6473",TRUE,FALSE,54,9.69479353680431,"C",NA,NA,NA
"464","del",241,1,"SRR3699956.6524",TRUE,FALSE,54,9.69479353680431,"C",NA,NA,NA
"465","del",241,1,"SRR3699956.6748",TRUE,FALSE,54,9.69479353680431,"C",NA,NA,NA
"466","del",241,1,"SRR3699956.6904",TRUE,FALSE,54,9.69479353680431,"C",NA,NA,NA
"467","del",241,1,"SRR3699956.7167",TRUE,FALSE,54,9.69479353680431,"C",NA,NA,NA
"468","del",241,1,"SRR3699956.750",TRUE,FALSE,54,9.69479353680431,"C",NA,NA,NA
"469","del",241,1,"SRR3699956.82",TRUE,FALSE,54,9.69479353680431,"C",NA,NA,NA
"470","del",241,1,"SRR3699956.94",TRUE,FALSE,54,9.69479353680431,"C",NA,NA,NA
"471","del",241,2,"SRR3699956.7220",TRUE,FALSE,3,0.538599640933573,"NHEJ",NA,NA,NA
"472","del",241,2,"SRR3699956.7221",TRUE,FALSE,3,0.538599640933573,"NHEJ",NA,NA,NA
"473","del",241,2,"SRR3699956.7222",TRUE,FALSE,3,0.538599640933573,"NHEJ",NA,NA,NA
"474","del",242,2,"SRR3699956.5792",TRUE,FALSE,4,0.718132854578097,"NHEJ",NA,NA,NA
"475","del",242,2,"SRR3699956.7215",TRUE,FALSE,4,0.718132854578097,"NHEJ",NA,NA,NA
"476","del",242,2,"SRR3699956.7216",TRUE,FALSE,4,0.718132854578097,"NHEJ",NA,NA,NA
"477","del",242,2,"SRR3699956.7219",TRUE,FALSE,4,0.718132854578097,"NHEJ",NA,NA,NA
"478","del",243,1,"SRR3699956.1097",TRUE,FALSE,27,4.84739676840215,"NHEJ",NA,NA,NA
"479","del",243,1,"SRR3699956.1469",TRUE,FALSE,27,4.84739676840215,"NHEJ",NA,NA,NA
"480","del",243,1,"SRR3699956.1974",TRUE,FALSE,27,4.84739676840215,"NHEJ",NA,NA,NA
"481","del",243,1,"SRR3699956.2464",TRUE,FALSE,27,4.84739676840215,"NHEJ",NA,NA,NA
"482","del",243,1,"SRR3699956.2713",TRUE,FALSE,27,4.84739676840215,"NHEJ",NA,NA,NA
"483","del",243,1,"SRR3699956.275",TRUE,FALSE,27,4.84739676840215,"NHEJ",NA,NA,NA
"484","del",243,1,"SRR3699956.3168",TRUE,FALSE,27,4.84739676840215,"NHEJ",NA,NA,NA
"485","del",243,1,"SRR3699956.3599",TRUE,FALSE,27,4.84739676840215,"NHEJ",NA,NA,NA
"486","del",243,1,"SRR3699956.3604",TRUE,FALSE,27,4.84739676840215,"NHEJ",NA,NA,NA
"487","del",243,1,"SRR3699956.3677",TRUE,FALSE,27,4.84739676840215,"NHEJ",NA,NA,NA
"488","del",243,1,"SRR3699956.4008",TRUE,FALSE,27,4.84739676840215,"NHEJ",NA,NA,NA
"489","del",243,1,"SRR3699956.4051",TRUE,FALSE,27,4.84739676840215,"NHEJ",NA,NA,NA
"490","del",243,1,"SRR3699956.4248",TRUE,FALSE,27,4.84739676840215,"NHEJ",NA,NA,NA
"491","del",243,1,"SRR3699956.4290",TRUE,FALSE,27,4.84739676840215,"NHEJ",NA,NA,NA
"492","del",243,1,"SRR3699956.470",TRUE,FALSE,27,4.84739676840215,"NHEJ",NA,NA,NA
"493","del",243,1,"SRR3699956.5030",TRUE,FALSE,27,4.84739676840215,"NHEJ",NA,NA,NA
"494","del",243,1,"SRR3699956.5082",TRUE,FALSE,27,4.84739676840215,"NHEJ",NA,NA,NA
"495","del",243,1,"SRR3699956.5196",TRUE,FALSE,27,4.84739676840215,"NHEJ",NA,NA,NA
"496","del",243,1,"SRR3699956.5633",TRUE,FALSE,27,4.84739676840215,"NHEJ",NA,NA,NA
"497","del",243,1,"SRR3699956.5734",TRUE,FALSE,27,4.84739676840215,"NHEJ",NA,NA,NA
"498","del",243,1,"SRR3699956.6009",TRUE,FALSE,27,4.84739676840215,"NHEJ",NA,NA,NA
"499","del",243,1,"SRR3699956.6322",TRUE,FALSE,27,4.84739676840215,"NHEJ",NA,NA,NA
"500","del",243,1,"SRR3699956.6411",TRUE,FALSE,27,4.84739676840215,"NHEJ",NA,NA,NA
"501","del",243,1,"SRR3699956.6582",TRUE,FALSE,27,4.84739676840215,"NHEJ",NA,NA,NA
"502","del",243,1,"SRR3699956.6974",TRUE,FALSE,27,4.84739676840215,"NHEJ",NA,NA,NA
"503","del",243,1,"SRR3699956.7051",TRUE,FALSE,27,4.84739676840215,"NHEJ",NA,NA,NA
"504","del",243,1,"SRR3699956.718",TRUE,FALSE,27,4.84739676840215,"NHEJ",NA,NA,NA
"505","del",244,1,"SRR3699956.1271",TRUE,FALSE,36,6.46319569120287,"NHEJ",NA,NA,NA
"506","del",244,1,"SRR3699956.1308",TRUE,FALSE,36,6.46319569120287,"NHEJ",NA,NA,NA
"507","del",244,1,"SRR3699956.1322",TRUE,FALSE,36,6.46319569120287,"NHEJ",NA,NA,NA
"508","del",244,1,"SRR3699956.2049",TRUE,FALSE,36,6.46319569120287,"NHEJ",NA,NA,NA
"509","del",244,1,"SRR3699956.2621",TRUE,FALSE,36,6.46319569120287,"NHEJ",NA,NA,NA
"510","del",244,1,"SRR3699956.2666",TRUE,FALSE,36,6.46319569120287,"NHEJ",NA,NA,NA
"511","del",244,1,"SRR3699956.2967",TRUE,FALSE,36,6.46319569120287,"NHEJ",NA,NA,NA
"512","del",244,1,"SRR3699956.3105",TRUE,FALSE,36,6.46319569120287,"NHEJ",NA,NA,NA
"513","del",244,1,"SRR3699956.3165",TRUE,FALSE,36,6.46319569120287,"NHEJ",NA,NA,NA
"514","del",244,1,"SRR3699956.3189",TRUE,FALSE,36,6.46319569120287,"NHEJ",NA,NA,NA
"515","del",244,1,"SRR3699956.3359",TRUE,FALSE,36,6.46319569120287,"NHEJ",NA,NA,NA
"516","del",244,1,"SRR3699956.3418",TRUE,FALSE,36,6.46319569120287,"NHEJ",NA,NA,NA
"517","del",244,1,"SRR3699956.3730",TRUE,FALSE,36,6.46319569120287,"NHEJ",NA,NA,NA
"518","del",244,1,"SRR3699956.4293",TRUE,FALSE,36,6.46319569120287,"NHEJ",NA,NA,NA
"519","del",244,1,"SRR3699956.4356",TRUE,FALSE,36,6.46319569120287,"NHEJ",NA,NA,NA
"520","del",244,1,"SRR3699956.4677",TRUE,FALSE,36,6.46319569120287,"NHEJ",NA,NA,NA
"521","del",244,1,"SRR3699956.4844",TRUE,FALSE,36,6.46319569120287,"NHEJ",NA,NA,NA
"522","del",244,1,"SRR3699956.492",TRUE,FALSE,36,6.46319569120287,"NHEJ",NA,NA,NA
"523","del",244,1,"SRR3699956.4976",TRUE,FALSE,36,6.46319569120287,"NHEJ",NA,NA,NA
"524","del",244,1,"SRR3699956.5078",TRUE,FALSE,36,6.46319569120287,"NHEJ",NA,NA,NA
"525","del",244,1,"SRR3699956.5505",TRUE,FALSE,36,6.46319569120287,"NHEJ",NA,NA,NA
"526","del",244,1,"SRR3699956.5816",TRUE,FALSE,36,6.46319569120287,"NHEJ",NA,NA,NA
"527","del",244,1,"SRR3699956.5823",TRUE,FALSE,36,6.46319569120287,"NHEJ",NA,NA,NA
"528","del",244,1,"SRR3699956.5976",TRUE,FALSE,36,6.46319569120287,"NHEJ",NA,NA,NA
"529","del",244,1,"SRR3699956.6052",TRUE,FALSE,36,6.46319569120287,"NHEJ",NA,NA,NA
"530","del",244,1,"SRR3699956.6089",TRUE,FALSE,36,6.46319569120287,"NHEJ",NA,NA,NA
"531","del",244,1,"SRR3699956.616",TRUE,FALSE,36,6.46319569120287,"NHEJ",NA,NA,NA
"532","del",244,1,"SRR3699956.6203",TRUE,FALSE,36,6.46319569120287,"NHEJ",NA,NA,NA
"533","del",244,1,"SRR3699956.6323",TRUE,FALSE,36,6.46319569120287,"NHEJ",NA,NA,NA
"534","del",244,1,"SRR3699956.6410",TRUE,FALSE,36,6.46319569120287,"NHEJ",NA,NA,NA
"535","del",244,1,"SRR3699956.6751",TRUE,FALSE,36,6.46319569120287,"NHEJ",NA,NA,NA
"536","del",244,1,"SRR3699956.694",TRUE,FALSE,36,6.46319569120287,"NHEJ",NA,NA,NA
"537","del",244,1,"SRR3699956.6942",TRUE,FALSE,36,6.46319569120287,"NHEJ",NA,NA,NA
"538","del",244,1,"SRR3699956.7000",TRUE,FALSE,36,6.46319569120287,"NHEJ",NA,NA,NA
"539","del",244,1,"SRR3699956.890",TRUE,FALSE,36,6.46319569120287,"NHEJ",NA,NA,NA
"540","del",244,1,"SRR3699956.907",TRUE,FALSE,36,6.46319569120287,"NHEJ",NA,NA,NA
"541","ins",12,1,"SRR3699956.5334",FALSE,FALSE,2,0.359066427289048,NA,"CGG","A","AAA"
"542","ins",12,1,"SRR3699956.6665",FALSE,FALSE,2,0.359066427289048,NA,"CGG","A","AAA"
"543","ins",97,1,"SRR3699956.2535",FALSE,TRUE,1,0.179533213644524,NA,"GCG","C","CGG"
"544","ins",234,1,"SRR3699956.3335",TRUE,FALSE,2,0.359066427289048,NA,"AGA","C","CCC"
"545","ins",234,1,"SRR3699956.4027",TRUE,FALSE,2,0.359066427289048,NA,"AGA","C","CCC"
"546","ins",241,1,"SRR3699956.6387",FALSE,FALSE,1,0.179533213644524,NA,"AGA","C","CCG"
"547","ins",128,1,"SRR3699956.1975",TRUE,TRUE,4,0.718132854578097,NA,"GAA","G","GGG"
"548","ins",128,1,"SRR3699956.3465",TRUE,TRUE,4,0.718132854578097,NA,"GAA","G","GGG"
"549","ins",128,1,"SRR3699956.3506",TRUE,TRUE,4,0.718132854578097,NA,"GAA","G","GGG"
"550","ins",128,1,"SRR3699956.6691",TRUE,TRUE,4,0.718132854578097,NA,"GAA","G","GGG"
"551","ins",132,9,"SRR3699956.22",FALSE,TRUE,1,0.179533213644524,NA,"GGG","GCGGAAGGG","GCC"
"552","ins",132,3,"SRR3699956.5959",TRUE,TRUE,1,0.179533213644524,NA,"GGG","AAG","GCC"
"553","ins",132,27,"SRR3699956.2432",FALSE,TRUE,1,0.179533213644524,NA,"GGG","CCCCCGGTGATTGGTGGGGGCGGATTG","GCC"
"554","ins",132,1,"SRR3699956.3760",TRUE,TRUE,3,0.538599640933573,NA,"GGG","C","GCC"
"555","ins",132,1,"SRR3699956.5790",TRUE,TRUE,3,0.538599640933573,NA,"GGG","C","GCC"
"556","ins",132,1,"SRR3699956.6909",TRUE,TRUE,3,0.538599640933573,NA,"GGG","C","GCC"
"557","ins",132,6,"SRR3699956.4388",FALSE,TRUE,1,0.179533213644524,NA,"GGG","CCAGCT","GCC"
