"","Modification","Start","Length","Ids","above_error_rate","in_pick","freq","Perc","patterns","pre_ins_nt","ins_nt","post_ins_nt"
"1","del",5,1,"SRR3698500.280",FALSE,FALSE,3,0.3125,"NHEJ",NA,NA,NA
"2","del",5,1,"SRR3698500.6220",FALSE,FALSE,3,0.3125,"NHEJ",NA,NA,NA
"3","del",5,1,"SRR3698500.8096",FALSE,FALSE,3,0.3125,"NHEJ",NA,NA,NA
"4","del",6,1,"SRR3698500.111",TRUE,FALSE,8,0.833333333333333,"NHEJ",NA,NA,NA
"5","del",6,1,"SRR3698500.342",TRUE,FALSE,8,0.833333333333333,"NHEJ",NA,NA,NA
"6","del",6,1,"SRR3698500.3950",TRUE,FALSE,8,0.833333333333333,"NHEJ",NA,NA,NA
"7","del",6,1,"SRR3698500.431",TRUE,FALSE,8,0.833333333333333,"NHEJ",NA,NA,NA
"8","del",6,1,"SRR3698500.5754",TRUE,FALSE,8,0.833333333333333,"NHEJ",NA,NA,NA
"9","del",6,1,"SRR3698500.6",TRUE,FALSE,8,0.833333333333333,"NHEJ",NA,NA,NA
"10","del",6,1,"SRR3698500.6908",TRUE,FALSE,8,0.833333333333333,"NHEJ",NA,NA,NA
"11","del",6,1,"SRR3698500.929",TRUE,FALSE,8,0.833333333333333,"NHEJ",NA,NA,NA
"12","del",7,1,"SRR3698500.3241",TRUE,FALSE,7,0.729166666666667,"NHEJ",NA,NA,NA
"13","del",7,1,"SRR3698500.4064",TRUE,FALSE,7,0.729166666666667,"NHEJ",NA,NA,NA
"14","del",7,1,"SRR3698500.4066",TRUE,FALSE,7,0.729166666666667,"NHEJ",NA,NA,NA
"15","del",7,1,"SRR3698500.5159",TRUE,FALSE,7,0.729166666666667,"NHEJ",NA,NA,NA
"16","del",7,1,"SRR3698500.587",TRUE,FALSE,7,0.729166666666667,"NHEJ",NA,NA,NA
"17","del",7,1,"SRR3698500.7269",TRUE,FALSE,7,0.729166666666667,"NHEJ",NA,NA,NA
"18","del",7,1,"SRR3698500.7714",TRUE,FALSE,7,0.729166666666667,"NHEJ",NA,NA,NA
"19","del",7,2,"SRR3698500.8381",FALSE,FALSE,1,0.104166666666667,"NHEJ",NA,NA,NA
"20","del",8,1,"SRR3698500.1614",TRUE,FALSE,14,1.45833333333333,"NHEJ",NA,NA,NA
"21","del",8,1,"SRR3698500.2614",TRUE,FALSE,14,1.45833333333333,"NHEJ",NA,NA,NA
"22","del",8,1,"SRR3698500.2718",TRUE,FALSE,14,1.45833333333333,"NHEJ",NA,NA,NA
"23","del",8,1,"SRR3698500.2837",TRUE,FALSE,14,1.45833333333333,"NHEJ",NA,NA,NA
"24","del",8,1,"SRR3698500.4317",TRUE,FALSE,14,1.45833333333333,"NHEJ",NA,NA,NA
"25","del",8,1,"SRR3698500.4472",TRUE,FALSE,14,1.45833333333333,"NHEJ",NA,NA,NA
"26","del",8,1,"SRR3698500.6650",TRUE,FALSE,14,1.45833333333333,"NHEJ",NA,NA,NA
"27","del",8,1,"SRR3698500.6688",TRUE,FALSE,14,1.45833333333333,"NHEJ",NA,NA,NA
"28","del",8,1,"SRR3698500.6709",TRUE,FALSE,14,1.45833333333333,"NHEJ",NA,NA,NA
"29","del",8,1,"SRR3698500.6744",TRUE,FALSE,14,1.45833333333333,"NHEJ",NA,NA,NA
"30","del",8,1,"SRR3698500.7203",TRUE,FALSE,14,1.45833333333333,"NHEJ",NA,NA,NA
"31","del",8,1,"SRR3698500.7358",TRUE,FALSE,14,1.45833333333333,"NHEJ",NA,NA,NA
"32","del",8,1,"SRR3698500.7594",TRUE,FALSE,14,1.45833333333333,"NHEJ",NA,NA,NA
"33","del",8,1,"SRR3698500.8202",TRUE,FALSE,14,1.45833333333333,"NHEJ",NA,NA,NA
"34","del",8,4,"SRR3698500.8384",FALSE,FALSE,1,0.104166666666667,"A",NA,NA,NA
"35","del",9,1,"SRR3698500.4013",TRUE,FALSE,6,0.625,"NHEJ",NA,NA,NA
"36","del",9,1,"SRR3698500.4214",TRUE,FALSE,6,0.625,"NHEJ",NA,NA,NA
"37","del",9,1,"SRR3698500.699",TRUE,FALSE,6,0.625,"NHEJ",NA,NA,NA
"38","del",9,1,"SRR3698500.7369",TRUE,FALSE,6,0.625,"NHEJ",NA,NA,NA
"39","del",9,1,"SRR3698500.8000",TRUE,FALSE,6,0.625,"NHEJ",NA,NA,NA
"40","del",9,1,"SRR3698500.8345",TRUE,FALSE,6,0.625,"NHEJ",NA,NA,NA
"41","del",10,1,"SRR3698500.1451",TRUE,FALSE,4,0.416666666666667,"NHEJ",NA,NA,NA
"42","del",10,1,"SRR3698500.1468",TRUE,FALSE,4,0.416666666666667,"NHEJ",NA,NA,NA
"43","del",10,1,"SRR3698500.7051",TRUE,FALSE,4,0.416666666666667,"NHEJ",NA,NA,NA
"44","del",10,1,"SRR3698500.7315",TRUE,FALSE,4,0.416666666666667,"NHEJ",NA,NA,NA
"45","del",11,1,"SRR3698500.1601",TRUE,FALSE,12,1.25,"A",NA,NA,NA
"46","del",11,1,"SRR3698500.2448",TRUE,FALSE,12,1.25,"A",NA,NA,NA
"47","del",11,1,"SRR3698500.302",TRUE,FALSE,12,1.25,"A",NA,NA,NA
"48","del",11,1,"SRR3698500.308",TRUE,FALSE,12,1.25,"A",NA,NA,NA
"49","del",11,1,"SRR3698500.6558",TRUE,FALSE,12,1.25,"A",NA,NA,NA
"50","del",11,1,"SRR3698500.6657",TRUE,FALSE,12,1.25,"A",NA,NA,NA
"51","del",11,1,"SRR3698500.6921",TRUE,FALSE,12,1.25,"A",NA,NA,NA
"52","del",11,1,"SRR3698500.7399",TRUE,FALSE,12,1.25,"A",NA,NA,NA
"53","del",11,1,"SRR3698500.7615",TRUE,FALSE,12,1.25,"A",NA,NA,NA
"54","del",11,1,"SRR3698500.7756",TRUE,FALSE,12,1.25,"A",NA,NA,NA
"55","del",11,1,"SRR3698500.7866",TRUE,FALSE,12,1.25,"A",NA,NA,NA
"56","del",11,1,"SRR3698500.8325",TRUE,FALSE,12,1.25,"A",NA,NA,NA
"57","del",11,2,"SRR3698500.8343",FALSE,FALSE,1,0.104166666666667,"NHEJ",NA,NA,NA
"58","del",13,1,"SRR3698500.1018",TRUE,FALSE,5,0.520833333333333,"C",NA,NA,NA
"59","del",13,1,"SRR3698500.389",TRUE,FALSE,5,0.520833333333333,"C",NA,NA,NA
"60","del",13,1,"SRR3698500.4419",TRUE,FALSE,5,0.520833333333333,"C",NA,NA,NA
"61","del",13,1,"SRR3698500.4735",TRUE,FALSE,5,0.520833333333333,"C",NA,NA,NA
"62","del",13,1,"SRR3698500.5266",TRUE,FALSE,5,0.520833333333333,"C",NA,NA,NA
"63","del",21,1,"SRR3698500.4790",TRUE,FALSE,2,0.208333333333333,"T",NA,NA,NA
"64","del",21,1,"SRR3698500.6044",TRUE,FALSE,2,0.208333333333333,"T",NA,NA,NA
"65","del",34,2,"SRR3698500.7088",FALSE,FALSE,1,0.104166666666667,"C",NA,NA,NA
"66","del",43,1,"SRR3698500.1585",FALSE,FALSE,1,0.104166666666667,"C",NA,NA,NA
"67","del",47,51,"SRR3698500.8387",FALSE,FALSE,1,0.104166666666667,"GC",NA,NA,NA
"68","del",52,43,"SRR3698500.8270",FALSE,TRUE,1,0.104166666666667,"NHEJ",NA,NA,NA
"69","del",55,42,"SRR3698500.4231",FALSE,TRUE,1,0.104166666666667,"T",NA,NA,NA
"70","del",55,48,"SRR3698500.997",FALSE,TRUE,1,0.104166666666667,"T",NA,NA,NA
"71","del",59,43,"SRR3698500.1531",FALSE,TRUE,1,0.104166666666667,"GT",NA,NA,NA
"72","del",60,37,"SRR3698500.1344",TRUE,TRUE,2,0.208333333333333,"T",NA,NA,NA
"73","del",60,37,"SRR3698500.77",TRUE,TRUE,2,0.208333333333333,"T",NA,NA,NA
"74","del",61,1,"SRR3698500.127",FALSE,TRUE,1,0.104166666666667,"C",NA,NA,NA
"75","del",62,33,"SRR3698500.6040",FALSE,TRUE,1,0.104166666666667,"NHEJ",NA,NA,NA
"76","del",65,20,"SRR3698500.3108",FALSE,TRUE,1,0.104166666666667,"C",NA,NA,NA
"77","del",65,32,"SRR3698500.5454",FALSE,TRUE,1,0.104166666666667,"NHEJ",NA,NA,NA
"78","del",66,32,"SRR3698500.4885",TRUE,TRUE,2,0.208333333333333,"GC",NA,NA,NA
"79","del",66,32,"SRR3698500.5673",TRUE,TRUE,2,0.208333333333333,"GC",NA,NA,NA
"80","del",67,28,"SRR3698500.902",FALSE,TRUE,1,0.104166666666667,"NHEJ",NA,NA,NA
"81","del",69,29,"SRR3698500.957",FALSE,TRUE,1,0.104166666666667,"NHEJ",NA,NA,NA
"82","del",69,30,"SRR3698500.3863",FALSE,TRUE,1,0.104166666666667,"NHEJ",NA,NA,NA
"83","del",70,26,"SRR3698500.2350",TRUE,TRUE,6,0.625,"CTG",NA,NA,NA
"84","del",70,26,"SRR3698500.2698",TRUE,TRUE,6,0.625,"CTG",NA,NA,NA
"85","del",70,26,"SRR3698500.3109",TRUE,TRUE,6,0.625,"CTG",NA,NA,NA
"86","del",70,26,"SRR3698500.7427",TRUE,TRUE,6,0.625,"CTG",NA,NA,NA
"87","del",70,26,"SRR3698500.7811",TRUE,TRUE,6,0.625,"CTG",NA,NA,NA
"88","del",70,26,"SRR3698500.851",TRUE,TRUE,6,0.625,"CTG",NA,NA,NA
"89","del",70,28,"SRR3698500.6399",TRUE,TRUE,2,0.208333333333333,"NHEJ",NA,NA,NA
"90","del",70,28,"SRR3698500.7707",TRUE,TRUE,2,0.208333333333333,"NHEJ",NA,NA,NA
"91","del",70,29,"SRR3698500.1493",TRUE,TRUE,9,0.9375,"CTGG",NA,NA,NA
"92","del",70,29,"SRR3698500.150",TRUE,TRUE,9,0.9375,"CTGG",NA,NA,NA
"93","del",70,29,"SRR3698500.223",TRUE,TRUE,9,0.9375,"CTGG",NA,NA,NA
"94","del",70,29,"SRR3698500.3056",TRUE,TRUE,9,0.9375,"CTGG",NA,NA,NA
"95","del",70,29,"SRR3698500.6281",TRUE,TRUE,9,0.9375,"CTGG",NA,NA,NA
"96","del",70,29,"SRR3698500.6384",TRUE,TRUE,9,0.9375,"CTGG",NA,NA,NA
"97","del",70,29,"SRR3698500.7295",TRUE,TRUE,9,0.9375,"CTGG",NA,NA,NA
"98","del",70,29,"SRR3698500.76",TRUE,TRUE,9,0.9375,"CTGG",NA,NA,NA
"99","del",70,29,"SRR3698500.7938",TRUE,TRUE,9,0.9375,"CTGG",NA,NA,NA
"100","del",71,32,"SRR3698500.2876",TRUE,TRUE,3,0.3125,"TGG",NA,NA,NA
"101","del",71,32,"SRR3698500.5828",TRUE,TRUE,3,0.3125,"TGG",NA,NA,NA
"102","del",71,32,"SRR3698500.6346",TRUE,TRUE,3,0.3125,"TGG",NA,NA,NA
"103","del",72,25,"SRR3698500.477",TRUE,TRUE,3,0.3125,"NHEJ",NA,NA,NA
"104","del",72,25,"SRR3698500.6326",TRUE,TRUE,3,0.3125,"NHEJ",NA,NA,NA
"105","del",72,25,"SRR3698500.7283",TRUE,TRUE,3,0.3125,"NHEJ",NA,NA,NA
"106","del",73,28,"SRR3698500.5041",FALSE,TRUE,1,0.104166666666667,"GG",NA,NA,NA
"107","del",74,23,"SRR3698500.1270",FALSE,TRUE,1,0.104166666666667,"NHEJ",NA,NA,NA
"108","del",74,24,"SRR3698500.5137",TRUE,TRUE,6,0.625,"G",NA,NA,NA
"109","del",74,24,"SRR3698500.6291",TRUE,TRUE,6,0.625,"G",NA,NA,NA
"110","del",74,24,"SRR3698500.7036",TRUE,TRUE,6,0.625,"G",NA,NA,NA
"111","del",74,24,"SRR3698500.7721",TRUE,TRUE,6,0.625,"G",NA,NA,NA
"112","del",74,24,"SRR3698500.7761",TRUE,TRUE,6,0.625,"G",NA,NA,NA
"113","del",74,24,"SRR3698500.8025",TRUE,TRUE,6,0.625,"G",NA,NA,NA
"114","del",74,26,"SRR3698500.1274",FALSE,TRUE,1,0.104166666666667,"NHEJ",NA,NA,NA
"115","del",75,22,"SRR3698500.4962",FALSE,TRUE,1,0.104166666666667,"NHEJ",NA,NA,NA
"116","del",75,25,"SRR3698500.429",FALSE,TRUE,1,0.104166666666667,"NHEJ",NA,NA,NA
"117","del",76,21,"SRR3698500.1427",TRUE,TRUE,10,1.04166666666667,"TG",NA,NA,NA
"118","del",76,21,"SRR3698500.2279",TRUE,TRUE,10,1.04166666666667,"TG",NA,NA,NA
"119","del",76,21,"SRR3698500.2684",TRUE,TRUE,10,1.04166666666667,"TG",NA,NA,NA
"120","del",76,21,"SRR3698500.2901",TRUE,TRUE,10,1.04166666666667,"TG",NA,NA,NA
"121","del",76,21,"SRR3698500.3127",TRUE,TRUE,10,1.04166666666667,"TG",NA,NA,NA
"122","del",76,21,"SRR3698500.543",TRUE,TRUE,10,1.04166666666667,"TG",NA,NA,NA
"123","del",76,21,"SRR3698500.6780",TRUE,TRUE,10,1.04166666666667,"TG",NA,NA,NA
"124","del",76,21,"SRR3698500.7728",TRUE,TRUE,10,1.04166666666667,"TG",NA,NA,NA
"125","del",76,21,"SRR3698500.8172",TRUE,TRUE,10,1.04166666666667,"TG",NA,NA,NA
"126","del",76,21,"SRR3698500.8210",TRUE,TRUE,10,1.04166666666667,"TG",NA,NA,NA
"127","del",76,24,"SRR3698500.1160",TRUE,TRUE,117,12.1875,"TGGTGG",NA,NA,NA
"128","del",76,24,"SRR3698500.1174",TRUE,TRUE,117,12.1875,"TGGTGG",NA,NA,NA
"129","del",76,24,"SRR3698500.1220",TRUE,TRUE,117,12.1875,"TGGTGG",NA,NA,NA
"130","del",76,24,"SRR3698500.1299",TRUE,TRUE,117,12.1875,"TGGTGG",NA,NA,NA
"131","del",76,24,"SRR3698500.1320",TRUE,TRUE,117,12.1875,"TGGTGG",NA,NA,NA
"132","del",76,24,"SRR3698500.1327",TRUE,TRUE,117,12.1875,"TGGTGG",NA,NA,NA
"133","del",76,24,"SRR3698500.1384",TRUE,TRUE,117,12.1875,"TGGTGG",NA,NA,NA
"134","del",76,24,"SRR3698500.1400",TRUE,TRUE,117,12.1875,"TGGTGG",NA,NA,NA
"135","del",76,24,"SRR3698500.1428",TRUE,TRUE,117,12.1875,"TGGTGG",NA,NA,NA
"136","del",76,24,"SRR3698500.1482",TRUE,TRUE,117,12.1875,"TGGTGG",NA,NA,NA
"137","del",76,24,"SRR3698500.1537",TRUE,TRUE,117,12.1875,"TGGTGG",NA,NA,NA
"138","del",76,24,"SRR3698500.1626",TRUE,TRUE,117,12.1875,"TGGTGG",NA,NA,NA
"139","del",76,24,"SRR3698500.1705",TRUE,TRUE,117,12.1875,"TGGTGG",NA,NA,NA
"140","del",76,24,"SRR3698500.1744",TRUE,TRUE,117,12.1875,"TGGTGG",NA,NA,NA
"141","del",76,24,"SRR3698500.1754",TRUE,TRUE,117,12.1875,"TGGTGG",NA,NA,NA
"142","del",76,24,"SRR3698500.1768",TRUE,TRUE,117,12.1875,"TGGTGG",NA,NA,NA
"143","del",76,24,"SRR3698500.1771",TRUE,TRUE,117,12.1875,"TGGTGG",NA,NA,NA
"144","del",76,24,"SRR3698500.1798",TRUE,TRUE,117,12.1875,"TGGTGG",NA,NA,NA
"145","del",76,24,"SRR3698500.18",TRUE,TRUE,117,12.1875,"TGGTGG",NA,NA,NA
"146","del",76,24,"SRR3698500.1869",TRUE,TRUE,117,12.1875,"TGGTGG",NA,NA,NA
"147","del",76,24,"SRR3698500.19",TRUE,TRUE,117,12.1875,"TGGTGG",NA,NA,NA
"148","del",76,24,"SRR3698500.1900",TRUE,TRUE,117,12.1875,"TGGTGG",NA,NA,NA
"149","del",76,24,"SRR3698500.1982",TRUE,TRUE,117,12.1875,"TGGTGG",NA,NA,NA
"150","del",76,24,"SRR3698500.2003",TRUE,TRUE,117,12.1875,"TGGTGG",NA,NA,NA
"151","del",76,24,"SRR3698500.2021",TRUE,TRUE,117,12.1875,"TGGTGG",NA,NA,NA
"152","del",76,24,"SRR3698500.2022",TRUE,TRUE,117,12.1875,"TGGTGG",NA,NA,NA
"153","del",76,24,"SRR3698500.215",TRUE,TRUE,117,12.1875,"TGGTGG",NA,NA,NA
"154","del",76,24,"SRR3698500.2159",TRUE,TRUE,117,12.1875,"TGGTGG",NA,NA,NA
"155","del",76,24,"SRR3698500.22",TRUE,TRUE,117,12.1875,"TGGTGG",NA,NA,NA
"156","del",76,24,"SRR3698500.2204",TRUE,TRUE,117,12.1875,"TGGTGG",NA,NA,NA
"157","del",76,24,"SRR3698500.2268",TRUE,TRUE,117,12.1875,"TGGTGG",NA,NA,NA
"158","del",76,24,"SRR3698500.2359",TRUE,TRUE,117,12.1875,"TGGTGG",NA,NA,NA
"159","del",76,24,"SRR3698500.2384",TRUE,TRUE,117,12.1875,"TGGTGG",NA,NA,NA
"160","del",76,24,"SRR3698500.2428",TRUE,TRUE,117,12.1875,"TGGTGG",NA,NA,NA
"161","del",76,24,"SRR3698500.2460",TRUE,TRUE,117,12.1875,"TGGTGG",NA,NA,NA
"162","del",76,24,"SRR3698500.2546",TRUE,TRUE,117,12.1875,"TGGTGG",NA,NA,NA
"163","del",76,24,"SRR3698500.2663",TRUE,TRUE,117,12.1875,"TGGTGG",NA,NA,NA
"164","del",76,24,"SRR3698500.2707",TRUE,TRUE,117,12.1875,"TGGTGG",NA,NA,NA
"165","del",76,24,"SRR3698500.2759",TRUE,TRUE,117,12.1875,"TGGTGG",NA,NA,NA
"166","del",76,24,"SRR3698500.2791",TRUE,TRUE,117,12.1875,"TGGTGG",NA,NA,NA
"167","del",76,24,"SRR3698500.2832",TRUE,TRUE,117,12.1875,"TGGTGG",NA,NA,NA
"168","del",76,24,"SRR3698500.2850",TRUE,TRUE,117,12.1875,"TGGTGG",NA,NA,NA
"169","del",76,24,"SRR3698500.2893",TRUE,TRUE,117,12.1875,"TGGTGG",NA,NA,NA
"170","del",76,24,"SRR3698500.2917",TRUE,TRUE,117,12.1875,"TGGTGG",NA,NA,NA
"171","del",76,24,"SRR3698500.293",TRUE,TRUE,117,12.1875,"TGGTGG",NA,NA,NA
"172","del",76,24,"SRR3698500.3007",TRUE,TRUE,117,12.1875,"TGGTGG",NA,NA,NA
"173","del",76,24,"SRR3698500.3210",TRUE,TRUE,117,12.1875,"TGGTGG",NA,NA,NA
"174","del",76,24,"SRR3698500.3262",TRUE,TRUE,117,12.1875,"TGGTGG",NA,NA,NA
"175","del",76,24,"SRR3698500.3324",TRUE,TRUE,117,12.1875,"TGGTGG",NA,NA,NA
"176","del",76,24,"SRR3698500.3434",TRUE,TRUE,117,12.1875,"TGGTGG",NA,NA,NA
"177","del",76,24,"SRR3698500.3438",TRUE,TRUE,117,12.1875,"TGGTGG",NA,NA,NA
"178","del",76,24,"SRR3698500.3501",TRUE,TRUE,117,12.1875,"TGGTGG",NA,NA,NA
"179","del",76,24,"SRR3698500.3672",TRUE,TRUE,117,12.1875,"TGGTGG",NA,NA,NA
"180","del",76,24,"SRR3698500.3772",TRUE,TRUE,117,12.1875,"TGGTGG",NA,NA,NA
"181","del",76,24,"SRR3698500.3837",TRUE,TRUE,117,12.1875,"TGGTGG",NA,NA,NA
"182","del",76,24,"SRR3698500.3920",TRUE,TRUE,117,12.1875,"TGGTGG",NA,NA,NA
"183","del",76,24,"SRR3698500.3928",TRUE,TRUE,117,12.1875,"TGGTGG",NA,NA,NA
"184","del",76,24,"SRR3698500.3937",TRUE,TRUE,117,12.1875,"TGGTGG",NA,NA,NA
"185","del",76,24,"SRR3698500.3961",TRUE,TRUE,117,12.1875,"TGGTGG",NA,NA,NA
"186","del",76,24,"SRR3698500.4293",TRUE,TRUE,117,12.1875,"TGGTGG",NA,NA,NA
"187","del",76,24,"SRR3698500.4389",TRUE,TRUE,117,12.1875,"TGGTGG",NA,NA,NA
"188","del",76,24,"SRR3698500.4675",TRUE,TRUE,117,12.1875,"TGGTGG",NA,NA,NA
"189","del",76,24,"SRR3698500.474",TRUE,TRUE,117,12.1875,"TGGTGG",NA,NA,NA
"190","del",76,24,"SRR3698500.4760",TRUE,TRUE,117,12.1875,"TGGTGG",NA,NA,NA
"191","del",76,24,"SRR3698500.4770",TRUE,TRUE,117,12.1875,"TGGTGG",NA,NA,NA
"192","del",76,24,"SRR3698500.4869",TRUE,TRUE,117,12.1875,"TGGTGG",NA,NA,NA
"193","del",76,24,"SRR3698500.4887",TRUE,TRUE,117,12.1875,"TGGTGG",NA,NA,NA
"194","del",76,24,"SRR3698500.4898",TRUE,TRUE,117,12.1875,"TGGTGG",NA,NA,NA
"195","del",76,24,"SRR3698500.4939",TRUE,TRUE,117,12.1875,"TGGTGG",NA,NA,NA
"196","del",76,24,"SRR3698500.5072",TRUE,TRUE,117,12.1875,"TGGTGG",NA,NA,NA
"197","del",76,24,"SRR3698500.5125",TRUE,TRUE,117,12.1875,"TGGTGG",NA,NA,NA
"198","del",76,24,"SRR3698500.5144",TRUE,TRUE,117,12.1875,"TGGTGG",NA,NA,NA
"199","del",76,24,"SRR3698500.519",TRUE,TRUE,117,12.1875,"TGGTGG",NA,NA,NA
"200","del",76,24,"SRR3698500.5218",TRUE,TRUE,117,12.1875,"TGGTGG",NA,NA,NA
"201","del",76,24,"SRR3698500.5525",TRUE,TRUE,117,12.1875,"TGGTGG",NA,NA,NA
"202","del",76,24,"SRR3698500.5536",TRUE,TRUE,117,12.1875,"TGGTGG",NA,NA,NA
"203","del",76,24,"SRR3698500.5721",TRUE,TRUE,117,12.1875,"TGGTGG",NA,NA,NA
"204","del",76,24,"SRR3698500.5819",TRUE,TRUE,117,12.1875,"TGGTGG",NA,NA,NA
"205","del",76,24,"SRR3698500.6018",TRUE,TRUE,117,12.1875,"TGGTGG",NA,NA,NA
"206","del",76,24,"SRR3698500.6055",TRUE,TRUE,117,12.1875,"TGGTGG",NA,NA,NA
"207","del",76,24,"SRR3698500.6125",TRUE,TRUE,117,12.1875,"TGGTGG",NA,NA,NA
"208","del",76,24,"SRR3698500.626",TRUE,TRUE,117,12.1875,"TGGTGG",NA,NA,NA
"209","del",76,24,"SRR3698500.6294",TRUE,TRUE,117,12.1875,"TGGTGG",NA,NA,NA
"210","del",76,24,"SRR3698500.632",TRUE,TRUE,117,12.1875,"TGGTGG",NA,NA,NA
"211","del",76,24,"SRR3698500.6409",TRUE,TRUE,117,12.1875,"TGGTGG",NA,NA,NA
"212","del",76,24,"SRR3698500.6411",TRUE,TRUE,117,12.1875,"TGGTGG",NA,NA,NA
"213","del",76,24,"SRR3698500.6438",TRUE,TRUE,117,12.1875,"TGGTGG",NA,NA,NA
"214","del",76,24,"SRR3698500.6491",TRUE,TRUE,117,12.1875,"TGGTGG",NA,NA,NA
"215","del",76,24,"SRR3698500.6498",TRUE,TRUE,117,12.1875,"TGGTGG",NA,NA,NA
"216","del",76,24,"SRR3698500.6510",TRUE,TRUE,117,12.1875,"TGGTGG",NA,NA,NA
"217","del",76,24,"SRR3698500.6535",TRUE,TRUE,117,12.1875,"TGGTGG",NA,NA,NA
"218","del",76,24,"SRR3698500.6701",TRUE,TRUE,117,12.1875,"TGGTGG",NA,NA,NA
"219","del",76,24,"SRR3698500.6702",TRUE,TRUE,117,12.1875,"TGGTGG",NA,NA,NA
"220","del",76,24,"SRR3698500.6818",TRUE,TRUE,117,12.1875,"TGGTGG",NA,NA,NA
"221","del",76,24,"SRR3698500.69",TRUE,TRUE,117,12.1875,"TGGTGG",NA,NA,NA
"222","del",76,24,"SRR3698500.7058",TRUE,TRUE,117,12.1875,"TGGTGG",NA,NA,NA
"223","del",76,24,"SRR3698500.7062",TRUE,TRUE,117,12.1875,"TGGTGG",NA,NA,NA
"224","del",76,24,"SRR3698500.7071",TRUE,TRUE,117,12.1875,"TGGTGG",NA,NA,NA
"225","del",76,24,"SRR3698500.7137",TRUE,TRUE,117,12.1875,"TGGTGG",NA,NA,NA
"226","del",76,24,"SRR3698500.7263",TRUE,TRUE,117,12.1875,"TGGTGG",NA,NA,NA
"227","del",76,24,"SRR3698500.7362",TRUE,TRUE,117,12.1875,"TGGTGG",NA,NA,NA
"228","del",76,24,"SRR3698500.7478",TRUE,TRUE,117,12.1875,"TGGTGG",NA,NA,NA
"229","del",76,24,"SRR3698500.7486",TRUE,TRUE,117,12.1875,"TGGTGG",NA,NA,NA
"230","del",76,24,"SRR3698500.7500",TRUE,TRUE,117,12.1875,"TGGTGG",NA,NA,NA
"231","del",76,24,"SRR3698500.7574",TRUE,TRUE,117,12.1875,"TGGTGG",NA,NA,NA
"232","del",76,24,"SRR3698500.7797",TRUE,TRUE,117,12.1875,"TGGTGG",NA,NA,NA
"233","del",76,24,"SRR3698500.7818",TRUE,TRUE,117,12.1875,"TGGTGG",NA,NA,NA
"234","del",76,24,"SRR3698500.7837",TRUE,TRUE,117,12.1875,"TGGTGG",NA,NA,NA
"235","del",76,24,"SRR3698500.7933",TRUE,TRUE,117,12.1875,"TGGTGG",NA,NA,NA
"236","del",76,24,"SRR3698500.7948",TRUE,TRUE,117,12.1875,"TGGTGG",NA,NA,NA
"237","del",76,24,"SRR3698500.801",TRUE,TRUE,117,12.1875,"TGGTGG",NA,NA,NA
"238","del",76,24,"SRR3698500.8174",TRUE,TRUE,117,12.1875,"TGGTGG",NA,NA,NA
"239","del",76,24,"SRR3698500.8244",TRUE,TRUE,117,12.1875,"TGGTGG",NA,NA,NA
"240","del",76,24,"SRR3698500.8374",TRUE,TRUE,117,12.1875,"TGGTGG",NA,NA,NA
"241","del",76,24,"SRR3698500.888",TRUE,TRUE,117,12.1875,"TGGTGG",NA,NA,NA
"242","del",76,24,"SRR3698500.970",TRUE,TRUE,117,12.1875,"TGGTGG",NA,NA,NA
"243","del",76,24,"SRR3698500.978",TRUE,TRUE,117,12.1875,"TGGTGG",NA,NA,NA
"244","del",76,27,"SRR3698500.1259",TRUE,TRUE,12,1.25,"TGGTGG",NA,NA,NA
"245","del",76,27,"SRR3698500.1387",TRUE,TRUE,12,1.25,"TGGTGG",NA,NA,NA
"246","del",76,27,"SRR3698500.1495",TRUE,TRUE,12,1.25,"TGGTGG",NA,NA,NA
"247","del",76,27,"SRR3698500.3990",TRUE,TRUE,12,1.25,"TGGTGG",NA,NA,NA
"248","del",76,27,"SRR3698500.4561",TRUE,TRUE,12,1.25,"TGGTGG",NA,NA,NA
"249","del",76,27,"SRR3698500.4780",TRUE,TRUE,12,1.25,"TGGTGG",NA,NA,NA
"250","del",76,27,"SRR3698500.6351",TRUE,TRUE,12,1.25,"TGGTGG",NA,NA,NA
"251","del",76,27,"SRR3698500.658",TRUE,TRUE,12,1.25,"TGGTGG",NA,NA,NA
"252","del",76,27,"SRR3698500.6886",TRUE,TRUE,12,1.25,"TGGTGG",NA,NA,NA
"253","del",76,27,"SRR3698500.7128",TRUE,TRUE,12,1.25,"TGGTGG",NA,NA,NA
"254","del",76,27,"SRR3698500.8101",TRUE,TRUE,12,1.25,"TGGTGG",NA,NA,NA
"255","del",76,27,"SRR3698500.975",TRUE,TRUE,12,1.25,"TGGTGG",NA,NA,NA
"256","del",77,19,"SRR3698500.7461",FALSE,TRUE,1,0.104166666666667,"NHEJ",NA,NA,NA
"257","del",78,19,"SRR3698500.2741",FALSE,TRUE,1,0.104166666666667,"NHEJ",NA,NA,NA
"258","del",78,20,"SRR3698500.2010",TRUE,TRUE,2,0.208333333333333,"G",NA,NA,NA
"259","del",78,20,"SRR3698500.4781",TRUE,TRUE,2,0.208333333333333,"G",NA,NA,NA
"260","del",79,18,"SRR3698500.4337",TRUE,TRUE,5,0.520833333333333,"TG",NA,NA,NA
"261","del",79,18,"SRR3698500.5912",TRUE,TRUE,5,0.520833333333333,"TG",NA,NA,NA
"262","del",79,18,"SRR3698500.7298",TRUE,TRUE,5,0.520833333333333,"TG",NA,NA,NA
"263","del",79,18,"SRR3698500.8179",TRUE,TRUE,5,0.520833333333333,"TG",NA,NA,NA
"264","del",79,18,"SRR3698500.886",TRUE,TRUE,5,0.520833333333333,"TG",NA,NA,NA
"265","del",79,21,"SRR3698500.1671",TRUE,TRUE,6,0.625,"TGG",NA,NA,NA
"266","del",79,21,"SRR3698500.1865",TRUE,TRUE,6,0.625,"TGG",NA,NA,NA
"267","del",79,21,"SRR3698500.1965",TRUE,TRUE,6,0.625,"TGG",NA,NA,NA
"268","del",79,21,"SRR3698500.3139",TRUE,TRUE,6,0.625,"TGG",NA,NA,NA
"269","del",79,21,"SRR3698500.3859",TRUE,TRUE,6,0.625,"TGG",NA,NA,NA
"270","del",79,21,"SRR3698500.4926",TRUE,TRUE,6,0.625,"TGG",NA,NA,NA
"271","del",80,1,"SRR3698500.2394",TRUE,TRUE,11,1.14583333333333,"G",NA,NA,NA
"272","del",80,1,"SRR3698500.297",TRUE,TRUE,11,1.14583333333333,"G",NA,NA,NA
"273","del",80,1,"SRR3698500.3621",TRUE,TRUE,11,1.14583333333333,"G",NA,NA,NA
"274","del",80,1,"SRR3698500.3815",TRUE,TRUE,11,1.14583333333333,"G",NA,NA,NA
"275","del",80,1,"SRR3698500.4546",TRUE,TRUE,11,1.14583333333333,"G",NA,NA,NA
"276","del",80,1,"SRR3698500.5835",TRUE,TRUE,11,1.14583333333333,"G",NA,NA,NA
"277","del",80,1,"SRR3698500.6314",TRUE,TRUE,11,1.14583333333333,"G",NA,NA,NA
"278","del",80,1,"SRR3698500.6631",TRUE,TRUE,11,1.14583333333333,"G",NA,NA,NA
"279","del",80,1,"SRR3698500.6951",TRUE,TRUE,11,1.14583333333333,"G",NA,NA,NA
"280","del",80,1,"SRR3698500.774",TRUE,TRUE,11,1.14583333333333,"G",NA,NA,NA
"281","del",80,1,"SRR3698500.8124",TRUE,TRUE,11,1.14583333333333,"G",NA,NA,NA
"282","del",81,17,"SRR3698500.7425",FALSE,TRUE,1,0.104166666666667,"G",NA,NA,NA
"283","del",81,20,"SRR3698500.3959",TRUE,TRUE,2,0.208333333333333,"GG",NA,NA,NA
"284","del",81,20,"SRR3698500.6967",TRUE,TRUE,2,0.208333333333333,"GG",NA,NA,NA
"285","del",82,13,"SRR3698500.5362",FALSE,TRUE,1,0.104166666666667,"G",NA,NA,NA
"286","del",82,16,"SRR3698500.2587",FALSE,TRUE,1,0.104166666666667,"G",NA,NA,NA
"287","del",82,22,"SRR3698500.6118",FALSE,TRUE,1,0.104166666666667,"GG",NA,NA,NA
"288","del",82,25,"SRR3698500.2020",TRUE,TRUE,5,0.520833333333333,"GG",NA,NA,NA
"289","del",82,25,"SRR3698500.449",TRUE,TRUE,5,0.520833333333333,"GG",NA,NA,NA
"290","del",82,25,"SRR3698500.489",TRUE,TRUE,5,0.520833333333333,"GG",NA,NA,NA
"291","del",82,25,"SRR3698500.4998",TRUE,TRUE,5,0.520833333333333,"GG",NA,NA,NA
"292","del",82,25,"SRR3698500.6639",TRUE,TRUE,5,0.520833333333333,"GG",NA,NA,NA
"293","del",82,31,"SRR3698500.1149",TRUE,TRUE,6,0.625,"GGG",NA,NA,NA
"294","del",82,31,"SRR3698500.2111",TRUE,TRUE,6,0.625,"GGG",NA,NA,NA
"295","del",82,31,"SRR3698500.3098",TRUE,TRUE,6,0.625,"GGG",NA,NA,NA
"296","del",82,31,"SRR3698500.4437",TRUE,TRUE,6,0.625,"GGG",NA,NA,NA
"297","del",82,31,"SRR3698500.516",TRUE,TRUE,6,0.625,"GGG",NA,NA,NA
"298","del",82,31,"SRR3698500.6488",TRUE,TRUE,6,0.625,"GGG",NA,NA,NA
"299","del",83,12,"SRR3698500.6215",FALSE,TRUE,1,0.104166666666667,"G",NA,NA,NA
"300","del",83,18,"SRR3698500.1168",TRUE,TRUE,6,0.625,"GG",NA,NA,NA
"301","del",83,18,"SRR3698500.1841",TRUE,TRUE,6,0.625,"GG",NA,NA,NA
"302","del",83,18,"SRR3698500.2849",TRUE,TRUE,6,0.625,"GG",NA,NA,NA
"303","del",83,18,"SRR3698500.2877",TRUE,TRUE,6,0.625,"GG",NA,NA,NA
"304","del",83,18,"SRR3698500.3021",TRUE,TRUE,6,0.625,"GG",NA,NA,NA
"305","del",83,18,"SRR3698500.5547",TRUE,TRUE,6,0.625,"GG",NA,NA,NA
"306","del",83,21,"SRR3698500.6332",TRUE,TRUE,2,0.208333333333333,"GG",NA,NA,NA
"307","del",83,21,"SRR3698500.977",TRUE,TRUE,2,0.208333333333333,"GG",NA,NA,NA
"308","del",83,24,"SRR3698500.120",TRUE,TRUE,104,10.8333333333333,"GGCCCT",NA,NA,NA
"309","del",83,24,"SRR3698500.1231",TRUE,TRUE,104,10.8333333333333,"GGCCCT",NA,NA,NA
"310","del",83,24,"SRR3698500.1242",TRUE,TRUE,104,10.8333333333333,"GGCCCT",NA,NA,NA
"311","del",83,24,"SRR3698500.1326",TRUE,TRUE,104,10.8333333333333,"GGCCCT",NA,NA,NA
"312","del",83,24,"SRR3698500.1393",TRUE,TRUE,104,10.8333333333333,"GGCCCT",NA,NA,NA
"313","del",83,24,"SRR3698500.1396",TRUE,TRUE,104,10.8333333333333,"GGCCCT",NA,NA,NA
"314","del",83,24,"SRR3698500.1447",TRUE,TRUE,104,10.8333333333333,"GGCCCT",NA,NA,NA
"315","del",83,24,"SRR3698500.1473",TRUE,TRUE,104,10.8333333333333,"GGCCCT",NA,NA,NA
"316","del",83,24,"SRR3698500.1524",TRUE,TRUE,104,10.8333333333333,"GGCCCT",NA,NA,NA
"317","del",83,24,"SRR3698500.1561",TRUE,TRUE,104,10.8333333333333,"GGCCCT",NA,NA,NA
"318","del",83,24,"SRR3698500.1661",TRUE,TRUE,104,10.8333333333333,"GGCCCT",NA,NA,NA
"319","del",83,24,"SRR3698500.168",TRUE,TRUE,104,10.8333333333333,"GGCCCT",NA,NA,NA
"320","del",83,24,"SRR3698500.1707",TRUE,TRUE,104,10.8333333333333,"GGCCCT",NA,NA,NA
"321","del",83,24,"SRR3698500.1765",TRUE,TRUE,104,10.8333333333333,"GGCCCT",NA,NA,NA
"322","del",83,24,"SRR3698500.1794",TRUE,TRUE,104,10.8333333333333,"GGCCCT",NA,NA,NA
"323","del",83,24,"SRR3698500.2018",TRUE,TRUE,104,10.8333333333333,"GGCCCT",NA,NA,NA
"324","del",83,24,"SRR3698500.2026",TRUE,TRUE,104,10.8333333333333,"GGCCCT",NA,NA,NA
"325","del",83,24,"SRR3698500.2045",TRUE,TRUE,104,10.8333333333333,"GGCCCT",NA,NA,NA
"326","del",83,24,"SRR3698500.2116",TRUE,TRUE,104,10.8333333333333,"GGCCCT",NA,NA,NA
"327","del",83,24,"SRR3698500.214",TRUE,TRUE,104,10.8333333333333,"GGCCCT",NA,NA,NA
"328","del",83,24,"SRR3698500.2187",TRUE,TRUE,104,10.8333333333333,"GGCCCT",NA,NA,NA
"329","del",83,24,"SRR3698500.2199",TRUE,TRUE,104,10.8333333333333,"GGCCCT",NA,NA,NA
"330","del",83,24,"SRR3698500.231",TRUE,TRUE,104,10.8333333333333,"GGCCCT",NA,NA,NA
"331","del",83,24,"SRR3698500.2349",TRUE,TRUE,104,10.8333333333333,"GGCCCT",NA,NA,NA
"332","del",83,24,"SRR3698500.2388",TRUE,TRUE,104,10.8333333333333,"GGCCCT",NA,NA,NA
"333","del",83,24,"SRR3698500.2396",TRUE,TRUE,104,10.8333333333333,"GGCCCT",NA,NA,NA
"334","del",83,24,"SRR3698500.2510",TRUE,TRUE,104,10.8333333333333,"GGCCCT",NA,NA,NA
"335","del",83,24,"SRR3698500.2552",TRUE,TRUE,104,10.8333333333333,"GGCCCT",NA,NA,NA
"336","del",83,24,"SRR3698500.2580",TRUE,TRUE,104,10.8333333333333,"GGCCCT",NA,NA,NA
"337","del",83,24,"SRR3698500.2736",TRUE,TRUE,104,10.8333333333333,"GGCCCT",NA,NA,NA
"338","del",83,24,"SRR3698500.2826",TRUE,TRUE,104,10.8333333333333,"GGCCCT",NA,NA,NA
"339","del",83,24,"SRR3698500.2864",TRUE,TRUE,104,10.8333333333333,"GGCCCT",NA,NA,NA
"340","del",83,24,"SRR3698500.2923",TRUE,TRUE,104,10.8333333333333,"GGCCCT",NA,NA,NA
"341","del",83,24,"SRR3698500.2997",TRUE,TRUE,104,10.8333333333333,"GGCCCT",NA,NA,NA
"342","del",83,24,"SRR3698500.3067",TRUE,TRUE,104,10.8333333333333,"GGCCCT",NA,NA,NA
"343","del",83,24,"SRR3698500.313",TRUE,TRUE,104,10.8333333333333,"GGCCCT",NA,NA,NA
"344","del",83,24,"SRR3698500.3157",TRUE,TRUE,104,10.8333333333333,"GGCCCT",NA,NA,NA
"345","del",83,24,"SRR3698500.3176",TRUE,TRUE,104,10.8333333333333,"GGCCCT",NA,NA,NA
"346","del",83,24,"SRR3698500.3222",TRUE,TRUE,104,10.8333333333333,"GGCCCT",NA,NA,NA
"347","del",83,24,"SRR3698500.3293",TRUE,TRUE,104,10.8333333333333,"GGCCCT",NA,NA,NA
"348","del",83,24,"SRR3698500.3517",TRUE,TRUE,104,10.8333333333333,"GGCCCT",NA,NA,NA
"349","del",83,24,"SRR3698500.3552",TRUE,TRUE,104,10.8333333333333,"GGCCCT",NA,NA,NA
"350","del",83,24,"SRR3698500.3629",TRUE,TRUE,104,10.8333333333333,"GGCCCT",NA,NA,NA
"351","del",83,24,"SRR3698500.3773",TRUE,TRUE,104,10.8333333333333,"GGCCCT",NA,NA,NA
"352","del",83,24,"SRR3698500.3817",TRUE,TRUE,104,10.8333333333333,"GGCCCT",NA,NA,NA
"353","del",83,24,"SRR3698500.3854",TRUE,TRUE,104,10.8333333333333,"GGCCCT",NA,NA,NA
"354","del",83,24,"SRR3698500.388",TRUE,TRUE,104,10.8333333333333,"GGCCCT",NA,NA,NA
"355","del",83,24,"SRR3698500.3943",TRUE,TRUE,104,10.8333333333333,"GGCCCT",NA,NA,NA
"356","del",83,24,"SRR3698500.3980",TRUE,TRUE,104,10.8333333333333,"GGCCCT",NA,NA,NA
"357","del",83,24,"SRR3698500.3983",TRUE,TRUE,104,10.8333333333333,"GGCCCT",NA,NA,NA
"358","del",83,24,"SRR3698500.4446",TRUE,TRUE,104,10.8333333333333,"GGCCCT",NA,NA,NA
"359","del",83,24,"SRR3698500.4496",TRUE,TRUE,104,10.8333333333333,"GGCCCT",NA,NA,NA
"360","del",83,24,"SRR3698500.4506",TRUE,TRUE,104,10.8333333333333,"GGCCCT",NA,NA,NA
"361","del",83,24,"SRR3698500.4746",TRUE,TRUE,104,10.8333333333333,"GGCCCT",NA,NA,NA
"362","del",83,24,"SRR3698500.4778",TRUE,TRUE,104,10.8333333333333,"GGCCCT",NA,NA,NA
"363","del",83,24,"SRR3698500.478",TRUE,TRUE,104,10.8333333333333,"GGCCCT",NA,NA,NA
"364","del",83,24,"SRR3698500.4913",TRUE,TRUE,104,10.8333333333333,"GGCCCT",NA,NA,NA
"365","del",83,24,"SRR3698500.4915",TRUE,TRUE,104,10.8333333333333,"GGCCCT",NA,NA,NA
"366","del",83,24,"SRR3698500.4967",TRUE,TRUE,104,10.8333333333333,"GGCCCT",NA,NA,NA
"367","del",83,24,"SRR3698500.50",TRUE,TRUE,104,10.8333333333333,"GGCCCT",NA,NA,NA
"368","del",83,24,"SRR3698500.5022",TRUE,TRUE,104,10.8333333333333,"GGCCCT",NA,NA,NA
"369","del",83,24,"SRR3698500.5052",TRUE,TRUE,104,10.8333333333333,"GGCCCT",NA,NA,NA
"370","del",83,24,"SRR3698500.5323",TRUE,TRUE,104,10.8333333333333,"GGCCCT",NA,NA,NA
"371","del",83,24,"SRR3698500.5396",TRUE,TRUE,104,10.8333333333333,"GGCCCT",NA,NA,NA
"372","del",83,24,"SRR3698500.5496",TRUE,TRUE,104,10.8333333333333,"GGCCCT",NA,NA,NA
"373","del",83,24,"SRR3698500.5553",TRUE,TRUE,104,10.8333333333333,"GGCCCT",NA,NA,NA
"374","del",83,24,"SRR3698500.5575",TRUE,TRUE,104,10.8333333333333,"GGCCCT",NA,NA,NA
"375","del",83,24,"SRR3698500.5748",TRUE,TRUE,104,10.8333333333333,"GGCCCT",NA,NA,NA
"376","del",83,24,"SRR3698500.5775",TRUE,TRUE,104,10.8333333333333,"GGCCCT",NA,NA,NA
"377","del",83,24,"SRR3698500.5832",TRUE,TRUE,104,10.8333333333333,"GGCCCT",NA,NA,NA
"378","del",83,24,"SRR3698500.5846",TRUE,TRUE,104,10.8333333333333,"GGCCCT",NA,NA,NA
"379","del",83,24,"SRR3698500.5964",TRUE,TRUE,104,10.8333333333333,"GGCCCT",NA,NA,NA
"380","del",83,24,"SRR3698500.5965",TRUE,TRUE,104,10.8333333333333,"GGCCCT",NA,NA,NA
"381","del",83,24,"SRR3698500.610",TRUE,TRUE,104,10.8333333333333,"GGCCCT",NA,NA,NA
"382","del",83,24,"SRR3698500.6151",TRUE,TRUE,104,10.8333333333333,"GGCCCT",NA,NA,NA
"383","del",83,24,"SRR3698500.6249",TRUE,TRUE,104,10.8333333333333,"GGCCCT",NA,NA,NA
"384","del",83,24,"SRR3698500.6312",TRUE,TRUE,104,10.8333333333333,"GGCCCT",NA,NA,NA
"385","del",83,24,"SRR3698500.6375",TRUE,TRUE,104,10.8333333333333,"GGCCCT",NA,NA,NA
"386","del",83,24,"SRR3698500.6422",TRUE,TRUE,104,10.8333333333333,"GGCCCT",NA,NA,NA
"387","del",83,24,"SRR3698500.6493",TRUE,TRUE,104,10.8333333333333,"GGCCCT",NA,NA,NA
"388","del",83,24,"SRR3698500.6528",TRUE,TRUE,104,10.8333333333333,"GGCCCT",NA,NA,NA
"389","del",83,24,"SRR3698500.6763",TRUE,TRUE,104,10.8333333333333,"GGCCCT",NA,NA,NA
"390","del",83,24,"SRR3698500.6855",TRUE,TRUE,104,10.8333333333333,"GGCCCT",NA,NA,NA
"391","del",83,24,"SRR3698500.6961",TRUE,TRUE,104,10.8333333333333,"GGCCCT",NA,NA,NA
"392","del",83,24,"SRR3698500.7085",TRUE,TRUE,104,10.8333333333333,"GGCCCT",NA,NA,NA
"393","del",83,24,"SRR3698500.7206",TRUE,TRUE,104,10.8333333333333,"GGCCCT",NA,NA,NA
"394","del",83,24,"SRR3698500.7229",TRUE,TRUE,104,10.8333333333333,"GGCCCT",NA,NA,NA
"395","del",83,24,"SRR3698500.739",TRUE,TRUE,104,10.8333333333333,"GGCCCT",NA,NA,NA
"396","del",83,24,"SRR3698500.7455",TRUE,TRUE,104,10.8333333333333,"GGCCCT",NA,NA,NA
"397","del",83,24,"SRR3698500.7519",TRUE,TRUE,104,10.8333333333333,"GGCCCT",NA,NA,NA
"398","del",83,24,"SRR3698500.7587",TRUE,TRUE,104,10.8333333333333,"GGCCCT",NA,NA,NA
"399","del",83,24,"SRR3698500.7621",TRUE,TRUE,104,10.8333333333333,"GGCCCT",NA,NA,NA
"400","del",83,24,"SRR3698500.7680",TRUE,TRUE,104,10.8333333333333,"GGCCCT",NA,NA,NA
"401","del",83,24,"SRR3698500.7720",TRUE,TRUE,104,10.8333333333333,"GGCCCT",NA,NA,NA
"402","del",83,24,"SRR3698500.8028",TRUE,TRUE,104,10.8333333333333,"GGCCCT",NA,NA,NA
"403","del",83,24,"SRR3698500.8088",TRUE,TRUE,104,10.8333333333333,"GGCCCT",NA,NA,NA
"404","del",83,24,"SRR3698500.8186",TRUE,TRUE,104,10.8333333333333,"GGCCCT",NA,NA,NA
"405","del",83,24,"SRR3698500.8218",TRUE,TRUE,104,10.8333333333333,"GGCCCT",NA,NA,NA
"406","del",83,24,"SRR3698500.8299",TRUE,TRUE,104,10.8333333333333,"GGCCCT",NA,NA,NA
"407","del",83,24,"SRR3698500.834",TRUE,TRUE,104,10.8333333333333,"GGCCCT",NA,NA,NA
"408","del",83,24,"SRR3698500.8353",TRUE,TRUE,104,10.8333333333333,"GGCCCT",NA,NA,NA
"409","del",83,24,"SRR3698500.922",TRUE,TRUE,104,10.8333333333333,"GGCCCT",NA,NA,NA
"410","del",83,24,"SRR3698500.990",TRUE,TRUE,104,10.8333333333333,"GGCCCT",NA,NA,NA
"411","del",83,24,"SRR3698500.995",TRUE,TRUE,104,10.8333333333333,"GGCCCT",NA,NA,NA
"412","del",83,27,"SRR3698500.7194",FALSE,TRUE,1,0.104166666666667,"NHEJ",NA,NA,NA
"413","del",83,30,"SRR3698500.5311",TRUE,TRUE,2,0.208333333333333,"GG",NA,NA,NA
"414","del",83,30,"SRR3698500.6366",TRUE,TRUE,2,0.208333333333333,"GG",NA,NA,NA
"415","del",83,37,"SRR3698500.4103",TRUE,TRUE,3,0.3125,"GGCC",NA,NA,NA
"416","del",83,37,"SRR3698500.5758",TRUE,TRUE,3,0.3125,"GGCC",NA,NA,NA
"417","del",83,37,"SRR3698500.6880",TRUE,TRUE,3,0.3125,"GGCC",NA,NA,NA
"418","del",83,53,"SRR3698500.2110",FALSE,TRUE,1,0.104166666666667,"GGC",NA,NA,NA
"419","del",83,68,"SRR3698500.6973",FALSE,TRUE,1,0.104166666666667,"GG",NA,NA,NA
"420","del",84,14,"SRR3698500.2477",TRUE,TRUE,9,0.9375,"GC",NA,NA,NA
"421","del",84,14,"SRR3698500.3572",TRUE,TRUE,9,0.9375,"GC",NA,NA,NA
"422","del",84,14,"SRR3698500.3942",TRUE,TRUE,9,0.9375,"GC",NA,NA,NA
"423","del",84,14,"SRR3698500.4478",TRUE,TRUE,9,0.9375,"GC",NA,NA,NA
"424","del",84,14,"SRR3698500.4931",TRUE,TRUE,9,0.9375,"GC",NA,NA,NA
"425","del",84,14,"SRR3698500.5314",TRUE,TRUE,9,0.9375,"GC",NA,NA,NA
"426","del",84,14,"SRR3698500.5752",TRUE,TRUE,9,0.9375,"GC",NA,NA,NA
"427","del",84,14,"SRR3698500.6032",TRUE,TRUE,9,0.9375,"GC",NA,NA,NA
"428","del",84,14,"SRR3698500.6251",TRUE,TRUE,9,0.9375,"GC",NA,NA,NA
"429","del",84,29,"SRR3698500.1438",TRUE,TRUE,4,0.416666666666667,"G",NA,NA,NA
"430","del",84,29,"SRR3698500.3070",TRUE,TRUE,4,0.416666666666667,"G",NA,NA,NA
"431","del",84,29,"SRR3698500.4534",TRUE,TRUE,4,0.416666666666667,"G",NA,NA,NA
"432","del",84,29,"SRR3698500.4741",TRUE,TRUE,4,0.416666666666667,"G",NA,NA,NA
"433","del",85,1,"SRR3698500.2442",TRUE,TRUE,2,0.208333333333333,"C",NA,NA,NA
"434","del",85,1,"SRR3698500.765",TRUE,TRUE,2,0.208333333333333,"C",NA,NA,NA
"435","del",85,13,"SRR3698500.3377",FALSE,TRUE,1,0.104166666666667,"NHEJ",NA,NA,NA
"436","del",85,25,"SRR3698500.3374",TRUE,TRUE,4,0.416666666666667,"CC",NA,NA,NA
"437","del",85,25,"SRR3698500.3631",TRUE,TRUE,4,0.416666666666667,"CC",NA,NA,NA
"438","del",85,25,"SRR3698500.3757",TRUE,TRUE,4,0.416666666666667,"CC",NA,NA,NA
"439","del",85,25,"SRR3698500.7429",TRUE,TRUE,4,0.416666666666667,"CC",NA,NA,NA
"440","del",85,43,"SRR3698500.338",FALSE,TRUE,1,0.104166666666667,"C",NA,NA,NA
"441","del",86,10,"SRR3698500.1177",TRUE,TRUE,4,0.416666666666667,"C",NA,NA,NA
"442","del",86,10,"SRR3698500.2712",TRUE,TRUE,4,0.416666666666667,"C",NA,NA,NA
"443","del",86,10,"SRR3698500.5940",TRUE,TRUE,4,0.416666666666667,"C",NA,NA,NA
"444","del",86,10,"SRR3698500.873",TRUE,TRUE,4,0.416666666666667,"C",NA,NA,NA
"445","del",86,13,"SRR3698500.4207",FALSE,TRUE,1,0.104166666666667,"C",NA,NA,NA
"446","del",86,23,"SRR3698500.1106",TRUE,TRUE,5,0.520833333333333,"CC",NA,NA,NA
"447","del",86,23,"SRR3698500.4482",TRUE,TRUE,5,0.520833333333333,"CC",NA,NA,NA
"448","del",86,23,"SRR3698500.6729",TRUE,TRUE,5,0.520833333333333,"CC",NA,NA,NA
"449","del",86,23,"SRR3698500.6959",TRUE,TRUE,5,0.520833333333333,"CC",NA,NA,NA
"450","del",86,23,"SRR3698500.8205",TRUE,TRUE,5,0.520833333333333,"CC",NA,NA,NA
"451","del",86,33,"SRR3698500.2683",TRUE,TRUE,2,0.208333333333333,"C",NA,NA,NA
"452","del",86,33,"SRR3698500.6699",TRUE,TRUE,2,0.208333333333333,"C",NA,NA,NA
"453","del",86,36,"SRR3698500.3457",TRUE,TRUE,3,0.3125,"CCTC",NA,NA,NA
"454","del",86,36,"SRR3698500.4750",TRUE,TRUE,3,0.3125,"CCTC",NA,NA,NA
"455","del",86,36,"SRR3698500.6008",TRUE,TRUE,3,0.3125,"CCTC",NA,NA,NA
"456","del",87,19,"SRR3698500.7914",FALSE,TRUE,1,0.104166666666667,"NHEJ",NA,NA,NA
"457","del",88,15,"SRR3698500.2462",TRUE,TRUE,2,0.208333333333333,"T",NA,NA,NA
"458","del",88,15,"SRR3698500.7994",TRUE,TRUE,2,0.208333333333333,"T",NA,NA,NA
"459","del",88,30,"SRR3698500.5059",TRUE,TRUE,2,0.208333333333333,"TC",NA,NA,NA
"460","del",88,30,"SRR3698500.6340",TRUE,TRUE,2,0.208333333333333,"TC",NA,NA,NA
"461","del",88,39,"SRR3698500.5615",FALSE,TRUE,1,0.104166666666667,"TC",NA,NA,NA
"462","del",89,7,"SRR3698500.6949",FALSE,TRUE,1,0.104166666666667,"C",NA,NA,NA
"463","del",89,8,"SRR3698500.7117",FALSE,TRUE,1,0.104166666666667,"NHEJ",NA,NA,NA
"464","del",89,20,"SRR3698500.3024",TRUE,TRUE,3,0.3125,"CC",NA,NA,NA
"465","del",89,20,"SRR3698500.6270",TRUE,TRUE,3,0.3125,"CC",NA,NA,NA
"466","del",89,20,"SRR3698500.7536",TRUE,TRUE,3,0.3125,"CC",NA,NA,NA
"467","del",89,21,"SRR3698500.1095",TRUE,TRUE,2,0.208333333333333,"CCT",NA,NA,NA
"468","del",89,21,"SRR3698500.377",TRUE,TRUE,2,0.208333333333333,"CCT",NA,NA,NA
"469","del",89,22,"SRR3698500.4758",FALSE,TRUE,1,0.104166666666667,"C",NA,NA,NA
"470","del",89,33,"SRR3698500.2386",TRUE,TRUE,3,0.3125,"CCTCTT",NA,NA,NA
"471","del",89,33,"SRR3698500.4470",TRUE,TRUE,3,0.3125,"CCTCTT",NA,NA,NA
"472","del",89,33,"SRR3698500.7582",TRUE,TRUE,3,0.3125,"CCTCTT",NA,NA,NA
"473","del",90,6,"SRR3698500.5295",FALSE,TRUE,1,0.104166666666667,"CT",NA,NA,NA
"474","del",90,9,"SRR3698500.4011",FALSE,TRUE,1,0.104166666666667,"CT",NA,NA,NA
"475","del",90,18,"SRR3698500.355",FALSE,TRUE,1,0.104166666666667,"NHEJ",NA,NA,NA
"476","del",90,19,"SRR3698500.4595",TRUE,TRUE,3,0.3125,"C",NA,NA,NA
"477","del",90,19,"SRR3698500.5310",TRUE,TRUE,3,0.3125,"C",NA,NA,NA
"478","del",90,19,"SRR3698500.7684",TRUE,TRUE,3,0.3125,"C",NA,NA,NA
"479","del",90,27,"SRR3698500.122",FALSE,TRUE,1,0.104166666666667,"NHEJ",NA,NA,NA
"480","del",90,38,"SRR3698500.2138",FALSE,TRUE,1,0.104166666666667,"C",NA,NA,NA
"481","del",91,23,"SRR3698500.4593",FALSE,TRUE,1,0.104166666666667,"NHEJ",NA,NA,NA
"482","del",91,26,"SRR3698500.5026",FALSE,TRUE,1,0.104166666666667,"NHEJ",NA,NA,NA
"483","del",92,4,"SRR3698500.1631",TRUE,TRUE,2,0.208333333333333,"CT",NA,NA,NA
"484","del",92,4,"SRR3698500.2548",TRUE,TRUE,2,0.208333333333333,"CT",NA,NA,NA
"485","del",92,5,"SRR3698500.4698",FALSE,TRUE,1,0.104166666666667,"NHEJ",NA,NA,NA
"486","del",92,19,"SRR3698500.1751",TRUE,TRUE,3,0.3125,"CT",NA,NA,NA
"487","del",92,19,"SRR3698500.3125",TRUE,TRUE,3,0.3125,"CT",NA,NA,NA
"488","del",92,19,"SRR3698500.3316",TRUE,TRUE,3,0.3125,"CT",NA,NA,NA
"489","del",92,22,"SRR3698500.6724",FALSE,TRUE,1,0.104166666666667,"NHEJ",NA,NA,NA
"490","del",92,31,"SRR3698500.3926",FALSE,TRUE,1,0.104166666666667,"CT",NA,NA,NA
"491","del",93,25,"SRR3698500.6426",TRUE,TRUE,2,0.208333333333333,"T",NA,NA,NA
"492","del",93,25,"SRR3698500.673",TRUE,TRUE,2,0.208333333333333,"T",NA,NA,NA
"493","del",94,3,"SRR3698500.1006",TRUE,TRUE,292,30.4166666666667,"TGC",NA,NA,NA
"494","del",94,3,"SRR3698500.1055",TRUE,TRUE,292,30.4166666666667,"TGC",NA,NA,NA
"495","del",94,3,"SRR3698500.1078",TRUE,TRUE,292,30.4166666666667,"TGC",NA,NA,NA
"496","del",94,3,"SRR3698500.1111",TRUE,TRUE,292,30.4166666666667,"TGC",NA,NA,NA
"497","del",94,3,"SRR3698500.112",TRUE,TRUE,292,30.4166666666667,"TGC",NA,NA,NA
"498","del",94,3,"SRR3698500.1150",TRUE,TRUE,292,30.4166666666667,"TGC",NA,NA,NA
"499","del",94,3,"SRR3698500.1196",TRUE,TRUE,292,30.4166666666667,"TGC",NA,NA,NA
"500","del",94,3,"SRR3698500.1200",TRUE,TRUE,292,30.4166666666667,"TGC",NA,NA,NA
"501","del",94,3,"SRR3698500.1276",TRUE,TRUE,292,30.4166666666667,"TGC",NA,NA,NA
"502","del",94,3,"SRR3698500.1285",TRUE,TRUE,292,30.4166666666667,"TGC",NA,NA,NA
"503","del",94,3,"SRR3698500.1354",TRUE,TRUE,292,30.4166666666667,"TGC",NA,NA,NA
"504","del",94,3,"SRR3698500.136",TRUE,TRUE,292,30.4166666666667,"TGC",NA,NA,NA
"505","del",94,3,"SRR3698500.1409",TRUE,TRUE,292,30.4166666666667,"TGC",NA,NA,NA
"506","del",94,3,"SRR3698500.142",TRUE,TRUE,292,30.4166666666667,"TGC",NA,NA,NA
"507","del",94,3,"SRR3698500.144",TRUE,TRUE,292,30.4166666666667,"TGC",NA,NA,NA
"508","del",94,3,"SRR3698500.1474",TRUE,TRUE,292,30.4166666666667,"TGC",NA,NA,NA
"509","del",94,3,"SRR3698500.1489",TRUE,TRUE,292,30.4166666666667,"TGC",NA,NA,NA
"510","del",94,3,"SRR3698500.1508",TRUE,TRUE,292,30.4166666666667,"TGC",NA,NA,NA
"511","del",94,3,"SRR3698500.1533",TRUE,TRUE,292,30.4166666666667,"TGC",NA,NA,NA
"512","del",94,3,"SRR3698500.1575",TRUE,TRUE,292,30.4166666666667,"TGC",NA,NA,NA
"513","del",94,3,"SRR3698500.1576",TRUE,TRUE,292,30.4166666666667,"TGC",NA,NA,NA
"514","del",94,3,"SRR3698500.1643",TRUE,TRUE,292,30.4166666666667,"TGC",NA,NA,NA
"515","del",94,3,"SRR3698500.1669",TRUE,TRUE,292,30.4166666666667,"TGC",NA,NA,NA
"516","del",94,3,"SRR3698500.1673",TRUE,TRUE,292,30.4166666666667,"TGC",NA,NA,NA
"517","del",94,3,"SRR3698500.1710",TRUE,TRUE,292,30.4166666666667,"TGC",NA,NA,NA
"518","del",94,3,"SRR3698500.1752",TRUE,TRUE,292,30.4166666666667,"TGC",NA,NA,NA
"519","del",94,3,"SRR3698500.1756",TRUE,TRUE,292,30.4166666666667,"TGC",NA,NA,NA
"520","del",94,3,"SRR3698500.1783",TRUE,TRUE,292,30.4166666666667,"TGC",NA,NA,NA
"521","del",94,3,"SRR3698500.1807",TRUE,TRUE,292,30.4166666666667,"TGC",NA,NA,NA
"522","del",94,3,"SRR3698500.1809",TRUE,TRUE,292,30.4166666666667,"TGC",NA,NA,NA
"523","del",94,3,"SRR3698500.184",TRUE,TRUE,292,30.4166666666667,"TGC",NA,NA,NA
"524","del",94,3,"SRR3698500.1851",TRUE,TRUE,292,30.4166666666667,"TGC",NA,NA,NA
"525","del",94,3,"SRR3698500.1861",TRUE,TRUE,292,30.4166666666667,"TGC",NA,NA,NA
"526","del",94,3,"SRR3698500.188",TRUE,TRUE,292,30.4166666666667,"TGC",NA,NA,NA
"527","del",94,3,"SRR3698500.1889",TRUE,TRUE,292,30.4166666666667,"TGC",NA,NA,NA
"528","del",94,3,"SRR3698500.1897",TRUE,TRUE,292,30.4166666666667,"TGC",NA,NA,NA
"529","del",94,3,"SRR3698500.1914",TRUE,TRUE,292,30.4166666666667,"TGC",NA,NA,NA
"530","del",94,3,"SRR3698500.1917",TRUE,TRUE,292,30.4166666666667,"TGC",NA,NA,NA
"531","del",94,3,"SRR3698500.1968",TRUE,TRUE,292,30.4166666666667,"TGC",NA,NA,NA
"532","del",94,3,"SRR3698500.1979",TRUE,TRUE,292,30.4166666666667,"TGC",NA,NA,NA
"533","del",94,3,"SRR3698500.1981",TRUE,TRUE,292,30.4166666666667,"TGC",NA,NA,NA
"534","del",94,3,"SRR3698500.1985",TRUE,TRUE,292,30.4166666666667,"TGC",NA,NA,NA
"535","del",94,3,"SRR3698500.1987",TRUE,TRUE,292,30.4166666666667,"TGC",NA,NA,NA
"536","del",94,3,"SRR3698500.2015",TRUE,TRUE,292,30.4166666666667,"TGC",NA,NA,NA
"537","del",94,3,"SRR3698500.2055",TRUE,TRUE,292,30.4166666666667,"TGC",NA,NA,NA
"538","del",94,3,"SRR3698500.2056",TRUE,TRUE,292,30.4166666666667,"TGC",NA,NA,NA
"539","del",94,3,"SRR3698500.2061",TRUE,TRUE,292,30.4166666666667,"TGC",NA,NA,NA
"540","del",94,3,"SRR3698500.2071",TRUE,TRUE,292,30.4166666666667,"TGC",NA,NA,NA
"541","del",94,3,"SRR3698500.2080",TRUE,TRUE,292,30.4166666666667,"TGC",NA,NA,NA
"542","del",94,3,"SRR3698500.2085",TRUE,TRUE,292,30.4166666666667,"TGC",NA,NA,NA
"543","del",94,3,"SRR3698500.2113",TRUE,TRUE,292,30.4166666666667,"TGC",NA,NA,NA
"544","del",94,3,"SRR3698500.2114",TRUE,TRUE,292,30.4166666666667,"TGC",NA,NA,NA
"545","del",94,3,"SRR3698500.2135",TRUE,TRUE,292,30.4166666666667,"TGC",NA,NA,NA
"546","del",94,3,"SRR3698500.2178",TRUE,TRUE,292,30.4166666666667,"TGC",NA,NA,NA
"547","del",94,3,"SRR3698500.2211",TRUE,TRUE,292,30.4166666666667,"TGC",NA,NA,NA
"548","del",94,3,"SRR3698500.2238",TRUE,TRUE,292,30.4166666666667,"TGC",NA,NA,NA
"549","del",94,3,"SRR3698500.2307",TRUE,TRUE,292,30.4166666666667,"TGC",NA,NA,NA
"550","del",94,3,"SRR3698500.235",TRUE,TRUE,292,30.4166666666667,"TGC",NA,NA,NA
"551","del",94,3,"SRR3698500.2376",TRUE,TRUE,292,30.4166666666667,"TGC",NA,NA,NA
"552","del",94,3,"SRR3698500.2446",TRUE,TRUE,292,30.4166666666667,"TGC",NA,NA,NA
"553","del",94,3,"SRR3698500.2454",TRUE,TRUE,292,30.4166666666667,"TGC",NA,NA,NA
"554","del",94,3,"SRR3698500.2464",TRUE,TRUE,292,30.4166666666667,"TGC",NA,NA,NA
"555","del",94,3,"SRR3698500.2496",TRUE,TRUE,292,30.4166666666667,"TGC",NA,NA,NA
"556","del",94,3,"SRR3698500.2501",TRUE,TRUE,292,30.4166666666667,"TGC",NA,NA,NA
"557","del",94,3,"SRR3698500.2507",TRUE,TRUE,292,30.4166666666667,"TGC",NA,NA,NA
"558","del",94,3,"SRR3698500.2543",TRUE,TRUE,292,30.4166666666667,"TGC",NA,NA,NA
"559","del",94,3,"SRR3698500.2557",TRUE,TRUE,292,30.4166666666667,"TGC",NA,NA,NA
"560","del",94,3,"SRR3698500.2577",TRUE,TRUE,292,30.4166666666667,"TGC",NA,NA,NA
"561","del",94,3,"SRR3698500.2585",TRUE,TRUE,292,30.4166666666667,"TGC",NA,NA,NA
"562","del",94,3,"SRR3698500.2591",TRUE,TRUE,292,30.4166666666667,"TGC",NA,NA,NA
"563","del",94,3,"SRR3698500.2621",TRUE,TRUE,292,30.4166666666667,"TGC",NA,NA,NA
"564","del",94,3,"SRR3698500.2643",TRUE,TRUE,292,30.4166666666667,"TGC",NA,NA,NA
"565","del",94,3,"SRR3698500.2669",TRUE,TRUE,292,30.4166666666667,"TGC",NA,NA,NA
"566","del",94,3,"SRR3698500.2686",TRUE,TRUE,292,30.4166666666667,"TGC",NA,NA,NA
"567","del",94,3,"SRR3698500.27",TRUE,TRUE,292,30.4166666666667,"TGC",NA,NA,NA
"568","del",94,3,"SRR3698500.2715",TRUE,TRUE,292,30.4166666666667,"TGC",NA,NA,NA
"569","del",94,3,"SRR3698500.2731",TRUE,TRUE,292,30.4166666666667,"TGC",NA,NA,NA
"570","del",94,3,"SRR3698500.2842",TRUE,TRUE,292,30.4166666666667,"TGC",NA,NA,NA
"571","del",94,3,"SRR3698500.287",TRUE,TRUE,292,30.4166666666667,"TGC",NA,NA,NA
"572","del",94,3,"SRR3698500.2887",TRUE,TRUE,292,30.4166666666667,"TGC",NA,NA,NA
"573","del",94,3,"SRR3698500.2972",TRUE,TRUE,292,30.4166666666667,"TGC",NA,NA,NA
"574","del",94,3,"SRR3698500.3001",TRUE,TRUE,292,30.4166666666667,"TGC",NA,NA,NA
"575","del",94,3,"SRR3698500.3025",TRUE,TRUE,292,30.4166666666667,"TGC",NA,NA,NA
"576","del",94,3,"SRR3698500.3099",TRUE,TRUE,292,30.4166666666667,"TGC",NA,NA,NA
"577","del",94,3,"SRR3698500.3112",TRUE,TRUE,292,30.4166666666667,"TGC",NA,NA,NA
"578","del",94,3,"SRR3698500.3137",TRUE,TRUE,292,30.4166666666667,"TGC",NA,NA,NA
"579","del",94,3,"SRR3698500.3186",TRUE,TRUE,292,30.4166666666667,"TGC",NA,NA,NA
"580","del",94,3,"SRR3698500.3237",TRUE,TRUE,292,30.4166666666667,"TGC",NA,NA,NA
"581","del",94,3,"SRR3698500.324",TRUE,TRUE,292,30.4166666666667,"TGC",NA,NA,NA
"582","del",94,3,"SRR3698500.3250",TRUE,TRUE,292,30.4166666666667,"TGC",NA,NA,NA
"583","del",94,3,"SRR3698500.3303",TRUE,TRUE,292,30.4166666666667,"TGC",NA,NA,NA
"584","del",94,3,"SRR3698500.3364",TRUE,TRUE,292,30.4166666666667,"TGC",NA,NA,NA
"585","del",94,3,"SRR3698500.3418",TRUE,TRUE,292,30.4166666666667,"TGC",NA,NA,NA
"586","del",94,3,"SRR3698500.3423",TRUE,TRUE,292,30.4166666666667,"TGC",NA,NA,NA
"587","del",94,3,"SRR3698500.3444",TRUE,TRUE,292,30.4166666666667,"TGC",NA,NA,NA
"588","del",94,3,"SRR3698500.3450",TRUE,TRUE,292,30.4166666666667,"TGC",NA,NA,NA
"589","del",94,3,"SRR3698500.3477",TRUE,TRUE,292,30.4166666666667,"TGC",NA,NA,NA
"590","del",94,3,"SRR3698500.3490",TRUE,TRUE,292,30.4166666666667,"TGC",NA,NA,NA
"591","del",94,3,"SRR3698500.3497",TRUE,TRUE,292,30.4166666666667,"TGC",NA,NA,NA
"592","del",94,3,"SRR3698500.3499",TRUE,TRUE,292,30.4166666666667,"TGC",NA,NA,NA
"593","del",94,3,"SRR3698500.3560",TRUE,TRUE,292,30.4166666666667,"TGC",NA,NA,NA
"594","del",94,3,"SRR3698500.3612",TRUE,TRUE,292,30.4166666666667,"TGC",NA,NA,NA
"595","del",94,3,"SRR3698500.3632",TRUE,TRUE,292,30.4166666666667,"TGC",NA,NA,NA
"596","del",94,3,"SRR3698500.3651",TRUE,TRUE,292,30.4166666666667,"TGC",NA,NA,NA
"597","del",94,3,"SRR3698500.3687",TRUE,TRUE,292,30.4166666666667,"TGC",NA,NA,NA
"598","del",94,3,"SRR3698500.3702",TRUE,TRUE,292,30.4166666666667,"TGC",NA,NA,NA
"599","del",94,3,"SRR3698500.3717",TRUE,TRUE,292,30.4166666666667,"TGC",NA,NA,NA
"600","del",94,3,"SRR3698500.375",TRUE,TRUE,292,30.4166666666667,"TGC",NA,NA,NA
"601","del",94,3,"SRR3698500.3790",TRUE,TRUE,292,30.4166666666667,"TGC",NA,NA,NA
"602","del",94,3,"SRR3698500.3887",TRUE,TRUE,292,30.4166666666667,"TGC",NA,NA,NA
"603","del",94,3,"SRR3698500.3898",TRUE,TRUE,292,30.4166666666667,"TGC",NA,NA,NA
"604","del",94,3,"SRR3698500.3914",TRUE,TRUE,292,30.4166666666667,"TGC",NA,NA,NA
"605","del",94,3,"SRR3698500.3919",TRUE,TRUE,292,30.4166666666667,"TGC",NA,NA,NA
"606","del",94,3,"SRR3698500.3933",TRUE,TRUE,292,30.4166666666667,"TGC",NA,NA,NA
"607","del",94,3,"SRR3698500.3940",TRUE,TRUE,292,30.4166666666667,"TGC",NA,NA,NA
"608","del",94,3,"SRR3698500.3948",TRUE,TRUE,292,30.4166666666667,"TGC",NA,NA,NA
"609","del",94,3,"SRR3698500.397",TRUE,TRUE,292,30.4166666666667,"TGC",NA,NA,NA
"610","del",94,3,"SRR3698500.3970",TRUE,TRUE,292,30.4166666666667,"TGC",NA,NA,NA
"611","del",94,3,"SRR3698500.4055",TRUE,TRUE,292,30.4166666666667,"TGC",NA,NA,NA
"612","del",94,3,"SRR3698500.408",TRUE,TRUE,292,30.4166666666667,"TGC",NA,NA,NA
"613","del",94,3,"SRR3698500.4090",TRUE,TRUE,292,30.4166666666667,"TGC",NA,NA,NA
"614","del",94,3,"SRR3698500.413",TRUE,TRUE,292,30.4166666666667,"TGC",NA,NA,NA
"615","del",94,3,"SRR3698500.4149",TRUE,TRUE,292,30.4166666666667,"TGC",NA,NA,NA
"616","del",94,3,"SRR3698500.4164",TRUE,TRUE,292,30.4166666666667,"TGC",NA,NA,NA
"617","del",94,3,"SRR3698500.4213",TRUE,TRUE,292,30.4166666666667,"TGC",NA,NA,NA
"618","del",94,3,"SRR3698500.4233",TRUE,TRUE,292,30.4166666666667,"TGC",NA,NA,NA
"619","del",94,3,"SRR3698500.4247",TRUE,TRUE,292,30.4166666666667,"TGC",NA,NA,NA
"620","del",94,3,"SRR3698500.4319",TRUE,TRUE,292,30.4166666666667,"TGC",NA,NA,NA
"621","del",94,3,"SRR3698500.4323",TRUE,TRUE,292,30.4166666666667,"TGC",NA,NA,NA
"622","del",94,3,"SRR3698500.4373",TRUE,TRUE,292,30.4166666666667,"TGC",NA,NA,NA
"623","del",94,3,"SRR3698500.4408",TRUE,TRUE,292,30.4166666666667,"TGC",NA,NA,NA
"624","del",94,3,"SRR3698500.4409",TRUE,TRUE,292,30.4166666666667,"TGC",NA,NA,NA
"625","del",94,3,"SRR3698500.4410",TRUE,TRUE,292,30.4166666666667,"TGC",NA,NA,NA
"626","del",94,3,"SRR3698500.4422",TRUE,TRUE,292,30.4166666666667,"TGC",NA,NA,NA
"627","del",94,3,"SRR3698500.4430",TRUE,TRUE,292,30.4166666666667,"TGC",NA,NA,NA
"628","del",94,3,"SRR3698500.444",TRUE,TRUE,292,30.4166666666667,"TGC",NA,NA,NA
"629","del",94,3,"SRR3698500.445",TRUE,TRUE,292,30.4166666666667,"TGC",NA,NA,NA
"630","del",94,3,"SRR3698500.446",TRUE,TRUE,292,30.4166666666667,"TGC",NA,NA,NA
"631","del",94,3,"SRR3698500.4500",TRUE,TRUE,292,30.4166666666667,"TGC",NA,NA,NA
"632","del",94,3,"SRR3698500.4516",TRUE,TRUE,292,30.4166666666667,"TGC",NA,NA,NA
"633","del",94,3,"SRR3698500.4526",TRUE,TRUE,292,30.4166666666667,"TGC",NA,NA,NA
"634","del",94,3,"SRR3698500.4545",TRUE,TRUE,292,30.4166666666667,"TGC",NA,NA,NA
"635","del",94,3,"SRR3698500.4560",TRUE,TRUE,292,30.4166666666667,"TGC",NA,NA,NA
"636","del",94,3,"SRR3698500.4583",TRUE,TRUE,292,30.4166666666667,"TGC",NA,NA,NA
"637","del",94,3,"SRR3698500.4591",TRUE,TRUE,292,30.4166666666667,"TGC",NA,NA,NA
"638","del",94,3,"SRR3698500.4664",TRUE,TRUE,292,30.4166666666667,"TGC",NA,NA,NA
"639","del",94,3,"SRR3698500.468",TRUE,TRUE,292,30.4166666666667,"TGC",NA,NA,NA
"640","del",94,3,"SRR3698500.4714",TRUE,TRUE,292,30.4166666666667,"TGC",NA,NA,NA
"641","del",94,3,"SRR3698500.473",TRUE,TRUE,292,30.4166666666667,"TGC",NA,NA,NA
"642","del",94,3,"SRR3698500.4775",TRUE,TRUE,292,30.4166666666667,"TGC",NA,NA,NA
"643","del",94,3,"SRR3698500.4782",TRUE,TRUE,292,30.4166666666667,"TGC",NA,NA,NA
"644","del",94,3,"SRR3698500.4820",TRUE,TRUE,292,30.4166666666667,"TGC",NA,NA,NA
"645","del",94,3,"SRR3698500.4828",TRUE,TRUE,292,30.4166666666667,"TGC",NA,NA,NA
"646","del",94,3,"SRR3698500.4834",TRUE,TRUE,292,30.4166666666667,"TGC",NA,NA,NA
"647","del",94,3,"SRR3698500.4848",TRUE,TRUE,292,30.4166666666667,"TGC",NA,NA,NA
"648","del",94,3,"SRR3698500.4875",TRUE,TRUE,292,30.4166666666667,"TGC",NA,NA,NA
"649","del",94,3,"SRR3698500.4903",TRUE,TRUE,292,30.4166666666667,"TGC",NA,NA,NA
"650","del",94,3,"SRR3698500.4906",TRUE,TRUE,292,30.4166666666667,"TGC",NA,NA,NA
"651","del",94,3,"SRR3698500.4917",TRUE,TRUE,292,30.4166666666667,"TGC",NA,NA,NA
"652","del",94,3,"SRR3698500.4954",TRUE,TRUE,292,30.4166666666667,"TGC",NA,NA,NA
"653","del",94,3,"SRR3698500.5043",TRUE,TRUE,292,30.4166666666667,"TGC",NA,NA,NA
"654","del",94,3,"SRR3698500.5054",TRUE,TRUE,292,30.4166666666667,"TGC",NA,NA,NA
"655","del",94,3,"SRR3698500.5066",TRUE,TRUE,292,30.4166666666667,"TGC",NA,NA,NA
"656","del",94,3,"SRR3698500.5079",TRUE,TRUE,292,30.4166666666667,"TGC",NA,NA,NA
"657","del",94,3,"SRR3698500.5080",TRUE,TRUE,292,30.4166666666667,"TGC",NA,NA,NA
"658","del",94,3,"SRR3698500.5153",TRUE,TRUE,292,30.4166666666667,"TGC",NA,NA,NA
"659","del",94,3,"SRR3698500.5164",TRUE,TRUE,292,30.4166666666667,"TGC",NA,NA,NA
"660","del",94,3,"SRR3698500.5171",TRUE,TRUE,292,30.4166666666667,"TGC",NA,NA,NA
"661","del",94,3,"SRR3698500.5223",TRUE,TRUE,292,30.4166666666667,"TGC",NA,NA,NA
"662","del",94,3,"SRR3698500.5246",TRUE,TRUE,292,30.4166666666667,"TGC",NA,NA,NA
"663","del",94,3,"SRR3698500.5296",TRUE,TRUE,292,30.4166666666667,"TGC",NA,NA,NA
"664","del",94,3,"SRR3698500.5318",TRUE,TRUE,292,30.4166666666667,"TGC",NA,NA,NA
"665","del",94,3,"SRR3698500.5343",TRUE,TRUE,292,30.4166666666667,"TGC",NA,NA,NA
"666","del",94,3,"SRR3698500.5350",TRUE,TRUE,292,30.4166666666667,"TGC",NA,NA,NA
"667","del",94,3,"SRR3698500.5414",TRUE,TRUE,292,30.4166666666667,"TGC",NA,NA,NA
"668","del",94,3,"SRR3698500.5433",TRUE,TRUE,292,30.4166666666667,"TGC",NA,NA,NA
"669","del",94,3,"SRR3698500.5447",TRUE,TRUE,292,30.4166666666667,"TGC",NA,NA,NA
"670","del",94,3,"SRR3698500.5510",TRUE,TRUE,292,30.4166666666667,"TGC",NA,NA,NA
"671","del",94,3,"SRR3698500.5535",TRUE,TRUE,292,30.4166666666667,"TGC",NA,NA,NA
"672","del",94,3,"SRR3698500.5548",TRUE,TRUE,292,30.4166666666667,"TGC",NA,NA,NA
"673","del",94,3,"SRR3698500.5611",TRUE,TRUE,292,30.4166666666667,"TGC",NA,NA,NA
"674","del",94,3,"SRR3698500.5644",TRUE,TRUE,292,30.4166666666667,"TGC",NA,NA,NA
"675","del",94,3,"SRR3698500.5652",TRUE,TRUE,292,30.4166666666667,"TGC",NA,NA,NA
"676","del",94,3,"SRR3698500.5662",TRUE,TRUE,292,30.4166666666667,"TGC",NA,NA,NA
"677","del",94,3,"SRR3698500.5669",TRUE,TRUE,292,30.4166666666667,"TGC",NA,NA,NA
"678","del",94,3,"SRR3698500.5708",TRUE,TRUE,292,30.4166666666667,"TGC",NA,NA,NA
"679","del",94,3,"SRR3698500.5745",TRUE,TRUE,292,30.4166666666667,"TGC",NA,NA,NA
"680","del",94,3,"SRR3698500.5850",TRUE,TRUE,292,30.4166666666667,"TGC",NA,NA,NA
"681","del",94,3,"SRR3698500.5852",TRUE,TRUE,292,30.4166666666667,"TGC",NA,NA,NA
"682","del",94,3,"SRR3698500.5873",TRUE,TRUE,292,30.4166666666667,"TGC",NA,NA,NA
"683","del",94,3,"SRR3698500.5918",TRUE,TRUE,292,30.4166666666667,"TGC",NA,NA,NA
"684","del",94,3,"SRR3698500.5987",TRUE,TRUE,292,30.4166666666667,"TGC",NA,NA,NA
"685","del",94,3,"SRR3698500.6050",TRUE,TRUE,292,30.4166666666667,"TGC",NA,NA,NA
"686","del",94,3,"SRR3698500.6113",TRUE,TRUE,292,30.4166666666667,"TGC",NA,NA,NA
"687","del",94,3,"SRR3698500.616",TRUE,TRUE,292,30.4166666666667,"TGC",NA,NA,NA
"688","del",94,3,"SRR3698500.6161",TRUE,TRUE,292,30.4166666666667,"TGC",NA,NA,NA
"689","del",94,3,"SRR3698500.618",TRUE,TRUE,292,30.4166666666667,"TGC",NA,NA,NA
"690","del",94,3,"SRR3698500.6187",TRUE,TRUE,292,30.4166666666667,"TGC",NA,NA,NA
"691","del",94,3,"SRR3698500.6240",TRUE,TRUE,292,30.4166666666667,"TGC",NA,NA,NA
"692","del",94,3,"SRR3698500.6306",TRUE,TRUE,292,30.4166666666667,"TGC",NA,NA,NA
"693","del",94,3,"SRR3698500.6311",TRUE,TRUE,292,30.4166666666667,"TGC",NA,NA,NA
"694","del",94,3,"SRR3698500.6349",TRUE,TRUE,292,30.4166666666667,"TGC",NA,NA,NA
"695","del",94,3,"SRR3698500.6376",TRUE,TRUE,292,30.4166666666667,"TGC",NA,NA,NA
"696","del",94,3,"SRR3698500.6392",TRUE,TRUE,292,30.4166666666667,"TGC",NA,NA,NA
"697","del",94,3,"SRR3698500.6396",TRUE,TRUE,292,30.4166666666667,"TGC",NA,NA,NA
"698","del",94,3,"SRR3698500.6401",TRUE,TRUE,292,30.4166666666667,"TGC",NA,NA,NA
"699","del",94,3,"SRR3698500.6458",TRUE,TRUE,292,30.4166666666667,"TGC",NA,NA,NA
"700","del",94,3,"SRR3698500.6465",TRUE,TRUE,292,30.4166666666667,"TGC",NA,NA,NA
"701","del",94,3,"SRR3698500.6477",TRUE,TRUE,292,30.4166666666667,"TGC",NA,NA,NA
"702","del",94,3,"SRR3698500.654",TRUE,TRUE,292,30.4166666666667,"TGC",NA,NA,NA
"703","del",94,3,"SRR3698500.6601",TRUE,TRUE,292,30.4166666666667,"TGC",NA,NA,NA
"704","del",94,3,"SRR3698500.6627",TRUE,TRUE,292,30.4166666666667,"TGC",NA,NA,NA
"705","del",94,3,"SRR3698500.6682",TRUE,TRUE,292,30.4166666666667,"TGC",NA,NA,NA
"706","del",94,3,"SRR3698500.6711",TRUE,TRUE,292,30.4166666666667,"TGC",NA,NA,NA
"707","del",94,3,"SRR3698500.6721",TRUE,TRUE,292,30.4166666666667,"TGC",NA,NA,NA
"708","del",94,3,"SRR3698500.6740",TRUE,TRUE,292,30.4166666666667,"TGC",NA,NA,NA
"709","del",94,3,"SRR3698500.6746",TRUE,TRUE,292,30.4166666666667,"TGC",NA,NA,NA
"710","del",94,3,"SRR3698500.6751",TRUE,TRUE,292,30.4166666666667,"TGC",NA,NA,NA
"711","del",94,3,"SRR3698500.6815",TRUE,TRUE,292,30.4166666666667,"TGC",NA,NA,NA
"712","del",94,3,"SRR3698500.6832",TRUE,TRUE,292,30.4166666666667,"TGC",NA,NA,NA
"713","del",94,3,"SRR3698500.6833",TRUE,TRUE,292,30.4166666666667,"TGC",NA,NA,NA
"714","del",94,3,"SRR3698500.6844",TRUE,TRUE,292,30.4166666666667,"TGC",NA,NA,NA
"715","del",94,3,"SRR3698500.6876",TRUE,TRUE,292,30.4166666666667,"TGC",NA,NA,NA
"716","del",94,3,"SRR3698500.690",TRUE,TRUE,292,30.4166666666667,"TGC",NA,NA,NA
"717","del",94,3,"SRR3698500.693",TRUE,TRUE,292,30.4166666666667,"TGC",NA,NA,NA
"718","del",94,3,"SRR3698500.6963",TRUE,TRUE,292,30.4166666666667,"TGC",NA,NA,NA
"719","del",94,3,"SRR3698500.698",TRUE,TRUE,292,30.4166666666667,"TGC",NA,NA,NA
"720","del",94,3,"SRR3698500.6990",TRUE,TRUE,292,30.4166666666667,"TGC",NA,NA,NA
"721","del",94,3,"SRR3698500.7004",TRUE,TRUE,292,30.4166666666667,"TGC",NA,NA,NA
"722","del",94,3,"SRR3698500.7007",TRUE,TRUE,292,30.4166666666667,"TGC",NA,NA,NA
"723","del",94,3,"SRR3698500.7055",TRUE,TRUE,292,30.4166666666667,"TGC",NA,NA,NA
"724","del",94,3,"SRR3698500.7126",TRUE,TRUE,292,30.4166666666667,"TGC",NA,NA,NA
"725","del",94,3,"SRR3698500.717",TRUE,TRUE,292,30.4166666666667,"TGC",NA,NA,NA
"726","del",94,3,"SRR3698500.7197",TRUE,TRUE,292,30.4166666666667,"TGC",NA,NA,NA
"727","del",94,3,"SRR3698500.7231",TRUE,TRUE,292,30.4166666666667,"TGC",NA,NA,NA
"728","del",94,3,"SRR3698500.7250",TRUE,TRUE,292,30.4166666666667,"TGC",NA,NA,NA
"729","del",94,3,"SRR3698500.7278",TRUE,TRUE,292,30.4166666666667,"TGC",NA,NA,NA
"730","del",94,3,"SRR3698500.7306",TRUE,TRUE,292,30.4166666666667,"TGC",NA,NA,NA
"731","del",94,3,"SRR3698500.7342",TRUE,TRUE,292,30.4166666666667,"TGC",NA,NA,NA
"732","del",94,3,"SRR3698500.7382",TRUE,TRUE,292,30.4166666666667,"TGC",NA,NA,NA
"733","del",94,3,"SRR3698500.7385",TRUE,TRUE,292,30.4166666666667,"TGC",NA,NA,NA
"734","del",94,3,"SRR3698500.747",TRUE,TRUE,292,30.4166666666667,"TGC",NA,NA,NA
"735","del",94,3,"SRR3698500.7475",TRUE,TRUE,292,30.4166666666667,"TGC",NA,NA,NA
"736","del",94,3,"SRR3698500.7484",TRUE,TRUE,292,30.4166666666667,"TGC",NA,NA,NA
"737","del",94,3,"SRR3698500.749",TRUE,TRUE,292,30.4166666666667,"TGC",NA,NA,NA
"738","del",94,3,"SRR3698500.7509",TRUE,TRUE,292,30.4166666666667,"TGC",NA,NA,NA
"739","del",94,3,"SRR3698500.7535",TRUE,TRUE,292,30.4166666666667,"TGC",NA,NA,NA
"740","del",94,3,"SRR3698500.7541",TRUE,TRUE,292,30.4166666666667,"TGC",NA,NA,NA
"741","del",94,3,"SRR3698500.7608",TRUE,TRUE,292,30.4166666666667,"TGC",NA,NA,NA
"742","del",94,3,"SRR3698500.7622",TRUE,TRUE,292,30.4166666666667,"TGC",NA,NA,NA
"743","del",94,3,"SRR3698500.7628",TRUE,TRUE,292,30.4166666666667,"TGC",NA,NA,NA
"744","del",94,3,"SRR3698500.7636",TRUE,TRUE,292,30.4166666666667,"TGC",NA,NA,NA
"745","del",94,3,"SRR3698500.764",TRUE,TRUE,292,30.4166666666667,"TGC",NA,NA,NA
"746","del",94,3,"SRR3698500.7640",TRUE,TRUE,292,30.4166666666667,"TGC",NA,NA,NA
"747","del",94,3,"SRR3698500.7671",TRUE,TRUE,292,30.4166666666667,"TGC",NA,NA,NA
"748","del",94,3,"SRR3698500.7683",TRUE,TRUE,292,30.4166666666667,"TGC",NA,NA,NA
"749","del",94,3,"SRR3698500.7688",TRUE,TRUE,292,30.4166666666667,"TGC",NA,NA,NA
"750","del",94,3,"SRR3698500.7695",TRUE,TRUE,292,30.4166666666667,"TGC",NA,NA,NA
"751","del",94,3,"SRR3698500.7808",TRUE,TRUE,292,30.4166666666667,"TGC",NA,NA,NA
"752","del",94,3,"SRR3698500.7822",TRUE,TRUE,292,30.4166666666667,"TGC",NA,NA,NA
"753","del",94,3,"SRR3698500.7828",TRUE,TRUE,292,30.4166666666667,"TGC",NA,NA,NA
"754","del",94,3,"SRR3698500.7853",TRUE,TRUE,292,30.4166666666667,"TGC",NA,NA,NA
"755","del",94,3,"SRR3698500.7881",TRUE,TRUE,292,30.4166666666667,"TGC",NA,NA,NA
"756","del",94,3,"SRR3698500.7899",TRUE,TRUE,292,30.4166666666667,"TGC",NA,NA,NA
"757","del",94,3,"SRR3698500.7903",TRUE,TRUE,292,30.4166666666667,"TGC",NA,NA,NA
"758","del",94,3,"SRR3698500.7916",TRUE,TRUE,292,30.4166666666667,"TGC",NA,NA,NA
"759","del",94,3,"SRR3698500.807",TRUE,TRUE,292,30.4166666666667,"TGC",NA,NA,NA
"760","del",94,3,"SRR3698500.8074",TRUE,TRUE,292,30.4166666666667,"TGC",NA,NA,NA
"761","del",94,3,"SRR3698500.809",TRUE,TRUE,292,30.4166666666667,"TGC",NA,NA,NA
"762","del",94,3,"SRR3698500.8098",TRUE,TRUE,292,30.4166666666667,"TGC",NA,NA,NA
"763","del",94,3,"SRR3698500.8107",TRUE,TRUE,292,30.4166666666667,"TGC",NA,NA,NA
"764","del",94,3,"SRR3698500.8127",TRUE,TRUE,292,30.4166666666667,"TGC",NA,NA,NA
"765","del",94,3,"SRR3698500.8139",TRUE,TRUE,292,30.4166666666667,"TGC",NA,NA,NA
"766","del",94,3,"SRR3698500.8155",TRUE,TRUE,292,30.4166666666667,"TGC",NA,NA,NA
"767","del",94,3,"SRR3698500.818",TRUE,TRUE,292,30.4166666666667,"TGC",NA,NA,NA
"768","del",94,3,"SRR3698500.8181",TRUE,TRUE,292,30.4166666666667,"TGC",NA,NA,NA
"769","del",94,3,"SRR3698500.819",TRUE,TRUE,292,30.4166666666667,"TGC",NA,NA,NA
"770","del",94,3,"SRR3698500.8240",TRUE,TRUE,292,30.4166666666667,"TGC",NA,NA,NA
"771","del",94,3,"SRR3698500.8272",TRUE,TRUE,292,30.4166666666667,"TGC",NA,NA,NA
"772","del",94,3,"SRR3698500.8286",TRUE,TRUE,292,30.4166666666667,"TGC",NA,NA,NA
"773","del",94,3,"SRR3698500.8327",TRUE,TRUE,292,30.4166666666667,"TGC",NA,NA,NA
"774","del",94,3,"SRR3698500.8347",TRUE,TRUE,292,30.4166666666667,"TGC",NA,NA,NA
"775","del",94,3,"SRR3698500.8360",TRUE,TRUE,292,30.4166666666667,"TGC",NA,NA,NA
"776","del",94,3,"SRR3698500.8368",TRUE,TRUE,292,30.4166666666667,"TGC",NA,NA,NA
"777","del",94,3,"SRR3698500.8385",TRUE,TRUE,292,30.4166666666667,"TGC",NA,NA,NA
"778","del",94,3,"SRR3698500.8386",TRUE,TRUE,292,30.4166666666667,"TGC",NA,NA,NA
"779","del",94,3,"SRR3698500.856",TRUE,TRUE,292,30.4166666666667,"TGC",NA,NA,NA
"780","del",94,3,"SRR3698500.9",TRUE,TRUE,292,30.4166666666667,"TGC",NA,NA,NA
"781","del",94,3,"SRR3698500.901",TRUE,TRUE,292,30.4166666666667,"TGC",NA,NA,NA
"782","del",94,3,"SRR3698500.926",TRUE,TRUE,292,30.4166666666667,"TGC",NA,NA,NA
"783","del",94,3,"SRR3698500.967",TRUE,TRUE,292,30.4166666666667,"TGC",NA,NA,NA
"784","del",94,3,"SRR3698500.996",TRUE,TRUE,292,30.4166666666667,"TGC",NA,NA,NA
"785","del",94,6,"SRR3698500.340",TRUE,TRUE,5,0.520833333333333,"TG",NA,NA,NA
"786","del",94,6,"SRR3698500.4578",TRUE,TRUE,5,0.520833333333333,"TG",NA,NA,NA
"787","del",94,6,"SRR3698500.4836",TRUE,TRUE,5,0.520833333333333,"TG",NA,NA,NA
"788","del",94,6,"SRR3698500.5676",TRUE,TRUE,5,0.520833333333333,"TG",NA,NA,NA
"789","del",94,6,"SRR3698500.7889",TRUE,TRUE,5,0.520833333333333,"TG",NA,NA,NA
"790","del",94,9,"SRR3698500.17",FALSE,TRUE,1,0.104166666666667,"TG",NA,NA,NA
"791","del",94,12,"SRR3698500.6626",FALSE,TRUE,1,0.104166666666667,"TG",NA,NA,NA
"792","del",94,18,"SRR3698500.1407",TRUE,TRUE,2,0.208333333333333,"TG",NA,NA,NA
"793","del",94,18,"SRR3698500.1552",TRUE,TRUE,2,0.208333333333333,"TG",NA,NA,NA
"794","del",94,36,"SRR3698500.2365",TRUE,TRUE,4,0.416666666666667,"TGC",NA,NA,NA
"795","del",94,36,"SRR3698500.3645",TRUE,TRUE,4,0.416666666666667,"TGC",NA,NA,NA
"796","del",94,36,"SRR3698500.7819",TRUE,TRUE,4,0.416666666666667,"TGC",NA,NA,NA
"797","del",94,36,"SRR3698500.797",TRUE,TRUE,4,0.416666666666667,"TGC",NA,NA,NA
"798","del",95,2,"SRR3698500.1535",TRUE,TRUE,6,0.625,"NHEJ",NA,NA,NA
"799","del",95,2,"SRR3698500.3332",TRUE,TRUE,6,0.625,"NHEJ",NA,NA,NA
"800","del",95,2,"SRR3698500.4157",TRUE,TRUE,6,0.625,"NHEJ",NA,NA,NA
"801","del",95,2,"SRR3698500.496",TRUE,TRUE,6,0.625,"NHEJ",NA,NA,NA
"802","del",95,2,"SRR3698500.5674",TRUE,TRUE,6,0.625,"NHEJ",NA,NA,NA
"803","del",95,2,"SRR3698500.78",TRUE,TRUE,6,0.625,"NHEJ",NA,NA,NA
"804","del",95,10,"SRR3698500.3977",FALSE,TRUE,1,0.104166666666667,"G",NA,NA,NA
"805","del",95,13,"SRR3698500.1356",TRUE,TRUE,19,1.97916666666667,"GC",NA,NA,NA
"806","del",95,13,"SRR3698500.1700",TRUE,TRUE,19,1.97916666666667,"GC",NA,NA,NA
"807","del",95,13,"SRR3698500.294",TRUE,TRUE,19,1.97916666666667,"GC",NA,NA,NA
"808","del",95,13,"SRR3698500.3120",TRUE,TRUE,19,1.97916666666667,"GC",NA,NA,NA
"809","del",95,13,"SRR3698500.3238",TRUE,TRUE,19,1.97916666666667,"GC",NA,NA,NA
"810","del",95,13,"SRR3698500.3272",TRUE,TRUE,19,1.97916666666667,"GC",NA,NA,NA
"811","del",95,13,"SRR3698500.3620",TRUE,TRUE,19,1.97916666666667,"GC",NA,NA,NA
"812","del",95,13,"SRR3698500.3776",TRUE,TRUE,19,1.97916666666667,"GC",NA,NA,NA
"813","del",95,13,"SRR3698500.3889",TRUE,TRUE,19,1.97916666666667,"GC",NA,NA,NA
"814","del",95,13,"SRR3698500.4026",TRUE,TRUE,19,1.97916666666667,"GC",NA,NA,NA
"815","del",95,13,"SRR3698500.4265",TRUE,TRUE,19,1.97916666666667,"GC",NA,NA,NA
"816","del",95,13,"SRR3698500.4325",TRUE,TRUE,19,1.97916666666667,"GC",NA,NA,NA
"817","del",95,13,"SRR3698500.4326",TRUE,TRUE,19,1.97916666666667,"GC",NA,NA,NA
"818","del",95,13,"SRR3698500.4563",TRUE,TRUE,19,1.97916666666667,"GC",NA,NA,NA
"819","del",95,13,"SRR3698500.4649",TRUE,TRUE,19,1.97916666666667,"GC",NA,NA,NA
"820","del",95,13,"SRR3698500.6271",TRUE,TRUE,19,1.97916666666667,"GC",NA,NA,NA
"821","del",95,13,"SRR3698500.6979",TRUE,TRUE,19,1.97916666666667,"GC",NA,NA,NA
"822","del",95,13,"SRR3698500.7242",TRUE,TRUE,19,1.97916666666667,"GC",NA,NA,NA
"823","del",95,13,"SRR3698500.8255",TRUE,TRUE,19,1.97916666666667,"GC",NA,NA,NA
"824","del",95,14,"SRR3698500.4307",FALSE,TRUE,1,0.104166666666667,"NHEJ",NA,NA,NA
"825","del",95,19,"SRR3698500.1602",TRUE,TRUE,4,0.416666666666667,"G",NA,NA,NA
"826","del",95,19,"SRR3698500.2398",TRUE,TRUE,4,0.416666666666667,"G",NA,NA,NA
"827","del",95,19,"SRR3698500.3211",TRUE,TRUE,4,0.416666666666667,"G",NA,NA,NA
"828","del",95,19,"SRR3698500.6078",TRUE,TRUE,4,0.416666666666667,"G",NA,NA,NA
"829","del",95,20,"SRR3698500.1323",FALSE,TRUE,1,0.104166666666667,"G",NA,NA,NA
"830","del",95,21,"SRR3698500.2981",FALSE,TRUE,1,0.104166666666667,"G",NA,NA,NA
"831","del",95,26,"SRR3698500.6480",FALSE,TRUE,1,0.104166666666667,"GC",NA,NA,NA
"832","del",95,38,"SRR3698500.7917",FALSE,TRUE,1,0.104166666666667,"G",NA,NA,NA
"833","del",95,42,"SRR3698500.8311",FALSE,TRUE,1,0.104166666666667,"GC",NA,NA,NA
"834","del",96,1,"SRR3698500.1587",TRUE,TRUE,4,0.416666666666667,"NHEJ",NA,NA,NA
"835","del",96,1,"SRR3698500.4927",TRUE,TRUE,4,0.416666666666667,"NHEJ",NA,NA,NA
"836","del",96,1,"SRR3698500.66",TRUE,TRUE,4,0.416666666666667,"NHEJ",NA,NA,NA
"837","del",96,1,"SRR3698500.8302",TRUE,TRUE,4,0.416666666666667,"NHEJ",NA,NA,NA
"838","del",96,2,"SRR3698500.4981",FALSE,TRUE,1,0.104166666666667,"NHEJ",NA,NA,NA
"839","del",96,14,"SRR3698500.3167",FALSE,TRUE,1,0.104166666666667,"C",NA,NA,NA
"840","del",96,15,"SRR3698500.2491",TRUE,TRUE,3,0.3125,"CTG",NA,NA,NA
"841","del",96,15,"SRR3698500.2642",TRUE,TRUE,3,0.3125,"CTG",NA,NA,NA
"842","del",96,15,"SRR3698500.5010",TRUE,TRUE,3,0.3125,"CTG",NA,NA,NA
"843","del",96,16,"SRR3698500.6995",FALSE,TRUE,1,0.104166666666667,"NHEJ",NA,NA,NA
"844","del",96,32,"SRR3698500.6192",FALSE,TRUE,1,0.104166666666667,"C",NA,NA,NA
"845","del",96,50,"SRR3698500.3",FALSE,TRUE,1,0.104166666666667,"C",NA,NA,NA
"846","del",97,1,"SRR3698500.1464",TRUE,TRUE,8,0.833333333333333,"NHEJ",NA,NA,NA
"847","del",97,1,"SRR3698500.2052",TRUE,TRUE,8,0.833333333333333,"NHEJ",NA,NA,NA
"848","del",97,1,"SRR3698500.2103",TRUE,TRUE,8,0.833333333333333,"NHEJ",NA,NA,NA
"849","del",97,1,"SRR3698500.3586",TRUE,TRUE,8,0.833333333333333,"NHEJ",NA,NA,NA
"850","del",97,1,"SRR3698500.4336",TRUE,TRUE,8,0.833333333333333,"NHEJ",NA,NA,NA
"851","del",97,1,"SRR3698500.4450",TRUE,TRUE,8,0.833333333333333,"NHEJ",NA,NA,NA
"852","del",97,1,"SRR3698500.6087",TRUE,TRUE,8,0.833333333333333,"NHEJ",NA,NA,NA
"853","del",97,1,"SRR3698500.8041",TRUE,TRUE,8,0.833333333333333,"NHEJ",NA,NA,NA
"854","del",97,4,"SRR3698500.5029",FALSE,TRUE,1,0.104166666666667,"NHEJ",NA,NA,NA
"855","del",97,7,"SRR3698500.6019",TRUE,TRUE,3,0.3125,"NHEJ",NA,NA,NA
"856","del",97,7,"SRR3698500.7826",TRUE,TRUE,3,0.3125,"NHEJ",NA,NA,NA
"857","del",97,7,"SRR3698500.8148",TRUE,TRUE,3,0.3125,"NHEJ",NA,NA,NA
"858","del",97,8,"SRR3698500.3657",TRUE,TRUE,5,0.520833333333333,"NHEJ",NA,NA,NA
"859","del",97,8,"SRR3698500.3703",TRUE,TRUE,5,0.520833333333333,"NHEJ",NA,NA,NA
"860","del",97,8,"SRR3698500.5823",TRUE,TRUE,5,0.520833333333333,"NHEJ",NA,NA,NA
"861","del",97,8,"SRR3698500.6683",TRUE,TRUE,5,0.520833333333333,"NHEJ",NA,NA,NA
"862","del",97,8,"SRR3698500.7288",TRUE,TRUE,5,0.520833333333333,"NHEJ",NA,NA,NA
"863","del",97,10,"SRR3698500.1491",FALSE,TRUE,1,0.104166666666667,"NHEJ",NA,NA,NA
"864","del",97,11,"SRR3698500.6549",TRUE,TRUE,3,0.3125,"NHEJ",NA,NA,NA
"865","del",97,11,"SRR3698500.6585",TRUE,TRUE,3,0.3125,"NHEJ",NA,NA,NA
"866","del",97,11,"SRR3698500.7039",TRUE,TRUE,3,0.3125,"NHEJ",NA,NA,NA
"867","del",97,16,"SRR3698500.5557",FALSE,TRUE,1,0.104166666666667,"NHEJ",NA,NA,NA
"868","del",97,17,"SRR3698500.6998",FALSE,TRUE,1,0.104166666666667,"NHEJ",NA,NA,NA
"869","del",97,18,"SRR3698500.2104",TRUE,TRUE,2,0.208333333333333,"NHEJ",NA,NA,NA
"870","del",97,18,"SRR3698500.6016",TRUE,TRUE,2,0.208333333333333,"NHEJ",NA,NA,NA
"871","del",97,20,"SRR3698500.1512",FALSE,TRUE,1,0.104166666666667,"NHEJ",NA,NA,NA
"872","del",97,30,"SRR3698500.6782",FALSE,TRUE,1,0.104166666666667,"T",NA,NA,NA
"873","del",97,34,"SRR3698500.104",FALSE,TRUE,1,0.104166666666667,"NHEJ",NA,NA,NA
"874","del",97,40,"SRR3698500.5120",FALSE,TRUE,1,0.104166666666667,"NHEJ",NA,NA,NA
"875","del",97,52,"SRR3698500.8273",FALSE,TRUE,1,0.104166666666667,"T",NA,NA,NA
"876","del",97,53,"SRR3698500.2404",FALSE,TRUE,1,0.104166666666667,"NHEJ",NA,NA,NA
"877","del",97,55,"SRR3698500.48",FALSE,TRUE,1,0.104166666666667,"NHEJ",NA,NA,NA
"878","del",99,20,"SRR3698500.4215",FALSE,TRUE,1,0.104166666666667,"C",NA,NA,NA
"879","del",100,3,"SRR3698500.4328",FALSE,TRUE,1,0.104166666666667,"TGG",NA,NA,NA
"880","del",113,1,"SRR3698500.3246",FALSE,TRUE,1,0.104166666666667,"G",NA,NA,NA
"881","del",140,1,"SRR3698500.1562",FALSE,TRUE,1,0.104166666666667,"C",NA,NA,NA
"882","del",184,1,"SRR3698500.5062",FALSE,FALSE,1,0.104166666666667,"G",NA,NA,NA
"883","del",188,1,"SRR3698500.4201",FALSE,FALSE,1,0.104166666666667,"G",NA,NA,NA
"884","del",188,3,"SRR3698500.4493",FALSE,FALSE,1,0.104166666666667,"G",NA,NA,NA
"885","del",189,2,"SRR3698500.140",FALSE,FALSE,1,0.104166666666667,"G",NA,NA,NA
"886","del",191,1,"SRR3698500.2753",TRUE,FALSE,6,0.625,"NHEJ",NA,NA,NA
"887","del",191,1,"SRR3698500.3665",TRUE,FALSE,6,0.625,"NHEJ",NA,NA,NA
"888","del",191,1,"SRR3698500.4391",TRUE,FALSE,6,0.625,"NHEJ",NA,NA,NA
"889","del",191,1,"SRR3698500.5140",TRUE,FALSE,6,0.625,"NHEJ",NA,NA,NA
"890","del",191,1,"SRR3698500.5178",TRUE,FALSE,6,0.625,"NHEJ",NA,NA,NA
"891","del",191,1,"SRR3698500.7180",TRUE,FALSE,6,0.625,"NHEJ",NA,NA,NA
"892","del",191,2,"SRR3698500.1948",TRUE,FALSE,2,0.208333333333333,"G",NA,NA,NA
"893","del",191,2,"SRR3698500.7501",TRUE,FALSE,2,0.208333333333333,"G",NA,NA,NA
"894","del",192,1,"SRR3698500.2034",TRUE,FALSE,2,0.208333333333333,"NHEJ",NA,NA,NA
"895","del",192,1,"SRR3698500.7832",TRUE,FALSE,2,0.208333333333333,"NHEJ",NA,NA,NA
"896","del",193,1,"SRR3698500.1758",TRUE,FALSE,4,0.416666666666667,"NHEJ",NA,NA,NA
"897","del",193,1,"SRR3698500.5892",TRUE,FALSE,4,0.416666666666667,"NHEJ",NA,NA,NA
"898","del",193,1,"SRR3698500.6708",TRUE,FALSE,4,0.416666666666667,"NHEJ",NA,NA,NA
"899","del",193,1,"SRR3698500.8005",TRUE,FALSE,4,0.416666666666667,"NHEJ",NA,NA,NA
"900","del",194,1,"SRR3698500.3123",TRUE,FALSE,7,0.729166666666667,"NHEJ",NA,NA,NA
"901","del",194,1,"SRR3698500.3658",TRUE,FALSE,7,0.729166666666667,"NHEJ",NA,NA,NA
"902","del",194,1,"SRR3698500.3901",TRUE,FALSE,7,0.729166666666667,"NHEJ",NA,NA,NA
"903","del",194,1,"SRR3698500.5094",TRUE,FALSE,7,0.729166666666667,"NHEJ",NA,NA,NA
"904","del",194,1,"SRR3698500.5978",TRUE,FALSE,7,0.729166666666667,"NHEJ",NA,NA,NA
"905","del",194,1,"SRR3698500.6653",TRUE,FALSE,7,0.729166666666667,"NHEJ",NA,NA,NA
"906","del",194,1,"SRR3698500.837",TRUE,FALSE,7,0.729166666666667,"NHEJ",NA,NA,NA
"907","del",195,1,"SRR3698500.3066",TRUE,FALSE,6,0.625,"NHEJ",NA,NA,NA
"908","del",195,1,"SRR3698500.4040",TRUE,FALSE,6,0.625,"NHEJ",NA,NA,NA
"909","del",195,1,"SRR3698500.4361",TRUE,FALSE,6,0.625,"NHEJ",NA,NA,NA
"910","del",195,1,"SRR3698500.4522",TRUE,FALSE,6,0.625,"NHEJ",NA,NA,NA
"911","del",195,1,"SRR3698500.4749",TRUE,FALSE,6,0.625,"NHEJ",NA,NA,NA
"912","del",195,1,"SRR3698500.5435",TRUE,FALSE,6,0.625,"NHEJ",NA,NA,NA
"913","ins",9,1,"SRR3698500.1083",TRUE,FALSE,2,0.208333333333333,NA,"TCA","G","GCA"
"914","ins",9,1,"SRR3698500.894",TRUE,FALSE,2,0.208333333333333,NA,"TCA","G","GCA"
"915","ins",80,2,"SRR3698500.2565",FALSE,TRUE,1,0.104166666666667,NA,"GGT","GG","GGG"
"916","ins",100,3,"SRR3698500.8061",FALSE,TRUE,1,0.104166666666667,NA,"CCC","CCA","CCA"
"917","ins",191,1,"SRR3698500.3596",FALSE,FALSE,1,0.104166666666667,NA,"GGT","G","GAG"
"918","ins",194,1,"SRR3698500.964",FALSE,FALSE,1,0.104166666666667,NA,"GAG","T","TGC"
"919","ins",195,1,"SRR3698500.5189",FALSE,FALSE,1,0.104166666666667,NA,"AGT","G","GCC"
"920","ins",95,4,"SRR3698500.2878",FALSE,TRUE,1,0.104166666666667,NA,"CTT","GATG","GGT"
"921","ins",97,1,"SRR3698500.1238",TRUE,TRUE,22,2.29166666666667,NA,"TGC","C","TGC"
"922","ins",97,1,"SRR3698500.1730",TRUE,TRUE,22,2.29166666666667,NA,"TGC","C","TGC"
"923","ins",97,1,"SRR3698500.2264",TRUE,TRUE,22,2.29166666666667,NA,"TGC","C","TGC"
"924","ins",97,1,"SRR3698500.2352",TRUE,TRUE,22,2.29166666666667,NA,"TGC","C","TGC"
"925","ins",97,1,"SRR3698500.2603",TRUE,TRUE,22,2.29166666666667,NA,"TGC","C","TGC"
"926","ins",97,1,"SRR3698500.2905",TRUE,TRUE,22,2.29166666666667,NA,"TGC","C","TGC"
"927","ins",97,1,"SRR3698500.3145",TRUE,TRUE,22,2.29166666666667,NA,"TGC","C","TGC"
"928","ins",97,1,"SRR3698500.3148",TRUE,TRUE,22,2.29166666666667,NA,"TGC","C","TGC"
"929","ins",97,1,"SRR3698500.3895",TRUE,TRUE,22,2.29166666666667,NA,"TGC","C","TGC"
"930","ins",97,1,"SRR3698500.4712",TRUE,TRUE,22,2.29166666666667,NA,"TGC","C","TGC"
"931","ins",97,1,"SRR3698500.5212",TRUE,TRUE,22,2.29166666666667,NA,"TGC","C","TGC"
"932","ins",97,1,"SRR3698500.5677",TRUE,TRUE,22,2.29166666666667,NA,"TGC","C","TGC"
"933","ins",97,1,"SRR3698500.6275",TRUE,TRUE,22,2.29166666666667,NA,"TGC","C","TGC"
"934","ins",97,1,"SRR3698500.6651",TRUE,TRUE,22,2.29166666666667,NA,"TGC","C","TGC"
"935","ins",97,1,"SRR3698500.6868",TRUE,TRUE,22,2.29166666666667,NA,"TGC","C","TGC"
"936","ins",97,1,"SRR3698500.6900",TRUE,TRUE,22,2.29166666666667,NA,"TGC","C","TGC"
"937","ins",97,1,"SRR3698500.8026",TRUE,TRUE,22,2.29166666666667,NA,"TGC","C","TGC"
"938","ins",97,1,"SRR3698500.8184",TRUE,TRUE,22,2.29166666666667,NA,"TGC","C","TGC"
"939","ins",97,1,"SRR3698500.8197",TRUE,TRUE,22,2.29166666666667,NA,"TGC","C","TGC"
"940","ins",97,1,"SRR3698500.8225",TRUE,TRUE,22,2.29166666666667,NA,"TGC","C","TGC"
"941","ins",97,1,"SRR3698500.879",TRUE,TRUE,22,2.29166666666667,NA,"TGC","C","TGC"
"942","ins",97,1,"SRR3698500.896",TRUE,TRUE,22,2.29166666666667,NA,"TGC","C","TGC"
"943","ins",96,3,"SRR3698500.1549",FALSE,TRUE,1,0.104166666666667,NA,"TTG","CAC","CAG"
"944","ins",97,1,"SRR3698500.1166",TRUE,TRUE,11,1.14583333333333,NA,"TGC","T","TGC"
"945","ins",97,1,"SRR3698500.1945",TRUE,TRUE,11,1.14583333333333,NA,"TGC","T","TGC"
"946","ins",97,1,"SRR3698500.1999",TRUE,TRUE,11,1.14583333333333,NA,"TGC","T","TGC"
"947","ins",97,1,"SRR3698500.2523",TRUE,TRUE,11,1.14583333333333,NA,"TGC","A","TGC"
"948","ins",97,1,"SRR3698500.261",TRUE,TRUE,11,1.14583333333333,NA,"TGC","T","TGC"
"949","ins",97,1,"SRR3698500.2735",TRUE,TRUE,11,1.14583333333333,NA,"TGC","T","TGC"
"950","ins",97,1,"SRR3698500.3400",TRUE,TRUE,11,1.14583333333333,NA,"TGC","T","TGC"
"951","ins",97,1,"SRR3698500.4754",TRUE,TRUE,11,1.14583333333333,NA,"TGC","T","TGC"
"952","ins",97,1,"SRR3698500.5731",TRUE,TRUE,11,1.14583333333333,NA,"TGC","A","AGA"
"953","ins",97,1,"SRR3698500.6622",TRUE,TRUE,11,1.14583333333333,NA,"TGC","T","TGC"
"954","ins",97,1,"SRR3698500.667",TRUE,TRUE,11,1.14583333333333,NA,"TGC","G","TGC"
"955","ins",97,3,"SRR3698500.7937",FALSE,TRUE,1,0.104166666666667,NA,"TGC","AAG","AGG"
"956","ins",97,5,"SRR3698500.1964",FALSE,TRUE,1,0.104166666666667,NA,"TGC","TGGGA","TGA"
"957","ins",97,6,"SRR3698500.6672",FALSE,TRUE,1,0.104166666666667,NA,"TGC","TGGTGG","TGC"
"958","ins",97,14,"SRR3698500.5930",FALSE,TRUE,1,0.104166666666667,NA,"TGC","CCCCACCACCCCAG","GGC"
"959","ins",97,15,"SRR3698500.3357",FALSE,TRUE,1,0.104166666666667,NA,"TGC","TCCTCTTGCTCCTCT","TGC"
"960","ins",98,2,"SRR3698500.5693",FALSE,TRUE,1,0.104166666666667,NA,"GCT","GG","GAT"
