"","Modification","Start","Length","Ids","above_error_rate","in_pick","freq","Perc","patterns"
"1","del",36,13,"SRR3698515.38",TRUE,FALSE,8,21.6216216216216,"CTC"
"2","del",36,13,"SRR3698515.61",TRUE,FALSE,8,21.6216216216216,"CTC"
"3","del",36,13,"SRR3698515.63",TRUE,FALSE,8,21.6216216216216,"CTC"
"4","del",36,13,"SRR3698515.25",TRUE,FALSE,8,21.6216216216216,"CTC"
"5","del",36,13,"SRR3698515.75",TRUE,FALSE,8,21.6216216216216,"CTC"
"6","del",36,13,"SRR3698515.81",TRUE,FALSE,8,21.6216216216216,"CTC"
"7","del",36,13,"SRR3698515.84",TRUE,FALSE,8,21.6216216216216,"CTC"
"8","del",36,13,"SRR3698515.72",TRUE,FALSE,8,21.6216216216216,"CTC"
"9","del",40,12,"SRR3698515.86",TRUE,TRUE,19,51.3513513513513,"GGC"
"10","del",40,12,"SRR3698515.87",TRUE,TRUE,19,51.3513513513513,"GGC"
"11","del",40,12,"SRR3698515.88",TRUE,TRUE,19,51.3513513513513,"GGC"
"12","del",40,12,"SRR3698515.89",TRUE,TRUE,19,51.3513513513513,"GGC"
"13","del",40,12,"SRR3698515.90",TRUE,TRUE,19,51.3513513513513,"GGC"
"14","del",40,12,"SRR3698515.91",TRUE,TRUE,19,51.3513513513513,"GGC"
"15","del",40,12,"SRR3698515.92",TRUE,TRUE,19,51.3513513513513,"GGC"
"16","del",40,12,"SRR3698515.93",TRUE,TRUE,19,51.3513513513513,"GGC"
"17","del",40,12,"SRR3698515.94",TRUE,TRUE,19,51.3513513513513,"GGC"
"18","del",40,12,"SRR3698515.95",TRUE,TRUE,19,51.3513513513513,"GGC"
"19","del",40,12,"SRR3698515.96",TRUE,TRUE,19,51.3513513513513,"GGC"
"20","del",40,12,"SRR3698515.97",TRUE,TRUE,19,51.3513513513513,"GGC"
"21","del",40,12,"SRR3698515.98",TRUE,TRUE,19,51.3513513513513,"GGC"
"22","del",40,12,"SRR3698515.99",TRUE,TRUE,19,51.3513513513513,"GGC"
"23","del",40,12,"SRR3698515.100",TRUE,TRUE,19,51.3513513513513,"GGC"
"24","del",40,12,"SRR3698515.101",TRUE,TRUE,19,51.3513513513513,"GGC"
"25","del",40,12,"SRR3698515.102",TRUE,TRUE,19,51.3513513513513,"GGC"
"26","del",40,12,"SRR3698515.103",TRUE,TRUE,19,51.3513513513513,"GGC"
"27","del",40,12,"SRR3698515.18",TRUE,TRUE,19,51.3513513513513,"GGC"
"28","del",42,17,"SRR3698515.9",TRUE,TRUE,9,24.3243243243243,"C"
"29","del",42,17,"SRR3698515.15",TRUE,TRUE,9,24.3243243243243,"C"
"30","del",42,17,"SRR3698515.17",TRUE,TRUE,9,24.3243243243243,"C"
"31","del",42,17,"SRR3698515.21",TRUE,TRUE,9,24.3243243243243,"C"
"32","del",42,17,"SRR3698515.26",TRUE,TRUE,9,24.3243243243243,"C"
"33","del",42,17,"SRR3698515.27",TRUE,TRUE,9,24.3243243243243,"C"
"34","del",42,17,"SRR3698515.31",TRUE,TRUE,9,24.3243243243243,"C"
"35","del",42,17,"SRR3698515.39",TRUE,TRUE,9,24.3243243243243,"C"
"36","del",42,17,"SRR3698515.58",TRUE,TRUE,9,24.3243243243243,"C"
"37","del",46,1,"SRR3698515.34",TRUE,TRUE,1,2.7027027027027,"C"
