"","Modification","Start","Length","Ids","above_error_rate","in_pick","freq","Perc","patterns","pre_ins_nt","ins_nt","post_ins_nt"
"1","del",5,1,"SRR3698368.10232",TRUE,FALSE,12,1.32743362831858,"C",NA,NA,NA
"2","del",5,1,"SRR3698368.1635",TRUE,FALSE,12,1.32743362831858,"C",NA,NA,NA
"3","del",5,1,"SRR3698368.2265",TRUE,FALSE,12,1.32743362831858,"C",NA,NA,NA
"4","del",5,1,"SRR3698368.244",TRUE,FALSE,12,1.32743362831858,"C",NA,NA,NA
"5","del",5,1,"SRR3698368.2912",TRUE,FALSE,12,1.32743362831858,"C",NA,NA,NA
"6","del",5,1,"SRR3698368.4859",TRUE,FALSE,12,1.32743362831858,"C",NA,NA,NA
"7","del",5,1,"SRR3698368.5549",TRUE,FALSE,12,1.32743362831858,"C",NA,NA,NA
"8","del",5,1,"SRR3698368.6500",TRUE,FALSE,12,1.32743362831858,"C",NA,NA,NA
"9","del",5,1,"SRR3698368.7363",TRUE,FALSE,12,1.32743362831858,"C",NA,NA,NA
"10","del",5,1,"SRR3698368.7570",TRUE,FALSE,12,1.32743362831858,"C",NA,NA,NA
"11","del",5,1,"SRR3698368.7733",TRUE,FALSE,12,1.32743362831858,"C",NA,NA,NA
"12","del",5,1,"SRR3698368.7835",TRUE,FALSE,12,1.32743362831858,"C",NA,NA,NA
"13","del",6,2,"SRR3698368.1519",FALSE,FALSE,2,0.221238938053097,"C",NA,NA,NA
"14","del",6,2,"SRR3698368.6784",FALSE,FALSE,2,0.221238938053097,"C",NA,NA,NA
"15","del",7,1,"SRR3698368.10115",TRUE,FALSE,14,1.54867256637168,"NHEJ",NA,NA,NA
"16","del",7,1,"SRR3698368.1632",TRUE,FALSE,14,1.54867256637168,"NHEJ",NA,NA,NA
"17","del",7,1,"SRR3698368.207",TRUE,FALSE,14,1.54867256637168,"NHEJ",NA,NA,NA
"18","del",7,1,"SRR3698368.3262",TRUE,FALSE,14,1.54867256637168,"NHEJ",NA,NA,NA
"19","del",7,1,"SRR3698368.3373",TRUE,FALSE,14,1.54867256637168,"NHEJ",NA,NA,NA
"20","del",7,1,"SRR3698368.4433",TRUE,FALSE,14,1.54867256637168,"NHEJ",NA,NA,NA
"21","del",7,1,"SRR3698368.4685",TRUE,FALSE,14,1.54867256637168,"NHEJ",NA,NA,NA
"22","del",7,1,"SRR3698368.4905",TRUE,FALSE,14,1.54867256637168,"NHEJ",NA,NA,NA
"23","del",7,1,"SRR3698368.5320",TRUE,FALSE,14,1.54867256637168,"NHEJ",NA,NA,NA
"24","del",7,1,"SRR3698368.7741",TRUE,FALSE,14,1.54867256637168,"NHEJ",NA,NA,NA
"25","del",7,1,"SRR3698368.8227",TRUE,FALSE,14,1.54867256637168,"NHEJ",NA,NA,NA
"26","del",7,1,"SRR3698368.8892",TRUE,FALSE,14,1.54867256637168,"NHEJ",NA,NA,NA
"27","del",7,1,"SRR3698368.993",TRUE,FALSE,14,1.54867256637168,"NHEJ",NA,NA,NA
"28","del",7,1,"SRR3698368.9980",TRUE,FALSE,14,1.54867256637168,"NHEJ",NA,NA,NA
"29","del",8,1,"SRR3698368.2306",TRUE,FALSE,9,0.995575221238938,"NHEJ",NA,NA,NA
"30","del",8,1,"SRR3698368.4186",TRUE,FALSE,9,0.995575221238938,"NHEJ",NA,NA,NA
"31","del",8,1,"SRR3698368.4977",TRUE,FALSE,9,0.995575221238938,"NHEJ",NA,NA,NA
"32","del",8,1,"SRR3698368.516",TRUE,FALSE,9,0.995575221238938,"NHEJ",NA,NA,NA
"33","del",8,1,"SRR3698368.5258",TRUE,FALSE,9,0.995575221238938,"NHEJ",NA,NA,NA
"34","del",8,1,"SRR3698368.7349",TRUE,FALSE,9,0.995575221238938,"NHEJ",NA,NA,NA
"35","del",8,1,"SRR3698368.7558",TRUE,FALSE,9,0.995575221238938,"NHEJ",NA,NA,NA
"36","del",8,1,"SRR3698368.7614",TRUE,FALSE,9,0.995575221238938,"NHEJ",NA,NA,NA
"37","del",8,1,"SRR3698368.9703",TRUE,FALSE,9,0.995575221238938,"NHEJ",NA,NA,NA
"38","del",9,1,"SRR3698368.10163",TRUE,FALSE,5,0.553097345132743,"NHEJ",NA,NA,NA
"39","del",9,1,"SRR3698368.4085",TRUE,FALSE,5,0.553097345132743,"NHEJ",NA,NA,NA
"40","del",9,1,"SRR3698368.5232",TRUE,FALSE,5,0.553097345132743,"NHEJ",NA,NA,NA
"41","del",9,1,"SRR3698368.645",TRUE,FALSE,5,0.553097345132743,"NHEJ",NA,NA,NA
"42","del",9,1,"SRR3698368.7636",TRUE,FALSE,5,0.553097345132743,"NHEJ",NA,NA,NA
"43","del",10,1,"SRR3698368.1051",TRUE,FALSE,15,1.65929203539823,"C",NA,NA,NA
"44","del",10,1,"SRR3698368.1982",TRUE,FALSE,15,1.65929203539823,"C",NA,NA,NA
"45","del",10,1,"SRR3698368.2561",TRUE,FALSE,15,1.65929203539823,"C",NA,NA,NA
"46","del",10,1,"SRR3698368.2699",TRUE,FALSE,15,1.65929203539823,"C",NA,NA,NA
"47","del",10,1,"SRR3698368.2700",TRUE,FALSE,15,1.65929203539823,"C",NA,NA,NA
"48","del",10,1,"SRR3698368.3585",TRUE,FALSE,15,1.65929203539823,"C",NA,NA,NA
"49","del",10,1,"SRR3698368.4163",TRUE,FALSE,15,1.65929203539823,"C",NA,NA,NA
"50","del",10,1,"SRR3698368.4668",TRUE,FALSE,15,1.65929203539823,"C",NA,NA,NA
"51","del",10,1,"SRR3698368.502",TRUE,FALSE,15,1.65929203539823,"C",NA,NA,NA
"52","del",10,1,"SRR3698368.5453",TRUE,FALSE,15,1.65929203539823,"C",NA,NA,NA
"53","del",10,1,"SRR3698368.581",TRUE,FALSE,15,1.65929203539823,"C",NA,NA,NA
"54","del",10,1,"SRR3698368.6060",TRUE,FALSE,15,1.65929203539823,"C",NA,NA,NA
"55","del",10,1,"SRR3698368.6236",TRUE,FALSE,15,1.65929203539823,"C",NA,NA,NA
"56","del",10,1,"SRR3698368.6623",TRUE,FALSE,15,1.65929203539823,"C",NA,NA,NA
"57","del",10,1,"SRR3698368.8984",TRUE,FALSE,15,1.65929203539823,"C",NA,NA,NA
"58","del",10,2,"SRR3698368.4460",TRUE,FALSE,3,0.331858407079646,"C",NA,NA,NA
"59","del",10,2,"SRR3698368.575",TRUE,FALSE,3,0.331858407079646,"C",NA,NA,NA
"60","del",10,2,"SRR3698368.6627",TRUE,FALSE,3,0.331858407079646,"C",NA,NA,NA
"61","del",10,3,"SRR3698368.8276",FALSE,FALSE,1,0.110619469026549,"NHEJ",NA,NA,NA
"62","del",13,1,"SRR3698368.10000",TRUE,FALSE,16,1.76991150442478,"T",NA,NA,NA
"63","del",13,1,"SRR3698368.10421",TRUE,FALSE,16,1.76991150442478,"T",NA,NA,NA
"64","del",13,1,"SRR3698368.1894",TRUE,FALSE,16,1.76991150442478,"T",NA,NA,NA
"65","del",13,1,"SRR3698368.1962",TRUE,FALSE,16,1.76991150442478,"T",NA,NA,NA
"66","del",13,1,"SRR3698368.2730",TRUE,FALSE,16,1.76991150442478,"T",NA,NA,NA
"67","del",13,1,"SRR3698368.2956",TRUE,FALSE,16,1.76991150442478,"T",NA,NA,NA
"68","del",13,1,"SRR3698368.3854",TRUE,FALSE,16,1.76991150442478,"T",NA,NA,NA
"69","del",13,1,"SRR3698368.4386",TRUE,FALSE,16,1.76991150442478,"T",NA,NA,NA
"70","del",13,1,"SRR3698368.6056",TRUE,FALSE,16,1.76991150442478,"T",NA,NA,NA
"71","del",13,1,"SRR3698368.6876",TRUE,FALSE,16,1.76991150442478,"T",NA,NA,NA
"72","del",13,1,"SRR3698368.7343",TRUE,FALSE,16,1.76991150442478,"T",NA,NA,NA
"73","del",13,1,"SRR3698368.7367",TRUE,FALSE,16,1.76991150442478,"T",NA,NA,NA
"74","del",13,1,"SRR3698368.8144",TRUE,FALSE,16,1.76991150442478,"T",NA,NA,NA
"75","del",13,1,"SRR3698368.9231",TRUE,FALSE,16,1.76991150442478,"T",NA,NA,NA
"76","del",13,1,"SRR3698368.960",TRUE,FALSE,16,1.76991150442478,"T",NA,NA,NA
"77","del",13,1,"SRR3698368.9664",TRUE,FALSE,16,1.76991150442478,"T",NA,NA,NA
"78","del",13,2,"SRR3698368.6360",FALSE,FALSE,1,0.110619469026549,"NHEJ",NA,NA,NA
"79","del",15,1,"SRR3698368.5063",TRUE,FALSE,2,0.221238938053097,"NHEJ",NA,NA,NA
"80","del",15,1,"SRR3698368.781",TRUE,FALSE,2,0.221238938053097,"NHEJ",NA,NA,NA
"81","del",20,1,"SRR3698368.2565",FALSE,FALSE,1,0.110619469026549,"C",NA,NA,NA
"82","del",55,69,"SRR3698368.11031",FALSE,FALSE,1,0.110619469026549,"AGGC",NA,NA,NA
"83","del",59,66,"SRR3698368.11034",FALSE,TRUE,1,0.110619469026549,"GGCTG",NA,NA,NA
"84","del",66,1,"SRR3698368.6862",FALSE,TRUE,1,0.110619469026549,"T",NA,NA,NA
"85","del",74,7,"SRR3698368.2134",FALSE,TRUE,1,0.110619469026549,"GAAG",NA,NA,NA
"86","del",75,50,"SRR3698368.3599",FALSE,TRUE,1,0.110619469026549,"NHEJ",NA,NA,NA
"87","del",79,49,"SRR3698368.9226",FALSE,TRUE,1,0.110619469026549,"TGG",NA,NA,NA
"88","del",83,41,"SRR3698368.10979",FALSE,TRUE,1,0.110619469026549,"AG",NA,NA,NA
"89","del",85,38,"SRR3698368.2562",FALSE,TRUE,1,0.110619469026549,"NHEJ",NA,NA,NA
"90","del",85,43,"SRR3698368.5281",TRUE,TRUE,2,0.221238938053097,"TGG",NA,NA,NA
"91","del",85,43,"SRR3698368.9898",TRUE,TRUE,2,0.221238938053097,"TGG",NA,NA,NA
"92","del",87,38,"SRR3698368.1530",TRUE,TRUE,3,0.331858407079646,"G",NA,NA,NA
"93","del",87,38,"SRR3698368.1773",TRUE,TRUE,3,0.331858407079646,"G",NA,NA,NA
"94","del",87,38,"SRR3698368.7957",TRUE,TRUE,3,0.331858407079646,"G",NA,NA,NA
"95","del",87,42,"SRR3698368.150",FALSE,TRUE,2,0.221238938053097,"G",NA,NA,NA
"96","del",87,42,"SRR3698368.9996",FALSE,TRUE,2,0.221238938053097,"G",NA,NA,NA
"97","del",88,37,"SRR3698368.2717",FALSE,TRUE,1,0.110619469026549,"NHEJ",NA,NA,NA
"98","del",89,35,"SRR3698368.3593",TRUE,TRUE,2,0.221238938053097,"A",NA,NA,NA
"99","del",89,35,"SRR3698368.600",TRUE,TRUE,2,0.221238938053097,"A",NA,NA,NA
"100","del",90,34,"SRR3698368.8733",FALSE,TRUE,1,0.110619469026549,"NHEJ",NA,NA,NA
"101","del",90,38,"SRR3698368.4876",TRUE,TRUE,3,0.331858407079646,"TG",NA,NA,NA
"102","del",90,38,"SRR3698368.854",TRUE,TRUE,3,0.331858407079646,"TG",NA,NA,NA
"103","del",90,38,"SRR3698368.9615",TRUE,TRUE,3,0.331858407079646,"TG",NA,NA,NA
"104","del",91,35,"SRR3698368.8066",FALSE,TRUE,1,0.110619469026549,"GC",NA,NA,NA
"105","del",91,39,"SRR3698368.252",FALSE,TRUE,1,0.110619469026549,"G",NA,NA,NA
"106","del",92,33,"SRR3698368.1709",FALSE,TRUE,1,0.110619469026549,"NHEJ",NA,NA,NA
"107","del",93,31,"SRR3698368.10286",TRUE,TRUE,2,0.221238938053097,"AG",NA,NA,NA
"108","del",93,31,"SRR3698368.9638",TRUE,TRUE,2,0.221238938053097,"AG",NA,NA,NA
"109","del",93,32,"SRR3698368.2800",TRUE,TRUE,2,0.221238938053097,"NHEJ",NA,NA,NA
"110","del",93,32,"SRR3698368.4709",TRUE,TRUE,2,0.221238938053097,"NHEJ",NA,NA,NA
"111","del",94,32,"SRR3698368.1882",TRUE,TRUE,5,0.553097345132743,"GC",NA,NA,NA
"112","del",94,32,"SRR3698368.3826",TRUE,TRUE,5,0.553097345132743,"GC",NA,NA,NA
"113","del",94,32,"SRR3698368.4125",TRUE,TRUE,5,0.553097345132743,"GC",NA,NA,NA
"114","del",94,32,"SRR3698368.6528",TRUE,TRUE,5,0.553097345132743,"GC",NA,NA,NA
"115","del",94,32,"SRR3698368.9220",TRUE,TRUE,5,0.553097345132743,"GC",NA,NA,NA
"116","del",94,35,"SRR3698368.7642",FALSE,TRUE,1,0.110619469026549,"G",NA,NA,NA
"117","del",94,36,"SRR3698368.1777",FALSE,TRUE,1,0.110619469026549,"G",NA,NA,NA
"118","del",95,30,"SRR3698368.255",FALSE,TRUE,1,0.110619469026549,"NHEJ",NA,NA,NA
"119","del",96,28,"SRR3698368.1649",TRUE,TRUE,5,0.553097345132743,"AG",NA,NA,NA
"120","del",96,28,"SRR3698368.5545",TRUE,TRUE,5,0.553097345132743,"AG",NA,NA,NA
"121","del",96,28,"SRR3698368.5760",TRUE,TRUE,5,0.553097345132743,"AG",NA,NA,NA
"122","del",96,28,"SRR3698368.7628",TRUE,TRUE,5,0.553097345132743,"AG",NA,NA,NA
"123","del",96,28,"SRR3698368.9040",TRUE,TRUE,5,0.553097345132743,"AG",NA,NA,NA
"124","del",97,29,"SRR3698368.1634",TRUE,TRUE,5,0.553097345132743,"GC",NA,NA,NA
"125","del",97,29,"SRR3698368.7025",TRUE,TRUE,5,0.553097345132743,"GC",NA,NA,NA
"126","del",97,29,"SRR3698368.755",TRUE,TRUE,5,0.553097345132743,"GC",NA,NA,NA
"127","del",97,29,"SRR3698368.814",TRUE,TRUE,5,0.553097345132743,"GC",NA,NA,NA
"128","del",97,29,"SRR3698368.9914",TRUE,TRUE,5,0.553097345132743,"GC",NA,NA,NA
"129","del",97,32,"SRR3698368.6820",TRUE,TRUE,2,0.221238938053097,"G",NA,NA,NA
"130","del",97,32,"SRR3698368.866",TRUE,TRUE,2,0.221238938053097,"G",NA,NA,NA
"131","del",97,33,"SRR3698368.6420",FALSE,TRUE,1,0.110619469026549,"G",NA,NA,NA
"132","del",98,27,"SRR3698368.7884",FALSE,TRUE,1,0.110619469026549,"NHEJ",NA,NA,NA
"133","del",99,25,"SRR3698368.1512",FALSE,TRUE,1,0.110619469026549,"NHEJ",NA,NA,NA
"134","del",99,26,"SRR3698368.10606",TRUE,TRUE,4,0.442477876106195,"NHEJ",NA,NA,NA
"135","del",99,26,"SRR3698368.639",TRUE,TRUE,4,0.442477876106195,"NHEJ",NA,NA,NA
"136","del",99,26,"SRR3698368.7704",TRUE,TRUE,4,0.442477876106195,"NHEJ",NA,NA,NA
"137","del",99,26,"SRR3698368.9408",TRUE,TRUE,4,0.442477876106195,"NHEJ",NA,NA,NA
"138","del",99,28,"SRR3698368.2664",TRUE,TRUE,6,0.663716814159292,"CTG",NA,NA,NA
"139","del",99,28,"SRR3698368.2997",TRUE,TRUE,6,0.663716814159292,"CTG",NA,NA,NA
"140","del",99,28,"SRR3698368.3323",TRUE,TRUE,6,0.663716814159292,"CTG",NA,NA,NA
"141","del",99,28,"SRR3698368.5733",TRUE,TRUE,6,0.663716814159292,"CTG",NA,NA,NA
"142","del",99,28,"SRR3698368.6720",TRUE,TRUE,6,0.663716814159292,"CTG",NA,NA,NA
"143","del",99,28,"SRR3698368.9300",TRUE,TRUE,6,0.663716814159292,"CTG",NA,NA,NA
"144","del",99,32,"SRR3698368.3984",FALSE,TRUE,1,0.110619469026549,"NHEJ",NA,NA,NA
"145","del",100,25,"SRR3698368.9313",TRUE,TRUE,2,0.221238938053097,"NHEJ",NA,NA,NA
"146","del",100,25,"SRR3698368.9750",TRUE,TRUE,2,0.221238938053097,"NHEJ",NA,NA,NA
"147","del",100,31,"SRR3698368.10557",TRUE,TRUE,9,0.995575221238938,"TGC",NA,NA,NA
"148","del",100,31,"SRR3698368.10963",TRUE,TRUE,9,0.995575221238938,"TGC",NA,NA,NA
"149","del",100,31,"SRR3698368.2498",TRUE,TRUE,9,0.995575221238938,"TGC",NA,NA,NA
"150","del",100,31,"SRR3698368.3757",TRUE,TRUE,9,0.995575221238938,"TGC",NA,NA,NA
"151","del",100,31,"SRR3698368.6257",TRUE,TRUE,9,0.995575221238938,"TGC",NA,NA,NA
"152","del",100,31,"SRR3698368.6710",TRUE,TRUE,9,0.995575221238938,"TGC",NA,NA,NA
"153","del",100,31,"SRR3698368.7129",TRUE,TRUE,9,0.995575221238938,"TGC",NA,NA,NA
"154","del",100,31,"SRR3698368.7240",TRUE,TRUE,9,0.995575221238938,"TGC",NA,NA,NA
"155","del",100,31,"SRR3698368.9368",TRUE,TRUE,9,0.995575221238938,"TGC",NA,NA,NA
"156","del",101,24,"SRR3698368.10020",TRUE,TRUE,2,0.221238938053097,"G",NA,NA,NA
"157","del",101,24,"SRR3698368.8131",TRUE,TRUE,2,0.221238938053097,"G",NA,NA,NA
"158","del",101,25,"SRR3698368.10310",TRUE,TRUE,6,0.663716814159292,"GC",NA,NA,NA
"159","del",101,25,"SRR3698368.2576",TRUE,TRUE,6,0.663716814159292,"GC",NA,NA,NA
"160","del",101,25,"SRR3698368.4879",TRUE,TRUE,6,0.663716814159292,"GC",NA,NA,NA
"161","del",101,25,"SRR3698368.8337",TRUE,TRUE,6,0.663716814159292,"GC",NA,NA,NA
"162","del",101,25,"SRR3698368.9343",TRUE,TRUE,6,0.663716814159292,"GC",NA,NA,NA
"163","del",101,25,"SRR3698368.9396",TRUE,TRUE,6,0.663716814159292,"GC",NA,NA,NA
"164","del",101,29,"SRR3698368.7579",FALSE,TRUE,1,0.110619469026549,"G",NA,NA,NA
"165","del",102,23,"SRR3698368.7391",FALSE,TRUE,1,0.110619469026549,"NHEJ",NA,NA,NA
"166","del",103,21,"SRR3698368.1990",TRUE,TRUE,17,1.88053097345133,"AGG",NA,NA,NA
"167","del",103,21,"SRR3698368.2186",TRUE,TRUE,17,1.88053097345133,"AGG",NA,NA,NA
"168","del",103,21,"SRR3698368.2789",TRUE,TRUE,17,1.88053097345133,"AGG",NA,NA,NA
"169","del",103,21,"SRR3698368.3073",TRUE,TRUE,17,1.88053097345133,"AGG",NA,NA,NA
"170","del",103,21,"SRR3698368.3088",TRUE,TRUE,17,1.88053097345133,"AGG",NA,NA,NA
"171","del",103,21,"SRR3698368.3160",TRUE,TRUE,17,1.88053097345133,"AGG",NA,NA,NA
"172","del",103,21,"SRR3698368.3637",TRUE,TRUE,17,1.88053097345133,"AGG",NA,NA,NA
"173","del",103,21,"SRR3698368.4775",TRUE,TRUE,17,1.88053097345133,"AGG",NA,NA,NA
"174","del",103,21,"SRR3698368.5418",TRUE,TRUE,17,1.88053097345133,"AGG",NA,NA,NA
"175","del",103,21,"SRR3698368.5498",TRUE,TRUE,17,1.88053097345133,"AGG",NA,NA,NA
"176","del",103,21,"SRR3698368.7082",TRUE,TRUE,17,1.88053097345133,"AGG",NA,NA,NA
"177","del",103,21,"SRR3698368.7241",TRUE,TRUE,17,1.88053097345133,"AGG",NA,NA,NA
"178","del",103,21,"SRR3698368.8010",TRUE,TRUE,17,1.88053097345133,"AGG",NA,NA,NA
"179","del",103,21,"SRR3698368.8228",TRUE,TRUE,17,1.88053097345133,"AGG",NA,NA,NA
"180","del",103,21,"SRR3698368.8986",TRUE,TRUE,17,1.88053097345133,"AGG",NA,NA,NA
"181","del",103,21,"SRR3698368.9506",TRUE,TRUE,17,1.88053097345133,"AGG",NA,NA,NA
"182","del",103,21,"SRR3698368.9516",TRUE,TRUE,17,1.88053097345133,"AGG",NA,NA,NA
"183","del",103,22,"SRR3698368.2106",TRUE,TRUE,3,0.331858407079646,"NHEJ",NA,NA,NA
"184","del",103,22,"SRR3698368.322",TRUE,TRUE,3,0.331858407079646,"NHEJ",NA,NA,NA
"185","del",103,22,"SRR3698368.7183",TRUE,TRUE,3,0.331858407079646,"NHEJ",NA,NA,NA
"186","del",104,20,"SRR3698368.1416",FALSE,TRUE,1,0.110619469026549,"NHEJ",NA,NA,NA
"187","del",104,25,"SRR3698368.10032",FALSE,TRUE,7,0.774336283185841,"GG",NA,NA,NA
"188","del",104,25,"SRR3698368.10619",FALSE,TRUE,7,0.774336283185841,"GG",NA,NA,NA
"189","del",104,25,"SRR3698368.10782",FALSE,TRUE,7,0.774336283185841,"GG",NA,NA,NA
"190","del",104,25,"SRR3698368.4625",FALSE,TRUE,7,0.774336283185841,"GG",NA,NA,NA
"191","del",104,25,"SRR3698368.6296",FALSE,TRUE,7,0.774336283185841,"GG",NA,NA,NA
"192","del",104,25,"SRR3698368.8610",FALSE,TRUE,7,0.774336283185841,"GG",NA,NA,NA
"193","del",104,25,"SRR3698368.9757",FALSE,TRUE,7,0.774336283185841,"GG",NA,NA,NA
"194","del",105,18,"SRR3698368.10001",TRUE,TRUE,126,13.9380530973451,"GAGGC",NA,NA,NA
"195","del",105,18,"SRR3698368.10258",TRUE,TRUE,126,13.9380530973451,"GAGGC",NA,NA,NA
"196","del",105,18,"SRR3698368.10301",TRUE,TRUE,126,13.9380530973451,"GAGGC",NA,NA,NA
"197","del",105,18,"SRR3698368.10313",TRUE,TRUE,126,13.9380530973451,"GAGGC",NA,NA,NA
"198","del",105,18,"SRR3698368.10349",TRUE,TRUE,126,13.9380530973451,"GAGGC",NA,NA,NA
"199","del",105,18,"SRR3698368.10397",TRUE,TRUE,126,13.9380530973451,"GAGGC",NA,NA,NA
"200","del",105,18,"SRR3698368.10499",TRUE,TRUE,126,13.9380530973451,"GAGGC",NA,NA,NA
"201","del",105,18,"SRR3698368.1050",TRUE,TRUE,126,13.9380530973451,"GAGGC",NA,NA,NA
"202","del",105,18,"SRR3698368.10514",TRUE,TRUE,126,13.9380530973451,"GAGGC",NA,NA,NA
"203","del",105,18,"SRR3698368.10628",TRUE,TRUE,126,13.9380530973451,"GAGGC",NA,NA,NA
"204","del",105,18,"SRR3698368.10709",TRUE,TRUE,126,13.9380530973451,"GAGGC",NA,NA,NA
"205","del",105,18,"SRR3698368.10736",TRUE,TRUE,126,13.9380530973451,"GAGGC",NA,NA,NA
"206","del",105,18,"SRR3698368.10841",TRUE,TRUE,126,13.9380530973451,"GAGGC",NA,NA,NA
"207","del",105,18,"SRR3698368.10913",TRUE,TRUE,126,13.9380530973451,"GAGGC",NA,NA,NA
"208","del",105,18,"SRR3698368.1164",TRUE,TRUE,126,13.9380530973451,"GAGGC",NA,NA,NA
"209","del",105,18,"SRR3698368.1327",TRUE,TRUE,126,13.9380530973451,"GAGGC",NA,NA,NA
"210","del",105,18,"SRR3698368.1348",TRUE,TRUE,126,13.9380530973451,"GAGGC",NA,NA,NA
"211","del",105,18,"SRR3698368.1395",TRUE,TRUE,126,13.9380530973451,"GAGGC",NA,NA,NA
"212","del",105,18,"SRR3698368.1402",TRUE,TRUE,126,13.9380530973451,"GAGGC",NA,NA,NA
"213","del",105,18,"SRR3698368.1421",TRUE,TRUE,126,13.9380530973451,"GAGGC",NA,NA,NA
"214","del",105,18,"SRR3698368.1596",TRUE,TRUE,126,13.9380530973451,"GAGGC",NA,NA,NA
"215","del",105,18,"SRR3698368.1614",TRUE,TRUE,126,13.9380530973451,"GAGGC",NA,NA,NA
"216","del",105,18,"SRR3698368.1646",TRUE,TRUE,126,13.9380530973451,"GAGGC",NA,NA,NA
"217","del",105,18,"SRR3698368.1941",TRUE,TRUE,126,13.9380530973451,"GAGGC",NA,NA,NA
"218","del",105,18,"SRR3698368.2063",TRUE,TRUE,126,13.9380530973451,"GAGGC",NA,NA,NA
"219","del",105,18,"SRR3698368.2096",TRUE,TRUE,126,13.9380530973451,"GAGGC",NA,NA,NA
"220","del",105,18,"SRR3698368.228",TRUE,TRUE,126,13.9380530973451,"GAGGC",NA,NA,NA
"221","del",105,18,"SRR3698368.2325",TRUE,TRUE,126,13.9380530973451,"GAGGC",NA,NA,NA
"222","del",105,18,"SRR3698368.2446",TRUE,TRUE,126,13.9380530973451,"GAGGC",NA,NA,NA
"223","del",105,18,"SRR3698368.25",TRUE,TRUE,126,13.9380530973451,"GAGGC",NA,NA,NA
"224","del",105,18,"SRR3698368.2535",TRUE,TRUE,126,13.9380530973451,"GAGGC",NA,NA,NA
"225","del",105,18,"SRR3698368.2720",TRUE,TRUE,126,13.9380530973451,"GAGGC",NA,NA,NA
"226","del",105,18,"SRR3698368.288",TRUE,TRUE,126,13.9380530973451,"GAGGC",NA,NA,NA
"227","del",105,18,"SRR3698368.2897",TRUE,TRUE,126,13.9380530973451,"GAGGC",NA,NA,NA
"228","del",105,18,"SRR3698368.2911",TRUE,TRUE,126,13.9380530973451,"GAGGC",NA,NA,NA
"229","del",105,18,"SRR3698368.2922",TRUE,TRUE,126,13.9380530973451,"GAGGC",NA,NA,NA
"230","del",105,18,"SRR3698368.2929",TRUE,TRUE,126,13.9380530973451,"GAGGC",NA,NA,NA
"231","del",105,18,"SRR3698368.3025",TRUE,TRUE,126,13.9380530973451,"GAGGC",NA,NA,NA
"232","del",105,18,"SRR3698368.32",TRUE,TRUE,126,13.9380530973451,"GAGGC",NA,NA,NA
"233","del",105,18,"SRR3698368.3242",TRUE,TRUE,126,13.9380530973451,"GAGGC",NA,NA,NA
"234","del",105,18,"SRR3698368.3284",TRUE,TRUE,126,13.9380530973451,"GAGGC",NA,NA,NA
"235","del",105,18,"SRR3698368.3354",TRUE,TRUE,126,13.9380530973451,"GAGGC",NA,NA,NA
"236","del",105,18,"SRR3698368.3359",TRUE,TRUE,126,13.9380530973451,"GAGGC",NA,NA,NA
"237","del",105,18,"SRR3698368.3371",TRUE,TRUE,126,13.9380530973451,"GAGGC",NA,NA,NA
"238","del",105,18,"SRR3698368.3427",TRUE,TRUE,126,13.9380530973451,"GAGGC",NA,NA,NA
"239","del",105,18,"SRR3698368.3454",TRUE,TRUE,126,13.9380530973451,"GAGGC",NA,NA,NA
"240","del",105,18,"SRR3698368.3570",TRUE,TRUE,126,13.9380530973451,"GAGGC",NA,NA,NA
"241","del",105,18,"SRR3698368.3619",TRUE,TRUE,126,13.9380530973451,"GAGGC",NA,NA,NA
"242","del",105,18,"SRR3698368.3785",TRUE,TRUE,126,13.9380530973451,"GAGGC",NA,NA,NA
"243","del",105,18,"SRR3698368.3867",TRUE,TRUE,126,13.9380530973451,"GAGGC",NA,NA,NA
"244","del",105,18,"SRR3698368.3906",TRUE,TRUE,126,13.9380530973451,"GAGGC",NA,NA,NA
"245","del",105,18,"SRR3698368.4038",TRUE,TRUE,126,13.9380530973451,"GAGGC",NA,NA,NA
"246","del",105,18,"SRR3698368.4453",TRUE,TRUE,126,13.9380530973451,"GAGGC",NA,NA,NA
"247","del",105,18,"SRR3698368.4478",TRUE,TRUE,126,13.9380530973451,"GAGGC",NA,NA,NA
"248","del",105,18,"SRR3698368.451",TRUE,TRUE,126,13.9380530973451,"GAGGC",NA,NA,NA
"249","del",105,18,"SRR3698368.4779",TRUE,TRUE,126,13.9380530973451,"GAGGC",NA,NA,NA
"250","del",105,18,"SRR3698368.4785",TRUE,TRUE,126,13.9380530973451,"GAGGC",NA,NA,NA
"251","del",105,18,"SRR3698368.4788",TRUE,TRUE,126,13.9380530973451,"GAGGC",NA,NA,NA
"252","del",105,18,"SRR3698368.4917",TRUE,TRUE,126,13.9380530973451,"GAGGC",NA,NA,NA
"253","del",105,18,"SRR3698368.4934",TRUE,TRUE,126,13.9380530973451,"GAGGC",NA,NA,NA
"254","del",105,18,"SRR3698368.4960",TRUE,TRUE,126,13.9380530973451,"GAGGC",NA,NA,NA
"255","del",105,18,"SRR3698368.5045",TRUE,TRUE,126,13.9380530973451,"GAGGC",NA,NA,NA
"256","del",105,18,"SRR3698368.5136",TRUE,TRUE,126,13.9380530973451,"GAGGC",NA,NA,NA
"257","del",105,18,"SRR3698368.5257",TRUE,TRUE,126,13.9380530973451,"GAGGC",NA,NA,NA
"258","del",105,18,"SRR3698368.527",TRUE,TRUE,126,13.9380530973451,"GAGGC",NA,NA,NA
"259","del",105,18,"SRR3698368.5377",TRUE,TRUE,126,13.9380530973451,"GAGGC",NA,NA,NA
"260","del",105,18,"SRR3698368.5378",TRUE,TRUE,126,13.9380530973451,"GAGGC",NA,NA,NA
"261","del",105,18,"SRR3698368.5391",TRUE,TRUE,126,13.9380530973451,"GAGGC",NA,NA,NA
"262","del",105,18,"SRR3698368.5502",TRUE,TRUE,126,13.9380530973451,"GAGGC",NA,NA,NA
"263","del",105,18,"SRR3698368.5523",TRUE,TRUE,126,13.9380530973451,"GAGGC",NA,NA,NA
"264","del",105,18,"SRR3698368.5529",TRUE,TRUE,126,13.9380530973451,"GAGGC",NA,NA,NA
"265","del",105,18,"SRR3698368.5530",TRUE,TRUE,126,13.9380530973451,"GAGGC",NA,NA,NA
"266","del",105,18,"SRR3698368.567",TRUE,TRUE,126,13.9380530973451,"GAGGC",NA,NA,NA
"267","del",105,18,"SRR3698368.570",TRUE,TRUE,126,13.9380530973451,"GAGGC",NA,NA,NA
"268","del",105,18,"SRR3698368.5703",TRUE,TRUE,126,13.9380530973451,"GAGGC",NA,NA,NA
"269","del",105,18,"SRR3698368.5706",TRUE,TRUE,126,13.9380530973451,"GAGGC",NA,NA,NA
"270","del",105,18,"SRR3698368.5728",TRUE,TRUE,126,13.9380530973451,"GAGGC",NA,NA,NA
"271","del",105,18,"SRR3698368.5755",TRUE,TRUE,126,13.9380530973451,"GAGGC",NA,NA,NA
"272","del",105,18,"SRR3698368.586",TRUE,TRUE,126,13.9380530973451,"GAGGC",NA,NA,NA
"273","del",105,18,"SRR3698368.6078",TRUE,TRUE,126,13.9380530973451,"GAGGC",NA,NA,NA
"274","del",105,18,"SRR3698368.6124",TRUE,TRUE,126,13.9380530973451,"GAGGC",NA,NA,NA
"275","del",105,18,"SRR3698368.6127",TRUE,TRUE,126,13.9380530973451,"GAGGC",NA,NA,NA
"276","del",105,18,"SRR3698368.6440",TRUE,TRUE,126,13.9380530973451,"GAGGC",NA,NA,NA
"277","del",105,18,"SRR3698368.6547",TRUE,TRUE,126,13.9380530973451,"GAGGC",NA,NA,NA
"278","del",105,18,"SRR3698368.6589",TRUE,TRUE,126,13.9380530973451,"GAGGC",NA,NA,NA
"279","del",105,18,"SRR3698368.6663",TRUE,TRUE,126,13.9380530973451,"GAGGC",NA,NA,NA
"280","del",105,18,"SRR3698368.6780",TRUE,TRUE,126,13.9380530973451,"GAGGC",NA,NA,NA
"281","del",105,18,"SRR3698368.6795",TRUE,TRUE,126,13.9380530973451,"GAGGC",NA,NA,NA
"282","del",105,18,"SRR3698368.6987",TRUE,TRUE,126,13.9380530973451,"GAGGC",NA,NA,NA
"283","del",105,18,"SRR3698368.7020",TRUE,TRUE,126,13.9380530973451,"GAGGC",NA,NA,NA
"284","del",105,18,"SRR3698368.7088",TRUE,TRUE,126,13.9380530973451,"GAGGC",NA,NA,NA
"285","del",105,18,"SRR3698368.7147",TRUE,TRUE,126,13.9380530973451,"GAGGC",NA,NA,NA
"286","del",105,18,"SRR3698368.7162",TRUE,TRUE,126,13.9380530973451,"GAGGC",NA,NA,NA
"287","del",105,18,"SRR3698368.7227",TRUE,TRUE,126,13.9380530973451,"GAGGC",NA,NA,NA
"288","del",105,18,"SRR3698368.7236",TRUE,TRUE,126,13.9380530973451,"GAGGC",NA,NA,NA
"289","del",105,18,"SRR3698368.728",TRUE,TRUE,126,13.9380530973451,"GAGGC",NA,NA,NA
"290","del",105,18,"SRR3698368.7497",TRUE,TRUE,126,13.9380530973451,"GAGGC",NA,NA,NA
"291","del",105,18,"SRR3698368.7756",TRUE,TRUE,126,13.9380530973451,"GAGGC",NA,NA,NA
"292","del",105,18,"SRR3698368.7938",TRUE,TRUE,126,13.9380530973451,"GAGGC",NA,NA,NA
"293","del",105,18,"SRR3698368.807",TRUE,TRUE,126,13.9380530973451,"GAGGC",NA,NA,NA
"294","del",105,18,"SRR3698368.8127",TRUE,TRUE,126,13.9380530973451,"GAGGC",NA,NA,NA
"295","del",105,18,"SRR3698368.8133",TRUE,TRUE,126,13.9380530973451,"GAGGC",NA,NA,NA
"296","del",105,18,"SRR3698368.8246",TRUE,TRUE,126,13.9380530973451,"GAGGC",NA,NA,NA
"297","del",105,18,"SRR3698368.8410",TRUE,TRUE,126,13.9380530973451,"GAGGC",NA,NA,NA
"298","del",105,18,"SRR3698368.8450",TRUE,TRUE,126,13.9380530973451,"GAGGC",NA,NA,NA
"299","del",105,18,"SRR3698368.8599",TRUE,TRUE,126,13.9380530973451,"GAGGC",NA,NA,NA
"300","del",105,18,"SRR3698368.8667",TRUE,TRUE,126,13.9380530973451,"GAGGC",NA,NA,NA
"301","del",105,18,"SRR3698368.8676",TRUE,TRUE,126,13.9380530973451,"GAGGC",NA,NA,NA
"302","del",105,18,"SRR3698368.8848",TRUE,TRUE,126,13.9380530973451,"GAGGC",NA,NA,NA
"303","del",105,18,"SRR3698368.8918",TRUE,TRUE,126,13.9380530973451,"GAGGC",NA,NA,NA
"304","del",105,18,"SRR3698368.8922",TRUE,TRUE,126,13.9380530973451,"GAGGC",NA,NA,NA
"305","del",105,18,"SRR3698368.9020",TRUE,TRUE,126,13.9380530973451,"GAGGC",NA,NA,NA
"306","del",105,18,"SRR3698368.9021",TRUE,TRUE,126,13.9380530973451,"GAGGC",NA,NA,NA
"307","del",105,18,"SRR3698368.9046",TRUE,TRUE,126,13.9380530973451,"GAGGC",NA,NA,NA
"308","del",105,18,"SRR3698368.9122",TRUE,TRUE,126,13.9380530973451,"GAGGC",NA,NA,NA
"309","del",105,18,"SRR3698368.9278",TRUE,TRUE,126,13.9380530973451,"GAGGC",NA,NA,NA
"310","del",105,18,"SRR3698368.9422",TRUE,TRUE,126,13.9380530973451,"GAGGC",NA,NA,NA
"311","del",105,18,"SRR3698368.9500",TRUE,TRUE,126,13.9380530973451,"GAGGC",NA,NA,NA
"312","del",105,18,"SRR3698368.9535",TRUE,TRUE,126,13.9380530973451,"GAGGC",NA,NA,NA
"313","del",105,18,"SRR3698368.9569",TRUE,TRUE,126,13.9380530973451,"GAGGC",NA,NA,NA
"314","del",105,18,"SRR3698368.9687",TRUE,TRUE,126,13.9380530973451,"GAGGC",NA,NA,NA
"315","del",105,18,"SRR3698368.9692",TRUE,TRUE,126,13.9380530973451,"GAGGC",NA,NA,NA
"316","del",105,18,"SRR3698368.9701",TRUE,TRUE,126,13.9380530973451,"GAGGC",NA,NA,NA
"317","del",105,18,"SRR3698368.9763",TRUE,TRUE,126,13.9380530973451,"GAGGC",NA,NA,NA
"318","del",105,18,"SRR3698368.9834",TRUE,TRUE,126,13.9380530973451,"GAGGC",NA,NA,NA
"319","del",105,18,"SRR3698368.9961",TRUE,TRUE,126,13.9380530973451,"GAGGC",NA,NA,NA
"320","del",105,20,"SRR3698368.4443",FALSE,TRUE,1,0.110619469026549,"G",NA,NA,NA
"321","del",105,24,"SRR3698368.10147",FALSE,TRUE,1,0.110619469026549,"G",NA,NA,NA
"322","del",106,9,"SRR3698368.4694",FALSE,TRUE,1,0.110619469026549,"AGGC",NA,NA,NA
"323","del",106,19,"SRR3698368.7104",FALSE,TRUE,1,0.110619469026549,"NHEJ",NA,NA,NA
"324","del",107,17,"SRR3698368.6719",FALSE,TRUE,1,0.110619469026549,"NHEJ",NA,NA,NA
"325","del",107,19,"SRR3698368.4048",FALSE,TRUE,1,0.110619469026549,"G",NA,NA,NA
"326","del",107,22,"SRR3698368.10",TRUE,TRUE,9,0.995575221238938,"GG",NA,NA,NA
"327","del",107,22,"SRR3698368.1026",TRUE,TRUE,9,0.995575221238938,"GG",NA,NA,NA
"328","del",107,22,"SRR3698368.1325",TRUE,TRUE,9,0.995575221238938,"GG",NA,NA,NA
"329","del",107,22,"SRR3698368.4059",TRUE,TRUE,9,0.995575221238938,"GG",NA,NA,NA
"330","del",107,22,"SRR3698368.4734",TRUE,TRUE,9,0.995575221238938,"GG",NA,NA,NA
"331","del",107,22,"SRR3698368.5113",TRUE,TRUE,9,0.995575221238938,"GG",NA,NA,NA
"332","del",107,22,"SRR3698368.6407",TRUE,TRUE,9,0.995575221238938,"GG",NA,NA,NA
"333","del",107,22,"SRR3698368.6626",TRUE,TRUE,9,0.995575221238938,"GG",NA,NA,NA
"334","del",107,22,"SRR3698368.9807",TRUE,TRUE,9,0.995575221238938,"GG",NA,NA,NA
"335","del",107,23,"SRR3698368.463",FALSE,TRUE,1,0.110619469026549,"G",NA,NA,NA
"336","del",107,24,"SRR3698368.6265",FALSE,TRUE,1,0.110619469026549,"NHEJ",NA,NA,NA
"337","del",108,15,"SRR3698368.1860",TRUE,TRUE,2,0.221238938053097,"G",NA,NA,NA
"338","del",108,15,"SRR3698368.2899",TRUE,TRUE,2,0.221238938053097,"G",NA,NA,NA
"339","del",108,17,"SRR3698368.10827",TRUE,TRUE,2,0.221238938053097,"G",NA,NA,NA
"340","del",108,17,"SRR3698368.10897",TRUE,TRUE,2,0.221238938053097,"G",NA,NA,NA
"341","del",109,14,"SRR3698368.2317",FALSE,TRUE,1,0.110619469026549,"NHEJ",NA,NA,NA
"342","del",109,16,"SRR3698368.5454",TRUE,TRUE,2,0.221238938053097,"NHEJ",NA,NA,NA
"343","del",109,16,"SRR3698368.7421",TRUE,TRUE,2,0.221238938053097,"NHEJ",NA,NA,NA
"344","del",110,17,"SRR3698368.271",TRUE,TRUE,2,0.221238938053097,"C",NA,NA,NA
"345","del",110,17,"SRR3698368.9003",TRUE,TRUE,2,0.221238938053097,"C",NA,NA,NA
"346","del",110,22,"SRR3698368.10186",TRUE,TRUE,3,0.331858407079646,"NHEJ",NA,NA,NA
"347","del",110,22,"SRR3698368.5860",TRUE,TRUE,3,0.331858407079646,"NHEJ",NA,NA,NA
"348","del",110,22,"SRR3698368.7540",TRUE,TRUE,3,0.331858407079646,"NHEJ",NA,NA,NA
"349","del",110,23,"SRR3698368.10014",FALSE,TRUE,1,0.110619469026549,"C",NA,NA,NA
"350","del",110,33,"SRR3698368.1074",FALSE,TRUE,2,0.221238938053097,"C",NA,NA,NA
"351","del",110,33,"SRR3698368.1433",FALSE,TRUE,2,0.221238938053097,"C",NA,NA,NA
"352","del",110,37,"SRR3698368.3553",TRUE,TRUE,4,0.442477876106195,"C",NA,NA,NA
"353","del",110,37,"SRR3698368.6210",TRUE,TRUE,4,0.442477876106195,"C",NA,NA,NA
"354","del",110,37,"SRR3698368.6346",TRUE,TRUE,4,0.442477876106195,"C",NA,NA,NA
"355","del",110,37,"SRR3698368.8396",TRUE,TRUE,4,0.442477876106195,"C",NA,NA,NA
"356","del",110,45,"SRR3698368.1862",FALSE,TRUE,1,0.110619469026549,"C",NA,NA,NA
"357","del",111,14,"SRR3698368.1179",TRUE,TRUE,3,0.331858407079646,"G",NA,NA,NA
"358","del",111,14,"SRR3698368.4931",TRUE,TRUE,3,0.331858407079646,"G",NA,NA,NA
"359","del",111,14,"SRR3698368.8833",TRUE,TRUE,3,0.331858407079646,"G",NA,NA,NA
"360","del",111,15,"SRR3698368.10636",FALSE,TRUE,1,0.110619469026549,"G",NA,NA,NA
"361","del",111,19,"SRR3698368.10411",TRUE,TRUE,52,5.75221238938053,"GTGC",NA,NA,NA
"362","del",111,19,"SRR3698368.10768",TRUE,TRUE,52,5.75221238938053,"GTGC",NA,NA,NA
"363","del",111,19,"SRR3698368.1131",TRUE,TRUE,52,5.75221238938053,"GTGC",NA,NA,NA
"364","del",111,19,"SRR3698368.1162",TRUE,TRUE,52,5.75221238938053,"GTGC",NA,NA,NA
"365","del",111,19,"SRR3698368.1206",TRUE,TRUE,52,5.75221238938053,"GTGC",NA,NA,NA
"366","del",111,19,"SRR3698368.1296",TRUE,TRUE,52,5.75221238938053,"GTGC",NA,NA,NA
"367","del",111,19,"SRR3698368.1540",TRUE,TRUE,52,5.75221238938053,"GTGC",NA,NA,NA
"368","del",111,19,"SRR3698368.1807",TRUE,TRUE,52,5.75221238938053,"GTGC",NA,NA,NA
"369","del",111,19,"SRR3698368.1809",TRUE,TRUE,52,5.75221238938053,"GTGC",NA,NA,NA
"370","del",111,19,"SRR3698368.2107",TRUE,TRUE,52,5.75221238938053,"GTGC",NA,NA,NA
"371","del",111,19,"SRR3698368.2180",TRUE,TRUE,52,5.75221238938053,"GTGC",NA,NA,NA
"372","del",111,19,"SRR3698368.2223",TRUE,TRUE,52,5.75221238938053,"GTGC",NA,NA,NA
"373","del",111,19,"SRR3698368.2785",TRUE,TRUE,52,5.75221238938053,"GTGC",NA,NA,NA
"374","del",111,19,"SRR3698368.2882",TRUE,TRUE,52,5.75221238938053,"GTGC",NA,NA,NA
"375","del",111,19,"SRR3698368.3179",TRUE,TRUE,52,5.75221238938053,"GTGC",NA,NA,NA
"376","del",111,19,"SRR3698368.3245",TRUE,TRUE,52,5.75221238938053,"GTGC",NA,NA,NA
"377","del",111,19,"SRR3698368.3510",TRUE,TRUE,52,5.75221238938053,"GTGC",NA,NA,NA
"378","del",111,19,"SRR3698368.3764",TRUE,TRUE,52,5.75221238938053,"GTGC",NA,NA,NA
"379","del",111,19,"SRR3698368.415",TRUE,TRUE,52,5.75221238938053,"GTGC",NA,NA,NA
"380","del",111,19,"SRR3698368.4219",TRUE,TRUE,52,5.75221238938053,"GTGC",NA,NA,NA
"381","del",111,19,"SRR3698368.4326",TRUE,TRUE,52,5.75221238938053,"GTGC",NA,NA,NA
"382","del",111,19,"SRR3698368.4397",TRUE,TRUE,52,5.75221238938053,"GTGC",NA,NA,NA
"383","del",111,19,"SRR3698368.4870",TRUE,TRUE,52,5.75221238938053,"GTGC",NA,NA,NA
"384","del",111,19,"SRR3698368.4897",TRUE,TRUE,52,5.75221238938053,"GTGC",NA,NA,NA
"385","del",111,19,"SRR3698368.4914",TRUE,TRUE,52,5.75221238938053,"GTGC",NA,NA,NA
"386","del",111,19,"SRR3698368.4990",TRUE,TRUE,52,5.75221238938053,"GTGC",NA,NA,NA
"387","del",111,19,"SRR3698368.522",TRUE,TRUE,52,5.75221238938053,"GTGC",NA,NA,NA
"388","del",111,19,"SRR3698368.5239",TRUE,TRUE,52,5.75221238938053,"GTGC",NA,NA,NA
"389","del",111,19,"SRR3698368.5489",TRUE,TRUE,52,5.75221238938053,"GTGC",NA,NA,NA
"390","del",111,19,"SRR3698368.5831",TRUE,TRUE,52,5.75221238938053,"GTGC",NA,NA,NA
"391","del",111,19,"SRR3698368.5859",TRUE,TRUE,52,5.75221238938053,"GTGC",NA,NA,NA
"392","del",111,19,"SRR3698368.5974",TRUE,TRUE,52,5.75221238938053,"GTGC",NA,NA,NA
"393","del",111,19,"SRR3698368.6063",TRUE,TRUE,52,5.75221238938053,"GTGC",NA,NA,NA
"394","del",111,19,"SRR3698368.6888",TRUE,TRUE,52,5.75221238938053,"GTGC",NA,NA,NA
"395","del",111,19,"SRR3698368.6915",TRUE,TRUE,52,5.75221238938053,"GTGC",NA,NA,NA
"396","del",111,19,"SRR3698368.7047",TRUE,TRUE,52,5.75221238938053,"GTGC",NA,NA,NA
"397","del",111,19,"SRR3698368.760",TRUE,TRUE,52,5.75221238938053,"GTGC",NA,NA,NA
"398","del",111,19,"SRR3698368.7688",TRUE,TRUE,52,5.75221238938053,"GTGC",NA,NA,NA
"399","del",111,19,"SRR3698368.7826",TRUE,TRUE,52,5.75221238938053,"GTGC",NA,NA,NA
"400","del",111,19,"SRR3698368.7991",TRUE,TRUE,52,5.75221238938053,"GTGC",NA,NA,NA
"401","del",111,19,"SRR3698368.8011",TRUE,TRUE,52,5.75221238938053,"GTGC",NA,NA,NA
"402","del",111,19,"SRR3698368.8366",TRUE,TRUE,52,5.75221238938053,"GTGC",NA,NA,NA
"403","del",111,19,"SRR3698368.8478",TRUE,TRUE,52,5.75221238938053,"GTGC",NA,NA,NA
"404","del",111,19,"SRR3698368.8534",TRUE,TRUE,52,5.75221238938053,"GTGC",NA,NA,NA
"405","del",111,19,"SRR3698368.8640",TRUE,TRUE,52,5.75221238938053,"GTGC",NA,NA,NA
"406","del",111,19,"SRR3698368.88",TRUE,TRUE,52,5.75221238938053,"GTGC",NA,NA,NA
"407","del",111,19,"SRR3698368.8874",TRUE,TRUE,52,5.75221238938053,"GTGC",NA,NA,NA
"408","del",111,19,"SRR3698368.900",TRUE,TRUE,52,5.75221238938053,"GTGC",NA,NA,NA
"409","del",111,19,"SRR3698368.9052",TRUE,TRUE,52,5.75221238938053,"GTGC",NA,NA,NA
"410","del",111,19,"SRR3698368.918",TRUE,TRUE,52,5.75221238938053,"GTGC",NA,NA,NA
"411","del",111,19,"SRR3698368.9636",TRUE,TRUE,52,5.75221238938053,"GTGC",NA,NA,NA
"412","del",111,19,"SRR3698368.9888",TRUE,TRUE,52,5.75221238938053,"GTGC",NA,NA,NA
"413","del",111,21,"SRR3698368.1585",FALSE,TRUE,1,0.110619469026549,"G",NA,NA,NA
"414","del",111,30,"SRR3698368.223",TRUE,TRUE,3,0.331858407079646,"GT",NA,NA,NA
"415","del",111,30,"SRR3698368.3161",TRUE,TRUE,3,0.331858407079646,"GT",NA,NA,NA
"416","del",111,30,"SRR3698368.9242",TRUE,TRUE,3,0.331858407079646,"GT",NA,NA,NA
"417","del",111,31,"SRR3698368.1010",TRUE,TRUE,4,0.442477876106195,"NHEJ",NA,NA,NA
"418","del",111,31,"SRR3698368.2172",TRUE,TRUE,4,0.442477876106195,"NHEJ",NA,NA,NA
"419","del",111,31,"SRR3698368.5356",TRUE,TRUE,4,0.442477876106195,"NHEJ",NA,NA,NA
"420","del",111,31,"SRR3698368.5473",TRUE,TRUE,4,0.442477876106195,"NHEJ",NA,NA,NA
"421","del",111,41,"SRR3698368.518",FALSE,TRUE,1,0.110619469026549,"NHEJ",NA,NA,NA
"422","del",112,13,"SRR3698368.1517",TRUE,TRUE,2,0.221238938053097,"NHEJ",NA,NA,NA
"423","del",112,13,"SRR3698368.4169",TRUE,TRUE,2,0.221238938053097,"NHEJ",NA,NA,NA
"424","del",112,27,"SRR3698368.4078",TRUE,TRUE,2,0.221238938053097,"T",NA,NA,NA
"425","del",112,27,"SRR3698368.6698",TRUE,TRUE,2,0.221238938053097,"T",NA,NA,NA
"426","del",112,28,"SRR3698368.10058",TRUE,TRUE,8,0.884955752212389,"TG",NA,NA,NA
"427","del",112,28,"SRR3698368.1241",TRUE,TRUE,8,0.884955752212389,"TG",NA,NA,NA
"428","del",112,28,"SRR3698368.4666",TRUE,TRUE,8,0.884955752212389,"TG",NA,NA,NA
"429","del",112,28,"SRR3698368.6057",TRUE,TRUE,8,0.884955752212389,"TG",NA,NA,NA
"430","del",112,28,"SRR3698368.6071",TRUE,TRUE,8,0.884955752212389,"TG",NA,NA,NA
"431","del",112,28,"SRR3698368.8498",TRUE,TRUE,8,0.884955752212389,"TG",NA,NA,NA
"432","del",112,28,"SRR3698368.8900",TRUE,TRUE,8,0.884955752212389,"TG",NA,NA,NA
"433","del",112,28,"SRR3698368.915",TRUE,TRUE,8,0.884955752212389,"TG",NA,NA,NA
"434","del",112,33,"SRR3698368.10759",TRUE,TRUE,18,1.99115044247788,"TGC",NA,NA,NA
"435","del",112,33,"SRR3698368.193",TRUE,TRUE,18,1.99115044247788,"TGC",NA,NA,NA
"436","del",112,33,"SRR3698368.22",TRUE,TRUE,18,1.99115044247788,"TGC",NA,NA,NA
"437","del",112,33,"SRR3698368.2549",TRUE,TRUE,18,1.99115044247788,"TGC",NA,NA,NA
"438","del",112,33,"SRR3698368.2877",TRUE,TRUE,18,1.99115044247788,"TGC",NA,NA,NA
"439","del",112,33,"SRR3698368.3850",TRUE,TRUE,18,1.99115044247788,"TGC",NA,NA,NA
"440","del",112,33,"SRR3698368.4123",TRUE,TRUE,18,1.99115044247788,"TGC",NA,NA,NA
"441","del",112,33,"SRR3698368.4216",TRUE,TRUE,18,1.99115044247788,"TGC",NA,NA,NA
"442","del",112,33,"SRR3698368.4560",TRUE,TRUE,18,1.99115044247788,"TGC",NA,NA,NA
"443","del",112,33,"SRR3698368.5053",TRUE,TRUE,18,1.99115044247788,"TGC",NA,NA,NA
"444","del",112,33,"SRR3698368.5140",TRUE,TRUE,18,1.99115044247788,"TGC",NA,NA,NA
"445","del",112,33,"SRR3698368.6180",TRUE,TRUE,18,1.99115044247788,"TGC",NA,NA,NA
"446","del",112,33,"SRR3698368.6430",TRUE,TRUE,18,1.99115044247788,"TGC",NA,NA,NA
"447","del",112,33,"SRR3698368.7251",TRUE,TRUE,18,1.99115044247788,"TGC",NA,NA,NA
"448","del",112,33,"SRR3698368.7374",TRUE,TRUE,18,1.99115044247788,"TGC",NA,NA,NA
"449","del",112,33,"SRR3698368.8456",TRUE,TRUE,18,1.99115044247788,"TGC",NA,NA,NA
"450","del",112,33,"SRR3698368.8493",TRUE,TRUE,18,1.99115044247788,"TGC",NA,NA,NA
"451","del",112,33,"SRR3698368.920",TRUE,TRUE,18,1.99115044247788,"TGC",NA,NA,NA
"452","del",112,34,"SRR3698368.282",FALSE,TRUE,1,0.110619469026549,"NHEJ",NA,NA,NA
"453","del",112,36,"SRR3698368.3616",FALSE,TRUE,1,0.110619469026549,"TG",NA,NA,NA
"454","del",113,12,"SRR3698368.2942",TRUE,TRUE,3,0.331858407079646,"G",NA,NA,NA
"455","del",113,12,"SRR3698368.5238",TRUE,TRUE,3,0.331858407079646,"G",NA,NA,NA
"456","del",113,12,"SRR3698368.810",TRUE,TRUE,3,0.331858407079646,"G",NA,NA,NA
"457","del",113,13,"SRR3698368.10092",TRUE,TRUE,12,1.32743362831858,"GC",NA,NA,NA
"458","del",113,13,"SRR3698368.1232",TRUE,TRUE,12,1.32743362831858,"GC",NA,NA,NA
"459","del",113,13,"SRR3698368.2468",TRUE,TRUE,12,1.32743362831858,"GC",NA,NA,NA
"460","del",113,13,"SRR3698368.294",TRUE,TRUE,12,1.32743362831858,"GC",NA,NA,NA
"461","del",113,13,"SRR3698368.3701",TRUE,TRUE,12,1.32743362831858,"GC",NA,NA,NA
"462","del",113,13,"SRR3698368.4119",TRUE,TRUE,12,1.32743362831858,"GC",NA,NA,NA
"463","del",113,13,"SRR3698368.4183",TRUE,TRUE,12,1.32743362831858,"GC",NA,NA,NA
"464","del",113,13,"SRR3698368.4462",TRUE,TRUE,12,1.32743362831858,"GC",NA,NA,NA
"465","del",113,13,"SRR3698368.6734",TRUE,TRUE,12,1.32743362831858,"GC",NA,NA,NA
"466","del",113,13,"SRR3698368.8983",TRUE,TRUE,12,1.32743362831858,"GC",NA,NA,NA
"467","del",113,13,"SRR3698368.925",TRUE,TRUE,12,1.32743362831858,"GC",NA,NA,NA
"468","del",113,13,"SRR3698368.9262",TRUE,TRUE,12,1.32743362831858,"GC",NA,NA,NA
"469","del",113,39,"SRR3698368.7950",FALSE,TRUE,1,0.110619469026549,"NHEJ",NA,NA,NA
"470","del",113,43,"SRR3698368.10501",FALSE,TRUE,1,0.110619469026549,"NHEJ",NA,NA,NA
"471","del",113,48,"SRR3698368.1504",FALSE,TRUE,1,0.110619469026549,"GC",NA,NA,NA
"472","del",114,11,"SRR3698368.3086",FALSE,TRUE,2,0.221238938053097,"NHEJ",NA,NA,NA
"473","del",114,11,"SRR3698368.4405",FALSE,TRUE,2,0.221238938053097,"NHEJ",NA,NA,NA
"474","del",114,20,"SRR3698368.3948",FALSE,TRUE,1,0.110619469026549,"C",NA,NA,NA
"475","del",114,23,"SRR3698368.9312",FALSE,TRUE,1,0.110619469026549,"C",NA,NA,NA
"476","del",114,24,"SRR3698368.5716",FALSE,TRUE,1,0.110619469026549,"C",NA,NA,NA
"477","del",114,30,"SRR3698368.5930",FALSE,TRUE,1,0.110619469026549,"C",NA,NA,NA
"478","del",114,38,"SRR3698368.7113",FALSE,TRUE,1,0.110619469026549,"CA",NA,NA,NA
"479","del",114,41,"SRR3698368.10268",FALSE,TRUE,1,0.110619469026549,"C",NA,NA,NA
"480","del",114,49,"SRR3698368.2947",TRUE,TRUE,2,0.221238938053097,"CAG",NA,NA,NA
"481","del",114,49,"SRR3698368.5834",TRUE,TRUE,2,0.221238938053097,"CAG",NA,NA,NA
"482","del",115,9,"SRR3698368.144",TRUE,TRUE,6,0.663716814159292,"AGGC",NA,NA,NA
"483","del",115,9,"SRR3698368.370",TRUE,TRUE,6,0.663716814159292,"AGGC",NA,NA,NA
"484","del",115,9,"SRR3698368.4770",TRUE,TRUE,6,0.663716814159292,"AGGC",NA,NA,NA
"485","del",115,9,"SRR3698368.699",TRUE,TRUE,6,0.663716814159292,"AGGC",NA,NA,NA
"486","del",115,9,"SRR3698368.8289",TRUE,TRUE,6,0.663716814159292,"AGGC",NA,NA,NA
"487","del",115,9,"SRR3698368.9105",TRUE,TRUE,6,0.663716814159292,"AGGC",NA,NA,NA
"488","del",115,10,"SRR3698368.1056",TRUE,TRUE,7,0.774336283185841,"NHEJ",NA,NA,NA
"489","del",115,10,"SRR3698368.2066",TRUE,TRUE,7,0.774336283185841,"NHEJ",NA,NA,NA
"490","del",115,10,"SRR3698368.3911",TRUE,TRUE,7,0.774336283185841,"NHEJ",NA,NA,NA
"491","del",115,10,"SRR3698368.4479",TRUE,TRUE,7,0.774336283185841,"NHEJ",NA,NA,NA
"492","del",115,10,"SRR3698368.7839",TRUE,TRUE,7,0.774336283185841,"NHEJ",NA,NA,NA
"493","del",115,10,"SRR3698368.9001",TRUE,TRUE,7,0.774336283185841,"NHEJ",NA,NA,NA
"494","del",115,10,"SRR3698368.9809",TRUE,TRUE,7,0.774336283185841,"NHEJ",NA,NA,NA
"495","del",115,21,"SRR3698368.941",FALSE,TRUE,1,0.110619469026549,"A",NA,NA,NA
"496","del",116,7,"SRR3698368.3004",FALSE,TRUE,1,0.110619469026549,"G",NA,NA,NA
"497","del",116,8,"SRR3698368.10953",FALSE,TRUE,1,0.110619469026549,"NHEJ",NA,NA,NA
"498","del",116,19,"SRR3698368.4217",FALSE,TRUE,1,0.110619469026549,"G",NA,NA,NA
"499","del",117,3,"SRR3698368.3872",FALSE,TRUE,1,0.110619469026549,"GC",NA,NA,NA
"500","del",117,6,"SRR3698368.10931",TRUE,TRUE,4,0.442477876106195,"G",NA,NA,NA
"501","del",117,6,"SRR3698368.4006",TRUE,TRUE,4,0.442477876106195,"G",NA,NA,NA
"502","del",117,6,"SRR3698368.563",TRUE,TRUE,4,0.442477876106195,"G",NA,NA,NA
"503","del",117,6,"SRR3698368.9786",TRUE,TRUE,4,0.442477876106195,"G",NA,NA,NA
"504","del",117,8,"SRR3698368.4501",TRUE,TRUE,4,0.442477876106195,"G",NA,NA,NA
"505","del",117,8,"SRR3698368.4818",TRUE,TRUE,4,0.442477876106195,"G",NA,NA,NA
"506","del",117,8,"SRR3698368.7282",TRUE,TRUE,4,0.442477876106195,"G",NA,NA,NA
"507","del",117,8,"SRR3698368.8217",TRUE,TRUE,4,0.442477876106195,"G",NA,NA,NA
"508","del",117,15,"SRR3698368.2934",TRUE,TRUE,2,0.221238938053097,"GC",NA,NA,NA
"509","del",117,15,"SRR3698368.8962",TRUE,TRUE,2,0.221238938053097,"GC",NA,NA,NA
"510","del",117,18,"SRR3698368.3741",FALSE,TRUE,1,0.110619469026549,"G",NA,NA,NA
"511","del",117,20,"SRR3698368.6605",FALSE,TRUE,1,0.110619469026549,"NHEJ",NA,NA,NA
"512","del",117,22,"SRR3698368.3693",FALSE,TRUE,1,0.110619469026549,"NHEJ",NA,NA,NA
"513","del",117,23,"SRR3698368.5171",FALSE,TRUE,1,0.110619469026549,"NHEJ",NA,NA,NA
"514","del",118,7,"SRR3698368.10024",TRUE,TRUE,6,0.663716814159292,"NHEJ",NA,NA,NA
"515","del",118,7,"SRR3698368.3441",TRUE,TRUE,6,0.663716814159292,"NHEJ",NA,NA,NA
"516","del",118,7,"SRR3698368.4980",TRUE,TRUE,6,0.663716814159292,"NHEJ",NA,NA,NA
"517","del",118,7,"SRR3698368.7050",TRUE,TRUE,6,0.663716814159292,"NHEJ",NA,NA,NA
"518","del",118,7,"SRR3698368.7659",TRUE,TRUE,6,0.663716814159292,"NHEJ",NA,NA,NA
"519","del",118,7,"SRR3698368.8677",TRUE,TRUE,6,0.663716814159292,"NHEJ",NA,NA,NA
"520","del",118,16,"SRR3698368.1785",FALSE,TRUE,1,0.110619469026549,"C",NA,NA,NA
"521","del",118,27,"SRR3698368.4226",FALSE,TRUE,1,0.110619469026549,"NHEJ",NA,NA,NA
"522","del",119,5,"SRR3698368.10844",TRUE,TRUE,10,1.10619469026549,"AG",NA,NA,NA
"523","del",119,5,"SRR3698368.2024",TRUE,TRUE,10,1.10619469026549,"AG",NA,NA,NA
"524","del",119,5,"SRR3698368.2237",TRUE,TRUE,10,1.10619469026549,"AG",NA,NA,NA
"525","del",119,5,"SRR3698368.2283",TRUE,TRUE,10,1.10619469026549,"AG",NA,NA,NA
"526","del",119,5,"SRR3698368.2439",TRUE,TRUE,10,1.10619469026549,"AG",NA,NA,NA
"527","del",119,5,"SRR3698368.6854",TRUE,TRUE,10,1.10619469026549,"AG",NA,NA,NA
"528","del",119,5,"SRR3698368.7009",TRUE,TRUE,10,1.10619469026549,"AG",NA,NA,NA
"529","del",119,5,"SRR3698368.7425",TRUE,TRUE,10,1.10619469026549,"AG",NA,NA,NA
"530","del",119,5,"SRR3698368.9323",TRUE,TRUE,10,1.10619469026549,"AG",NA,NA,NA
"531","del",119,5,"SRR3698368.9464",TRUE,TRUE,10,1.10619469026549,"AG",NA,NA,NA
"532","del",119,6,"SRR3698368.3499",TRUE,TRUE,4,0.442477876106195,"NHEJ",NA,NA,NA
"533","del",119,6,"SRR3698368.7221",TRUE,TRUE,4,0.442477876106195,"NHEJ",NA,NA,NA
"534","del",119,6,"SRR3698368.7711",TRUE,TRUE,4,0.442477876106195,"NHEJ",NA,NA,NA
"535","del",119,6,"SRR3698368.8044",TRUE,TRUE,4,0.442477876106195,"NHEJ",NA,NA,NA
"536","del",120,3,"SRR3698368.8157",FALSE,TRUE,1,0.110619469026549,"G",NA,NA,NA
"537","del",120,6,"SRR3698368.279",TRUE,TRUE,4,0.442477876106195,"GCTG",NA,NA,NA
"538","del",120,6,"SRR3698368.4619",TRUE,TRUE,4,0.442477876106195,"GCTG",NA,NA,NA
"539","del",120,6,"SRR3698368.6005",TRUE,TRUE,4,0.442477876106195,"GCTG",NA,NA,NA
"540","del",120,6,"SRR3698368.8282",TRUE,TRUE,4,0.442477876106195,"GCTG",NA,NA,NA
"541","del",120,10,"SRR3698368.76",TRUE,TRUE,2,0.221238938053097,"G",NA,NA,NA
"542","del",120,10,"SRR3698368.7829",TRUE,TRUE,2,0.221238938053097,"G",NA,NA,NA
"543","del",121,4,"SRR3698368.4140",TRUE,TRUE,6,0.663716814159292,"NHEJ",NA,NA,NA
"544","del",121,4,"SRR3698368.552",TRUE,TRUE,6,0.663716814159292,"NHEJ",NA,NA,NA
"545","del",121,4,"SRR3698368.5575",TRUE,TRUE,6,0.663716814159292,"NHEJ",NA,NA,NA
"546","del",121,4,"SRR3698368.6471",TRUE,TRUE,6,0.663716814159292,"NHEJ",NA,NA,NA
"547","del",121,4,"SRR3698368.6818",TRUE,TRUE,6,0.663716814159292,"NHEJ",NA,NA,NA
"548","del",121,4,"SRR3698368.8371",TRUE,TRUE,6,0.663716814159292,"NHEJ",NA,NA,NA
"549","del",121,16,"SRR3698368.10528",FALSE,TRUE,1,0.110619469026549,"C",NA,NA,NA
"550","del",121,23,"SRR3698368.6615",FALSE,TRUE,1,0.110619469026549,"CTG",NA,NA,NA
"551","del",122,3,"SRR3698368.11014",TRUE,TRUE,7,0.774336283185841,"NHEJ",NA,NA,NA
"552","del",122,3,"SRR3698368.1946",TRUE,TRUE,7,0.774336283185841,"NHEJ",NA,NA,NA
"553","del",122,3,"SRR3698368.309",TRUE,TRUE,7,0.774336283185841,"NHEJ",NA,NA,NA
"554","del",122,3,"SRR3698368.8023",TRUE,TRUE,7,0.774336283185841,"NHEJ",NA,NA,NA
"555","del",122,3,"SRR3698368.9541",TRUE,TRUE,7,0.774336283185841,"NHEJ",NA,NA,NA
"556","del",122,3,"SRR3698368.9846",TRUE,TRUE,7,0.774336283185841,"NHEJ",NA,NA,NA
"557","del",122,3,"SRR3698368.9881",TRUE,TRUE,7,0.774336283185841,"NHEJ",NA,NA,NA
"558","del",123,1,"SRR3698368.1088",TRUE,TRUE,2,0.221238938053097,"NHEJ",NA,NA,NA
"559","del",123,1,"SRR3698368.7650",TRUE,TRUE,2,0.221238938053097,"NHEJ",NA,NA,NA
"560","del",123,2,"SRR3698368.10668",TRUE,TRUE,18,1.99115044247788,"G",NA,NA,NA
"561","del",123,2,"SRR3698368.11001",TRUE,TRUE,18,1.99115044247788,"G",NA,NA,NA
"562","del",123,2,"SRR3698368.1810",TRUE,TRUE,18,1.99115044247788,"G",NA,NA,NA
"563","del",123,2,"SRR3698368.1888",TRUE,TRUE,18,1.99115044247788,"G",NA,NA,NA
"564","del",123,2,"SRR3698368.1998",TRUE,TRUE,18,1.99115044247788,"G",NA,NA,NA
"565","del",123,2,"SRR3698368.205",TRUE,TRUE,18,1.99115044247788,"G",NA,NA,NA
"566","del",123,2,"SRR3698368.2109",TRUE,TRUE,18,1.99115044247788,"G",NA,NA,NA
"567","del",123,2,"SRR3698368.2156",TRUE,TRUE,18,1.99115044247788,"G",NA,NA,NA
"568","del",123,2,"SRR3698368.2974",TRUE,TRUE,18,1.99115044247788,"G",NA,NA,NA
"569","del",123,2,"SRR3698368.3210",TRUE,TRUE,18,1.99115044247788,"G",NA,NA,NA
"570","del",123,2,"SRR3698368.3227",TRUE,TRUE,18,1.99115044247788,"G",NA,NA,NA
"571","del",123,2,"SRR3698368.5323",TRUE,TRUE,18,1.99115044247788,"G",NA,NA,NA
"572","del",123,2,"SRR3698368.5819",TRUE,TRUE,18,1.99115044247788,"G",NA,NA,NA
"573","del",123,2,"SRR3698368.668",TRUE,TRUE,18,1.99115044247788,"G",NA,NA,NA
"574","del",123,2,"SRR3698368.6697",TRUE,TRUE,18,1.99115044247788,"G",NA,NA,NA
"575","del",123,2,"SRR3698368.8032",TRUE,TRUE,18,1.99115044247788,"G",NA,NA,NA
"576","del",123,2,"SRR3698368.8999",TRUE,TRUE,18,1.99115044247788,"G",NA,NA,NA
"577","del",123,2,"SRR3698368.9505",TRUE,TRUE,18,1.99115044247788,"G",NA,NA,NA
"578","del",123,7,"SRR3698368.9358",FALSE,TRUE,1,0.110619469026549,"G",NA,NA,NA
"579","del",123,12,"SRR3698368.3880",TRUE,TRUE,4,0.442477876106195,"GA",NA,NA,NA
"580","del",123,12,"SRR3698368.5269",TRUE,TRUE,4,0.442477876106195,"GA",NA,NA,NA
"581","del",123,12,"SRR3698368.5936",TRUE,TRUE,4,0.442477876106195,"GA",NA,NA,NA
"582","del",123,12,"SRR3698368.8313",TRUE,TRUE,4,0.442477876106195,"GA",NA,NA,NA
"583","del",123,27,"SRR3698368.495",FALSE,TRUE,1,0.110619469026549,"GA",NA,NA,NA
"584","del",124,1,"SRR3698368.10432",TRUE,TRUE,24,2.65486725663717,"NHEJ",NA,NA,NA
"585","del",124,1,"SRR3698368.1676",TRUE,TRUE,24,2.65486725663717,"NHEJ",NA,NA,NA
"586","del",124,1,"SRR3698368.1757",TRUE,TRUE,24,2.65486725663717,"NHEJ",NA,NA,NA
"587","del",124,1,"SRR3698368.2840",TRUE,TRUE,24,2.65486725663717,"NHEJ",NA,NA,NA
"588","del",124,1,"SRR3698368.3823",TRUE,TRUE,24,2.65486725663717,"NHEJ",NA,NA,NA
"589","del",124,1,"SRR3698368.4638",TRUE,TRUE,24,2.65486725663717,"NHEJ",NA,NA,NA
"590","del",124,1,"SRR3698368.4742",TRUE,TRUE,24,2.65486725663717,"NHEJ",NA,NA,NA
"591","del",124,1,"SRR3698368.4976",TRUE,TRUE,24,2.65486725663717,"NHEJ",NA,NA,NA
"592","del",124,1,"SRR3698368.4978",TRUE,TRUE,24,2.65486725663717,"NHEJ",NA,NA,NA
"593","del",124,1,"SRR3698368.6037",TRUE,TRUE,24,2.65486725663717,"NHEJ",NA,NA,NA
"594","del",124,1,"SRR3698368.6086",TRUE,TRUE,24,2.65486725663717,"NHEJ",NA,NA,NA
"595","del",124,1,"SRR3698368.6384",TRUE,TRUE,24,2.65486725663717,"NHEJ",NA,NA,NA
"596","del",124,1,"SRR3698368.643",TRUE,TRUE,24,2.65486725663717,"NHEJ",NA,NA,NA
"597","del",124,1,"SRR3698368.7039",TRUE,TRUE,24,2.65486725663717,"NHEJ",NA,NA,NA
"598","del",124,1,"SRR3698368.7230",TRUE,TRUE,24,2.65486725663717,"NHEJ",NA,NA,NA
"599","del",124,1,"SRR3698368.7679",TRUE,TRUE,24,2.65486725663717,"NHEJ",NA,NA,NA
"600","del",124,1,"SRR3698368.7764",TRUE,TRUE,24,2.65486725663717,"NHEJ",NA,NA,NA
"601","del",124,1,"SRR3698368.7817",TRUE,TRUE,24,2.65486725663717,"NHEJ",NA,NA,NA
"602","del",124,1,"SRR3698368.8",TRUE,TRUE,24,2.65486725663717,"NHEJ",NA,NA,NA
"603","del",124,1,"SRR3698368.850",TRUE,TRUE,24,2.65486725663717,"NHEJ",NA,NA,NA
"604","del",124,1,"SRR3698368.8985",TRUE,TRUE,24,2.65486725663717,"NHEJ",NA,NA,NA
"605","del",124,1,"SRR3698368.9184",TRUE,TRUE,24,2.65486725663717,"NHEJ",NA,NA,NA
"606","del",124,1,"SRR3698368.9863",TRUE,TRUE,24,2.65486725663717,"NHEJ",NA,NA,NA
"607","del",124,1,"SRR3698368.9906",TRUE,TRUE,24,2.65486725663717,"NHEJ",NA,NA,NA
"608","del",125,1,"SRR3698368.4280",TRUE,TRUE,9,0.995575221238938,"G",NA,NA,NA
"609","del",125,1,"SRR3698368.4367",TRUE,TRUE,9,0.995575221238938,"G",NA,NA,NA
"610","del",125,1,"SRR3698368.5168",TRUE,TRUE,9,0.995575221238938,"G",NA,NA,NA
"611","del",125,1,"SRR3698368.5409",TRUE,TRUE,9,0.995575221238938,"G",NA,NA,NA
"612","del",125,1,"SRR3698368.7174",TRUE,TRUE,9,0.995575221238938,"G",NA,NA,NA
"613","del",125,1,"SRR3698368.7720",TRUE,TRUE,9,0.995575221238938,"G",NA,NA,NA
"614","del",125,1,"SRR3698368.7963",TRUE,TRUE,9,0.995575221238938,"G",NA,NA,NA
"615","del",125,1,"SRR3698368.8161",TRUE,TRUE,9,0.995575221238938,"G",NA,NA,NA
"616","del",125,1,"SRR3698368.8557",TRUE,TRUE,9,0.995575221238938,"G",NA,NA,NA
"617","del",125,2,"SRR3698368.7784",TRUE,TRUE,2,0.221238938053097,"NHEJ",NA,NA,NA
"618","del",125,2,"SRR3698368.9116",TRUE,TRUE,2,0.221238938053097,"NHEJ",NA,NA,NA
"619","del",125,3,"SRR3698368.10159",TRUE,TRUE,2,0.221238938053097,"NHEJ",NA,NA,NA
"620","del",125,3,"SRR3698368.3469",TRUE,TRUE,2,0.221238938053097,"NHEJ",NA,NA,NA
"621","del",125,4,"SRR3698368.1252",TRUE,TRUE,7,0.774336283185841,"GG",NA,NA,NA
"622","del",125,4,"SRR3698368.1747",TRUE,TRUE,7,0.774336283185841,"GG",NA,NA,NA
"623","del",125,4,"SRR3698368.2890",TRUE,TRUE,7,0.774336283185841,"GG",NA,NA,NA
"624","del",125,4,"SRR3698368.3800",TRUE,TRUE,7,0.774336283185841,"GG",NA,NA,NA
"625","del",125,4,"SRR3698368.6692",TRUE,TRUE,7,0.774336283185841,"GG",NA,NA,NA
"626","del",125,4,"SRR3698368.8469",TRUE,TRUE,7,0.774336283185841,"GG",NA,NA,NA
"627","del",125,4,"SRR3698368.9554",TRUE,TRUE,7,0.774336283185841,"GG",NA,NA,NA
"628","del",125,5,"SRR3698368.10911",TRUE,TRUE,3,0.331858407079646,"G",NA,NA,NA
"629","del",125,5,"SRR3698368.1480",TRUE,TRUE,3,0.331858407079646,"G",NA,NA,NA
"630","del",125,5,"SRR3698368.3224",TRUE,TRUE,3,0.331858407079646,"G",NA,NA,NA
"631","del",125,7,"SRR3698368.2617",TRUE,TRUE,2,0.221238938053097,"G",NA,NA,NA
"632","del",125,7,"SRR3698368.4009",TRUE,TRUE,2,0.221238938053097,"G",NA,NA,NA
"633","del",125,9,"SRR3698368.7382",FALSE,TRUE,1,0.110619469026549,"NHEJ",NA,NA,NA
"634","del",125,11,"SRR3698368.2236",TRUE,TRUE,2,0.221238938053097,"NHEJ",NA,NA,NA
"635","del",125,11,"SRR3698368.8222",TRUE,TRUE,2,0.221238938053097,"NHEJ",NA,NA,NA
"636","del",125,13,"SRR3698368.1636",TRUE,TRUE,2,0.221238938053097,"NHEJ",NA,NA,NA
"637","del",125,13,"SRR3698368.1877",TRUE,TRUE,2,0.221238938053097,"NHEJ",NA,NA,NA
"638","del",125,14,"SRR3698368.1015",FALSE,TRUE,1,0.110619469026549,"NHEJ",NA,NA,NA
"639","del",125,20,"SRR3698368.4945",FALSE,TRUE,1,0.110619469026549,"NHEJ",NA,NA,NA
"640","del",125,23,"SRR3698368.4206",FALSE,TRUE,1,0.110619469026549,"NHEJ",NA,NA,NA
"641","del",127,1,"SRR3698368.10034",FALSE,TRUE,1,0.110619469026549,"NHEJ",NA,NA,NA
"642","del",128,1,"SRR3698368.11037",FALSE,TRUE,1,0.110619469026549,"NHEJ",NA,NA,NA
"643","del",129,1,"SRR3698368.1994",FALSE,TRUE,1,0.110619469026549,"G",NA,NA,NA
"644","del",137,1,"SRR3698368.8944",FALSE,TRUE,1,0.110619469026549,"C",NA,NA,NA
"645","del",138,17,"SRR3698368.7869",FALSE,TRUE,1,0.110619469026549,"CTT",NA,NA,NA
"646","del",170,1,"SRR3698368.1818",TRUE,FALSE,3,0.331858407079646,"A",NA,NA,NA
"647","del",170,1,"SRR3698368.3809",TRUE,FALSE,3,0.331858407079646,"A",NA,NA,NA
"648","del",170,1,"SRR3698368.5999",TRUE,FALSE,3,0.331858407079646,"A",NA,NA,NA
"649","del",188,1,"SRR3698368.3220",TRUE,FALSE,3,0.331858407079646,"G",NA,NA,NA
"650","del",188,1,"SRR3698368.7239",TRUE,FALSE,3,0.331858407079646,"G",NA,NA,NA
"651","del",188,1,"SRR3698368.9163",TRUE,FALSE,3,0.331858407079646,"G",NA,NA,NA
"652","del",198,1,"SRR3698368.4568",FALSE,FALSE,1,0.110619469026549,"NHEJ",NA,NA,NA
"653","del",199,1,"SRR3698368.2992",TRUE,FALSE,2,0.221238938053097,"NHEJ",NA,NA,NA
"654","del",199,1,"SRR3698368.6372",TRUE,FALSE,2,0.221238938053097,"NHEJ",NA,NA,NA
"655","del",199,2,"SRR3698368.10085",TRUE,FALSE,3,0.331858407079646,"TG",NA,NA,NA
"656","del",199,2,"SRR3698368.6084",TRUE,FALSE,3,0.331858407079646,"TG",NA,NA,NA
"657","del",199,2,"SRR3698368.666",TRUE,FALSE,3,0.331858407079646,"TG",NA,NA,NA
"658","del",200,1,"SRR3698368.10060",TRUE,FALSE,5,0.553097345132743,"NHEJ",NA,NA,NA
"659","del",200,1,"SRR3698368.6853",TRUE,FALSE,5,0.553097345132743,"NHEJ",NA,NA,NA
"660","del",200,1,"SRR3698368.7987",TRUE,FALSE,5,0.553097345132743,"NHEJ",NA,NA,NA
"661","del",200,1,"SRR3698368.8858",TRUE,FALSE,5,0.553097345132743,"NHEJ",NA,NA,NA
"662","del",200,1,"SRR3698368.962",TRUE,FALSE,5,0.553097345132743,"NHEJ",NA,NA,NA
"663","del",200,3,"SRR3698368.1142",FALSE,FALSE,5,0.553097345132743,"GTG",NA,NA,NA
"664","del",200,3,"SRR3698368.2290",FALSE,FALSE,5,0.553097345132743,"GTG",NA,NA,NA
"665","del",200,3,"SRR3698368.2661",FALSE,FALSE,5,0.553097345132743,"GTG",NA,NA,NA
"666","del",200,3,"SRR3698368.5253",FALSE,FALSE,5,0.553097345132743,"GTG",NA,NA,NA
"667","del",200,3,"SRR3698368.9781",FALSE,FALSE,5,0.553097345132743,"GTG",NA,NA,NA
"668","del",201,1,"SRR3698368.5339",FALSE,FALSE,1,0.110619469026549,"NHEJ",NA,NA,NA
"669","del",202,1,"SRR3698368.10577",TRUE,FALSE,20,2.21238938053097,"G",NA,NA,NA
"670","del",202,1,"SRR3698368.13",TRUE,FALSE,20,2.21238938053097,"G",NA,NA,NA
"671","del",202,1,"SRR3698368.2227",TRUE,FALSE,20,2.21238938053097,"G",NA,NA,NA
"672","del",202,1,"SRR3698368.2659",TRUE,FALSE,20,2.21238938053097,"G",NA,NA,NA
"673","del",202,1,"SRR3698368.3036",TRUE,FALSE,20,2.21238938053097,"G",NA,NA,NA
"674","del",202,1,"SRR3698368.3356",TRUE,FALSE,20,2.21238938053097,"G",NA,NA,NA
"675","del",202,1,"SRR3698368.4043",TRUE,FALSE,20,2.21238938053097,"G",NA,NA,NA
"676","del",202,1,"SRR3698368.4366",TRUE,FALSE,20,2.21238938053097,"G",NA,NA,NA
"677","del",202,1,"SRR3698368.4821",TRUE,FALSE,20,2.21238938053097,"G",NA,NA,NA
"678","del",202,1,"SRR3698368.4970",TRUE,FALSE,20,2.21238938053097,"G",NA,NA,NA
"679","del",202,1,"SRR3698368.5220",TRUE,FALSE,20,2.21238938053097,"G",NA,NA,NA
"680","del",202,1,"SRR3698368.5286",TRUE,FALSE,20,2.21238938053097,"G",NA,NA,NA
"681","del",202,1,"SRR3698368.5332",TRUE,FALSE,20,2.21238938053097,"G",NA,NA,NA
"682","del",202,1,"SRR3698368.5461",TRUE,FALSE,20,2.21238938053097,"G",NA,NA,NA
"683","del",202,1,"SRR3698368.5960",TRUE,FALSE,20,2.21238938053097,"G",NA,NA,NA
"684","del",202,1,"SRR3698368.6367",TRUE,FALSE,20,2.21238938053097,"G",NA,NA,NA
"685","del",202,1,"SRR3698368.7179",TRUE,FALSE,20,2.21238938053097,"G",NA,NA,NA
"686","del",202,1,"SRR3698368.8195",TRUE,FALSE,20,2.21238938053097,"G",NA,NA,NA
"687","del",202,1,"SRR3698368.9574",TRUE,FALSE,20,2.21238938053097,"G",NA,NA,NA
"688","del",202,1,"SRR3698368.9804",TRUE,FALSE,20,2.21238938053097,"G",NA,NA,NA
"689","del",203,2,"SRR3698368.3514",FALSE,FALSE,2,0.221238938053097,"G",NA,NA,NA
"690","del",203,2,"SRR3698368.5244",FALSE,FALSE,2,0.221238938053097,"G",NA,NA,NA
"691","del",204,1,"SRR3698368.1410",TRUE,FALSE,10,1.10619469026549,"NHEJ",NA,NA,NA
"692","del",204,1,"SRR3698368.1458",TRUE,FALSE,10,1.10619469026549,"NHEJ",NA,NA,NA
"693","del",204,1,"SRR3698368.1520",TRUE,FALSE,10,1.10619469026549,"NHEJ",NA,NA,NA
"694","del",204,1,"SRR3698368.1973",TRUE,FALSE,10,1.10619469026549,"NHEJ",NA,NA,NA
"695","del",204,1,"SRR3698368.3370",TRUE,FALSE,10,1.10619469026549,"NHEJ",NA,NA,NA
"696","del",204,1,"SRR3698368.3976",TRUE,FALSE,10,1.10619469026549,"NHEJ",NA,NA,NA
"697","del",204,1,"SRR3698368.6931",TRUE,FALSE,10,1.10619469026549,"NHEJ",NA,NA,NA
"698","del",204,1,"SRR3698368.812",TRUE,FALSE,10,1.10619469026549,"NHEJ",NA,NA,NA
"699","del",204,1,"SRR3698368.9927",TRUE,FALSE,10,1.10619469026549,"NHEJ",NA,NA,NA
"700","del",204,1,"SRR3698368.9958",TRUE,FALSE,10,1.10619469026549,"NHEJ",NA,NA,NA
"701","del",205,1,"SRR3698368.10311",TRUE,FALSE,49,5.42035398230088,"G",NA,NA,NA
"702","del",205,1,"SRR3698368.10436",TRUE,FALSE,49,5.42035398230088,"G",NA,NA,NA
"703","del",205,1,"SRR3698368.10471",TRUE,FALSE,49,5.42035398230088,"G",NA,NA,NA
"704","del",205,1,"SRR3698368.10505",TRUE,FALSE,49,5.42035398230088,"G",NA,NA,NA
"705","del",205,1,"SRR3698368.11032",TRUE,FALSE,49,5.42035398230088,"G",NA,NA,NA
"706","del",205,1,"SRR3698368.1651",TRUE,FALSE,49,5.42035398230088,"G",NA,NA,NA
"707","del",205,1,"SRR3698368.1748",TRUE,FALSE,49,5.42035398230088,"G",NA,NA,NA
"708","del",205,1,"SRR3698368.1817",TRUE,FALSE,49,5.42035398230088,"G",NA,NA,NA
"709","del",205,1,"SRR3698368.1859",TRUE,FALSE,49,5.42035398230088,"G",NA,NA,NA
"710","del",205,1,"SRR3698368.1993",TRUE,FALSE,49,5.42035398230088,"G",NA,NA,NA
"711","del",205,1,"SRR3698368.2302",TRUE,FALSE,49,5.42035398230088,"G",NA,NA,NA
"712","del",205,1,"SRR3698368.2455",TRUE,FALSE,49,5.42035398230088,"G",NA,NA,NA
"713","del",205,1,"SRR3698368.3129",TRUE,FALSE,49,5.42035398230088,"G",NA,NA,NA
"714","del",205,1,"SRR3698368.3168",TRUE,FALSE,49,5.42035398230088,"G",NA,NA,NA
"715","del",205,1,"SRR3698368.3958",TRUE,FALSE,49,5.42035398230088,"G",NA,NA,NA
"716","del",205,1,"SRR3698368.4",TRUE,FALSE,49,5.42035398230088,"G",NA,NA,NA
"717","del",205,1,"SRR3698368.4392",TRUE,FALSE,49,5.42035398230088,"G",NA,NA,NA
"718","del",205,1,"SRR3698368.4407",TRUE,FALSE,49,5.42035398230088,"G",NA,NA,NA
"719","del",205,1,"SRR3698368.4446",TRUE,FALSE,49,5.42035398230088,"G",NA,NA,NA
"720","del",205,1,"SRR3698368.4564",TRUE,FALSE,49,5.42035398230088,"G",NA,NA,NA
"721","del",205,1,"SRR3698368.4624",TRUE,FALSE,49,5.42035398230088,"G",NA,NA,NA
"722","del",205,1,"SRR3698368.4639",TRUE,FALSE,49,5.42035398230088,"G",NA,NA,NA
"723","del",205,1,"SRR3698368.464",TRUE,FALSE,49,5.42035398230088,"G",NA,NA,NA
"724","del",205,1,"SRR3698368.4763",TRUE,FALSE,49,5.42035398230088,"G",NA,NA,NA
"725","del",205,1,"SRR3698368.4792",TRUE,FALSE,49,5.42035398230088,"G",NA,NA,NA
"726","del",205,1,"SRR3698368.4985",TRUE,FALSE,49,5.42035398230088,"G",NA,NA,NA
"727","del",205,1,"SRR3698368.5097",TRUE,FALSE,49,5.42035398230088,"G",NA,NA,NA
"728","del",205,1,"SRR3698368.5202",TRUE,FALSE,49,5.42035398230088,"G",NA,NA,NA
"729","del",205,1,"SRR3698368.5370",TRUE,FALSE,49,5.42035398230088,"G",NA,NA,NA
"730","del",205,1,"SRR3698368.5371",TRUE,FALSE,49,5.42035398230088,"G",NA,NA,NA
"731","del",205,1,"SRR3698368.5457",TRUE,FALSE,49,5.42035398230088,"G",NA,NA,NA
"732","del",205,1,"SRR3698368.5868",TRUE,FALSE,49,5.42035398230088,"G",NA,NA,NA
"733","del",205,1,"SRR3698368.5891",TRUE,FALSE,49,5.42035398230088,"G",NA,NA,NA
"734","del",205,1,"SRR3698368.6331",TRUE,FALSE,49,5.42035398230088,"G",NA,NA,NA
"735","del",205,1,"SRR3698368.6472",TRUE,FALSE,49,5.42035398230088,"G",NA,NA,NA
"736","del",205,1,"SRR3698368.6611",TRUE,FALSE,49,5.42035398230088,"G",NA,NA,NA
"737","del",205,1,"SRR3698368.6970",TRUE,FALSE,49,5.42035398230088,"G",NA,NA,NA
"738","del",205,1,"SRR3698368.752",TRUE,FALSE,49,5.42035398230088,"G",NA,NA,NA
"739","del",205,1,"SRR3698368.7737",TRUE,FALSE,49,5.42035398230088,"G",NA,NA,NA
"740","del",205,1,"SRR3698368.7786",TRUE,FALSE,49,5.42035398230088,"G",NA,NA,NA
"741","del",205,1,"SRR3698368.7825",TRUE,FALSE,49,5.42035398230088,"G",NA,NA,NA
"742","del",205,1,"SRR3698368.7847",TRUE,FALSE,49,5.42035398230088,"G",NA,NA,NA
"743","del",205,1,"SRR3698368.7885",TRUE,FALSE,49,5.42035398230088,"G",NA,NA,NA
"744","del",205,1,"SRR3698368.7969",TRUE,FALSE,49,5.42035398230088,"G",NA,NA,NA
"745","del",205,1,"SRR3698368.8686",TRUE,FALSE,49,5.42035398230088,"G",NA,NA,NA
"746","del",205,1,"SRR3698368.8885",TRUE,FALSE,49,5.42035398230088,"G",NA,NA,NA
"747","del",205,1,"SRR3698368.8941",TRUE,FALSE,49,5.42035398230088,"G",NA,NA,NA
"748","del",205,1,"SRR3698368.9103",TRUE,FALSE,49,5.42035398230088,"G",NA,NA,NA
"749","del",205,1,"SRR3698368.9677",TRUE,FALSE,49,5.42035398230088,"G",NA,NA,NA
"750","del",205,2,"SRR3698368.2072",FALSE,FALSE,1,0.110619469026549,"G",NA,NA,NA
"751","del",207,2,"SRR3698368.3811",FALSE,FALSE,1,0.110619469026549,"NHEJ",NA,NA,NA
"752","del",208,1,"SRR3698368.2769",TRUE,FALSE,8,0.884955752212389,"NHEJ",NA,NA,NA
"753","del",208,1,"SRR3698368.3102",TRUE,FALSE,8,0.884955752212389,"NHEJ",NA,NA,NA
"754","del",208,1,"SRR3698368.6214",TRUE,FALSE,8,0.884955752212389,"NHEJ",NA,NA,NA
"755","del",208,1,"SRR3698368.6493",TRUE,FALSE,8,0.884955752212389,"NHEJ",NA,NA,NA
"756","del",208,1,"SRR3698368.736",TRUE,FALSE,8,0.884955752212389,"NHEJ",NA,NA,NA
"757","del",208,1,"SRR3698368.7774",TRUE,FALSE,8,0.884955752212389,"NHEJ",NA,NA,NA
"758","del",208,1,"SRR3698368.8617",TRUE,FALSE,8,0.884955752212389,"NHEJ",NA,NA,NA
"759","del",208,1,"SRR3698368.9740",TRUE,FALSE,8,0.884955752212389,"NHEJ",NA,NA,NA
"760","del",209,1,"SRR3698368.10179",TRUE,FALSE,20,2.21238938053097,"NHEJ",NA,NA,NA
"761","del",209,1,"SRR3698368.10808",TRUE,FALSE,20,2.21238938053097,"NHEJ",NA,NA,NA
"762","del",209,1,"SRR3698368.11023",TRUE,FALSE,20,2.21238938053097,"NHEJ",NA,NA,NA
"763","del",209,1,"SRR3698368.1113",TRUE,FALSE,20,2.21238938053097,"NHEJ",NA,NA,NA
"764","del",209,1,"SRR3698368.1356",TRUE,FALSE,20,2.21238938053097,"NHEJ",NA,NA,NA
"765","del",209,1,"SRR3698368.1645",TRUE,FALSE,20,2.21238938053097,"NHEJ",NA,NA,NA
"766","del",209,1,"SRR3698368.1900",TRUE,FALSE,20,2.21238938053097,"NHEJ",NA,NA,NA
"767","del",209,1,"SRR3698368.2246",TRUE,FALSE,20,2.21238938053097,"NHEJ",NA,NA,NA
"768","del",209,1,"SRR3698368.2406",TRUE,FALSE,20,2.21238938053097,"NHEJ",NA,NA,NA
"769","del",209,1,"SRR3698368.2516",TRUE,FALSE,20,2.21238938053097,"NHEJ",NA,NA,NA
"770","del",209,1,"SRR3698368.3207",TRUE,FALSE,20,2.21238938053097,"NHEJ",NA,NA,NA
"771","del",209,1,"SRR3698368.3856",TRUE,FALSE,20,2.21238938053097,"NHEJ",NA,NA,NA
"772","del",209,1,"SRR3698368.3936",TRUE,FALSE,20,2.21238938053097,"NHEJ",NA,NA,NA
"773","del",209,1,"SRR3698368.6819",TRUE,FALSE,20,2.21238938053097,"NHEJ",NA,NA,NA
"774","del",209,1,"SRR3698368.7057",TRUE,FALSE,20,2.21238938053097,"NHEJ",NA,NA,NA
"775","del",209,1,"SRR3698368.7097",TRUE,FALSE,20,2.21238938053097,"NHEJ",NA,NA,NA
"776","del",209,1,"SRR3698368.7359",TRUE,FALSE,20,2.21238938053097,"NHEJ",NA,NA,NA
"777","del",209,1,"SRR3698368.8523",TRUE,FALSE,20,2.21238938053097,"NHEJ",NA,NA,NA
"778","del",209,1,"SRR3698368.8864",TRUE,FALSE,20,2.21238938053097,"NHEJ",NA,NA,NA
"779","del",209,1,"SRR3698368.9537",TRUE,FALSE,20,2.21238938053097,"NHEJ",NA,NA,NA
"780","ins",7,1,"SRR3698368.6064",FALSE,FALSE,1,0.110619469026549,NA,"TCC","T","TCA"
"781","ins",8,1,"SRR3698368.3937",FALSE,FALSE,1,0.110619469026549,NA,"CCT","C","CAC"
"782","ins",10,1,"SRR3698368.2869",TRUE,FALSE,3,0.331858407079646,NA,"TCA","C","CCC"
"783","ins",10,1,"SRR3698368.3714",TRUE,FALSE,3,0.331858407079646,NA,"TCA","C","CCC"
"784","ins",10,1,"SRR3698368.3759",TRUE,FALSE,3,0.331858407079646,NA,"TCA","C","CCC"
"785","ins",198,1,"SRR3698368.109",FALSE,FALSE,1,0.110619469026549,NA,"GAT","C","CTG"
"786","ins",199,1,"SRR3698368.595",FALSE,FALSE,1,0.110619469026549,NA,"ATC","T","TGT"
"787","ins",205,1,"SRR3698368.11016",FALSE,FALSE,3,0.331858407079646,NA,"GGT","G","GGG"
"788","ins",205,1,"SRR3698368.1107",FALSE,FALSE,3,0.331858407079646,NA,"GGT","G","GGG"
"789","ins",205,1,"SRR3698368.9024",FALSE,FALSE,3,0.331858407079646,NA,"GGT","G","GGG"
"790","ins",209,1,"SRR3698368.7145",TRUE,FALSE,3,0.331858407079646,NA,"GGC","T","TCT"
"791","ins",209,1,"SRR3698368.726",TRUE,FALSE,3,0.331858407079646,NA,"GGC","T","TCT"
"792","ins",209,1,"SRR3698368.9550",TRUE,FALSE,3,0.331858407079646,NA,"GGC","T","TCT"
"793","ins",125,4,"SRR3698368.6432",FALSE,TRUE,1,0.110619469026549,NA,"TGA","CTGA","GGC"
"794","ins",125,4,NA,FALSE,TRUE,1,0.110619469026549,NA,"TGA",NA,"GGC"
"795","ins",125,1,NA,TRUE,TRUE,86,9.51327433628319,NA,"TGA",NA,"GGC"
"796","ins",125,1,NA,TRUE,TRUE,86,9.51327433628319,NA,"TGA",NA,"GGC"
"797","ins",125,1,NA,TRUE,TRUE,86,9.51327433628319,NA,"TGA",NA,"GGC"
"798","ins",125,1,NA,TRUE,TRUE,86,9.51327433628319,NA,"TGA",NA,"GGC"
"799","ins",125,1,NA,TRUE,TRUE,86,9.51327433628319,NA,"TGA",NA,"GGC"
"800","ins",125,1,NA,TRUE,TRUE,86,9.51327433628319,NA,"TGA",NA,"GGC"
"801","ins",125,1,NA,TRUE,TRUE,86,9.51327433628319,NA,"TGA",NA,"GGC"
"802","ins",125,1,NA,TRUE,TRUE,86,9.51327433628319,NA,"TGA",NA,"GGC"
"803","ins",125,1,NA,TRUE,TRUE,86,9.51327433628319,NA,"TGA",NA,"GGC"
"804","ins",125,1,NA,TRUE,TRUE,86,9.51327433628319,NA,"TGA",NA,"GGC"
"805","ins",125,1,NA,TRUE,TRUE,86,9.51327433628319,NA,"TGA",NA,"GGC"
"806","ins",125,1,NA,TRUE,TRUE,86,9.51327433628319,NA,"TGA",NA,"GGC"
"807","ins",125,1,NA,TRUE,TRUE,86,9.51327433628319,NA,"TGA",NA,"GGC"
"808","ins",125,1,NA,TRUE,TRUE,86,9.51327433628319,NA,"TGA",NA,"GGC"
"809","ins",125,1,NA,TRUE,TRUE,86,9.51327433628319,NA,"TGA",NA,"GGC"
"810","ins",125,1,NA,TRUE,TRUE,86,9.51327433628319,NA,"TGA",NA,"GGC"
"811","ins",125,1,NA,TRUE,TRUE,86,9.51327433628319,NA,"TGA",NA,"GGC"
"812","ins",125,1,NA,TRUE,TRUE,86,9.51327433628319,NA,"TGA",NA,"GGC"
"813","ins",125,1,NA,TRUE,TRUE,86,9.51327433628319,NA,"TGA",NA,"GGC"
"814","ins",125,1,NA,TRUE,TRUE,86,9.51327433628319,NA,"TGA",NA,"GGC"
"815","ins",125,1,NA,TRUE,TRUE,86,9.51327433628319,NA,"TGA",NA,"GGC"
"816","ins",125,1,NA,TRUE,TRUE,86,9.51327433628319,NA,"TGA",NA,"GGC"
"817","ins",125,1,NA,TRUE,TRUE,86,9.51327433628319,NA,"TGA",NA,"GGC"
"818","ins",125,1,NA,TRUE,TRUE,86,9.51327433628319,NA,"TGA",NA,"GGC"
"819","ins",125,1,NA,TRUE,TRUE,86,9.51327433628319,NA,"TGA",NA,"GGC"
"820","ins",125,1,NA,TRUE,TRUE,86,9.51327433628319,NA,"TGA",NA,"GGC"
"821","ins",125,1,NA,TRUE,TRUE,86,9.51327433628319,NA,"TGA",NA,"GGC"
"822","ins",125,1,NA,TRUE,TRUE,86,9.51327433628319,NA,"TGA",NA,"GGC"
"823","ins",125,1,NA,TRUE,TRUE,86,9.51327433628319,NA,"TGA",NA,"GGC"
"824","ins",125,1,NA,TRUE,TRUE,86,9.51327433628319,NA,"TGA",NA,"GGC"
"825","ins",125,1,NA,TRUE,TRUE,86,9.51327433628319,NA,"TGA",NA,"GGC"
"826","ins",125,1,NA,TRUE,TRUE,86,9.51327433628319,NA,"TGA",NA,"GGC"
"827","ins",125,1,NA,TRUE,TRUE,86,9.51327433628319,NA,"TGA",NA,"GGC"
"828","ins",125,1,NA,TRUE,TRUE,86,9.51327433628319,NA,"TGA",NA,"GGC"
"829","ins",125,1,NA,TRUE,TRUE,86,9.51327433628319,NA,"TGA",NA,"GGC"
"830","ins",125,1,NA,TRUE,TRUE,86,9.51327433628319,NA,"TGA",NA,"GGC"
"831","ins",125,1,NA,TRUE,TRUE,86,9.51327433628319,NA,"TGA",NA,"GGC"
"832","ins",125,1,NA,TRUE,TRUE,86,9.51327433628319,NA,"TGA",NA,"GGC"
"833","ins",125,1,NA,TRUE,TRUE,86,9.51327433628319,NA,"TGA",NA,"GGC"
"834","ins",125,1,NA,TRUE,TRUE,86,9.51327433628319,NA,"TGA",NA,"GGC"
"835","ins",125,1,NA,TRUE,TRUE,86,9.51327433628319,NA,"TGA",NA,"GGC"
"836","ins",125,1,NA,TRUE,TRUE,86,9.51327433628319,NA,"TGA",NA,"GGC"
"837","ins",125,1,NA,TRUE,TRUE,86,9.51327433628319,NA,"TGA",NA,"GGC"
"838","ins",125,1,NA,TRUE,TRUE,86,9.51327433628319,NA,"TGA",NA,"GGC"
"839","ins",125,1,NA,TRUE,TRUE,86,9.51327433628319,NA,"TGA",NA,"GGC"
"840","ins",125,1,NA,TRUE,TRUE,86,9.51327433628319,NA,"TGA",NA,"GGC"
"841","ins",125,1,NA,TRUE,TRUE,86,9.51327433628319,NA,"TGA",NA,"GGC"
"842","ins",125,1,NA,TRUE,TRUE,86,9.51327433628319,NA,"TGA",NA,"GGC"
"843","ins",125,1,NA,TRUE,TRUE,86,9.51327433628319,NA,"TGA",NA,"GGC"
"844","ins",125,1,NA,TRUE,TRUE,86,9.51327433628319,NA,"TGA",NA,"GGC"
"845","ins",125,1,NA,TRUE,TRUE,86,9.51327433628319,NA,"TGA",NA,"GGC"
"846","ins",125,1,NA,TRUE,TRUE,86,9.51327433628319,NA,"TGA",NA,"GGC"
"847","ins",125,1,NA,TRUE,TRUE,86,9.51327433628319,NA,"TGA",NA,"GGC"
"848","ins",125,1,NA,TRUE,TRUE,86,9.51327433628319,NA,"TGA",NA,"GGC"
"849","ins",125,1,NA,TRUE,TRUE,86,9.51327433628319,NA,"TGA",NA,"GGC"
"850","ins",125,1,NA,TRUE,TRUE,86,9.51327433628319,NA,"TGA",NA,"GGC"
"851","ins",125,1,NA,TRUE,TRUE,86,9.51327433628319,NA,"TGA",NA,"GGC"
"852","ins",125,1,NA,TRUE,TRUE,86,9.51327433628319,NA,"TGA",NA,"GGC"
"853","ins",125,1,NA,TRUE,TRUE,86,9.51327433628319,NA,"TGA",NA,"GGC"
"854","ins",125,1,NA,TRUE,TRUE,86,9.51327433628319,NA,"TGA",NA,"GGC"
"855","ins",125,1,NA,TRUE,TRUE,86,9.51327433628319,NA,"TGA",NA,"GGC"
"856","ins",125,1,NA,TRUE,TRUE,86,9.51327433628319,NA,"TGA",NA,"GGC"
"857","ins",125,1,NA,TRUE,TRUE,86,9.51327433628319,NA,"TGA",NA,"GGC"
"858","ins",125,1,NA,TRUE,TRUE,86,9.51327433628319,NA,"TGA",NA,"GGC"
"859","ins",125,1,NA,TRUE,TRUE,86,9.51327433628319,NA,"TGA",NA,"GGC"
"860","ins",125,1,NA,TRUE,TRUE,86,9.51327433628319,NA,"TGA",NA,"GGC"
"861","ins",125,1,NA,TRUE,TRUE,86,9.51327433628319,NA,"TGA",NA,"GGC"
"862","ins",125,1,NA,TRUE,TRUE,86,9.51327433628319,NA,"TGA",NA,"GGC"
"863","ins",125,1,NA,TRUE,TRUE,86,9.51327433628319,NA,"TGA",NA,"GGC"
"864","ins",125,1,NA,TRUE,TRUE,86,9.51327433628319,NA,"TGA",NA,"GGC"
"865","ins",125,1,NA,TRUE,TRUE,86,9.51327433628319,NA,"TGA",NA,"GGC"
"866","ins",125,1,NA,TRUE,TRUE,86,9.51327433628319,NA,"TGA",NA,"GGC"
"867","ins",125,1,NA,TRUE,TRUE,86,9.51327433628319,NA,"TGA",NA,"GGC"
"868","ins",125,1,NA,TRUE,TRUE,86,9.51327433628319,NA,"TGA",NA,"GGC"
"869","ins",125,1,NA,TRUE,TRUE,86,9.51327433628319,NA,"TGA",NA,"GGC"
"870","ins",125,1,NA,TRUE,TRUE,86,9.51327433628319,NA,"TGA",NA,"GGC"
"871","ins",125,1,NA,TRUE,TRUE,86,9.51327433628319,NA,"TGA",NA,"GGC"
"872","ins",125,1,NA,TRUE,TRUE,86,9.51327433628319,NA,"TGA",NA,"GGC"
"873","ins",125,1,NA,TRUE,TRUE,86,9.51327433628319,NA,"TGA",NA,"GGC"
"874","ins",125,1,NA,TRUE,TRUE,86,9.51327433628319,NA,"TGA",NA,"GGC"
"875","ins",125,1,NA,TRUE,TRUE,86,9.51327433628319,NA,"TGA",NA,"GGC"
"876","ins",125,1,NA,TRUE,TRUE,86,9.51327433628319,NA,"TGA",NA,"GGC"
"877","ins",125,1,NA,TRUE,TRUE,86,9.51327433628319,NA,"TGA",NA,"GGC"
"878","ins",125,1,NA,TRUE,TRUE,86,9.51327433628319,NA,"TGA",NA,"GGC"
"879","ins",125,1,NA,TRUE,TRUE,86,9.51327433628319,NA,"TGA",NA,"GGC"
"880","ins",125,1,NA,TRUE,TRUE,86,9.51327433628319,NA,"TGA",NA,"GGC"
"881","ins",125,1,"SRR3698368.1138",TRUE,TRUE,21,2.32300884955752,NA,"TGA","T","GGC"
"882","ins",125,1,"SRR3698368.125",TRUE,TRUE,21,2.32300884955752,NA,"TGA","T","GGC"
"883","ins",125,1,"SRR3698368.1499",TRUE,TRUE,21,2.32300884955752,NA,"TGA","T","GGC"
"884","ins",125,1,"SRR3698368.3272",TRUE,TRUE,21,2.32300884955752,NA,"TGA","T","GGC"
"885","ins",125,1,"SRR3698368.364",TRUE,TRUE,21,2.32300884955752,NA,"TGA","G","GGC"
"886","ins",125,1,"SRR3698368.4225",TRUE,TRUE,21,2.32300884955752,NA,"TGA","C","GGC"
"887","ins",125,1,"SRR3698368.5346",TRUE,TRUE,21,2.32300884955752,NA,"TGA","T","GGC"
"888","ins",125,1,"SRR3698368.577",TRUE,TRUE,21,2.32300884955752,NA,"TGA","G","GGC"
"889","ins",125,1,"SRR3698368.6306",TRUE,TRUE,21,2.32300884955752,NA,"TGA","T","GGC"
"890","ins",125,1,"SRR3698368.6353",TRUE,TRUE,21,2.32300884955752,NA,"TGA","T","GGC"
"891","ins",125,1,"SRR3698368.6391",TRUE,TRUE,21,2.32300884955752,NA,"TGA","T","GGC"
"892","ins",125,1,"SRR3698368.6793",TRUE,TRUE,21,2.32300884955752,NA,"TGA","G","GGC"
"893","ins",125,1,"SRR3698368.6836",TRUE,TRUE,21,2.32300884955752,NA,"TGA","T","GGC"
"894","ins",125,1,"SRR3698368.7010",TRUE,TRUE,21,2.32300884955752,NA,"TGA","T","GGC"
"895","ins",125,1,"SRR3698368.7146",TRUE,TRUE,21,2.32300884955752,NA,"TGA","G","GGC"
"896","ins",125,1,"SRR3698368.7347",TRUE,TRUE,21,2.32300884955752,NA,"TGA","T","GGC"
"897","ins",125,1,"SRR3698368.7492",TRUE,TRUE,21,2.32300884955752,NA,"TGA","T","GGC"
"898","ins",125,1,"SRR3698368.7736",TRUE,TRUE,21,2.32300884955752,NA,"TGA","G","GGC"
"899","ins",125,1,"SRR3698368.7791",TRUE,TRUE,21,2.32300884955752,NA,"TGA","T","GGC"
"900","ins",125,1,"SRR3698368.855",TRUE,TRUE,21,2.32300884955752,NA,"TGA","G","GGC"
"901","ins",125,1,"SRR3698368.8908",TRUE,TRUE,21,2.32300884955752,NA,"TGA","T","GGC"
"902","ins",125,2,"SRR3698368.5439",TRUE,TRUE,2,0.221238938053097,NA,"TGA","AT","GGC"
"903","ins",125,2,"SRR3698368.8906",TRUE,TRUE,2,0.221238938053097,NA,"TGA","GG","GGC"
"904","ins",126,3,"SRR3698368.3047",FALSE,TRUE,1,0.110619469026549,NA,"GAG","GGT","GCT"
