"","Modification","Start","Length","Ids","above_error_rate","in_pick","freq","Perc","patterns","pre_ins_nt","ins_nt","post_ins_nt"
"1","del",7,2,"SRR3698281.3868",TRUE,FALSE,8,0.956937799043062,"GA",NA,NA,NA
"2","del",7,2,"SRR3698281.4020",TRUE,FALSE,8,0.956937799043062,"GA",NA,NA,NA
"3","del",7,2,"SRR3698281.4806",TRUE,FALSE,8,0.956937799043062,"GA",NA,NA,NA
"4","del",7,2,"SRR3698281.653",TRUE,FALSE,8,0.956937799043062,"GA",NA,NA,NA
"5","del",7,2,"SRR3698281.682",TRUE,FALSE,8,0.956937799043062,"GA",NA,NA,NA
"6","del",7,2,"SRR3698281.6937",TRUE,FALSE,8,0.956937799043062,"GA",NA,NA,NA
"7","del",7,2,"SRR3698281.972",TRUE,FALSE,8,0.956937799043062,"GA",NA,NA,NA
"8","del",7,2,"SRR3698281.9744",TRUE,FALSE,8,0.956937799043062,"GA",NA,NA,NA
"9","del",8,1,"SRR3698281.1032",TRUE,FALSE,55,6.57894736842105,"NHEJ",NA,NA,NA
"10","del",8,1,"SRR3698281.1112",TRUE,FALSE,55,6.57894736842105,"NHEJ",NA,NA,NA
"11","del",8,1,"SRR3698281.1274",TRUE,FALSE,55,6.57894736842105,"NHEJ",NA,NA,NA
"12","del",8,1,"SRR3698281.1419",TRUE,FALSE,55,6.57894736842105,"NHEJ",NA,NA,NA
"13","del",8,1,"SRR3698281.1566",TRUE,FALSE,55,6.57894736842105,"NHEJ",NA,NA,NA
"14","del",8,1,"SRR3698281.1705",TRUE,FALSE,55,6.57894736842105,"NHEJ",NA,NA,NA
"15","del",8,1,"SRR3698281.1710",TRUE,FALSE,55,6.57894736842105,"NHEJ",NA,NA,NA
"16","del",8,1,"SRR3698281.172",TRUE,FALSE,55,6.57894736842105,"NHEJ",NA,NA,NA
"17","del",8,1,"SRR3698281.1906",TRUE,FALSE,55,6.57894736842105,"NHEJ",NA,NA,NA
"18","del",8,1,"SRR3698281.1936",TRUE,FALSE,55,6.57894736842105,"NHEJ",NA,NA,NA
"19","del",8,1,"SRR3698281.1951",TRUE,FALSE,55,6.57894736842105,"NHEJ",NA,NA,NA
"20","del",8,1,"SRR3698281.2203",TRUE,FALSE,55,6.57894736842105,"NHEJ",NA,NA,NA
"21","del",8,1,"SRR3698281.2482",TRUE,FALSE,55,6.57894736842105,"NHEJ",NA,NA,NA
"22","del",8,1,"SRR3698281.3313",TRUE,FALSE,55,6.57894736842105,"NHEJ",NA,NA,NA
"23","del",8,1,"SRR3698281.345",TRUE,FALSE,55,6.57894736842105,"NHEJ",NA,NA,NA
"24","del",8,1,"SRR3698281.3451",TRUE,FALSE,55,6.57894736842105,"NHEJ",NA,NA,NA
"25","del",8,1,"SRR3698281.3526",TRUE,FALSE,55,6.57894736842105,"NHEJ",NA,NA,NA
"26","del",8,1,"SRR3698281.3635",TRUE,FALSE,55,6.57894736842105,"NHEJ",NA,NA,NA
"27","del",8,1,"SRR3698281.3652",TRUE,FALSE,55,6.57894736842105,"NHEJ",NA,NA,NA
"28","del",8,1,"SRR3698281.4133",TRUE,FALSE,55,6.57894736842105,"NHEJ",NA,NA,NA
"29","del",8,1,"SRR3698281.4322",TRUE,FALSE,55,6.57894736842105,"NHEJ",NA,NA,NA
"30","del",8,1,"SRR3698281.4344",TRUE,FALSE,55,6.57894736842105,"NHEJ",NA,NA,NA
"31","del",8,1,"SRR3698281.4355",TRUE,FALSE,55,6.57894736842105,"NHEJ",NA,NA,NA
"32","del",8,1,"SRR3698281.4468",TRUE,FALSE,55,6.57894736842105,"NHEJ",NA,NA,NA
"33","del",8,1,"SRR3698281.4487",TRUE,FALSE,55,6.57894736842105,"NHEJ",NA,NA,NA
"34","del",8,1,"SRR3698281.4526",TRUE,FALSE,55,6.57894736842105,"NHEJ",NA,NA,NA
"35","del",8,1,"SRR3698281.4628",TRUE,FALSE,55,6.57894736842105,"NHEJ",NA,NA,NA
"36","del",8,1,"SRR3698281.4742",TRUE,FALSE,55,6.57894736842105,"NHEJ",NA,NA,NA
"37","del",8,1,"SRR3698281.5073",TRUE,FALSE,55,6.57894736842105,"NHEJ",NA,NA,NA
"38","del",8,1,"SRR3698281.5221",TRUE,FALSE,55,6.57894736842105,"NHEJ",NA,NA,NA
"39","del",8,1,"SRR3698281.53",TRUE,FALSE,55,6.57894736842105,"NHEJ",NA,NA,NA
"40","del",8,1,"SRR3698281.5301",TRUE,FALSE,55,6.57894736842105,"NHEJ",NA,NA,NA
"41","del",8,1,"SRR3698281.5512",TRUE,FALSE,55,6.57894736842105,"NHEJ",NA,NA,NA
"42","del",8,1,"SRR3698281.5623",TRUE,FALSE,55,6.57894736842105,"NHEJ",NA,NA,NA
"43","del",8,1,"SRR3698281.6207",TRUE,FALSE,55,6.57894736842105,"NHEJ",NA,NA,NA
"44","del",8,1,"SRR3698281.6268",TRUE,FALSE,55,6.57894736842105,"NHEJ",NA,NA,NA
"45","del",8,1,"SRR3698281.6288",TRUE,FALSE,55,6.57894736842105,"NHEJ",NA,NA,NA
"46","del",8,1,"SRR3698281.6321",TRUE,FALSE,55,6.57894736842105,"NHEJ",NA,NA,NA
"47","del",8,1,"SRR3698281.6742",TRUE,FALSE,55,6.57894736842105,"NHEJ",NA,NA,NA
"48","del",8,1,"SRR3698281.6995",TRUE,FALSE,55,6.57894736842105,"NHEJ",NA,NA,NA
"49","del",8,1,"SRR3698281.7077",TRUE,FALSE,55,6.57894736842105,"NHEJ",NA,NA,NA
"50","del",8,1,"SRR3698281.7143",TRUE,FALSE,55,6.57894736842105,"NHEJ",NA,NA,NA
"51","del",8,1,"SRR3698281.735",TRUE,FALSE,55,6.57894736842105,"NHEJ",NA,NA,NA
"52","del",8,1,"SRR3698281.7376",TRUE,FALSE,55,6.57894736842105,"NHEJ",NA,NA,NA
"53","del",8,1,"SRR3698281.7429",TRUE,FALSE,55,6.57894736842105,"NHEJ",NA,NA,NA
"54","del",8,1,"SRR3698281.7565",TRUE,FALSE,55,6.57894736842105,"NHEJ",NA,NA,NA
"55","del",8,1,"SRR3698281.809",TRUE,FALSE,55,6.57894736842105,"NHEJ",NA,NA,NA
"56","del",8,1,"SRR3698281.8239",TRUE,FALSE,55,6.57894736842105,"NHEJ",NA,NA,NA
"57","del",8,1,"SRR3698281.8614",TRUE,FALSE,55,6.57894736842105,"NHEJ",NA,NA,NA
"58","del",8,1,"SRR3698281.8824",TRUE,FALSE,55,6.57894736842105,"NHEJ",NA,NA,NA
"59","del",8,1,"SRR3698281.9296",TRUE,FALSE,55,6.57894736842105,"NHEJ",NA,NA,NA
"60","del",8,1,"SRR3698281.9363",TRUE,FALSE,55,6.57894736842105,"NHEJ",NA,NA,NA
"61","del",8,1,"SRR3698281.964",TRUE,FALSE,55,6.57894736842105,"NHEJ",NA,NA,NA
"62","del",8,1,"SRR3698281.9678",TRUE,FALSE,55,6.57894736842105,"NHEJ",NA,NA,NA
"63","del",8,1,"SRR3698281.9719",TRUE,FALSE,55,6.57894736842105,"NHEJ",NA,NA,NA
"64","del",9,1,"SRR3698281.10000",TRUE,FALSE,26,3.11004784688995,"NHEJ",NA,NA,NA
"65","del",9,1,"SRR3698281.102",TRUE,FALSE,26,3.11004784688995,"NHEJ",NA,NA,NA
"66","del",9,1,"SRR3698281.1175",TRUE,FALSE,26,3.11004784688995,"NHEJ",NA,NA,NA
"67","del",9,1,"SRR3698281.1400",TRUE,FALSE,26,3.11004784688995,"NHEJ",NA,NA,NA
"68","del",9,1,"SRR3698281.197",TRUE,FALSE,26,3.11004784688995,"NHEJ",NA,NA,NA
"69","del",9,1,"SRR3698281.2672",TRUE,FALSE,26,3.11004784688995,"NHEJ",NA,NA,NA
"70","del",9,1,"SRR3698281.2756",TRUE,FALSE,26,3.11004784688995,"NHEJ",NA,NA,NA
"71","del",9,1,"SRR3698281.3084",TRUE,FALSE,26,3.11004784688995,"NHEJ",NA,NA,NA
"72","del",9,1,"SRR3698281.4147",TRUE,FALSE,26,3.11004784688995,"NHEJ",NA,NA,NA
"73","del",9,1,"SRR3698281.4312",TRUE,FALSE,26,3.11004784688995,"NHEJ",NA,NA,NA
"74","del",9,1,"SRR3698281.5462",TRUE,FALSE,26,3.11004784688995,"NHEJ",NA,NA,NA
"75","del",9,1,"SRR3698281.5504",TRUE,FALSE,26,3.11004784688995,"NHEJ",NA,NA,NA
"76","del",9,1,"SRR3698281.5586",TRUE,FALSE,26,3.11004784688995,"NHEJ",NA,NA,NA
"77","del",9,1,"SRR3698281.615",TRUE,FALSE,26,3.11004784688995,"NHEJ",NA,NA,NA
"78","del",9,1,"SRR3698281.6225",TRUE,FALSE,26,3.11004784688995,"NHEJ",NA,NA,NA
"79","del",9,1,"SRR3698281.6347",TRUE,FALSE,26,3.11004784688995,"NHEJ",NA,NA,NA
"80","del",9,1,"SRR3698281.6449",TRUE,FALSE,26,3.11004784688995,"NHEJ",NA,NA,NA
"81","del",9,1,"SRR3698281.6693",TRUE,FALSE,26,3.11004784688995,"NHEJ",NA,NA,NA
"82","del",9,1,"SRR3698281.6933",TRUE,FALSE,26,3.11004784688995,"NHEJ",NA,NA,NA
"83","del",9,1,"SRR3698281.7000",TRUE,FALSE,26,3.11004784688995,"NHEJ",NA,NA,NA
"84","del",9,1,"SRR3698281.7114",TRUE,FALSE,26,3.11004784688995,"NHEJ",NA,NA,NA
"85","del",9,1,"SRR3698281.8522",TRUE,FALSE,26,3.11004784688995,"NHEJ",NA,NA,NA
"86","del",9,1,"SRR3698281.8867",TRUE,FALSE,26,3.11004784688995,"NHEJ",NA,NA,NA
"87","del",9,1,"SRR3698281.9478",TRUE,FALSE,26,3.11004784688995,"NHEJ",NA,NA,NA
"88","del",9,1,"SRR3698281.9769",TRUE,FALSE,26,3.11004784688995,"NHEJ",NA,NA,NA
"89","del",9,1,"SRR3698281.9971",TRUE,FALSE,26,3.11004784688995,"NHEJ",NA,NA,NA
"90","del",10,1,"SRR3698281.10012",TRUE,FALSE,126,15.0717703349282,"A",NA,NA,NA
"91","del",10,1,"SRR3698281.1012",TRUE,FALSE,126,15.0717703349282,"A",NA,NA,NA
"92","del",10,1,"SRR3698281.1026",TRUE,FALSE,126,15.0717703349282,"A",NA,NA,NA
"93","del",10,1,"SRR3698281.1087",TRUE,FALSE,126,15.0717703349282,"A",NA,NA,NA
"94","del",10,1,"SRR3698281.1149",TRUE,FALSE,126,15.0717703349282,"A",NA,NA,NA
"95","del",10,1,"SRR3698281.12",TRUE,FALSE,126,15.0717703349282,"A",NA,NA,NA
"96","del",10,1,"SRR3698281.1211",TRUE,FALSE,126,15.0717703349282,"A",NA,NA,NA
"97","del",10,1,"SRR3698281.1246",TRUE,FALSE,126,15.0717703349282,"A",NA,NA,NA
"98","del",10,1,"SRR3698281.1332",TRUE,FALSE,126,15.0717703349282,"A",NA,NA,NA
"99","del",10,1,"SRR3698281.1658",TRUE,FALSE,126,15.0717703349282,"A",NA,NA,NA
"100","del",10,1,"SRR3698281.1803",TRUE,FALSE,126,15.0717703349282,"A",NA,NA,NA
"101","del",10,1,"SRR3698281.1857",TRUE,FALSE,126,15.0717703349282,"A",NA,NA,NA
"102","del",10,1,"SRR3698281.189",TRUE,FALSE,126,15.0717703349282,"A",NA,NA,NA
"103","del",10,1,"SRR3698281.1944",TRUE,FALSE,126,15.0717703349282,"A",NA,NA,NA
"104","del",10,1,"SRR3698281.1962",TRUE,FALSE,126,15.0717703349282,"A",NA,NA,NA
"105","del",10,1,"SRR3698281.1964",TRUE,FALSE,126,15.0717703349282,"A",NA,NA,NA
"106","del",10,1,"SRR3698281.2064",TRUE,FALSE,126,15.0717703349282,"A",NA,NA,NA
"107","del",10,1,"SRR3698281.2123",TRUE,FALSE,126,15.0717703349282,"A",NA,NA,NA
"108","del",10,1,"SRR3698281.2248",TRUE,FALSE,126,15.0717703349282,"A",NA,NA,NA
"109","del",10,1,"SRR3698281.2263",TRUE,FALSE,126,15.0717703349282,"A",NA,NA,NA
"110","del",10,1,"SRR3698281.2286",TRUE,FALSE,126,15.0717703349282,"A",NA,NA,NA
"111","del",10,1,"SRR3698281.2316",TRUE,FALSE,126,15.0717703349282,"A",NA,NA,NA
"112","del",10,1,"SRR3698281.2390",TRUE,FALSE,126,15.0717703349282,"A",NA,NA,NA
"113","del",10,1,"SRR3698281.2451",TRUE,FALSE,126,15.0717703349282,"A",NA,NA,NA
"114","del",10,1,"SRR3698281.2512",TRUE,FALSE,126,15.0717703349282,"A",NA,NA,NA
"115","del",10,1,"SRR3698281.2524",TRUE,FALSE,126,15.0717703349282,"A",NA,NA,NA
"116","del",10,1,"SRR3698281.2529",TRUE,FALSE,126,15.0717703349282,"A",NA,NA,NA
"117","del",10,1,"SRR3698281.2590",TRUE,FALSE,126,15.0717703349282,"A",NA,NA,NA
"118","del",10,1,"SRR3698281.2603",TRUE,FALSE,126,15.0717703349282,"A",NA,NA,NA
"119","del",10,1,"SRR3698281.2687",TRUE,FALSE,126,15.0717703349282,"A",NA,NA,NA
"120","del",10,1,"SRR3698281.279",TRUE,FALSE,126,15.0717703349282,"A",NA,NA,NA
"121","del",10,1,"SRR3698281.3003",TRUE,FALSE,126,15.0717703349282,"A",NA,NA,NA
"122","del",10,1,"SRR3698281.3032",TRUE,FALSE,126,15.0717703349282,"A",NA,NA,NA
"123","del",10,1,"SRR3698281.3034",TRUE,FALSE,126,15.0717703349282,"A",NA,NA,NA
"124","del",10,1,"SRR3698281.3135",TRUE,FALSE,126,15.0717703349282,"A",NA,NA,NA
"125","del",10,1,"SRR3698281.3322",TRUE,FALSE,126,15.0717703349282,"A",NA,NA,NA
"126","del",10,1,"SRR3698281.3395",TRUE,FALSE,126,15.0717703349282,"A",NA,NA,NA
"127","del",10,1,"SRR3698281.344",TRUE,FALSE,126,15.0717703349282,"A",NA,NA,NA
"128","del",10,1,"SRR3698281.3491",TRUE,FALSE,126,15.0717703349282,"A",NA,NA,NA
"129","del",10,1,"SRR3698281.3507",TRUE,FALSE,126,15.0717703349282,"A",NA,NA,NA
"130","del",10,1,"SRR3698281.3553",TRUE,FALSE,126,15.0717703349282,"A",NA,NA,NA
"131","del",10,1,"SRR3698281.3563",TRUE,FALSE,126,15.0717703349282,"A",NA,NA,NA
"132","del",10,1,"SRR3698281.3688",TRUE,FALSE,126,15.0717703349282,"A",NA,NA,NA
"133","del",10,1,"SRR3698281.3890",TRUE,FALSE,126,15.0717703349282,"A",NA,NA,NA
"134","del",10,1,"SRR3698281.3897",TRUE,FALSE,126,15.0717703349282,"A",NA,NA,NA
"135","del",10,1,"SRR3698281.4124",TRUE,FALSE,126,15.0717703349282,"A",NA,NA,NA
"136","del",10,1,"SRR3698281.4247",TRUE,FALSE,126,15.0717703349282,"A",NA,NA,NA
"137","del",10,1,"SRR3698281.4252",TRUE,FALSE,126,15.0717703349282,"A",NA,NA,NA
"138","del",10,1,"SRR3698281.4286",TRUE,FALSE,126,15.0717703349282,"A",NA,NA,NA
"139","del",10,1,"SRR3698281.4331",TRUE,FALSE,126,15.0717703349282,"A",NA,NA,NA
"140","del",10,1,"SRR3698281.4336",TRUE,FALSE,126,15.0717703349282,"A",NA,NA,NA
"141","del",10,1,"SRR3698281.4475",TRUE,FALSE,126,15.0717703349282,"A",NA,NA,NA
"142","del",10,1,"SRR3698281.4629",TRUE,FALSE,126,15.0717703349282,"A",NA,NA,NA
"143","del",10,1,"SRR3698281.4674",TRUE,FALSE,126,15.0717703349282,"A",NA,NA,NA
"144","del",10,1,"SRR3698281.4751",TRUE,FALSE,126,15.0717703349282,"A",NA,NA,NA
"145","del",10,1,"SRR3698281.4949",TRUE,FALSE,126,15.0717703349282,"A",NA,NA,NA
"146","del",10,1,"SRR3698281.5237",TRUE,FALSE,126,15.0717703349282,"A",NA,NA,NA
"147","del",10,1,"SRR3698281.5313",TRUE,FALSE,126,15.0717703349282,"A",NA,NA,NA
"148","del",10,1,"SRR3698281.5620",TRUE,FALSE,126,15.0717703349282,"A",NA,NA,NA
"149","del",10,1,"SRR3698281.5796",TRUE,FALSE,126,15.0717703349282,"A",NA,NA,NA
"150","del",10,1,"SRR3698281.5817",TRUE,FALSE,126,15.0717703349282,"A",NA,NA,NA
"151","del",10,1,"SRR3698281.5895",TRUE,FALSE,126,15.0717703349282,"A",NA,NA,NA
"152","del",10,1,"SRR3698281.5908",TRUE,FALSE,126,15.0717703349282,"A",NA,NA,NA
"153","del",10,1,"SRR3698281.5993",TRUE,FALSE,126,15.0717703349282,"A",NA,NA,NA
"154","del",10,1,"SRR3698281.6",TRUE,FALSE,126,15.0717703349282,"A",NA,NA,NA
"155","del",10,1,"SRR3698281.6034",TRUE,FALSE,126,15.0717703349282,"A",NA,NA,NA
"156","del",10,1,"SRR3698281.6214",TRUE,FALSE,126,15.0717703349282,"A",NA,NA,NA
"157","del",10,1,"SRR3698281.6287",TRUE,FALSE,126,15.0717703349282,"A",NA,NA,NA
"158","del",10,1,"SRR3698281.6496",TRUE,FALSE,126,15.0717703349282,"A",NA,NA,NA
"159","del",10,1,"SRR3698281.6558",TRUE,FALSE,126,15.0717703349282,"A",NA,NA,NA
"160","del",10,1,"SRR3698281.6617",TRUE,FALSE,126,15.0717703349282,"A",NA,NA,NA
"161","del",10,1,"SRR3698281.6641",TRUE,FALSE,126,15.0717703349282,"A",NA,NA,NA
"162","del",10,1,"SRR3698281.6743",TRUE,FALSE,126,15.0717703349282,"A",NA,NA,NA
"163","del",10,1,"SRR3698281.68",TRUE,FALSE,126,15.0717703349282,"A",NA,NA,NA
"164","del",10,1,"SRR3698281.6868",TRUE,FALSE,126,15.0717703349282,"A",NA,NA,NA
"165","del",10,1,"SRR3698281.6875",TRUE,FALSE,126,15.0717703349282,"A",NA,NA,NA
"166","del",10,1,"SRR3698281.6883",TRUE,FALSE,126,15.0717703349282,"A",NA,NA,NA
"167","del",10,1,"SRR3698281.700",TRUE,FALSE,126,15.0717703349282,"A",NA,NA,NA
"168","del",10,1,"SRR3698281.7054",TRUE,FALSE,126,15.0717703349282,"A",NA,NA,NA
"169","del",10,1,"SRR3698281.7078",TRUE,FALSE,126,15.0717703349282,"A",NA,NA,NA
"170","del",10,1,"SRR3698281.7280",TRUE,FALSE,126,15.0717703349282,"A",NA,NA,NA
"171","del",10,1,"SRR3698281.7284",TRUE,FALSE,126,15.0717703349282,"A",NA,NA,NA
"172","del",10,1,"SRR3698281.7373",TRUE,FALSE,126,15.0717703349282,"A",NA,NA,NA
"173","del",10,1,"SRR3698281.7423",TRUE,FALSE,126,15.0717703349282,"A",NA,NA,NA
"174","del",10,1,"SRR3698281.743",TRUE,FALSE,126,15.0717703349282,"A",NA,NA,NA
"175","del",10,1,"SRR3698281.7495",TRUE,FALSE,126,15.0717703349282,"A",NA,NA,NA
"176","del",10,1,"SRR3698281.7562",TRUE,FALSE,126,15.0717703349282,"A",NA,NA,NA
"177","del",10,1,"SRR3698281.7588",TRUE,FALSE,126,15.0717703349282,"A",NA,NA,NA
"178","del",10,1,"SRR3698281.7629",TRUE,FALSE,126,15.0717703349282,"A",NA,NA,NA
"179","del",10,1,"SRR3698281.7793",TRUE,FALSE,126,15.0717703349282,"A",NA,NA,NA
"180","del",10,1,"SRR3698281.7806",TRUE,FALSE,126,15.0717703349282,"A",NA,NA,NA
"181","del",10,1,"SRR3698281.7852",TRUE,FALSE,126,15.0717703349282,"A",NA,NA,NA
"182","del",10,1,"SRR3698281.7964",TRUE,FALSE,126,15.0717703349282,"A",NA,NA,NA
"183","del",10,1,"SRR3698281.8024",TRUE,FALSE,126,15.0717703349282,"A",NA,NA,NA
"184","del",10,1,"SRR3698281.8083",TRUE,FALSE,126,15.0717703349282,"A",NA,NA,NA
"185","del",10,1,"SRR3698281.8106",TRUE,FALSE,126,15.0717703349282,"A",NA,NA,NA
"186","del",10,1,"SRR3698281.8143",TRUE,FALSE,126,15.0717703349282,"A",NA,NA,NA
"187","del",10,1,"SRR3698281.8183",TRUE,FALSE,126,15.0717703349282,"A",NA,NA,NA
"188","del",10,1,"SRR3698281.8212",TRUE,FALSE,126,15.0717703349282,"A",NA,NA,NA
"189","del",10,1,"SRR3698281.8254",TRUE,FALSE,126,15.0717703349282,"A",NA,NA,NA
"190","del",10,1,"SRR3698281.8442",TRUE,FALSE,126,15.0717703349282,"A",NA,NA,NA
"191","del",10,1,"SRR3698281.8610",TRUE,FALSE,126,15.0717703349282,"A",NA,NA,NA
"192","del",10,1,"SRR3698281.8690",TRUE,FALSE,126,15.0717703349282,"A",NA,NA,NA
"193","del",10,1,"SRR3698281.8732",TRUE,FALSE,126,15.0717703349282,"A",NA,NA,NA
"194","del",10,1,"SRR3698281.8788",TRUE,FALSE,126,15.0717703349282,"A",NA,NA,NA
"195","del",10,1,"SRR3698281.8894",TRUE,FALSE,126,15.0717703349282,"A",NA,NA,NA
"196","del",10,1,"SRR3698281.8905",TRUE,FALSE,126,15.0717703349282,"A",NA,NA,NA
"197","del",10,1,"SRR3698281.8965",TRUE,FALSE,126,15.0717703349282,"A",NA,NA,NA
"198","del",10,1,"SRR3698281.9027",TRUE,FALSE,126,15.0717703349282,"A",NA,NA,NA
"199","del",10,1,"SRR3698281.9040",TRUE,FALSE,126,15.0717703349282,"A",NA,NA,NA
"200","del",10,1,"SRR3698281.9062",TRUE,FALSE,126,15.0717703349282,"A",NA,NA,NA
"201","del",10,1,"SRR3698281.9141",TRUE,FALSE,126,15.0717703349282,"A",NA,NA,NA
"202","del",10,1,"SRR3698281.9173",TRUE,FALSE,126,15.0717703349282,"A",NA,NA,NA
"203","del",10,1,"SRR3698281.9208",TRUE,FALSE,126,15.0717703349282,"A",NA,NA,NA
"204","del",10,1,"SRR3698281.9231",TRUE,FALSE,126,15.0717703349282,"A",NA,NA,NA
"205","del",10,1,"SRR3698281.9322",TRUE,FALSE,126,15.0717703349282,"A",NA,NA,NA
"206","del",10,1,"SRR3698281.9444",TRUE,FALSE,126,15.0717703349282,"A",NA,NA,NA
"207","del",10,1,"SRR3698281.9525",TRUE,FALSE,126,15.0717703349282,"A",NA,NA,NA
"208","del",10,1,"SRR3698281.9570",TRUE,FALSE,126,15.0717703349282,"A",NA,NA,NA
"209","del",10,1,"SRR3698281.958",TRUE,FALSE,126,15.0717703349282,"A",NA,NA,NA
"210","del",10,1,"SRR3698281.9629",TRUE,FALSE,126,15.0717703349282,"A",NA,NA,NA
"211","del",10,1,"SRR3698281.980",TRUE,FALSE,126,15.0717703349282,"A",NA,NA,NA
"212","del",10,1,"SRR3698281.9823",TRUE,FALSE,126,15.0717703349282,"A",NA,NA,NA
"213","del",10,1,"SRR3698281.9840",TRUE,FALSE,126,15.0717703349282,"A",NA,NA,NA
"214","del",10,1,"SRR3698281.986",TRUE,FALSE,126,15.0717703349282,"A",NA,NA,NA
"215","del",10,1,"SRR3698281.9937",TRUE,FALSE,126,15.0717703349282,"A",NA,NA,NA
"216","del",10,2,"SRR3698281.4722",FALSE,FALSE,1,0.119617224880383,"NHEJ",NA,NA,NA
"217","del",12,1,"SRR3698281.1405",FALSE,FALSE,13,1.55502392344498,"NHEJ",NA,NA,NA
"218","del",12,1,"SRR3698281.2004",FALSE,FALSE,13,1.55502392344498,"NHEJ",NA,NA,NA
"219","del",12,1,"SRR3698281.3323",FALSE,FALSE,13,1.55502392344498,"NHEJ",NA,NA,NA
"220","del",12,1,"SRR3698281.4166",FALSE,FALSE,13,1.55502392344498,"NHEJ",NA,NA,NA
"221","del",12,1,"SRR3698281.5702",FALSE,FALSE,13,1.55502392344498,"NHEJ",NA,NA,NA
"222","del",12,1,"SRR3698281.655",FALSE,FALSE,13,1.55502392344498,"NHEJ",NA,NA,NA
"223","del",12,1,"SRR3698281.6960",FALSE,FALSE,13,1.55502392344498,"NHEJ",NA,NA,NA
"224","del",12,1,"SRR3698281.7585",FALSE,FALSE,13,1.55502392344498,"NHEJ",NA,NA,NA
"225","del",12,1,"SRR3698281.7592",FALSE,FALSE,13,1.55502392344498,"NHEJ",NA,NA,NA
"226","del",12,1,"SRR3698281.8303",FALSE,FALSE,13,1.55502392344498,"NHEJ",NA,NA,NA
"227","del",12,1,"SRR3698281.8571",FALSE,FALSE,13,1.55502392344498,"NHEJ",NA,NA,NA
"228","del",12,1,"SRR3698281.9267",FALSE,FALSE,13,1.55502392344498,"NHEJ",NA,NA,NA
"229","del",12,1,"SRR3698281.9684",FALSE,FALSE,13,1.55502392344498,"NHEJ",NA,NA,NA
"230","del",13,1,"SRR3698281.1472",TRUE,FALSE,18,2.15311004784689,"NHEJ",NA,NA,NA
"231","del",13,1,"SRR3698281.1618",TRUE,FALSE,18,2.15311004784689,"NHEJ",NA,NA,NA
"232","del",13,1,"SRR3698281.1885",TRUE,FALSE,18,2.15311004784689,"NHEJ",NA,NA,NA
"233","del",13,1,"SRR3698281.3812",TRUE,FALSE,18,2.15311004784689,"NHEJ",NA,NA,NA
"234","del",13,1,"SRR3698281.4373",TRUE,FALSE,18,2.15311004784689,"NHEJ",NA,NA,NA
"235","del",13,1,"SRR3698281.5434",TRUE,FALSE,18,2.15311004784689,"NHEJ",NA,NA,NA
"236","del",13,1,"SRR3698281.5564",TRUE,FALSE,18,2.15311004784689,"NHEJ",NA,NA,NA
"237","del",13,1,"SRR3698281.5634",TRUE,FALSE,18,2.15311004784689,"NHEJ",NA,NA,NA
"238","del",13,1,"SRR3698281.6264",TRUE,FALSE,18,2.15311004784689,"NHEJ",NA,NA,NA
"239","del",13,1,"SRR3698281.7159",TRUE,FALSE,18,2.15311004784689,"NHEJ",NA,NA,NA
"240","del",13,1,"SRR3698281.7297",TRUE,FALSE,18,2.15311004784689,"NHEJ",NA,NA,NA
"241","del",13,1,"SRR3698281.7359",TRUE,FALSE,18,2.15311004784689,"NHEJ",NA,NA,NA
"242","del",13,1,"SRR3698281.7466",TRUE,FALSE,18,2.15311004784689,"NHEJ",NA,NA,NA
"243","del",13,1,"SRR3698281.8271",TRUE,FALSE,18,2.15311004784689,"NHEJ",NA,NA,NA
"244","del",13,1,"SRR3698281.9162",TRUE,FALSE,18,2.15311004784689,"NHEJ",NA,NA,NA
"245","del",13,1,"SRR3698281.9550",TRUE,FALSE,18,2.15311004784689,"NHEJ",NA,NA,NA
"246","del",13,1,"SRR3698281.9766",TRUE,FALSE,18,2.15311004784689,"NHEJ",NA,NA,NA
"247","del",13,1,"SRR3698281.9941",TRUE,FALSE,18,2.15311004784689,"NHEJ",NA,NA,NA
"248","del",14,1,"SRR3698281.5131",TRUE,FALSE,2,0.239234449760766,"NHEJ",NA,NA,NA
"249","del",14,1,"SRR3698281.6946",TRUE,FALSE,2,0.239234449760766,"NHEJ",NA,NA,NA
"250","del",18,1,"SRR3698281.4352",TRUE,FALSE,5,0.598086124401914,"A",NA,NA,NA
"251","del",18,1,"SRR3698281.4896",TRUE,FALSE,5,0.598086124401914,"A",NA,NA,NA
"252","del",18,1,"SRR3698281.7088",TRUE,FALSE,5,0.598086124401914,"A",NA,NA,NA
"253","del",18,1,"SRR3698281.8090",TRUE,FALSE,5,0.598086124401914,"A",NA,NA,NA
"254","del",18,1,"SRR3698281.9364",TRUE,FALSE,5,0.598086124401914,"A",NA,NA,NA
"255","del",32,1,"SRR3698281.3599",TRUE,FALSE,8,0.956937799043062,"C",NA,NA,NA
"256","del",32,1,"SRR3698281.4169",TRUE,FALSE,8,0.956937799043062,"C",NA,NA,NA
"257","del",32,1,"SRR3698281.4707",TRUE,FALSE,8,0.956937799043062,"C",NA,NA,NA
"258","del",32,1,"SRR3698281.5767",TRUE,FALSE,8,0.956937799043062,"C",NA,NA,NA
"259","del",32,1,"SRR3698281.640",TRUE,FALSE,8,0.956937799043062,"C",NA,NA,NA
"260","del",32,1,"SRR3698281.7604",TRUE,FALSE,8,0.956937799043062,"C",NA,NA,NA
"261","del",32,1,"SRR3698281.8017",TRUE,FALSE,8,0.956937799043062,"C",NA,NA,NA
"262","del",32,1,"SRR3698281.8320",TRUE,FALSE,8,0.956937799043062,"C",NA,NA,NA
"263","del",39,34,"SRR3698281.1778",FALSE,FALSE,1,0.119617224880383,"NHEJ",NA,NA,NA
"264","del",40,33,"SRR3698281.257",FALSE,FALSE,1,0.119617224880383,"NHEJ",NA,NA,NA
"265","del",42,31,"SRR3698281.5831",TRUE,TRUE,2,0.239234449760766,"TC",NA,NA,NA
"266","del",42,31,"SRR3698281.7191",TRUE,TRUE,2,0.239234449760766,"TC",NA,NA,NA
"267","del",44,29,"SRR3698281.128",TRUE,TRUE,17,2.03349282296651,"TCC",NA,NA,NA
"268","del",44,29,"SRR3698281.1409",TRUE,TRUE,17,2.03349282296651,"TCC",NA,NA,NA
"269","del",44,29,"SRR3698281.3768",TRUE,TRUE,17,2.03349282296651,"TCC",NA,NA,NA
"270","del",44,29,"SRR3698281.3859",TRUE,TRUE,17,2.03349282296651,"TCC",NA,NA,NA
"271","del",44,29,"SRR3698281.4291",TRUE,TRUE,17,2.03349282296651,"TCC",NA,NA,NA
"272","del",44,29,"SRR3698281.4780",TRUE,TRUE,17,2.03349282296651,"TCC",NA,NA,NA
"273","del",44,29,"SRR3698281.5510",TRUE,TRUE,17,2.03349282296651,"TCC",NA,NA,NA
"274","del",44,29,"SRR3698281.5582",TRUE,TRUE,17,2.03349282296651,"TCC",NA,NA,NA
"275","del",44,29,"SRR3698281.5584",TRUE,TRUE,17,2.03349282296651,"TCC",NA,NA,NA
"276","del",44,29,"SRR3698281.5943",TRUE,TRUE,17,2.03349282296651,"TCC",NA,NA,NA
"277","del",44,29,"SRR3698281.6878",TRUE,TRUE,17,2.03349282296651,"TCC",NA,NA,NA
"278","del",44,29,"SRR3698281.7213",TRUE,TRUE,17,2.03349282296651,"TCC",NA,NA,NA
"279","del",44,29,"SRR3698281.767",TRUE,TRUE,17,2.03349282296651,"TCC",NA,NA,NA
"280","del",44,29,"SRR3698281.7989",TRUE,TRUE,17,2.03349282296651,"TCC",NA,NA,NA
"281","del",44,29,"SRR3698281.8334",TRUE,TRUE,17,2.03349282296651,"TCC",NA,NA,NA
"282","del",44,29,"SRR3698281.9461",TRUE,TRUE,17,2.03349282296651,"TCC",NA,NA,NA
"283","del",44,29,"SRR3698281.9972",TRUE,TRUE,17,2.03349282296651,"TCC",NA,NA,NA
"284","del",46,27,"SRR3698281.523",TRUE,TRUE,3,0.358851674641148,"NHEJ",NA,NA,NA
"285","del",46,27,"SRR3698281.7887",TRUE,TRUE,3,0.358851674641148,"NHEJ",NA,NA,NA
"286","del",46,27,"SRR3698281.8138",TRUE,TRUE,3,0.358851674641148,"NHEJ",NA,NA,NA
"287","del",46,28,"SRR3698281.1104",TRUE,TRUE,17,2.03349282296651,"CC",NA,NA,NA
"288","del",46,28,"SRR3698281.3885",TRUE,TRUE,17,2.03349282296651,"CC",NA,NA,NA
"289","del",46,28,"SRR3698281.4131",TRUE,TRUE,17,2.03349282296651,"CC",NA,NA,NA
"290","del",46,28,"SRR3698281.4711",TRUE,TRUE,17,2.03349282296651,"CC",NA,NA,NA
"291","del",46,28,"SRR3698281.5127",TRUE,TRUE,17,2.03349282296651,"CC",NA,NA,NA
"292","del",46,28,"SRR3698281.5354",TRUE,TRUE,17,2.03349282296651,"CC",NA,NA,NA
"293","del",46,28,"SRR3698281.5411",TRUE,TRUE,17,2.03349282296651,"CC",NA,NA,NA
"294","del",46,28,"SRR3698281.5577",TRUE,TRUE,17,2.03349282296651,"CC",NA,NA,NA
"295","del",46,28,"SRR3698281.5961",TRUE,TRUE,17,2.03349282296651,"CC",NA,NA,NA
"296","del",46,28,"SRR3698281.602",TRUE,TRUE,17,2.03349282296651,"CC",NA,NA,NA
"297","del",46,28,"SRR3698281.6337",TRUE,TRUE,17,2.03349282296651,"CC",NA,NA,NA
"298","del",46,28,"SRR3698281.6859",TRUE,TRUE,17,2.03349282296651,"CC",NA,NA,NA
"299","del",46,28,"SRR3698281.689",TRUE,TRUE,17,2.03349282296651,"CC",NA,NA,NA
"300","del",46,28,"SRR3698281.7024",TRUE,TRUE,17,2.03349282296651,"CC",NA,NA,NA
"301","del",46,28,"SRR3698281.7253",TRUE,TRUE,17,2.03349282296651,"CC",NA,NA,NA
"302","del",46,28,"SRR3698281.7400",TRUE,TRUE,17,2.03349282296651,"CC",NA,NA,NA
"303","del",46,28,"SRR3698281.917",TRUE,TRUE,17,2.03349282296651,"CC",NA,NA,NA
"304","del",47,26,"SRR3698281.9192",FALSE,TRUE,1,0.119617224880383,"NHEJ",NA,NA,NA
"305","del",47,27,"SRR3698281.8151",FALSE,TRUE,1,0.119617224880383,"C",NA,NA,NA
"306","del",48,23,"SRR3698281.9812",FALSE,TRUE,1,0.119617224880383,"NHEJ",NA,NA,NA
"307","del",48,25,"SRR3698281.7215",FALSE,TRUE,1,0.119617224880383,"NHEJ",NA,NA,NA
"308","del",48,26,"SRR3698281.6753",FALSE,TRUE,1,0.119617224880383,"NHEJ",NA,NA,NA
"309","del",50,20,"SRR3698281.3891",FALSE,TRUE,1,0.119617224880383,"GCG",NA,NA,NA
"310","del",50,24,"SRR3698281.1930",FALSE,TRUE,1,0.119617224880383,"NHEJ",NA,NA,NA
"311","del",50,25,"SRR3698281.945",FALSE,TRUE,1,0.119617224880383,"NHEJ",NA,NA,NA
"312","del",51,1,"SRR3698281.1878",FALSE,TRUE,1,0.119617224880383,"NHEJ",NA,NA,NA
"313","del",51,23,"SRR3698281.2076",TRUE,TRUE,4,0.478468899521531,"C",NA,NA,NA
"314","del",51,23,"SRR3698281.7146",TRUE,TRUE,4,0.478468899521531,"C",NA,NA,NA
"315","del",51,23,"SRR3698281.7873",TRUE,TRUE,4,0.478468899521531,"C",NA,NA,NA
"316","del",51,23,"SRR3698281.8374",TRUE,TRUE,4,0.478468899521531,"C",NA,NA,NA
"317","del",51,24,"SRR3698281.6531",TRUE,TRUE,2,0.239234449760766,"C",NA,NA,NA
"318","del",51,24,"SRR3698281.6541",TRUE,TRUE,2,0.239234449760766,"C",NA,NA,NA
"319","del",51,25,"SRR3698281.555",FALSE,TRUE,1,0.119617224880383,"NHEJ",NA,NA,NA
"320","del",52,21,"SRR3698281.9443",FALSE,TRUE,1,0.119617224880383,"NHEJ",NA,NA,NA
"321","del",53,33,"SRR3698281.1650",TRUE,TRUE,8,0.956937799043062,"GAG",NA,NA,NA
"322","del",53,33,"SRR3698281.3583",TRUE,TRUE,8,0.956937799043062,"GAG",NA,NA,NA
"323","del",53,33,"SRR3698281.3843",TRUE,TRUE,8,0.956937799043062,"GAG",NA,NA,NA
"324","del",53,33,"SRR3698281.4419",TRUE,TRUE,8,0.956937799043062,"GAG",NA,NA,NA
"325","del",53,33,"SRR3698281.4456",TRUE,TRUE,8,0.956937799043062,"GAG",NA,NA,NA
"326","del",53,33,"SRR3698281.5508",TRUE,TRUE,8,0.956937799043062,"GAG",NA,NA,NA
"327","del",53,33,"SRR3698281.8406",TRUE,TRUE,8,0.956937799043062,"GAG",NA,NA,NA
"328","del",53,33,"SRR3698281.9170",TRUE,TRUE,8,0.956937799043062,"GAG",NA,NA,NA
"329","del",54,12,"SRR3698281.8763",FALSE,TRUE,1,0.119617224880383,"NHEJ",NA,NA,NA
"330","del",54,20,"SRR3698281.7521",FALSE,TRUE,1,0.119617224880383,"NHEJ",NA,NA,NA
"331","del",54,28,"SRR3698281.1275",TRUE,TRUE,8,0.956937799043062,"AG",NA,NA,NA
"332","del",54,28,"SRR3698281.1280",TRUE,TRUE,8,0.956937799043062,"AG",NA,NA,NA
"333","del",54,28,"SRR3698281.186",TRUE,TRUE,8,0.956937799043062,"AG",NA,NA,NA
"334","del",54,28,"SRR3698281.2278",TRUE,TRUE,8,0.956937799043062,"AG",NA,NA,NA
"335","del",54,28,"SRR3698281.4025",TRUE,TRUE,8,0.956937799043062,"AG",NA,NA,NA
"336","del",54,28,"SRR3698281.4232",TRUE,TRUE,8,0.956937799043062,"AG",NA,NA,NA
"337","del",54,28,"SRR3698281.6137",TRUE,TRUE,8,0.956937799043062,"AG",NA,NA,NA
"338","del",54,28,"SRR3698281.7440",TRUE,TRUE,8,0.956937799043062,"AG",NA,NA,NA
"339","del",55,1,"SRR3698281.1638",TRUE,TRUE,9,1.07655502392344,"G",NA,NA,NA
"340","del",55,1,"SRR3698281.2118",TRUE,TRUE,9,1.07655502392344,"G",NA,NA,NA
"341","del",55,1,"SRR3698281.3288",TRUE,TRUE,9,1.07655502392344,"G",NA,NA,NA
"342","del",55,1,"SRR3698281.5738",TRUE,TRUE,9,1.07655502392344,"G",NA,NA,NA
"343","del",55,1,"SRR3698281.600",TRUE,TRUE,9,1.07655502392344,"G",NA,NA,NA
"344","del",55,1,"SRR3698281.6615",TRUE,TRUE,9,1.07655502392344,"G",NA,NA,NA
"345","del",55,1,"SRR3698281.9362",TRUE,TRUE,9,1.07655502392344,"G",NA,NA,NA
"346","del",55,1,"SRR3698281.9689",TRUE,TRUE,9,1.07655502392344,"G",NA,NA,NA
"347","del",55,1,"SRR3698281.9856",TRUE,TRUE,9,1.07655502392344,"G",NA,NA,NA
"348","del",55,31,"SRR3698281.6136",FALSE,TRUE,1,0.119617224880383,"G",NA,NA,NA
"349","del",56,18,"SRR3698281.5259",FALSE,TRUE,1,0.119617224880383,"NHEJ",NA,NA,NA
"350","del",57,15,"SRR3698281.8608",TRUE,TRUE,2,0.239234449760766,"G",NA,NA,NA
"351","del",57,15,"SRR3698281.9696",TRUE,TRUE,2,0.239234449760766,"G",NA,NA,NA
"352","del",57,20,"SRR3698281.3528",FALSE,TRUE,1,0.119617224880383,"GG",NA,NA,NA
"353","del",58,14,"SRR3698281.9904",FALSE,TRUE,1,0.119617224880383,"G",NA,NA,NA
"354","del",58,19,"SRR3698281.1185",TRUE,TRUE,5,0.598086124401914,"GGC",NA,NA,NA
"355","del",58,19,"SRR3698281.3339",TRUE,TRUE,5,0.598086124401914,"GGC",NA,NA,NA
"356","del",58,19,"SRR3698281.4076",TRUE,TRUE,5,0.598086124401914,"GGC",NA,NA,NA
"357","del",58,19,"SRR3698281.6039",TRUE,TRUE,5,0.598086124401914,"GGC",NA,NA,NA
"358","del",58,19,"SRR3698281.8330",TRUE,TRUE,5,0.598086124401914,"GGC",NA,NA,NA
"359","del",58,24,"SRR3698281.2036",FALSE,TRUE,1,0.119617224880383,"NHEJ",NA,NA,NA
"360","del",58,30,"SRR3698281.8592",FALSE,TRUE,1,0.119617224880383,"G",NA,NA,NA
"361","del",59,9,"SRR3698281.4113",FALSE,TRUE,1,0.119617224880383,"GCG",NA,NA,NA
"362","del",59,24,"SRR3698281.3990",TRUE,TRUE,3,0.358851674641148,"GC",NA,NA,NA
"363","del",59,24,"SRR3698281.7897",TRUE,TRUE,3,0.358851674641148,"GC",NA,NA,NA
"364","del",59,24,"SRR3698281.8040",TRUE,TRUE,3,0.358851674641148,"GC",NA,NA,NA
"365","del",60,1,"SRR3698281.1581",FALSE,TRUE,1,0.119617224880383,"NHEJ",NA,NA,NA
"366","del",60,14,"SRR3698281.1361",TRUE,TRUE,3,0.358851674641148,"C",NA,NA,NA
"367","del",60,14,"SRR3698281.4859",TRUE,TRUE,3,0.358851674641148,"C",NA,NA,NA
"368","del",60,14,"SRR3698281.6033",TRUE,TRUE,3,0.358851674641148,"C",NA,NA,NA
"369","del",60,15,"SRR3698281.5146",FALSE,TRUE,2,0.239234449760766,"C",NA,NA,NA
"370","del",60,15,"SRR3698281.7365",FALSE,TRUE,2,0.239234449760766,"C",NA,NA,NA
"371","del",60,25,"SRR3698281.4221",TRUE,TRUE,3,0.358851674641148,"CG",NA,NA,NA
"372","del",60,25,"SRR3698281.5498",TRUE,TRUE,3,0.358851674641148,"CG",NA,NA,NA
"373","del",60,25,"SRR3698281.8347",TRUE,TRUE,3,0.358851674641148,"CG",NA,NA,NA
"374","del",61,16,"SRR3698281.3882",FALSE,TRUE,1,0.119617224880383,"GG",NA,NA,NA
"375","del",61,22,"SRR3698281.1108",FALSE,TRUE,2,0.239234449760766,"G",NA,NA,NA
"376","del",61,22,"SRR3698281.4081",FALSE,TRUE,2,0.239234449760766,"G",NA,NA,NA
"377","del",61,27,"SRR3698281.8135",FALSE,TRUE,1,0.119617224880383,"G",NA,NA,NA
"378","del",61,32,"SRR3698281.7874",FALSE,TRUE,1,0.119617224880383,"G",NA,NA,NA
"379","del",61,34,"SRR3698281.2283",FALSE,TRUE,1,0.119617224880383,"NHEJ",NA,NA,NA
"380","del",62,10,"SRR3698281.2328",FALSE,TRUE,1,0.119617224880383,"G",NA,NA,NA
"381","del",62,15,"SRR3698281.2693",TRUE,TRUE,2,0.239234449760766,"GG",NA,NA,NA
"382","del",62,15,"SRR3698281.8283",TRUE,TRUE,2,0.239234449760766,"GG",NA,NA,NA
"383","del",62,18,"SRR3698281.6427",TRUE,TRUE,2,0.239234449760766,"NHEJ",NA,NA,NA
"384","del",62,18,"SRR3698281.7483",TRUE,TRUE,2,0.239234449760766,"NHEJ",NA,NA,NA
"385","del",62,23,"SRR3698281.2735",TRUE,TRUE,2,0.239234449760766,"NHEJ",NA,NA,NA
"386","del",62,23,"SRR3698281.8481",TRUE,TRUE,2,0.239234449760766,"NHEJ",NA,NA,NA
"387","del",62,24,"SRR3698281.338",FALSE,TRUE,1,0.119617224880383,"G",NA,NA,NA
"388","del",62,26,"SRR3698281.1772",FALSE,TRUE,1,0.119617224880383,"G",NA,NA,NA
"389","del",63,12,"SRR3698281.1188",TRUE,TRUE,2,0.239234449760766,"NHEJ",NA,NA,NA
"390","del",63,12,"SRR3698281.7238",TRUE,TRUE,2,0.239234449760766,"NHEJ",NA,NA,NA
"391","del",63,19,"SRR3698281.6322",FALSE,TRUE,1,0.119617224880383,"NHEJ",NA,NA,NA
"392","del",63,20,"SRR3698281.7050",FALSE,TRUE,1,0.119617224880383,"G",NA,NA,NA
"393","del",63,23,"SRR3698281.2745",TRUE,TRUE,2,0.239234449760766,"GA",NA,NA,NA
"394","del",63,23,"SRR3698281.6259",TRUE,TRUE,2,0.239234449760766,"GA",NA,NA,NA
"395","del",63,25,"SRR3698281.1822",FALSE,TRUE,2,0.239234449760766,"G",NA,NA,NA
"396","del",63,25,"SRR3698281.7045",FALSE,TRUE,2,0.239234449760766,"G",NA,NA,NA
"397","del",64,4,"SRR3698281.5222",FALSE,TRUE,1,0.119617224880383,"NHEJ",NA,NA,NA
"398","del",64,17,"SRR3698281.2423",TRUE,TRUE,6,0.717703349282297,"AAG",NA,NA,NA
"399","del",64,17,"SRR3698281.339",TRUE,TRUE,6,0.717703349282297,"AAG",NA,NA,NA
"400","del",64,17,"SRR3698281.4603",TRUE,TRUE,6,0.717703349282297,"AAG",NA,NA,NA
"401","del",64,17,"SRR3698281.5507",TRUE,TRUE,6,0.717703349282297,"AAG",NA,NA,NA
"402","del",64,17,"SRR3698281.7061",TRUE,TRUE,6,0.717703349282297,"AAG",NA,NA,NA
"403","del",64,17,"SRR3698281.7959",TRUE,TRUE,6,0.717703349282297,"AAG",NA,NA,NA
"404","del",64,26,"SRR3698281.109",FALSE,TRUE,1,0.119617224880383,"A",NA,NA,NA
"405","del",64,38,"SRR3698281.6613",FALSE,TRUE,1,0.119617224880383,"NHEJ",NA,NA,NA
"406","del",65,10,"SRR3698281.6464",FALSE,TRUE,1,0.119617224880383,"NHEJ",NA,NA,NA
"407","del",65,19,"SRR3698281.9670",FALSE,TRUE,1,0.119617224880383,"NHEJ",NA,NA,NA
"408","del",65,22,"SRR3698281.1380",TRUE,TRUE,4,0.478468899521531,"AG",NA,NA,NA
"409","del",65,22,"SRR3698281.1782",TRUE,TRUE,4,0.478468899521531,"AG",NA,NA,NA
"410","del",65,22,"SRR3698281.6772",TRUE,TRUE,4,0.478468899521531,"AG",NA,NA,NA
"411","del",65,22,"SRR3698281.7533",TRUE,TRUE,4,0.478468899521531,"AG",NA,NA,NA
"412","del",65,25,"SRR3698281.4878",FALSE,TRUE,1,0.119617224880383,"AG",NA,NA,NA
"413","del",66,5,"SRR3698281.1368",FALSE,TRUE,1,0.119617224880383,"NHEJ",NA,NA,NA
"414","del",66,6,"SRR3698281.5108",TRUE,TRUE,2,0.239234449760766,"G",NA,NA,NA
"415","del",66,6,"SRR3698281.8683",TRUE,TRUE,2,0.239234449760766,"G",NA,NA,NA
"416","del",66,7,"SRR3698281.7564",TRUE,TRUE,2,0.239234449760766,"NHEJ",NA,NA,NA
"417","del",66,7,"SRR3698281.9815",TRUE,TRUE,2,0.239234449760766,"NHEJ",NA,NA,NA
"418","del",66,8,"SRR3698281.5480",FALSE,TRUE,1,0.119617224880383,"NHEJ",NA,NA,NA
"419","del",66,20,"SRR3698281.824",FALSE,TRUE,1,0.119617224880383,"GAG",NA,NA,NA
"420","del",66,23,"SRR3698281.1898",TRUE,TRUE,2,0.239234449760766,"NHEJ",NA,NA,NA
"421","del",66,23,"SRR3698281.3850",TRUE,TRUE,2,0.239234449760766,"NHEJ",NA,NA,NA
"422","del",66,24,"SRR3698281.4622",FALSE,TRUE,1,0.119617224880383,"NHEJ",NA,NA,NA
"423","del",66,27,"SRR3698281.4403",TRUE,TRUE,2,0.239234449760766,"G",NA,NA,NA
"424","del",66,27,"SRR3698281.7644",TRUE,TRUE,2,0.239234449760766,"G",NA,NA,NA
"425","del",67,15,"SRR3698281.1420",TRUE,TRUE,7,0.837320574162679,"AGC",NA,NA,NA
"426","del",67,15,"SRR3698281.1982",TRUE,TRUE,7,0.837320574162679,"AGC",NA,NA,NA
"427","del",67,15,"SRR3698281.4388",TRUE,TRUE,7,0.837320574162679,"AGC",NA,NA,NA
"428","del",67,15,"SRR3698281.5169",TRUE,TRUE,7,0.837320574162679,"AGC",NA,NA,NA
"429","del",67,15,"SRR3698281.6844",TRUE,TRUE,7,0.837320574162679,"AGC",NA,NA,NA
"430","del",67,15,"SRR3698281.7403",TRUE,TRUE,7,0.837320574162679,"AGC",NA,NA,NA
"431","del",67,15,"SRR3698281.9473",TRUE,TRUE,7,0.837320574162679,"AGC",NA,NA,NA
"432","del",67,16,"SRR3698281.5344",FALSE,TRUE,1,0.119617224880383,"NHEJ",NA,NA,NA
"433","del",67,23,"SRR3698281.5807",FALSE,TRUE,2,0.239234449760766,"AG",NA,NA,NA
"434","del",67,23,"SRR3698281.6356",FALSE,TRUE,2,0.239234449760766,"AG",NA,NA,NA
"435","del",68,2,"SRR3698281.1976",TRUE,TRUE,5,0.598086124401914,"GC",NA,NA,NA
"436","del",68,2,"SRR3698281.2868",TRUE,TRUE,5,0.598086124401914,"GC",NA,NA,NA
"437","del",68,2,"SRR3698281.4280",TRUE,TRUE,5,0.598086124401914,"GC",NA,NA,NA
"438","del",68,2,"SRR3698281.6540",TRUE,TRUE,5,0.598086124401914,"GC",NA,NA,NA
"439","del",68,2,"SRR3698281.8278",TRUE,TRUE,5,0.598086124401914,"GC",NA,NA,NA
"440","del",68,4,"SRR3698281.5716",TRUE,TRUE,2,0.239234449760766,"G",NA,NA,NA
"441","del",68,4,"SRR3698281.6367",TRUE,TRUE,2,0.239234449760766,"G",NA,NA,NA
"442","del",68,5,"SRR3698281.5742",FALSE,TRUE,1,0.119617224880383,"NHEJ",NA,NA,NA
"443","del",68,7,"SRR3698281.5091",FALSE,TRUE,1,0.119617224880383,"NHEJ",NA,NA,NA
"444","del",68,9,"SRR3698281.4006",TRUE,TRUE,2,0.239234449760766,"G",NA,NA,NA
"445","del",68,9,"SRR3698281.9786",TRUE,TRUE,2,0.239234449760766,"G",NA,NA,NA
"446","del",68,10,"SRR3698281.1667",TRUE,TRUE,5,0.598086124401914,"GC",NA,NA,NA
"447","del",68,10,"SRR3698281.2621",TRUE,TRUE,5,0.598086124401914,"GC",NA,NA,NA
"448","del",68,10,"SRR3698281.8819",TRUE,TRUE,5,0.598086124401914,"GC",NA,NA,NA
"449","del",68,10,"SRR3698281.9329",TRUE,TRUE,5,0.598086124401914,"GC",NA,NA,NA
"450","del",68,10,"SRR3698281.957",TRUE,TRUE,5,0.598086124401914,"GC",NA,NA,NA
"451","del",69,5,"SRR3698281.1131",TRUE,TRUE,5,0.598086124401914,"C",NA,NA,NA
"452","del",69,5,"SRR3698281.2640",TRUE,TRUE,5,0.598086124401914,"C",NA,NA,NA
"453","del",69,5,"SRR3698281.2896",TRUE,TRUE,5,0.598086124401914,"C",NA,NA,NA
"454","del",69,5,"SRR3698281.4941",TRUE,TRUE,5,0.598086124401914,"C",NA,NA,NA
"455","del",69,5,"SRR3698281.8282",TRUE,TRUE,5,0.598086124401914,"C",NA,NA,NA
"456","del",69,6,"SRR3698281.7527",FALSE,TRUE,1,0.119617224880383,"C",NA,NA,NA
"457","del",69,11,"SRR3698281.7699",FALSE,TRUE,1,0.119617224880383,"C",NA,NA,NA
"458","del",69,16,"SRR3698281.1546",FALSE,TRUE,1,0.119617224880383,"CG",NA,NA,NA
"459","del",69,32,"SRR3698281.9710",FALSE,TRUE,1,0.119617224880383,"C",NA,NA,NA
"460","del",69,34,"SRR3698281.2639",TRUE,TRUE,2,0.239234449760766,"CG",NA,NA,NA
"461","del",69,34,"SRR3698281.5035",TRUE,TRUE,2,0.239234449760766,"CG",NA,NA,NA
"462","del",70,3,"SRR3698281.2742",TRUE,TRUE,5,0.598086124401914,"NHEJ",NA,NA,NA
"463","del",70,3,"SRR3698281.3212",TRUE,TRUE,5,0.598086124401914,"NHEJ",NA,NA,NA
"464","del",70,3,"SRR3698281.5924",TRUE,TRUE,5,0.598086124401914,"NHEJ",NA,NA,NA
"465","del",70,3,"SRR3698281.7728",TRUE,TRUE,5,0.598086124401914,"NHEJ",NA,NA,NA
"466","del",70,3,"SRR3698281.8318",TRUE,TRUE,5,0.598086124401914,"NHEJ",NA,NA,NA
"467","del",70,4,"SRR3698281.1741",TRUE,TRUE,2,0.239234449760766,"NHEJ",NA,NA,NA
"468","del",70,4,"SRR3698281.667",TRUE,TRUE,2,0.239234449760766,"NHEJ",NA,NA,NA
"469","del",70,8,"SRR3698281.3150",TRUE,TRUE,8,0.956937799043062,"GC",NA,NA,NA
"470","del",70,8,"SRR3698281.4938",TRUE,TRUE,8,0.956937799043062,"GC",NA,NA,NA
"471","del",70,8,"SRR3698281.5177",TRUE,TRUE,8,0.956937799043062,"GC",NA,NA,NA
"472","del",70,8,"SRR3698281.8748",TRUE,TRUE,8,0.956937799043062,"GC",NA,NA,NA
"473","del",70,8,"SRR3698281.9073",TRUE,TRUE,8,0.956937799043062,"GC",NA,NA,NA
"474","del",70,8,"SRR3698281.9112",TRUE,TRUE,8,0.956937799043062,"GC",NA,NA,NA
"475","del",70,8,"SRR3698281.9438",TRUE,TRUE,8,0.956937799043062,"GC",NA,NA,NA
"476","del",70,8,"SRR3698281.9979",TRUE,TRUE,8,0.956937799043062,"GC",NA,NA,NA
"477","del",70,13,"SRR3698281.1279",TRUE,TRUE,2,0.239234449760766,"GC",NA,NA,NA
"478","del",70,13,"SRR3698281.313",TRUE,TRUE,2,0.239234449760766,"GC",NA,NA,NA
"479","del",70,18,"SRR3698281.3247",FALSE,TRUE,1,0.119617224880383,"G",NA,NA,NA
"480","del",70,37,"SRR3698281.5324",FALSE,TRUE,1,0.119617224880383,"GCGTC",NA,NA,NA
"481","del",71,1,"SRR3698281.1404",FALSE,TRUE,1,0.119617224880383,"NHEJ",NA,NA,NA
"482","del",71,3,"SRR3698281.4046",TRUE,TRUE,3,0.358851674641148,"C",NA,NA,NA
"483","del",71,3,"SRR3698281.4936",TRUE,TRUE,3,0.358851674641148,"C",NA,NA,NA
"484","del",71,3,"SRR3698281.5858",TRUE,TRUE,3,0.358851674641148,"C",NA,NA,NA
"485","del",71,4,"SRR3698281.9092",FALSE,TRUE,1,0.119617224880383,"C",NA,NA,NA
"486","del",71,11,"SRR3698281.9748",FALSE,TRUE,1,0.119617224880383,"NHEJ",NA,NA,NA
"487","del",71,14,"SRR3698281.3798",TRUE,TRUE,4,0.478468899521531,"CG",NA,NA,NA
"488","del",71,14,"SRR3698281.4230",TRUE,TRUE,4,0.478468899521531,"CG",NA,NA,NA
"489","del",71,14,"SRR3698281.6592",TRUE,TRUE,4,0.478468899521531,"CG",NA,NA,NA
"490","del",71,14,"SRR3698281.6611",TRUE,TRUE,4,0.478468899521531,"CG",NA,NA,NA
"491","del",71,25,"SRR3698281.6981",FALSE,TRUE,1,0.119617224880383,"NHEJ",NA,NA,NA
"492","del",72,1,"SRR3698281.3860",FALSE,TRUE,7,0.837320574162679,"NHEJ",NA,NA,NA
"493","del",72,1,"SRR3698281.3872",FALSE,TRUE,7,0.837320574162679,"NHEJ",NA,NA,NA
"494","del",72,1,"SRR3698281.3977",FALSE,TRUE,7,0.837320574162679,"NHEJ",NA,NA,NA
"495","del",72,1,"SRR3698281.4499",FALSE,TRUE,7,0.837320574162679,"NHEJ",NA,NA,NA
"496","del",72,1,"SRR3698281.6618",FALSE,TRUE,7,0.837320574162679,"NHEJ",NA,NA,NA
"497","del",72,1,"SRR3698281.7514",FALSE,TRUE,7,0.837320574162679,"NHEJ",NA,NA,NA
"498","del",72,1,"SRR3698281.909",FALSE,TRUE,7,0.837320574162679,"NHEJ",NA,NA,NA
"499","del",72,2,"SRR3698281.1555",TRUE,TRUE,3,0.358851674641148,"NHEJ",NA,NA,NA
"500","del",72,2,"SRR3698281.6386",TRUE,TRUE,3,0.358851674641148,"NHEJ",NA,NA,NA
"501","del",72,2,"SRR3698281.703",TRUE,TRUE,3,0.358851674641148,"NHEJ",NA,NA,NA
"502","del",72,5,"SRR3698281.3937",TRUE,TRUE,5,0.598086124401914,"G",NA,NA,NA
"503","del",72,5,"SRR3698281.4744",TRUE,TRUE,5,0.598086124401914,"G",NA,NA,NA
"504","del",72,5,"SRR3698281.5186",TRUE,TRUE,5,0.598086124401914,"G",NA,NA,NA
"505","del",72,5,"SRR3698281.5747",TRUE,TRUE,5,0.598086124401914,"G",NA,NA,NA
"506","del",72,5,"SRR3698281.6352",TRUE,TRUE,5,0.598086124401914,"G",NA,NA,NA
"507","del",72,6,"SRR3698281.1541",TRUE,TRUE,6,0.717703349282297,"G",NA,NA,NA
"508","del",72,6,"SRR3698281.2721",TRUE,TRUE,6,0.717703349282297,"G",NA,NA,NA
"509","del",72,6,"SRR3698281.2787",TRUE,TRUE,6,0.717703349282297,"G",NA,NA,NA
"510","del",72,6,"SRR3698281.4342",TRUE,TRUE,6,0.717703349282297,"G",NA,NA,NA
"511","del",72,6,"SRR3698281.8033",TRUE,TRUE,6,0.717703349282297,"G",NA,NA,NA
"512","del",72,6,"SRR3698281.9966",TRUE,TRUE,6,0.717703349282297,"G",NA,NA,NA
"513","del",72,7,"SRR3698281.4743",FALSE,TRUE,1,0.119617224880383,"NHEJ",NA,NA,NA
"514","del",72,11,"SRR3698281.1054",TRUE,TRUE,2,0.239234449760766,"G",NA,NA,NA
"515","del",72,11,"SRR3698281.8659",TRUE,TRUE,2,0.239234449760766,"G",NA,NA,NA
"516","del",72,19,"SRR3698281.7343",FALSE,TRUE,1,0.119617224880383,"GT",NA,NA,NA
"517","del",73,1,"SRR3698281.2954",TRUE,TRUE,9,1.07655502392344,"NHEJ",NA,NA,NA
"518","del",73,1,"SRR3698281.4685",TRUE,TRUE,9,1.07655502392344,"NHEJ",NA,NA,NA
"519","del",73,1,"SRR3698281.5140",TRUE,TRUE,9,1.07655502392344,"NHEJ",NA,NA,NA
"520","del",73,1,"SRR3698281.5509",TRUE,TRUE,9,1.07655502392344,"NHEJ",NA,NA,NA
"521","del",73,1,"SRR3698281.5753",TRUE,TRUE,9,1.07655502392344,"NHEJ",NA,NA,NA
"522","del",73,1,"SRR3698281.6102",TRUE,TRUE,9,1.07655502392344,"NHEJ",NA,NA,NA
"523","del",73,1,"SRR3698281.7950",TRUE,TRUE,9,1.07655502392344,"NHEJ",NA,NA,NA
"524","del",73,1,"SRR3698281.8004",TRUE,TRUE,9,1.07655502392344,"NHEJ",NA,NA,NA
"525","del",73,1,"SRR3698281.9190",TRUE,TRUE,9,1.07655502392344,"NHEJ",NA,NA,NA
"526","del",73,2,"SRR3698281.4641",FALSE,TRUE,1,0.119617224880383,"NHEJ",NA,NA,NA
"527","del",73,7,"SRR3698281.2043",TRUE,TRUE,6,0.717703349282297,"NHEJ",NA,NA,NA
"528","del",73,7,"SRR3698281.3931",TRUE,TRUE,6,0.717703349282297,"NHEJ",NA,NA,NA
"529","del",73,7,"SRR3698281.4353",TRUE,TRUE,6,0.717703349282297,"NHEJ",NA,NA,NA
"530","del",73,7,"SRR3698281.7049",TRUE,TRUE,6,0.717703349282297,"NHEJ",NA,NA,NA
"531","del",73,7,"SRR3698281.7892",TRUE,TRUE,6,0.717703349282297,"NHEJ",NA,NA,NA
"532","del",73,7,"SRR3698281.8366",TRUE,TRUE,6,0.717703349282297,"NHEJ",NA,NA,NA
"533","del",73,8,"SRR3698281.3637",FALSE,TRUE,1,0.119617224880383,"NHEJ",NA,NA,NA
"534","del",73,9,"SRR3698281.6296",TRUE,TRUE,2,0.239234449760766,"NHEJ",NA,NA,NA
"535","del",73,9,"SRR3698281.7276",TRUE,TRUE,2,0.239234449760766,"NHEJ",NA,NA,NA
"536","del",73,13,"SRR3698281.4521",FALSE,TRUE,1,0.119617224880383,"NHEJ",NA,NA,NA
"537","del",73,15,"SRR3698281.5775",TRUE,TRUE,2,0.239234449760766,"NHEJ",NA,NA,NA
"538","del",73,15,"SRR3698281.7148",TRUE,TRUE,2,0.239234449760766,"NHEJ",NA,NA,NA
"539","del",74,1,"SRR3698281.4736",FALSE,TRUE,1,0.119617224880383,"C",NA,NA,NA
"540","del",74,2,"SRR3698281.8703",FALSE,TRUE,1,0.119617224880383,"NHEJ",NA,NA,NA
"541","del",74,7,"SRR3698281.3299",FALSE,TRUE,1,0.119617224880383,"NHEJ",NA,NA,NA
"542","del",76,8,"SRR3698281.6235",FALSE,TRUE,1,0.119617224880383,"NHEJ",NA,NA,NA
"543","del",79,1,"SRR3698281.331",FALSE,TRUE,1,0.119617224880383,"C",NA,NA,NA
"544","del",128,2,"SRR3698281.7394",FALSE,FALSE,1,0.119617224880383,"G",NA,NA,NA
"545","del",131,1,"SRR3698281.9195",FALSE,FALSE,1,0.119617224880383,"A",NA,NA,NA
"546","del",148,1,"SRR3698281.2470",FALSE,FALSE,1,0.119617224880383,"G",NA,NA,NA
"547","del",148,2,"SRR3698281.5637",FALSE,FALSE,1,0.119617224880383,"GG",NA,NA,NA
"548","del",151,2,"SRR3698281.1732",TRUE,FALSE,33,3.94736842105263,"GC",NA,NA,NA
"549","del",151,2,"SRR3698281.2045",TRUE,FALSE,33,3.94736842105263,"GC",NA,NA,NA
"550","del",151,2,"SRR3698281.2120",TRUE,FALSE,33,3.94736842105263,"GC",NA,NA,NA
"551","del",151,2,"SRR3698281.2295",TRUE,FALSE,33,3.94736842105263,"GC",NA,NA,NA
"552","del",151,2,"SRR3698281.2435",TRUE,FALSE,33,3.94736842105263,"GC",NA,NA,NA
"553","del",151,2,"SRR3698281.2487",TRUE,FALSE,33,3.94736842105263,"GC",NA,NA,NA
"554","del",151,2,"SRR3698281.2543",TRUE,FALSE,33,3.94736842105263,"GC",NA,NA,NA
"555","del",151,2,"SRR3698281.3213",TRUE,FALSE,33,3.94736842105263,"GC",NA,NA,NA
"556","del",151,2,"SRR3698281.3549",TRUE,FALSE,33,3.94736842105263,"GC",NA,NA,NA
"557","del",151,2,"SRR3698281.3881",TRUE,FALSE,33,3.94736842105263,"GC",NA,NA,NA
"558","del",151,2,"SRR3698281.3911",TRUE,FALSE,33,3.94736842105263,"GC",NA,NA,NA
"559","del",151,2,"SRR3698281.4375",TRUE,FALSE,33,3.94736842105263,"GC",NA,NA,NA
"560","del",151,2,"SRR3698281.4394",TRUE,FALSE,33,3.94736842105263,"GC",NA,NA,NA
"561","del",151,2,"SRR3698281.4407",TRUE,FALSE,33,3.94736842105263,"GC",NA,NA,NA
"562","del",151,2,"SRR3698281.4694",TRUE,FALSE,33,3.94736842105263,"GC",NA,NA,NA
"563","del",151,2,"SRR3698281.4844",TRUE,FALSE,33,3.94736842105263,"GC",NA,NA,NA
"564","del",151,2,"SRR3698281.4996",TRUE,FALSE,33,3.94736842105263,"GC",NA,NA,NA
"565","del",151,2,"SRR3698281.5254",TRUE,FALSE,33,3.94736842105263,"GC",NA,NA,NA
"566","del",151,2,"SRR3698281.5479",TRUE,FALSE,33,3.94736842105263,"GC",NA,NA,NA
"567","del",151,2,"SRR3698281.5990",TRUE,FALSE,33,3.94736842105263,"GC",NA,NA,NA
"568","del",151,2,"SRR3698281.6133",TRUE,FALSE,33,3.94736842105263,"GC",NA,NA,NA
"569","del",151,2,"SRR3698281.6155",TRUE,FALSE,33,3.94736842105263,"GC",NA,NA,NA
"570","del",151,2,"SRR3698281.6890",TRUE,FALSE,33,3.94736842105263,"GC",NA,NA,NA
"571","del",151,2,"SRR3698281.7211",TRUE,FALSE,33,3.94736842105263,"GC",NA,NA,NA
"572","del",151,2,"SRR3698281.7320",TRUE,FALSE,33,3.94736842105263,"GC",NA,NA,NA
"573","del",151,2,"SRR3698281.7475",TRUE,FALSE,33,3.94736842105263,"GC",NA,NA,NA
"574","del",151,2,"SRR3698281.7488",TRUE,FALSE,33,3.94736842105263,"GC",NA,NA,NA
"575","del",151,2,"SRR3698281.7735",TRUE,FALSE,33,3.94736842105263,"GC",NA,NA,NA
"576","del",151,2,"SRR3698281.8421",TRUE,FALSE,33,3.94736842105263,"GC",NA,NA,NA
"577","del",151,2,"SRR3698281.8605",TRUE,FALSE,33,3.94736842105263,"GC",NA,NA,NA
"578","del",151,2,"SRR3698281.8921",TRUE,FALSE,33,3.94736842105263,"GC",NA,NA,NA
"579","del",151,2,"SRR3698281.8925",TRUE,FALSE,33,3.94736842105263,"GC",NA,NA,NA
"580","del",151,2,"SRR3698281.9843",TRUE,FALSE,33,3.94736842105263,"GC",NA,NA,NA
"581","del",169,1,"SRR3698281.6986",FALSE,FALSE,1,0.119617224880383,"G",NA,NA,NA
"582","del",178,1,"SRR3698281.8916",TRUE,FALSE,3,0.358851674641148,"G",NA,NA,NA
"583","del",178,1,"SRR3698281.9126",TRUE,FALSE,3,0.358851674641148,"G",NA,NA,NA
"584","del",178,1,"SRR3698281.9628",TRUE,FALSE,3,0.358851674641148,"G",NA,NA,NA
"585","del",193,1,"SRR3698281.5811",FALSE,FALSE,1,0.119617224880383,"T",NA,NA,NA
"586","del",198,1,"SRR3698281.3523",TRUE,FALSE,4,0.478468899521531,"T",NA,NA,NA
"587","del",198,1,"SRR3698281.5258",TRUE,FALSE,4,0.478468899521531,"T",NA,NA,NA
"588","del",198,1,"SRR3698281.5385",TRUE,FALSE,4,0.478468899521531,"T",NA,NA,NA
"589","del",198,1,"SRR3698281.9733",TRUE,FALSE,4,0.478468899521531,"T",NA,NA,NA
"590","del",199,3,"SRR3698281.3115",TRUE,FALSE,2,0.239234449760766,"TG",NA,NA,NA
"591","del",199,3,"SRR3698281.7921",TRUE,FALSE,2,0.239234449760766,"TG",NA,NA,NA
"592","del",200,1,"SRR3698281.160",TRUE,FALSE,10,1.19617224880383,"NHEJ",NA,NA,NA
"593","del",200,1,"SRR3698281.3192",TRUE,FALSE,10,1.19617224880383,"NHEJ",NA,NA,NA
"594","del",200,1,"SRR3698281.3954",TRUE,FALSE,10,1.19617224880383,"NHEJ",NA,NA,NA
"595","del",200,1,"SRR3698281.4794",TRUE,FALSE,10,1.19617224880383,"NHEJ",NA,NA,NA
"596","del",200,1,"SRR3698281.5235",TRUE,FALSE,10,1.19617224880383,"NHEJ",NA,NA,NA
"597","del",200,1,"SRR3698281.5667",TRUE,FALSE,10,1.19617224880383,"NHEJ",NA,NA,NA
"598","del",200,1,"SRR3698281.70",TRUE,FALSE,10,1.19617224880383,"NHEJ",NA,NA,NA
"599","del",200,1,"SRR3698281.7060",TRUE,FALSE,10,1.19617224880383,"NHEJ",NA,NA,NA
"600","del",200,1,"SRR3698281.8057",TRUE,FALSE,10,1.19617224880383,"NHEJ",NA,NA,NA
"601","del",200,1,"SRR3698281.9806",TRUE,FALSE,10,1.19617224880383,"NHEJ",NA,NA,NA
"602","del",201,1,"SRR3698281.1586",TRUE,FALSE,25,2.99043062200957,"NHEJ",NA,NA,NA
"603","del",201,1,"SRR3698281.1926",TRUE,FALSE,25,2.99043062200957,"NHEJ",NA,NA,NA
"604","del",201,1,"SRR3698281.2342",TRUE,FALSE,25,2.99043062200957,"NHEJ",NA,NA,NA
"605","del",201,1,"SRR3698281.2433",TRUE,FALSE,25,2.99043062200957,"NHEJ",NA,NA,NA
"606","del",201,1,"SRR3698281.2445",TRUE,FALSE,25,2.99043062200957,"NHEJ",NA,NA,NA
"607","del",201,1,"SRR3698281.275",TRUE,FALSE,25,2.99043062200957,"NHEJ",NA,NA,NA
"608","del",201,1,"SRR3698281.3228",TRUE,FALSE,25,2.99043062200957,"NHEJ",NA,NA,NA
"609","del",201,1,"SRR3698281.3337",TRUE,FALSE,25,2.99043062200957,"NHEJ",NA,NA,NA
"610","del",201,1,"SRR3698281.3595",TRUE,FALSE,25,2.99043062200957,"NHEJ",NA,NA,NA
"611","del",201,1,"SRR3698281.3675",TRUE,FALSE,25,2.99043062200957,"NHEJ",NA,NA,NA
"612","del",201,1,"SRR3698281.3681",TRUE,FALSE,25,2.99043062200957,"NHEJ",NA,NA,NA
"613","del",201,1,"SRR3698281.3762",TRUE,FALSE,25,2.99043062200957,"NHEJ",NA,NA,NA
"614","del",201,1,"SRR3698281.3792",TRUE,FALSE,25,2.99043062200957,"NHEJ",NA,NA,NA
"615","del",201,1,"SRR3698281.4315",TRUE,FALSE,25,2.99043062200957,"NHEJ",NA,NA,NA
"616","del",201,1,"SRR3698281.4478",TRUE,FALSE,25,2.99043062200957,"NHEJ",NA,NA,NA
"617","del",201,1,"SRR3698281.4491",TRUE,FALSE,25,2.99043062200957,"NHEJ",NA,NA,NA
"618","del",201,1,"SRR3698281.4552",TRUE,FALSE,25,2.99043062200957,"NHEJ",NA,NA,NA
"619","del",201,1,"SRR3698281.4678",TRUE,FALSE,25,2.99043062200957,"NHEJ",NA,NA,NA
"620","del",201,1,"SRR3698281.4967",TRUE,FALSE,25,2.99043062200957,"NHEJ",NA,NA,NA
"621","del",201,1,"SRR3698281.4998",TRUE,FALSE,25,2.99043062200957,"NHEJ",NA,NA,NA
"622","del",201,1,"SRR3698281.8099",TRUE,FALSE,25,2.99043062200957,"NHEJ",NA,NA,NA
"623","del",201,1,"SRR3698281.8173",TRUE,FALSE,25,2.99043062200957,"NHEJ",NA,NA,NA
"624","del",201,1,"SRR3698281.9136",TRUE,FALSE,25,2.99043062200957,"NHEJ",NA,NA,NA
"625","del",201,1,"SRR3698281.9890",TRUE,FALSE,25,2.99043062200957,"NHEJ",NA,NA,NA
"626","del",201,1,"SRR3698281.9956",TRUE,FALSE,25,2.99043062200957,"NHEJ",NA,NA,NA
"627","del",202,1,"SRR3698281.10003",TRUE,FALSE,32,3.82775119617225,"NHEJ",NA,NA,NA
"628","del",202,1,"SRR3698281.1176",TRUE,FALSE,32,3.82775119617225,"NHEJ",NA,NA,NA
"629","del",202,1,"SRR3698281.1418",TRUE,FALSE,32,3.82775119617225,"NHEJ",NA,NA,NA
"630","del",202,1,"SRR3698281.1530",TRUE,FALSE,32,3.82775119617225,"NHEJ",NA,NA,NA
"631","del",202,1,"SRR3698281.1720",TRUE,FALSE,32,3.82775119617225,"NHEJ",NA,NA,NA
"632","del",202,1,"SRR3698281.1729",TRUE,FALSE,32,3.82775119617225,"NHEJ",NA,NA,NA
"633","del",202,1,"SRR3698281.1909",TRUE,FALSE,32,3.82775119617225,"NHEJ",NA,NA,NA
"634","del",202,1,"SRR3698281.2338",TRUE,FALSE,32,3.82775119617225,"NHEJ",NA,NA,NA
"635","del",202,1,"SRR3698281.3117",TRUE,FALSE,32,3.82775119617225,"NHEJ",NA,NA,NA
"636","del",202,1,"SRR3698281.3467",TRUE,FALSE,32,3.82775119617225,"NHEJ",NA,NA,NA
"637","del",202,1,"SRR3698281.3613",TRUE,FALSE,32,3.82775119617225,"NHEJ",NA,NA,NA
"638","del",202,1,"SRR3698281.3614",TRUE,FALSE,32,3.82775119617225,"NHEJ",NA,NA,NA
"639","del",202,1,"SRR3698281.3888",TRUE,FALSE,32,3.82775119617225,"NHEJ",NA,NA,NA
"640","del",202,1,"SRR3698281.4032",TRUE,FALSE,32,3.82775119617225,"NHEJ",NA,NA,NA
"641","del",202,1,"SRR3698281.4069",TRUE,FALSE,32,3.82775119617225,"NHEJ",NA,NA,NA
"642","del",202,1,"SRR3698281.410",TRUE,FALSE,32,3.82775119617225,"NHEJ",NA,NA,NA
"643","del",202,1,"SRR3698281.452",TRUE,FALSE,32,3.82775119617225,"NHEJ",NA,NA,NA
"644","del",202,1,"SRR3698281.508",TRUE,FALSE,32,3.82775119617225,"NHEJ",NA,NA,NA
"645","del",202,1,"SRR3698281.6150",TRUE,FALSE,32,3.82775119617225,"NHEJ",NA,NA,NA
"646","del",202,1,"SRR3698281.7106",TRUE,FALSE,32,3.82775119617225,"NHEJ",NA,NA,NA
"647","del",202,1,"SRR3698281.7405",TRUE,FALSE,32,3.82775119617225,"NHEJ",NA,NA,NA
"648","del",202,1,"SRR3698281.7839",TRUE,FALSE,32,3.82775119617225,"NHEJ",NA,NA,NA
"649","del",202,1,"SRR3698281.7880",TRUE,FALSE,32,3.82775119617225,"NHEJ",NA,NA,NA
"650","del",202,1,"SRR3698281.7928",TRUE,FALSE,32,3.82775119617225,"NHEJ",NA,NA,NA
"651","del",202,1,"SRR3698281.8141",TRUE,FALSE,32,3.82775119617225,"NHEJ",NA,NA,NA
"652","del",202,1,"SRR3698281.8693",TRUE,FALSE,32,3.82775119617225,"NHEJ",NA,NA,NA
"653","del",202,1,"SRR3698281.878",TRUE,FALSE,32,3.82775119617225,"NHEJ",NA,NA,NA
"654","del",202,1,"SRR3698281.9236",TRUE,FALSE,32,3.82775119617225,"NHEJ",NA,NA,NA
"655","del",202,1,"SRR3698281.9601",TRUE,FALSE,32,3.82775119617225,"NHEJ",NA,NA,NA
"656","del",202,1,"SRR3698281.9607",TRUE,FALSE,32,3.82775119617225,"NHEJ",NA,NA,NA
"657","del",202,1,"SRR3698281.9623",TRUE,FALSE,32,3.82775119617225,"NHEJ",NA,NA,NA
"658","del",202,1,"SRR3698281.9722",TRUE,FALSE,32,3.82775119617225,"NHEJ",NA,NA,NA
"659","del",202,2,"SRR3698281.5960",TRUE,FALSE,2,0.239234449760766,"NHEJ",NA,NA,NA
"660","del",202,2,"SRR3698281.8198",TRUE,FALSE,2,0.239234449760766,"NHEJ",NA,NA,NA
"661","del",203,1,"SRR3698281.1484",TRUE,FALSE,33,3.94736842105263,"NHEJ",NA,NA,NA
"662","del",203,1,"SRR3698281.1773",TRUE,FALSE,33,3.94736842105263,"NHEJ",NA,NA,NA
"663","del",203,1,"SRR3698281.2161",TRUE,FALSE,33,3.94736842105263,"NHEJ",NA,NA,NA
"664","del",203,1,"SRR3698281.2365",TRUE,FALSE,33,3.94736842105263,"NHEJ",NA,NA,NA
"665","del",203,1,"SRR3698281.2366",TRUE,FALSE,33,3.94736842105263,"NHEJ",NA,NA,NA
"666","del",203,1,"SRR3698281.2583",TRUE,FALSE,33,3.94736842105263,"NHEJ",NA,NA,NA
"667","del",203,1,"SRR3698281.2859",TRUE,FALSE,33,3.94736842105263,"NHEJ",NA,NA,NA
"668","del",203,1,"SRR3698281.2977",TRUE,FALSE,33,3.94736842105263,"NHEJ",NA,NA,NA
"669","del",203,1,"SRR3698281.3245",TRUE,FALSE,33,3.94736842105263,"NHEJ",NA,NA,NA
"670","del",203,1,"SRR3698281.3384",TRUE,FALSE,33,3.94736842105263,"NHEJ",NA,NA,NA
"671","del",203,1,"SRR3698281.3776",TRUE,FALSE,33,3.94736842105263,"NHEJ",NA,NA,NA
"672","del",203,1,"SRR3698281.4212",TRUE,FALSE,33,3.94736842105263,"NHEJ",NA,NA,NA
"673","del",203,1,"SRR3698281.4483",TRUE,FALSE,33,3.94736842105263,"NHEJ",NA,NA,NA
"674","del",203,1,"SRR3698281.4492",TRUE,FALSE,33,3.94736842105263,"NHEJ",NA,NA,NA
"675","del",203,1,"SRR3698281.4610",TRUE,FALSE,33,3.94736842105263,"NHEJ",NA,NA,NA
"676","del",203,1,"SRR3698281.4923",TRUE,FALSE,33,3.94736842105263,"NHEJ",NA,NA,NA
"677","del",203,1,"SRR3698281.5506",TRUE,FALSE,33,3.94736842105263,"NHEJ",NA,NA,NA
"678","del",203,1,"SRR3698281.5664",TRUE,FALSE,33,3.94736842105263,"NHEJ",NA,NA,NA
"679","del",203,1,"SRR3698281.6270",TRUE,FALSE,33,3.94736842105263,"NHEJ",NA,NA,NA
"680","del",203,1,"SRR3698281.6481",TRUE,FALSE,33,3.94736842105263,"NHEJ",NA,NA,NA
"681","del",203,1,"SRR3698281.6953",TRUE,FALSE,33,3.94736842105263,"NHEJ",NA,NA,NA
"682","del",203,1,"SRR3698281.7325",TRUE,FALSE,33,3.94736842105263,"NHEJ",NA,NA,NA
"683","del",203,1,"SRR3698281.7437",TRUE,FALSE,33,3.94736842105263,"NHEJ",NA,NA,NA
"684","del",203,1,"SRR3698281.7454",TRUE,FALSE,33,3.94736842105263,"NHEJ",NA,NA,NA
"685","del",203,1,"SRR3698281.7485",TRUE,FALSE,33,3.94736842105263,"NHEJ",NA,NA,NA
"686","del",203,1,"SRR3698281.7711",TRUE,FALSE,33,3.94736842105263,"NHEJ",NA,NA,NA
"687","del",203,1,"SRR3698281.7720",TRUE,FALSE,33,3.94736842105263,"NHEJ",NA,NA,NA
"688","del",203,1,"SRR3698281.7794",TRUE,FALSE,33,3.94736842105263,"NHEJ",NA,NA,NA
"689","del",203,1,"SRR3698281.7967",TRUE,FALSE,33,3.94736842105263,"NHEJ",NA,NA,NA
"690","del",203,1,"SRR3698281.8593",TRUE,FALSE,33,3.94736842105263,"NHEJ",NA,NA,NA
"691","del",203,1,"SRR3698281.8743",TRUE,FALSE,33,3.94736842105263,"NHEJ",NA,NA,NA
"692","del",203,1,"SRR3698281.9289",TRUE,FALSE,33,3.94736842105263,"NHEJ",NA,NA,NA
"693","del",203,1,"SRR3698281.9475",TRUE,FALSE,33,3.94736842105263,"NHEJ",NA,NA,NA
"694","del",203,2,"SRR3698281.332",TRUE,FALSE,7,0.837320574162679,"G",NA,NA,NA
"695","del",203,2,"SRR3698281.4023",TRUE,FALSE,7,0.837320574162679,"G",NA,NA,NA
"696","del",203,2,"SRR3698281.4935",TRUE,FALSE,7,0.837320574162679,"G",NA,NA,NA
"697","del",203,2,"SRR3698281.4997",TRUE,FALSE,7,0.837320574162679,"G",NA,NA,NA
"698","del",203,2,"SRR3698281.5850",TRUE,FALSE,7,0.837320574162679,"G",NA,NA,NA
"699","del",203,2,"SRR3698281.7249",TRUE,FALSE,7,0.837320574162679,"G",NA,NA,NA
"700","del",203,2,"SRR3698281.9529",TRUE,FALSE,7,0.837320574162679,"G",NA,NA,NA
"701","del",204,1,"SRR3698281.1036",TRUE,FALSE,27,3.22966507177034,"NHEJ",NA,NA,NA
"702","del",204,1,"SRR3698281.140",TRUE,FALSE,27,3.22966507177034,"NHEJ",NA,NA,NA
"703","del",204,1,"SRR3698281.1496",TRUE,FALSE,27,3.22966507177034,"NHEJ",NA,NA,NA
"704","del",204,1,"SRR3698281.1531",TRUE,FALSE,27,3.22966507177034,"NHEJ",NA,NA,NA
"705","del",204,1,"SRR3698281.1641",TRUE,FALSE,27,3.22966507177034,"NHEJ",NA,NA,NA
"706","del",204,1,"SRR3698281.2525",TRUE,FALSE,27,3.22966507177034,"NHEJ",NA,NA,NA
"707","del",204,1,"SRR3698281.2829",TRUE,FALSE,27,3.22966507177034,"NHEJ",NA,NA,NA
"708","del",204,1,"SRR3698281.2903",TRUE,FALSE,27,3.22966507177034,"NHEJ",NA,NA,NA
"709","del",204,1,"SRR3698281.3209",TRUE,FALSE,27,3.22966507177034,"NHEJ",NA,NA,NA
"710","del",204,1,"SRR3698281.3576",TRUE,FALSE,27,3.22966507177034,"NHEJ",NA,NA,NA
"711","del",204,1,"SRR3698281.426",TRUE,FALSE,27,3.22966507177034,"NHEJ",NA,NA,NA
"712","del",204,1,"SRR3698281.4389",TRUE,FALSE,27,3.22966507177034,"NHEJ",NA,NA,NA
"713","del",204,1,"SRR3698281.4766",TRUE,FALSE,27,3.22966507177034,"NHEJ",NA,NA,NA
"714","del",204,1,"SRR3698281.532",TRUE,FALSE,27,3.22966507177034,"NHEJ",NA,NA,NA
"715","del",204,1,"SRR3698281.6283",TRUE,FALSE,27,3.22966507177034,"NHEJ",NA,NA,NA
"716","del",204,1,"SRR3698281.6662",TRUE,FALSE,27,3.22966507177034,"NHEJ",NA,NA,NA
"717","del",204,1,"SRR3698281.6669",TRUE,FALSE,27,3.22966507177034,"NHEJ",NA,NA,NA
"718","del",204,1,"SRR3698281.6709",TRUE,FALSE,27,3.22966507177034,"NHEJ",NA,NA,NA
"719","del",204,1,"SRR3698281.6827",TRUE,FALSE,27,3.22966507177034,"NHEJ",NA,NA,NA
"720","del",204,1,"SRR3698281.6979",TRUE,FALSE,27,3.22966507177034,"NHEJ",NA,NA,NA
"721","del",204,1,"SRR3698281.8051",TRUE,FALSE,27,3.22966507177034,"NHEJ",NA,NA,NA
"722","del",204,1,"SRR3698281.8345",TRUE,FALSE,27,3.22966507177034,"NHEJ",NA,NA,NA
"723","del",204,1,"SRR3698281.8654",TRUE,FALSE,27,3.22966507177034,"NHEJ",NA,NA,NA
"724","del",204,1,"SRR3698281.8787",TRUE,FALSE,27,3.22966507177034,"NHEJ",NA,NA,NA
"725","del",204,1,"SRR3698281.9277",TRUE,FALSE,27,3.22966507177034,"NHEJ",NA,NA,NA
"726","del",204,1,"SRR3698281.9395",TRUE,FALSE,27,3.22966507177034,"NHEJ",NA,NA,NA
"727","del",204,1,"SRR3698281.9767",TRUE,FALSE,27,3.22966507177034,"NHEJ",NA,NA,NA
"728","del",205,1,"SRR3698281.1130",TRUE,FALSE,24,2.87081339712919,"NHEJ",NA,NA,NA
"729","del",205,1,"SRR3698281.1198",TRUE,FALSE,24,2.87081339712919,"NHEJ",NA,NA,NA
"730","del",205,1,"SRR3698281.1410",TRUE,FALSE,24,2.87081339712919,"NHEJ",NA,NA,NA
"731","del",205,1,"SRR3698281.1460",TRUE,FALSE,24,2.87081339712919,"NHEJ",NA,NA,NA
"732","del",205,1,"SRR3698281.1753",TRUE,FALSE,24,2.87081339712919,"NHEJ",NA,NA,NA
"733","del",205,1,"SRR3698281.1807",TRUE,FALSE,24,2.87081339712919,"NHEJ",NA,NA,NA
"734","del",205,1,"SRR3698281.1848",TRUE,FALSE,24,2.87081339712919,"NHEJ",NA,NA,NA
"735","del",205,1,"SRR3698281.1851",TRUE,FALSE,24,2.87081339712919,"NHEJ",NA,NA,NA
"736","del",205,1,"SRR3698281.2110",TRUE,FALSE,24,2.87081339712919,"NHEJ",NA,NA,NA
"737","del",205,1,"SRR3698281.2402",TRUE,FALSE,24,2.87081339712919,"NHEJ",NA,NA,NA
"738","del",205,1,"SRR3698281.2503",TRUE,FALSE,24,2.87081339712919,"NHEJ",NA,NA,NA
"739","del",205,1,"SRR3698281.3646",TRUE,FALSE,24,2.87081339712919,"NHEJ",NA,NA,NA
"740","del",205,1,"SRR3698281.4474",TRUE,FALSE,24,2.87081339712919,"NHEJ",NA,NA,NA
"741","del",205,1,"SRR3698281.4818",TRUE,FALSE,24,2.87081339712919,"NHEJ",NA,NA,NA
"742","del",205,1,"SRR3698281.5211",TRUE,FALSE,24,2.87081339712919,"NHEJ",NA,NA,NA
"743","del",205,1,"SRR3698281.5416",TRUE,FALSE,24,2.87081339712919,"NHEJ",NA,NA,NA
"744","del",205,1,"SRR3698281.5841",TRUE,FALSE,24,2.87081339712919,"NHEJ",NA,NA,NA
"745","del",205,1,"SRR3698281.5929",TRUE,FALSE,24,2.87081339712919,"NHEJ",NA,NA,NA
"746","del",205,1,"SRR3698281.6910",TRUE,FALSE,24,2.87081339712919,"NHEJ",NA,NA,NA
"747","del",205,1,"SRR3698281.8352",TRUE,FALSE,24,2.87081339712919,"NHEJ",NA,NA,NA
"748","del",205,1,"SRR3698281.8663",TRUE,FALSE,24,2.87081339712919,"NHEJ",NA,NA,NA
"749","del",205,1,"SRR3698281.898",TRUE,FALSE,24,2.87081339712919,"NHEJ",NA,NA,NA
"750","del",205,1,"SRR3698281.970",TRUE,FALSE,24,2.87081339712919,"NHEJ",NA,NA,NA
"751","del",205,1,"SRR3698281.9951",TRUE,FALSE,24,2.87081339712919,"NHEJ",NA,NA,NA
"752","del",205,2,"SRR3698281.9998",TRUE,FALSE,2,0.239234449760766,"NHEJ",NA,NA,NA
"753","del",205,2,"SRR3698281.9999",TRUE,FALSE,2,0.239234449760766,"NHEJ",NA,NA,NA
"754","del",206,1,"SRR3698281.1308",TRUE,FALSE,46,5.50239234449761,"T",NA,NA,NA
"755","del",206,1,"SRR3698281.1582",TRUE,FALSE,46,5.50239234449761,"T",NA,NA,NA
"756","del",206,1,"SRR3698281.165",TRUE,FALSE,46,5.50239234449761,"T",NA,NA,NA
"757","del",206,1,"SRR3698281.1661",TRUE,FALSE,46,5.50239234449761,"T",NA,NA,NA
"758","del",206,1,"SRR3698281.1680",TRUE,FALSE,46,5.50239234449761,"T",NA,NA,NA
"759","del",206,1,"SRR3698281.169",TRUE,FALSE,46,5.50239234449761,"T",NA,NA,NA
"760","del",206,1,"SRR3698281.2025",TRUE,FALSE,46,5.50239234449761,"T",NA,NA,NA
"761","del",206,1,"SRR3698281.2044",TRUE,FALSE,46,5.50239234449761,"T",NA,NA,NA
"762","del",206,1,"SRR3698281.2493",TRUE,FALSE,46,5.50239234449761,"T",NA,NA,NA
"763","del",206,1,"SRR3698281.2517",TRUE,FALSE,46,5.50239234449761,"T",NA,NA,NA
"764","del",206,1,"SRR3698281.2951",TRUE,FALSE,46,5.50239234449761,"T",NA,NA,NA
"765","del",206,1,"SRR3698281.3310",TRUE,FALSE,46,5.50239234449761,"T",NA,NA,NA
"766","del",206,1,"SRR3698281.3694",TRUE,FALSE,46,5.50239234449761,"T",NA,NA,NA
"767","del",206,1,"SRR3698281.4168",TRUE,FALSE,46,5.50239234449761,"T",NA,NA,NA
"768","del",206,1,"SRR3698281.421",TRUE,FALSE,46,5.50239234449761,"T",NA,NA,NA
"769","del",206,1,"SRR3698281.4238",TRUE,FALSE,46,5.50239234449761,"T",NA,NA,NA
"770","del",206,1,"SRR3698281.4486",TRUE,FALSE,46,5.50239234449761,"T",NA,NA,NA
"771","del",206,1,"SRR3698281.4490",TRUE,FALSE,46,5.50239234449761,"T",NA,NA,NA
"772","del",206,1,"SRR3698281.4778",TRUE,FALSE,46,5.50239234449761,"T",NA,NA,NA
"773","del",206,1,"SRR3698281.5033",TRUE,FALSE,46,5.50239234449761,"T",NA,NA,NA
"774","del",206,1,"SRR3698281.5179",TRUE,FALSE,46,5.50239234449761,"T",NA,NA,NA
"775","del",206,1,"SRR3698281.5204",TRUE,FALSE,46,5.50239234449761,"T",NA,NA,NA
"776","del",206,1,"SRR3698281.5748",TRUE,FALSE,46,5.50239234449761,"T",NA,NA,NA
"777","del",206,1,"SRR3698281.6020",TRUE,FALSE,46,5.50239234449761,"T",NA,NA,NA
"778","del",206,1,"SRR3698281.6052",TRUE,FALSE,46,5.50239234449761,"T",NA,NA,NA
"779","del",206,1,"SRR3698281.6602",TRUE,FALSE,46,5.50239234449761,"T",NA,NA,NA
"780","del",206,1,"SRR3698281.6814",TRUE,FALSE,46,5.50239234449761,"T",NA,NA,NA
"781","del",206,1,"SRR3698281.6973",TRUE,FALSE,46,5.50239234449761,"T",NA,NA,NA
"782","del",206,1,"SRR3698281.7018",TRUE,FALSE,46,5.50239234449761,"T",NA,NA,NA
"783","del",206,1,"SRR3698281.7239",TRUE,FALSE,46,5.50239234449761,"T",NA,NA,NA
"784","del",206,1,"SRR3698281.7303",TRUE,FALSE,46,5.50239234449761,"T",NA,NA,NA
"785","del",206,1,"SRR3698281.760",TRUE,FALSE,46,5.50239234449761,"T",NA,NA,NA
"786","del",206,1,"SRR3698281.7653",TRUE,FALSE,46,5.50239234449761,"T",NA,NA,NA
"787","del",206,1,"SRR3698281.7884",TRUE,FALSE,46,5.50239234449761,"T",NA,NA,NA
"788","del",206,1,"SRR3698281.8014",TRUE,FALSE,46,5.50239234449761,"T",NA,NA,NA
"789","del",206,1,"SRR3698281.8293",TRUE,FALSE,46,5.50239234449761,"T",NA,NA,NA
"790","del",206,1,"SRR3698281.8379",TRUE,FALSE,46,5.50239234449761,"T",NA,NA,NA
"791","del",206,1,"SRR3698281.8891",TRUE,FALSE,46,5.50239234449761,"T",NA,NA,NA
"792","del",206,1,"SRR3698281.8977",TRUE,FALSE,46,5.50239234449761,"T",NA,NA,NA
"793","del",206,1,"SRR3698281.9185",TRUE,FALSE,46,5.50239234449761,"T",NA,NA,NA
"794","del",206,1,"SRR3698281.95",TRUE,FALSE,46,5.50239234449761,"T",NA,NA,NA
"795","del",206,1,"SRR3698281.9639",TRUE,FALSE,46,5.50239234449761,"T",NA,NA,NA
"796","del",206,1,"SRR3698281.9809",TRUE,FALSE,46,5.50239234449761,"T",NA,NA,NA
"797","del",206,1,"SRR3698281.9902",TRUE,FALSE,46,5.50239234449761,"T",NA,NA,NA
"798","del",206,1,"SRR3698281.9907",TRUE,FALSE,46,5.50239234449761,"T",NA,NA,NA
"799","del",206,1,"SRR3698281.991",TRUE,FALSE,46,5.50239234449761,"T",NA,NA,NA
"800","ins",10,1,"SRR3698281.1381",FALSE,FALSE,3,0.358851674641148,NA,"GAG","A","AAG"
"801","ins",10,1,"SRR3698281.2948",FALSE,FALSE,3,0.358851674641148,NA,"GAG","A","AAG"
"802","ins",10,1,"SRR3698281.9403",FALSE,FALSE,3,0.358851674641148,NA,"GAG","A","AAG"
"803","ins",13,1,"SRR3698281.2314",TRUE,FALSE,4,0.478468899521531,NA,"AAG","A","AGA"
"804","ins",13,1,"SRR3698281.3420",TRUE,FALSE,4,0.478468899521531,NA,"AAG","A","AGA"
"805","ins",13,1,"SRR3698281.4480",TRUE,FALSE,4,0.478468899521531,NA,"AAG","A","AGA"
"806","ins",13,1,"SRR3698281.9742",TRUE,FALSE,4,0.478468899521531,NA,"AAG","A","AGA"
"807","ins",56,2,"SRR3698281.10017",TRUE,TRUE,3,0.358851674641148,NA,"GAG","GC","GGG"
"808","ins",56,2,"SRR3698281.10018",TRUE,TRUE,3,0.358851674641148,NA,"GAG","GC","GGG"
"809","ins",56,2,"SRR3698281.10019",TRUE,TRUE,3,0.358851674641148,NA,"GAG","GC","GGG"
"810","ins",68,2,"SRR3698281.1922",TRUE,TRUE,2,0.239234449760766,NA,"AGA","GC","GCG"
"811","ins",68,2,"SRR3698281.4708",TRUE,TRUE,2,0.239234449760766,NA,"AGA","GC","GCG"
"812","ins",198,1,"SRR3698281.2617",TRUE,FALSE,2,0.239234449760766,NA,"TGC","T","TTG"
"813","ins",198,1,"SRR3698281.9526",TRUE,FALSE,2,0.239234449760766,NA,"TGC","T","TTG"
"814","ins",199,2,"SRR3698281.59",FALSE,FALSE,1,0.119617224880383,NA,"GCT","TG","TGC"
"815","ins",203,1,"SRR3698281.5315",TRUE,FALSE,2,0.239234449760766,NA,"GCT","G","GAG"
"816","ins",203,1,"SRR3698281.5840",TRUE,FALSE,2,0.239234449760766,NA,"GCT","G","GAG"
"817","ins",205,1,"SRR3698281.6562",FALSE,FALSE,1,0.119617224880383,NA,"TGA","G","GTT"
"818","ins",206,1,"SRR3698281.4724",TRUE,FALSE,2,0.239234449760766,NA,"GAG","T","TTT"
"819","ins",206,1,"SRR3698281.996",TRUE,FALSE,2,0.239234449760766,NA,"GAG","T","TTT"
"820","ins",69,4,"SRR3698281.7305",FALSE,TRUE,1,0.119617224880383,NA,"GAG","CCCC","CTC"
"821","ins",71,1,"SRR3698281.7861",FALSE,TRUE,1,0.119617224880383,NA,"GCG","C","CCT"
"822","ins",73,1,"SRR3698281.2587",FALSE,TRUE,4,0.478468899521531,NA,"GCG","G","TCC"
"823","ins",73,1,"SRR3698281.6713",FALSE,TRUE,4,0.478468899521531,NA,"GCG","G","TCC"
"824","ins",73,1,"SRR3698281.7795",FALSE,TRUE,4,0.478468899521531,NA,"GCG","G","TCC"
"825","ins",73,1,"SRR3698281.8560",FALSE,TRUE,4,0.478468899521531,NA,"GCG","G","TCC"
"826","ins",73,1,"SRR3698281.100",TRUE,TRUE,8,0.956937799043062,NA,"GCG","C","TCC"
"827","ins",73,1,"SRR3698281.2015",TRUE,TRUE,8,0.956937799043062,NA,"GCG","T","TCC"
"828","ins",73,1,"SRR3698281.3957",TRUE,TRUE,8,0.956937799043062,NA,"GCG","T","TCC"
"829","ins",73,1,"SRR3698281.7246",TRUE,TRUE,8,0.956937799043062,NA,"GCG","T","TCC"
"830","ins",73,1,"SRR3698281.8215",TRUE,TRUE,8,0.956937799043062,NA,"GCG","A","TCC"
"831","ins",73,1,"SRR3698281.9240",TRUE,TRUE,8,0.956937799043062,NA,"GCG","A","TCC"
"832","ins",73,1,"SRR3698281.9894",TRUE,TRUE,8,0.956937799043062,NA,"GCG","C","TCC"
"833","ins",73,1,"SRR3698281.994",TRUE,TRUE,8,0.956937799043062,NA,"GCG","C","TCC"
"834","ins",73,2,"SRR3698281.9476",FALSE,TRUE,1,0.119617224880383,NA,"GCG","CC","CCC"
"835","ins",73,10,"SRR3698281.7713",FALSE,TRUE,1,0.119617224880383,NA,"GCG","CCAAGCCCCC","TCC"
"836","ins",73,12,"SRR3698281.374",FALSE,TRUE,1,0.119617224880383,NA,"GCG","CCCTTCCCGCTT","TCC"
