"","Modification","Start","Length","Ids","above_error_rate","in_pick","freq","Perc","patterns","pre_ins_nt","ins_nt","post_ins_nt"
"1","del",59,93,"SRR3698365.925",TRUE,FALSE,33,7.78301886792453,"ACCC",NA,NA,NA
"2","del",59,93,"SRR3698365.927",TRUE,FALSE,33,7.78301886792453,"ACCC",NA,NA,NA
"3","del",59,93,"SRR3698365.928",TRUE,FALSE,33,7.78301886792453,"ACCC",NA,NA,NA
"4","del",59,93,"SRR3698365.929",TRUE,FALSE,33,7.78301886792453,"ACCC",NA,NA,NA
"5","del",59,93,"SRR3698365.935",TRUE,FALSE,33,7.78301886792453,"ACCC",NA,NA,NA
"6","del",59,93,"SRR3698365.937",TRUE,FALSE,33,7.78301886792453,"ACCC",NA,NA,NA
"7","del",59,93,"SRR3698365.939",TRUE,FALSE,33,7.78301886792453,"ACCC",NA,NA,NA
"8","del",59,93,"SRR3698365.941",TRUE,FALSE,33,7.78301886792453,"ACCC",NA,NA,NA
"9","del",59,93,"SRR3698365.943",TRUE,FALSE,33,7.78301886792453,"ACCC",NA,NA,NA
"10","del",59,93,"SRR3698365.944",TRUE,FALSE,33,7.78301886792453,"ACCC",NA,NA,NA
"11","del",59,93,"SRR3698365.945",TRUE,FALSE,33,7.78301886792453,"ACCC",NA,NA,NA
"12","del",59,93,"SRR3698365.947",TRUE,FALSE,33,7.78301886792453,"ACCC",NA,NA,NA
"13","del",59,93,"SRR3698365.948",TRUE,FALSE,33,7.78301886792453,"ACCC",NA,NA,NA
"14","del",59,93,"SRR3698365.950",TRUE,FALSE,33,7.78301886792453,"ACCC",NA,NA,NA
"15","del",59,93,"SRR3698365.952",TRUE,FALSE,33,7.78301886792453,"ACCC",NA,NA,NA
"16","del",59,93,"SRR3698365.953",TRUE,FALSE,33,7.78301886792453,"ACCC",NA,NA,NA
"17","del",59,93,"SRR3698365.955",TRUE,FALSE,33,7.78301886792453,"ACCC",NA,NA,NA
"18","del",59,93,"SRR3698365.957",TRUE,FALSE,33,7.78301886792453,"ACCC",NA,NA,NA
"19","del",59,93,"SRR3698365.960",TRUE,FALSE,33,7.78301886792453,"ACCC",NA,NA,NA
"20","del",59,93,"SRR3698365.962",TRUE,FALSE,33,7.78301886792453,"ACCC",NA,NA,NA
"21","del",59,93,"SRR3698365.966",TRUE,FALSE,33,7.78301886792453,"ACCC",NA,NA,NA
"22","del",59,93,"SRR3698365.967",TRUE,FALSE,33,7.78301886792453,"ACCC",NA,NA,NA
"23","del",59,93,"SRR3698365.969",TRUE,FALSE,33,7.78301886792453,"ACCC",NA,NA,NA
"24","del",59,93,"SRR3698365.970",TRUE,FALSE,33,7.78301886792453,"ACCC",NA,NA,NA
"25","del",59,93,"SRR3698365.973",TRUE,FALSE,33,7.78301886792453,"ACCC",NA,NA,NA
"26","del",59,93,"SRR3698365.974",TRUE,FALSE,33,7.78301886792453,"ACCC",NA,NA,NA
"27","del",59,93,"SRR3698365.977",TRUE,FALSE,33,7.78301886792453,"ACCC",NA,NA,NA
"28","del",59,93,"SRR3698365.978",TRUE,FALSE,33,7.78301886792453,"ACCC",NA,NA,NA
"29","del",59,93,"SRR3698365.979",TRUE,FALSE,33,7.78301886792453,"ACCC",NA,NA,NA
"30","del",59,93,"SRR3698365.981",TRUE,FALSE,33,7.78301886792453,"ACCC",NA,NA,NA
"31","del",59,93,"SRR3698365.984",TRUE,FALSE,33,7.78301886792453,"ACCC",NA,NA,NA
"32","del",59,93,"SRR3698365.985",TRUE,FALSE,33,7.78301886792453,"ACCC",NA,NA,NA
"33","del",59,93,"SRR3698365.986",TRUE,FALSE,33,7.78301886792453,"ACCC",NA,NA,NA
"34","del",60,87,"SRR3698365.876",TRUE,FALSE,1,0.235849056603774,"CC",NA,NA,NA
"35","del",61,85,"SRR3698365.548",TRUE,TRUE,34,8.0188679245283,"CC",NA,NA,NA
"36","del",61,85,"SRR3698365.551",TRUE,TRUE,34,8.0188679245283,"CC",NA,NA,NA
"37","del",61,85,"SRR3698365.558",TRUE,TRUE,34,8.0188679245283,"CC",NA,NA,NA
"38","del",61,85,"SRR3698365.561",TRUE,TRUE,34,8.0188679245283,"CC",NA,NA,NA
"39","del",61,85,"SRR3698365.573",TRUE,TRUE,34,8.0188679245283,"CC",NA,NA,NA
"40","del",61,85,"SRR3698365.575",TRUE,TRUE,34,8.0188679245283,"CC",NA,NA,NA
"41","del",61,85,"SRR3698365.584",TRUE,TRUE,34,8.0188679245283,"CC",NA,NA,NA
"42","del",61,85,"SRR3698365.587",TRUE,TRUE,34,8.0188679245283,"CC",NA,NA,NA
"43","del",61,85,"SRR3698365.589",TRUE,TRUE,34,8.0188679245283,"CC",NA,NA,NA
"44","del",61,85,"SRR3698365.593",TRUE,TRUE,34,8.0188679245283,"CC",NA,NA,NA
"45","del",61,85,"SRR3698365.601",TRUE,TRUE,34,8.0188679245283,"CC",NA,NA,NA
"46","del",61,85,"SRR3698365.603",TRUE,TRUE,34,8.0188679245283,"CC",NA,NA,NA
"47","del",61,85,"SRR3698365.610",TRUE,TRUE,34,8.0188679245283,"CC",NA,NA,NA
"48","del",61,85,"SRR3698365.625",TRUE,TRUE,34,8.0188679245283,"CC",NA,NA,NA
"49","del",61,85,"SRR3698365.637",TRUE,TRUE,34,8.0188679245283,"CC",NA,NA,NA
"50","del",61,85,"SRR3698365.639",TRUE,TRUE,34,8.0188679245283,"CC",NA,NA,NA
"51","del",61,85,"SRR3698365.642",TRUE,TRUE,34,8.0188679245283,"CC",NA,NA,NA
"52","del",61,85,"SRR3698365.643",TRUE,TRUE,34,8.0188679245283,"CC",NA,NA,NA
"53","del",61,85,"SRR3698365.651",TRUE,TRUE,34,8.0188679245283,"CC",NA,NA,NA
"54","del",61,85,"SRR3698365.673",TRUE,TRUE,34,8.0188679245283,"CC",NA,NA,NA
"55","del",61,85,"SRR3698365.684",TRUE,TRUE,34,8.0188679245283,"CC",NA,NA,NA
"56","del",61,85,"SRR3698365.695",TRUE,TRUE,34,8.0188679245283,"CC",NA,NA,NA
"57","del",61,85,"SRR3698365.725",TRUE,TRUE,34,8.0188679245283,"CC",NA,NA,NA
"58","del",61,85,"SRR3698365.726",TRUE,TRUE,34,8.0188679245283,"CC",NA,NA,NA
"59","del",61,85,"SRR3698365.731",TRUE,TRUE,34,8.0188679245283,"CC",NA,NA,NA
"60","del",61,85,"SRR3698365.745",TRUE,TRUE,34,8.0188679245283,"CC",NA,NA,NA
"61","del",61,85,"SRR3698365.747",TRUE,TRUE,34,8.0188679245283,"CC",NA,NA,NA
"62","del",61,85,"SRR3698365.760",TRUE,TRUE,34,8.0188679245283,"CC",NA,NA,NA
"63","del",61,85,"SRR3698365.777",TRUE,TRUE,34,8.0188679245283,"CC",NA,NA,NA
"64","del",61,85,"SRR3698365.780",TRUE,TRUE,34,8.0188679245283,"CC",NA,NA,NA
"65","del",61,85,"SRR3698365.786",TRUE,TRUE,34,8.0188679245283,"CC",NA,NA,NA
"66","del",61,85,"SRR3698365.789",TRUE,TRUE,34,8.0188679245283,"CC",NA,NA,NA
"67","del",61,85,"SRR3698365.793",TRUE,TRUE,34,8.0188679245283,"CC",NA,NA,NA
"68","del",61,85,"SRR3698365.809",TRUE,TRUE,34,8.0188679245283,"CC",NA,NA,NA
"69","del",63,87,"SRR3698365.893",TRUE,TRUE,16,3.77358490566038,"NHEJ",NA,NA,NA
"70","del",63,87,"SRR3698365.894",TRUE,TRUE,16,3.77358490566038,"NHEJ",NA,NA,NA
"71","del",63,87,"SRR3698365.896",TRUE,TRUE,16,3.77358490566038,"NHEJ",NA,NA,NA
"72","del",63,87,"SRR3698365.897",TRUE,TRUE,16,3.77358490566038,"NHEJ",NA,NA,NA
"73","del",63,87,"SRR3698365.901",TRUE,TRUE,16,3.77358490566038,"NHEJ",NA,NA,NA
"74","del",63,87,"SRR3698365.902",TRUE,TRUE,16,3.77358490566038,"NHEJ",NA,NA,NA
"75","del",63,87,"SRR3698365.903",TRUE,TRUE,16,3.77358490566038,"NHEJ",NA,NA,NA
"76","del",63,87,"SRR3698365.909",TRUE,TRUE,16,3.77358490566038,"NHEJ",NA,NA,NA
"77","del",63,87,"SRR3698365.910",TRUE,TRUE,16,3.77358490566038,"NHEJ",NA,NA,NA
"78","del",63,87,"SRR3698365.913",TRUE,TRUE,16,3.77358490566038,"NHEJ",NA,NA,NA
"79","del",63,87,"SRR3698365.915",TRUE,TRUE,16,3.77358490566038,"NHEJ",NA,NA,NA
"80","del",63,87,"SRR3698365.917",TRUE,TRUE,16,3.77358490566038,"NHEJ",NA,NA,NA
"81","del",63,87,"SRR3698365.918",TRUE,TRUE,16,3.77358490566038,"NHEJ",NA,NA,NA
"82","del",63,87,"SRR3698365.919",TRUE,TRUE,16,3.77358490566038,"NHEJ",NA,NA,NA
"83","del",63,87,"SRR3698365.920",TRUE,TRUE,16,3.77358490566038,"NHEJ",NA,NA,NA
"84","del",63,87,"SRR3698365.923",TRUE,TRUE,16,3.77358490566038,"NHEJ",NA,NA,NA
"85","del",63,89,"SRR3698365.931",TRUE,TRUE,11,2.59433962264151,"A",NA,NA,NA
"86","del",63,89,"SRR3698365.934",TRUE,TRUE,11,2.59433962264151,"A",NA,NA,NA
"87","del",63,89,"SRR3698365.936",TRUE,TRUE,11,2.59433962264151,"A",NA,NA,NA
"88","del",63,89,"SRR3698365.938",TRUE,TRUE,11,2.59433962264151,"A",NA,NA,NA
"89","del",63,89,"SRR3698365.942",TRUE,TRUE,11,2.59433962264151,"A",NA,NA,NA
"90","del",63,89,"SRR3698365.951",TRUE,TRUE,11,2.59433962264151,"A",NA,NA,NA
"91","del",63,89,"SRR3698365.954",TRUE,TRUE,11,2.59433962264151,"A",NA,NA,NA
"92","del",63,89,"SRR3698365.959",TRUE,TRUE,11,2.59433962264151,"A",NA,NA,NA
"93","del",63,89,"SRR3698365.971",TRUE,TRUE,11,2.59433962264151,"A",NA,NA,NA
"94","del",63,89,"SRR3698365.980",TRUE,TRUE,11,2.59433962264151,"A",NA,NA,NA
"95","del",63,89,"SRR3698365.982",TRUE,TRUE,11,2.59433962264151,"A",NA,NA,NA
"96","del",65,82,"SRR3698365.831",TRUE,TRUE,14,3.30188679245283,"C",NA,NA,NA
"97","del",65,82,"SRR3698365.838",TRUE,TRUE,14,3.30188679245283,"C",NA,NA,NA
"98","del",65,82,"SRR3698365.841",TRUE,TRUE,14,3.30188679245283,"C",NA,NA,NA
"99","del",65,82,"SRR3698365.843",TRUE,TRUE,14,3.30188679245283,"C",NA,NA,NA
"100","del",65,82,"SRR3698365.845",TRUE,TRUE,14,3.30188679245283,"C",NA,NA,NA
"101","del",65,82,"SRR3698365.848",TRUE,TRUE,14,3.30188679245283,"C",NA,NA,NA
"102","del",65,82,"SRR3698365.855",TRUE,TRUE,14,3.30188679245283,"C",NA,NA,NA
"103","del",65,82,"SRR3698365.856",TRUE,TRUE,14,3.30188679245283,"C",NA,NA,NA
"104","del",65,82,"SRR3698365.859",TRUE,TRUE,14,3.30188679245283,"C",NA,NA,NA
"105","del",65,82,"SRR3698365.862",TRUE,TRUE,14,3.30188679245283,"C",NA,NA,NA
"106","del",65,82,"SRR3698365.863",TRUE,TRUE,14,3.30188679245283,"C",NA,NA,NA
"107","del",65,82,"SRR3698365.869",TRUE,TRUE,14,3.30188679245283,"C",NA,NA,NA
"108","del",65,82,"SRR3698365.872",TRUE,TRUE,14,3.30188679245283,"C",NA,NA,NA
"109","del",65,82,"SRR3698365.873",TRUE,TRUE,14,3.30188679245283,"C",NA,NA,NA
"110","del",68,80,"SRR3698365.881",TRUE,TRUE,4,0.943396226415094,"C",NA,NA,NA
"111","del",68,80,"SRR3698365.885",TRUE,TRUE,4,0.943396226415094,"C",NA,NA,NA
"112","del",68,80,"SRR3698365.888",TRUE,TRUE,4,0.943396226415094,"C",NA,NA,NA
"113","del",68,80,"SRR3698365.889",TRUE,TRUE,4,0.943396226415094,"C",NA,NA,NA
"114","del",69,77,"SRR3698365.532",TRUE,TRUE,34,8.0188679245283,"CCC",NA,NA,NA
"115","del",69,77,"SRR3698365.533",TRUE,TRUE,34,8.0188679245283,"CCC",NA,NA,NA
"116","del",69,77,"SRR3698365.544",TRUE,TRUE,34,8.0188679245283,"CCC",NA,NA,NA
"117","del",69,77,"SRR3698365.549",TRUE,TRUE,34,8.0188679245283,"CCC",NA,NA,NA
"118","del",69,77,"SRR3698365.566",TRUE,TRUE,34,8.0188679245283,"CCC",NA,NA,NA
"119","del",69,77,"SRR3698365.568",TRUE,TRUE,34,8.0188679245283,"CCC",NA,NA,NA
"120","del",69,77,"SRR3698365.571",TRUE,TRUE,34,8.0188679245283,"CCC",NA,NA,NA
"121","del",69,77,"SRR3698365.592",TRUE,TRUE,34,8.0188679245283,"CCC",NA,NA,NA
"122","del",69,77,"SRR3698365.599",TRUE,TRUE,34,8.0188679245283,"CCC",NA,NA,NA
"123","del",69,77,"SRR3698365.628",TRUE,TRUE,34,8.0188679245283,"CCC",NA,NA,NA
"124","del",69,77,"SRR3698365.631",TRUE,TRUE,34,8.0188679245283,"CCC",NA,NA,NA
"125","del",69,77,"SRR3698365.645",TRUE,TRUE,34,8.0188679245283,"CCC",NA,NA,NA
"126","del",69,77,"SRR3698365.646",TRUE,TRUE,34,8.0188679245283,"CCC",NA,NA,NA
"127","del",69,77,"SRR3698365.652",TRUE,TRUE,34,8.0188679245283,"CCC",NA,NA,NA
"128","del",69,77,"SRR3698365.657",TRUE,TRUE,34,8.0188679245283,"CCC",NA,NA,NA
"129","del",69,77,"SRR3698365.666",TRUE,TRUE,34,8.0188679245283,"CCC",NA,NA,NA
"130","del",69,77,"SRR3698365.668",TRUE,TRUE,34,8.0188679245283,"CCC",NA,NA,NA
"131","del",69,77,"SRR3698365.683",TRUE,TRUE,34,8.0188679245283,"CCC",NA,NA,NA
"132","del",69,77,"SRR3698365.708",TRUE,TRUE,34,8.0188679245283,"CCC",NA,NA,NA
"133","del",69,77,"SRR3698365.715",TRUE,TRUE,34,8.0188679245283,"CCC",NA,NA,NA
"134","del",69,77,"SRR3698365.738",TRUE,TRUE,34,8.0188679245283,"CCC",NA,NA,NA
"135","del",69,77,"SRR3698365.746",TRUE,TRUE,34,8.0188679245283,"CCC",NA,NA,NA
"136","del",69,77,"SRR3698365.783",TRUE,TRUE,34,8.0188679245283,"CCC",NA,NA,NA
"137","del",69,77,"SRR3698365.787",TRUE,TRUE,34,8.0188679245283,"CCC",NA,NA,NA
"138","del",69,77,"SRR3698365.794",TRUE,TRUE,34,8.0188679245283,"CCC",NA,NA,NA
"139","del",69,77,"SRR3698365.797",TRUE,TRUE,34,8.0188679245283,"CCC",NA,NA,NA
"140","del",69,77,"SRR3698365.800",TRUE,TRUE,34,8.0188679245283,"CCC",NA,NA,NA
"141","del",69,77,"SRR3698365.802",TRUE,TRUE,34,8.0188679245283,"CCC",NA,NA,NA
"142","del",69,77,"SRR3698365.807",TRUE,TRUE,34,8.0188679245283,"CCC",NA,NA,NA
"143","del",69,77,"SRR3698365.812",TRUE,TRUE,34,8.0188679245283,"CCC",NA,NA,NA
"144","del",69,77,"SRR3698365.820",TRUE,TRUE,34,8.0188679245283,"CCC",NA,NA,NA
"145","del",69,77,"SRR3698365.822",TRUE,TRUE,34,8.0188679245283,"CCC",NA,NA,NA
"146","del",69,77,"SRR3698365.823",TRUE,TRUE,34,8.0188679245283,"CCC",NA,NA,NA
"147","del",69,77,"SRR3698365.826",TRUE,TRUE,34,8.0188679245283,"CCC",NA,NA,NA
"148","del",74,70,"SRR3698365.100",TRUE,TRUE,14,3.30188679245283,"GACCC",NA,NA,NA
"149","del",74,70,"SRR3698365.121",TRUE,TRUE,14,3.30188679245283,"GACCC",NA,NA,NA
"150","del",74,70,"SRR3698365.125",TRUE,TRUE,14,3.30188679245283,"GACCC",NA,NA,NA
"151","del",74,70,"SRR3698365.155",TRUE,TRUE,14,3.30188679245283,"GACCC",NA,NA,NA
"152","del",74,70,"SRR3698365.169",TRUE,TRUE,14,3.30188679245283,"GACCC",NA,NA,NA
"153","del",74,70,"SRR3698365.176",TRUE,TRUE,14,3.30188679245283,"GACCC",NA,NA,NA
"154","del",74,70,"SRR3698365.196",TRUE,TRUE,14,3.30188679245283,"GACCC",NA,NA,NA
"155","del",74,70,"SRR3698365.373",TRUE,TRUE,14,3.30188679245283,"GACCC",NA,NA,NA
"156","del",74,70,"SRR3698365.378",TRUE,TRUE,14,3.30188679245283,"GACCC",NA,NA,NA
"157","del",74,70,"SRR3698365.382",TRUE,TRUE,14,3.30188679245283,"GACCC",NA,NA,NA
"158","del",74,70,"SRR3698365.394",TRUE,TRUE,14,3.30188679245283,"GACCC",NA,NA,NA
"159","del",74,70,"SRR3698365.407",TRUE,TRUE,14,3.30188679245283,"GACCC",NA,NA,NA
"160","del",74,70,"SRR3698365.431",TRUE,TRUE,14,3.30188679245283,"GACCC",NA,NA,NA
"161","del",74,70,"SRR3698365.49",TRUE,TRUE,14,3.30188679245283,"GACCC",NA,NA,NA
"162","del",75,71,"SRR3698365.546",TRUE,TRUE,16,3.77358490566038,"NHEJ",NA,NA,NA
"163","del",75,71,"SRR3698365.563",TRUE,TRUE,16,3.77358490566038,"NHEJ",NA,NA,NA
"164","del",75,71,"SRR3698365.576",TRUE,TRUE,16,3.77358490566038,"NHEJ",NA,NA,NA
"165","del",75,71,"SRR3698365.578",TRUE,TRUE,16,3.77358490566038,"NHEJ",NA,NA,NA
"166","del",75,71,"SRR3698365.581",TRUE,TRUE,16,3.77358490566038,"NHEJ",NA,NA,NA
"167","del",75,71,"SRR3698365.606",TRUE,TRUE,16,3.77358490566038,"NHEJ",NA,NA,NA
"168","del",75,71,"SRR3698365.629",TRUE,TRUE,16,3.77358490566038,"NHEJ",NA,NA,NA
"169","del",75,71,"SRR3698365.644",TRUE,TRUE,16,3.77358490566038,"NHEJ",NA,NA,NA
"170","del",75,71,"SRR3698365.659",TRUE,TRUE,16,3.77358490566038,"NHEJ",NA,NA,NA
"171","del",75,71,"SRR3698365.663",TRUE,TRUE,16,3.77358490566038,"NHEJ",NA,NA,NA
"172","del",75,71,"SRR3698365.696",TRUE,TRUE,16,3.77358490566038,"NHEJ",NA,NA,NA
"173","del",75,71,"SRR3698365.716",TRUE,TRUE,16,3.77358490566038,"NHEJ",NA,NA,NA
"174","del",75,71,"SRR3698365.724",TRUE,TRUE,16,3.77358490566038,"NHEJ",NA,NA,NA
"175","del",75,71,"SRR3698365.749",TRUE,TRUE,16,3.77358490566038,"NHEJ",NA,NA,NA
"176","del",75,71,"SRR3698365.754",TRUE,TRUE,16,3.77358490566038,"NHEJ",NA,NA,NA
"177","del",75,71,"SRR3698365.791",TRUE,TRUE,16,3.77358490566038,"NHEJ",NA,NA,NA
"178","del",76,71,"SRR3698365.828",TRUE,TRUE,16,3.77358490566038,"CC",NA,NA,NA
"179","del",76,71,"SRR3698365.829",TRUE,TRUE,16,3.77358490566038,"CC",NA,NA,NA
"180","del",76,71,"SRR3698365.834",TRUE,TRUE,16,3.77358490566038,"CC",NA,NA,NA
"181","del",76,71,"SRR3698365.837",TRUE,TRUE,16,3.77358490566038,"CC",NA,NA,NA
"182","del",76,71,"SRR3698365.839",TRUE,TRUE,16,3.77358490566038,"CC",NA,NA,NA
"183","del",76,71,"SRR3698365.844",TRUE,TRUE,16,3.77358490566038,"CC",NA,NA,NA
"184","del",76,71,"SRR3698365.849",TRUE,TRUE,16,3.77358490566038,"CC",NA,NA,NA
"185","del",76,71,"SRR3698365.851",TRUE,TRUE,16,3.77358490566038,"CC",NA,NA,NA
"186","del",76,71,"SRR3698365.857",TRUE,TRUE,16,3.77358490566038,"CC",NA,NA,NA
"187","del",76,71,"SRR3698365.858",TRUE,TRUE,16,3.77358490566038,"CC",NA,NA,NA
"188","del",76,71,"SRR3698365.868",TRUE,TRUE,16,3.77358490566038,"CC",NA,NA,NA
"189","del",76,71,"SRR3698365.871",TRUE,TRUE,16,3.77358490566038,"CC",NA,NA,NA
"190","del",76,71,"SRR3698365.874",TRUE,TRUE,16,3.77358490566038,"CC",NA,NA,NA
"191","del",76,71,"SRR3698365.875",TRUE,TRUE,16,3.77358490566038,"CC",NA,NA,NA
"192","del",76,71,"SRR3698365.878",TRUE,TRUE,16,3.77358490566038,"CC",NA,NA,NA
"193","del",76,71,"SRR3698365.880",TRUE,TRUE,16,3.77358490566038,"CC",NA,NA,NA
"194","del",81,64,"SRR3698365.118",TRUE,TRUE,6,1.41509433962264,"ACCC",NA,NA,NA
"195","del",81,64,"SRR3698365.179",TRUE,TRUE,6,1.41509433962264,"ACCC",NA,NA,NA
"196","del",81,64,"SRR3698365.205",TRUE,TRUE,6,1.41509433962264,"ACCC",NA,NA,NA
"197","del",81,64,"SRR3698365.280",TRUE,TRUE,6,1.41509433962264,"ACCC",NA,NA,NA
"198","del",81,64,"SRR3698365.412",TRUE,TRUE,6,1.41509433962264,"ACCC",NA,NA,NA
"199","del",81,64,"SRR3698365.62",TRUE,TRUE,6,1.41509433962264,"ACCC",NA,NA,NA
"200","del",81,65,"SRR3698365.120",TRUE,TRUE,14,3.30188679245283,"NHEJ",NA,NA,NA
"201","del",81,65,"SRR3698365.162",TRUE,TRUE,14,3.30188679245283,"NHEJ",NA,NA,NA
"202","del",81,65,"SRR3698365.188",TRUE,TRUE,14,3.30188679245283,"NHEJ",NA,NA,NA
"203","del",81,65,"SRR3698365.241",TRUE,TRUE,14,3.30188679245283,"NHEJ",NA,NA,NA
"204","del",81,65,"SRR3698365.242",TRUE,TRUE,14,3.30188679245283,"NHEJ",NA,NA,NA
"205","del",81,65,"SRR3698365.283",TRUE,TRUE,14,3.30188679245283,"NHEJ",NA,NA,NA
"206","del",81,65,"SRR3698365.292",TRUE,TRUE,14,3.30188679245283,"NHEJ",NA,NA,NA
"207","del",81,65,"SRR3698365.329",TRUE,TRUE,14,3.30188679245283,"NHEJ",NA,NA,NA
"208","del",81,65,"SRR3698365.362",TRUE,TRUE,14,3.30188679245283,"NHEJ",NA,NA,NA
"209","del",81,65,"SRR3698365.372",TRUE,TRUE,14,3.30188679245283,"NHEJ",NA,NA,NA
"210","del",81,65,"SRR3698365.415",TRUE,TRUE,14,3.30188679245283,"NHEJ",NA,NA,NA
"211","del",81,65,"SRR3698365.427",TRUE,TRUE,14,3.30188679245283,"NHEJ",NA,NA,NA
"212","del",81,65,"SRR3698365.48",TRUE,TRUE,14,3.30188679245283,"NHEJ",NA,NA,NA
"213","del",81,65,"SRR3698365.9",TRUE,TRUE,14,3.30188679245283,"NHEJ",NA,NA,NA
"214","del",85,65,"SRR3698365.322",TRUE,TRUE,3,0.707547169811321,"G",NA,NA,NA
"215","del",85,65,"SRR3698365.435",TRUE,TRUE,3,0.707547169811321,"G",NA,NA,NA
"216","del",85,65,"SRR3698365.459",TRUE,TRUE,3,0.707547169811321,"G",NA,NA,NA
"217","del",86,60,"SRR3698365.198",TRUE,TRUE,9,2.12264150943396,"C",NA,NA,NA
"218","del",86,60,"SRR3698365.200",TRUE,TRUE,9,2.12264150943396,"C",NA,NA,NA
"219","del",86,60,"SRR3698365.218",TRUE,TRUE,9,2.12264150943396,"C",NA,NA,NA
"220","del",86,60,"SRR3698365.269",TRUE,TRUE,9,2.12264150943396,"C",NA,NA,NA
"221","del",86,60,"SRR3698365.316",TRUE,TRUE,9,2.12264150943396,"C",NA,NA,NA
"222","del",86,60,"SRR3698365.33",TRUE,TRUE,9,2.12264150943396,"C",NA,NA,NA
"223","del",86,60,"SRR3698365.346",TRUE,TRUE,9,2.12264150943396,"C",NA,NA,NA
"224","del",86,60,"SRR3698365.361",TRUE,TRUE,9,2.12264150943396,"C",NA,NA,NA
"225","del",86,60,"SRR3698365.51",TRUE,TRUE,9,2.12264150943396,"C",NA,NA,NA
"226","del",88,58,"SRR3698365.135",TRUE,TRUE,31,7.31132075471698,"CCC",NA,NA,NA
"227","del",88,58,"SRR3698365.143",TRUE,TRUE,31,7.31132075471698,"CCC",NA,NA,NA
"228","del",88,58,"SRR3698365.167",TRUE,TRUE,31,7.31132075471698,"CCC",NA,NA,NA
"229","del",88,58,"SRR3698365.18",TRUE,TRUE,31,7.31132075471698,"CCC",NA,NA,NA
"230","del",88,58,"SRR3698365.182",TRUE,TRUE,31,7.31132075471698,"CCC",NA,NA,NA
"231","del",88,58,"SRR3698365.190",TRUE,TRUE,31,7.31132075471698,"CCC",NA,NA,NA
"232","del",88,58,"SRR3698365.212",TRUE,TRUE,31,7.31132075471698,"CCC",NA,NA,NA
"233","del",88,58,"SRR3698365.214",TRUE,TRUE,31,7.31132075471698,"CCC",NA,NA,NA
"234","del",88,58,"SRR3698365.220",TRUE,TRUE,31,7.31132075471698,"CCC",NA,NA,NA
"235","del",88,58,"SRR3698365.222",TRUE,TRUE,31,7.31132075471698,"CCC",NA,NA,NA
"236","del",88,58,"SRR3698365.236",TRUE,TRUE,31,7.31132075471698,"CCC",NA,NA,NA
"237","del",88,58,"SRR3698365.288",TRUE,TRUE,31,7.31132075471698,"CCC",NA,NA,NA
"238","del",88,58,"SRR3698365.291",TRUE,TRUE,31,7.31132075471698,"CCC",NA,NA,NA
"239","del",88,58,"SRR3698365.294",TRUE,TRUE,31,7.31132075471698,"CCC",NA,NA,NA
"240","del",88,58,"SRR3698365.303",TRUE,TRUE,31,7.31132075471698,"CCC",NA,NA,NA
"241","del",88,58,"SRR3698365.318",TRUE,TRUE,31,7.31132075471698,"CCC",NA,NA,NA
"242","del",88,58,"SRR3698365.319",TRUE,TRUE,31,7.31132075471698,"CCC",NA,NA,NA
"243","del",88,58,"SRR3698365.323",TRUE,TRUE,31,7.31132075471698,"CCC",NA,NA,NA
"244","del",88,58,"SRR3698365.340",TRUE,TRUE,31,7.31132075471698,"CCC",NA,NA,NA
"245","del",88,58,"SRR3698365.343",TRUE,TRUE,31,7.31132075471698,"CCC",NA,NA,NA
"246","del",88,58,"SRR3698365.359",TRUE,TRUE,31,7.31132075471698,"CCC",NA,NA,NA
"247","del",88,58,"SRR3698365.385",TRUE,TRUE,31,7.31132075471698,"CCC",NA,NA,NA
"248","del",88,58,"SRR3698365.387",TRUE,TRUE,31,7.31132075471698,"CCC",NA,NA,NA
"249","del",88,58,"SRR3698365.388",TRUE,TRUE,31,7.31132075471698,"CCC",NA,NA,NA
"250","del",88,58,"SRR3698365.389",TRUE,TRUE,31,7.31132075471698,"CCC",NA,NA,NA
"251","del",88,58,"SRR3698365.39",TRUE,TRUE,31,7.31132075471698,"CCC",NA,NA,NA
"252","del",88,58,"SRR3698365.404",TRUE,TRUE,31,7.31132075471698,"CCC",NA,NA,NA
"253","del",88,58,"SRR3698365.436",TRUE,TRUE,31,7.31132075471698,"CCC",NA,NA,NA
"254","del",88,58,"SRR3698365.52",TRUE,TRUE,31,7.31132075471698,"CCC",NA,NA,NA
"255","del",88,58,"SRR3698365.57",TRUE,TRUE,31,7.31132075471698,"CCC",NA,NA,NA
"256","del",88,58,"SRR3698365.94",TRUE,TRUE,31,7.31132075471698,"CCC",NA,NA,NA
"257","del",89,56,"SRR3698365.108",TRUE,TRUE,9,2.12264150943396,"NHEJ",NA,NA,NA
"258","del",89,56,"SRR3698365.127",TRUE,TRUE,9,2.12264150943396,"NHEJ",NA,NA,NA
"259","del",89,56,"SRR3698365.170",TRUE,TRUE,9,2.12264150943396,"NHEJ",NA,NA,NA
"260","del",89,56,"SRR3698365.199",TRUE,TRUE,9,2.12264150943396,"NHEJ",NA,NA,NA
"261","del",89,56,"SRR3698365.224",TRUE,TRUE,9,2.12264150943396,"NHEJ",NA,NA,NA
"262","del",89,56,"SRR3698365.249",TRUE,TRUE,9,2.12264150943396,"NHEJ",NA,NA,NA
"263","del",89,56,"SRR3698365.299",TRUE,TRUE,9,2.12264150943396,"NHEJ",NA,NA,NA
"264","del",89,56,"SRR3698365.366",TRUE,TRUE,9,2.12264150943396,"NHEJ",NA,NA,NA
"265","del",89,56,"SRR3698365.92",TRUE,TRUE,9,2.12264150943396,"NHEJ",NA,NA,NA
"266","del",89,57,"SRR3698365.138",TRUE,TRUE,12,2.83018867924528,"CC",NA,NA,NA
"267","del",89,57,"SRR3698365.153",TRUE,TRUE,12,2.83018867924528,"CC",NA,NA,NA
"268","del",89,57,"SRR3698365.20",TRUE,TRUE,12,2.83018867924528,"CC",NA,NA,NA
"269","del",89,57,"SRR3698365.305",TRUE,TRUE,12,2.83018867924528,"CC",NA,NA,NA
"270","del",89,57,"SRR3698365.330",TRUE,TRUE,12,2.83018867924528,"CC",NA,NA,NA
"271","del",89,57,"SRR3698365.386",TRUE,TRUE,12,2.83018867924528,"CC",NA,NA,NA
"272","del",89,57,"SRR3698365.406",TRUE,TRUE,12,2.83018867924528,"CC",NA,NA,NA
"273","del",89,57,"SRR3698365.43",TRUE,TRUE,12,2.83018867924528,"CC",NA,NA,NA
"274","del",89,57,"SRR3698365.443",TRUE,TRUE,12,2.83018867924528,"CC",NA,NA,NA
"275","del",89,57,"SRR3698365.444",TRUE,TRUE,12,2.83018867924528,"CC",NA,NA,NA
"276","del",89,57,"SRR3698365.64",TRUE,TRUE,12,2.83018867924528,"CC",NA,NA,NA
"277","del",89,57,"SRR3698365.74",TRUE,TRUE,12,2.83018867924528,"CC",NA,NA,NA
"278","del",94,14,"SRR3698365.466",TRUE,TRUE,3,0.707547169811321,"GCCCC",NA,NA,NA
"279","del",94,14,"SRR3698365.467",TRUE,TRUE,3,0.707547169811321,"GCCCC",NA,NA,NA
"280","del",94,14,"SRR3698365.468",TRUE,TRUE,3,0.707547169811321,"GCCCC",NA,NA,NA
"281","del",95,51,"SRR3698365.137",TRUE,TRUE,16,3.77358490566038,"CCC",NA,NA,NA
"282","del",95,51,"SRR3698365.151",TRUE,TRUE,16,3.77358490566038,"CCC",NA,NA,NA
"283","del",95,51,"SRR3698365.173",TRUE,TRUE,16,3.77358490566038,"CCC",NA,NA,NA
"284","del",95,51,"SRR3698365.228",TRUE,TRUE,16,3.77358490566038,"CCC",NA,NA,NA
"285","del",95,51,"SRR3698365.28",TRUE,TRUE,16,3.77358490566038,"CCC",NA,NA,NA
"286","del",95,51,"SRR3698365.282",TRUE,TRUE,16,3.77358490566038,"CCC",NA,NA,NA
"287","del",95,51,"SRR3698365.285",TRUE,TRUE,16,3.77358490566038,"CCC",NA,NA,NA
"288","del",95,51,"SRR3698365.312",TRUE,TRUE,16,3.77358490566038,"CCC",NA,NA,NA
"289","del",95,51,"SRR3698365.317",TRUE,TRUE,16,3.77358490566038,"CCC",NA,NA,NA
"290","del",95,51,"SRR3698365.345",TRUE,TRUE,16,3.77358490566038,"CCC",NA,NA,NA
"291","del",95,51,"SRR3698365.353",TRUE,TRUE,16,3.77358490566038,"CCC",NA,NA,NA
"292","del",95,51,"SRR3698365.367",TRUE,TRUE,16,3.77358490566038,"CCC",NA,NA,NA
"293","del",95,51,"SRR3698365.392",TRUE,TRUE,16,3.77358490566038,"CCC",NA,NA,NA
"294","del",95,51,"SRR3698365.418",TRUE,TRUE,16,3.77358490566038,"CCC",NA,NA,NA
"295","del",95,51,"SRR3698365.429",TRUE,TRUE,16,3.77358490566038,"CCC",NA,NA,NA
"296","del",95,51,"SRR3698365.448",TRUE,TRUE,16,3.77358490566038,"CCC",NA,NA,NA
"297","del",95,52,"SRR3698365.105",TRUE,TRUE,28,6.60377358490566,"CC",NA,NA,NA
"298","del",95,52,"SRR3698365.134",TRUE,TRUE,28,6.60377358490566,"CC",NA,NA,NA
"299","del",95,52,"SRR3698365.139",TRUE,TRUE,28,6.60377358490566,"CC",NA,NA,NA
"300","del",95,52,"SRR3698365.14",TRUE,TRUE,28,6.60377358490566,"CC",NA,NA,NA
"301","del",95,52,"SRR3698365.178",TRUE,TRUE,28,6.60377358490566,"CC",NA,NA,NA
"302","del",95,52,"SRR3698365.185",TRUE,TRUE,28,6.60377358490566,"CC",NA,NA,NA
"303","del",95,52,"SRR3698365.189",TRUE,TRUE,28,6.60377358490566,"CC",NA,NA,NA
"304","del",95,52,"SRR3698365.209",TRUE,TRUE,28,6.60377358490566,"CC",NA,NA,NA
"305","del",95,52,"SRR3698365.239",TRUE,TRUE,28,6.60377358490566,"CC",NA,NA,NA
"306","del",95,52,"SRR3698365.259",TRUE,TRUE,28,6.60377358490566,"CC",NA,NA,NA
"307","del",95,52,"SRR3698365.272",TRUE,TRUE,28,6.60377358490566,"CC",NA,NA,NA
"308","del",95,52,"SRR3698365.302",TRUE,TRUE,28,6.60377358490566,"CC",NA,NA,NA
"309","del",95,52,"SRR3698365.308",TRUE,TRUE,28,6.60377358490566,"CC",NA,NA,NA
"310","del",95,52,"SRR3698365.31",TRUE,TRUE,28,6.60377358490566,"CC",NA,NA,NA
"311","del",95,52,"SRR3698365.341",TRUE,TRUE,28,6.60377358490566,"CC",NA,NA,NA
"312","del",95,52,"SRR3698365.351",TRUE,TRUE,28,6.60377358490566,"CC",NA,NA,NA
"313","del",95,52,"SRR3698365.356",TRUE,TRUE,28,6.60377358490566,"CC",NA,NA,NA
"314","del",95,52,"SRR3698365.36",TRUE,TRUE,28,6.60377358490566,"CC",NA,NA,NA
"315","del",95,52,"SRR3698365.393",TRUE,TRUE,28,6.60377358490566,"CC",NA,NA,NA
"316","del",95,52,"SRR3698365.397",TRUE,TRUE,28,6.60377358490566,"CC",NA,NA,NA
"317","del",95,52,"SRR3698365.399",TRUE,TRUE,28,6.60377358490566,"CC",NA,NA,NA
"318","del",95,52,"SRR3698365.405",TRUE,TRUE,28,6.60377358490566,"CC",NA,NA,NA
"319","del",95,52,"SRR3698365.423",TRUE,TRUE,28,6.60377358490566,"CC",NA,NA,NA
"320","del",95,52,"SRR3698365.426",TRUE,TRUE,28,6.60377358490566,"CC",NA,NA,NA
"321","del",95,52,"SRR3698365.46",TRUE,TRUE,28,6.60377358490566,"CC",NA,NA,NA
"322","del",95,52,"SRR3698365.53",TRUE,TRUE,28,6.60377358490566,"CC",NA,NA,NA
"323","del",95,52,"SRR3698365.85",TRUE,TRUE,28,6.60377358490566,"CC",NA,NA,NA
"324","del",95,52,"SRR3698365.93",TRUE,TRUE,28,6.60377358490566,"CC",NA,NA,NA
"325","del",96,50,"SRR3698365.10",TRUE,TRUE,15,3.5377358490566,"CCC",NA,NA,NA
"326","del",96,50,"SRR3698365.110",TRUE,TRUE,15,3.5377358490566,"CCC",NA,NA,NA
"327","del",96,50,"SRR3698365.154",TRUE,TRUE,15,3.5377358490566,"CCC",NA,NA,NA
"328","del",96,50,"SRR3698365.195",TRUE,TRUE,15,3.5377358490566,"CCC",NA,NA,NA
"329","del",96,50,"SRR3698365.203",TRUE,TRUE,15,3.5377358490566,"CCC",NA,NA,NA
"330","del",96,50,"SRR3698365.233",TRUE,TRUE,15,3.5377358490566,"CCC",NA,NA,NA
"331","del",96,50,"SRR3698365.235",TRUE,TRUE,15,3.5377358490566,"CCC",NA,NA,NA
"332","del",96,50,"SRR3698365.246",TRUE,TRUE,15,3.5377358490566,"CCC",NA,NA,NA
"333","del",96,50,"SRR3698365.248",TRUE,TRUE,15,3.5377358490566,"CCC",NA,NA,NA
"334","del",96,50,"SRR3698365.35",TRUE,TRUE,15,3.5377358490566,"CCC",NA,NA,NA
"335","del",96,50,"SRR3698365.352",TRUE,TRUE,15,3.5377358490566,"CCC",NA,NA,NA
"336","del",96,50,"SRR3698365.463",TRUE,TRUE,15,3.5377358490566,"CCC",NA,NA,NA
"337","del",96,50,"SRR3698365.47",TRUE,TRUE,15,3.5377358490566,"CCC",NA,NA,NA
"338","del",96,50,"SRR3698365.61",TRUE,TRUE,15,3.5377358490566,"CCC",NA,NA,NA
"339","del",96,50,"SRR3698365.89",TRUE,TRUE,15,3.5377358490566,"CCC",NA,NA,NA
"340","del",97,49,"SRR3698365.106",TRUE,TRUE,34,8.0188679245283,"CCC",NA,NA,NA
"341","del",97,49,"SRR3698365.124",TRUE,TRUE,34,8.0188679245283,"CCC",NA,NA,NA
"342","del",97,49,"SRR3698365.13",TRUE,TRUE,34,8.0188679245283,"CCC",NA,NA,NA
"343","del",97,49,"SRR3698365.159",TRUE,TRUE,34,8.0188679245283,"CCC",NA,NA,NA
"344","del",97,49,"SRR3698365.160",TRUE,TRUE,34,8.0188679245283,"CCC",NA,NA,NA
"345","del",97,49,"SRR3698365.172",TRUE,TRUE,34,8.0188679245283,"CCC",NA,NA,NA
"346","del",97,49,"SRR3698365.183",TRUE,TRUE,34,8.0188679245283,"CCC",NA,NA,NA
"347","del",97,49,"SRR3698365.186",TRUE,TRUE,34,8.0188679245283,"CCC",NA,NA,NA
"348","del",97,49,"SRR3698365.197",TRUE,TRUE,34,8.0188679245283,"CCC",NA,NA,NA
"349","del",97,49,"SRR3698365.211",TRUE,TRUE,34,8.0188679245283,"CCC",NA,NA,NA
"350","del",97,49,"SRR3698365.231",TRUE,TRUE,34,8.0188679245283,"CCC",NA,NA,NA
"351","del",97,49,"SRR3698365.232",TRUE,TRUE,34,8.0188679245283,"CCC",NA,NA,NA
"352","del",97,49,"SRR3698365.245",TRUE,TRUE,34,8.0188679245283,"CCC",NA,NA,NA
"353","del",97,49,"SRR3698365.254",TRUE,TRUE,34,8.0188679245283,"CCC",NA,NA,NA
"354","del",97,49,"SRR3698365.266",TRUE,TRUE,34,8.0188679245283,"CCC",NA,NA,NA
"355","del",97,49,"SRR3698365.287",TRUE,TRUE,34,8.0188679245283,"CCC",NA,NA,NA
"356","del",97,49,"SRR3698365.314",TRUE,TRUE,34,8.0188679245283,"CCC",NA,NA,NA
"357","del",97,49,"SRR3698365.320",TRUE,TRUE,34,8.0188679245283,"CCC",NA,NA,NA
"358","del",97,49,"SRR3698365.350",TRUE,TRUE,34,8.0188679245283,"CCC",NA,NA,NA
"359","del",97,49,"SRR3698365.357",TRUE,TRUE,34,8.0188679245283,"CCC",NA,NA,NA
"360","del",97,49,"SRR3698365.396",TRUE,TRUE,34,8.0188679245283,"CCC",NA,NA,NA
"361","del",97,49,"SRR3698365.408",TRUE,TRUE,34,8.0188679245283,"CCC",NA,NA,NA
"362","del",97,49,"SRR3698365.409",TRUE,TRUE,34,8.0188679245283,"CCC",NA,NA,NA
"363","del",97,49,"SRR3698365.410",TRUE,TRUE,34,8.0188679245283,"CCC",NA,NA,NA
"364","del",97,49,"SRR3698365.438",TRUE,TRUE,34,8.0188679245283,"CCC",NA,NA,NA
"365","del",97,49,"SRR3698365.452",TRUE,TRUE,34,8.0188679245283,"CCC",NA,NA,NA
"366","del",97,49,"SRR3698365.456",TRUE,TRUE,34,8.0188679245283,"CCC",NA,NA,NA
"367","del",97,49,"SRR3698365.66",TRUE,TRUE,34,8.0188679245283,"CCC",NA,NA,NA
"368","del",97,49,"SRR3698365.73",TRUE,TRUE,34,8.0188679245283,"CCC",NA,NA,NA
"369","del",97,49,"SRR3698365.75",TRUE,TRUE,34,8.0188679245283,"CCC",NA,NA,NA
"370","del",97,49,"SRR3698365.77",TRUE,TRUE,34,8.0188679245283,"CCC",NA,NA,NA
"371","del",97,49,"SRR3698365.8",TRUE,TRUE,34,8.0188679245283,"CCC",NA,NA,NA
"372","del",97,49,"SRR3698365.90",TRUE,TRUE,34,8.0188679245283,"CCC",NA,NA,NA
"373","del",97,49,"SRR3698365.98",TRUE,TRUE,34,8.0188679245283,"CCC",NA,NA,NA
"374","del",98,48,"SRR3698365.132",TRUE,TRUE,10,2.35849056603774,"CC",NA,NA,NA
"375","del",98,48,"SRR3698365.165",TRUE,TRUE,10,2.35849056603774,"CC",NA,NA,NA
"376","del",98,48,"SRR3698365.168",TRUE,TRUE,10,2.35849056603774,"CC",NA,NA,NA
"377","del",98,48,"SRR3698365.184",TRUE,TRUE,10,2.35849056603774,"CC",NA,NA,NA
"378","del",98,48,"SRR3698365.204",TRUE,TRUE,10,2.35849056603774,"CC",NA,NA,NA
"379","del",98,48,"SRR3698365.238",TRUE,TRUE,10,2.35849056603774,"CC",NA,NA,NA
"380","del",98,48,"SRR3698365.252",TRUE,TRUE,10,2.35849056603774,"CC",NA,NA,NA
"381","del",98,48,"SRR3698365.342",TRUE,TRUE,10,2.35849056603774,"CC",NA,NA,NA
"382","del",98,48,"SRR3698365.413",TRUE,TRUE,10,2.35849056603774,"CC",NA,NA,NA
"383","del",98,48,"SRR3698365.449",TRUE,TRUE,10,2.35849056603774,"CC",NA,NA,NA
"384","del",100,52,"SRR3698365.24",TRUE,TRUE,3,0.707547169811321,"NHEJ",NA,NA,NA
"385","del",100,52,"SRR3698365.301",TRUE,TRUE,3,0.707547169811321,"NHEJ",NA,NA,NA
"386","del",100,52,"SRR3698365.58",TRUE,TRUE,3,0.707547169811321,"NHEJ",NA,NA,NA
"387","del",101,45,"SRR3698365.136",TRUE,TRUE,3,0.707547169811321,"CCCT",NA,NA,NA
"388","del",101,45,"SRR3698365.152",TRUE,TRUE,3,0.707547169811321,"CCCT",NA,NA,NA
"389","del",101,45,"SRR3698365.258",TRUE,TRUE,3,0.707547169811321,"CCCT",NA,NA,NA
"390","del",102,44,"SRR3698365.201",TRUE,TRUE,1,0.235849056603774,"CC",NA,NA,NA
"391","del",105,41,"SRR3698365.140",TRUE,TRUE,1,0.235849056603774,"CCC",NA,NA,NA
"392","del",106,40,"SRR3698365.428",TRUE,TRUE,1,0.235849056603774,"CC",NA,NA,NA
"393","del",109,39,"SRR3698365.145",TRUE,TRUE,2,0.471698113207547,"C",NA,NA,NA
"394","del",109,39,"SRR3698365.336",TRUE,TRUE,2,0.471698113207547,"C",NA,NA,NA
"395","del",140,7,"SRR3698365.11",TRUE,TRUE,1,0.235849056603774,"CCTGGAC",NA,NA,NA
"396","del",140,14,"SRR3698365.216",TRUE,TRUE,2,0.471698113207547,"CCTGG",NA,NA,NA
"397","del",140,14,"SRR3698365.451",TRUE,TRUE,2,0.471698113207547,"CCTGG",NA,NA,NA
"398","del",145,1,"SRR3698365.72",TRUE,TRUE,1,0.235849056603774,"NHEJ",NA,NA,NA
"399","del",145,2,"SRR3698365.16",TRUE,TRUE,1,0.235849056603774,"NHEJ",NA,NA,NA
"400","del",146,1,"SRR3698365.297",TRUE,TRUE,1,0.235849056603774,"C",NA,NA,NA
"401","del",149,1,"SRR3698365.912",TRUE,TRUE,1,0.235849056603774,"NHEJ",NA,NA,NA
"402","del",173,3,"SRR3698365.1047",TRUE,FALSE,1,0.235849056603774,"CGC",NA,NA,NA
"403","del",213,1,"SRR3698365.758",TRUE,FALSE,1,0.235849056603774,"T",NA,NA,NA
"404","del",216,1,"SRR3698365.617",TRUE,FALSE,6,1.41509433962264,"C",NA,NA,NA
"405","del",216,1,"SRR3698365.810",TRUE,FALSE,6,1.41509433962264,"C",NA,NA,NA
"406","del",216,1,"SRR3698365.847",TRUE,FALSE,6,1.41509433962264,"C",NA,NA,NA
"407","del",216,1,"SRR3698365.865",TRUE,FALSE,6,1.41509433962264,"C",NA,NA,NA
"408","del",216,1,"SRR3698365.983",TRUE,FALSE,6,1.41509433962264,"C",NA,NA,NA
"409","del",216,1,"SRR3698365.987",TRUE,FALSE,6,1.41509433962264,"C",NA,NA,NA
"410","del",219,1,"SRR3698365.1049",TRUE,FALSE,2,0.471698113207547,"NHEJ",NA,NA,NA
"411","del",219,1,"SRR3698365.1050",TRUE,FALSE,2,0.471698113207547,"NHEJ",NA,NA,NA
"412","del",220,1,"SRR3698365.712",TRUE,FALSE,1,0.235849056603774,"NHEJ",NA,NA,NA
"413","ins",150,1,"SRR3698365.895",TRUE,TRUE,12,2.83018867924528,NA,"CCT","C","GGA"
"414","ins",150,1,"SRR3698365.899",TRUE,TRUE,12,2.83018867924528,NA,"CCT","C","GGA"
"415","ins",150,1,"SRR3698365.900",TRUE,TRUE,12,2.83018867924528,NA,"CCT","C","GGA"
"416","ins",150,1,"SRR3698365.905",TRUE,TRUE,12,2.83018867924528,NA,"CCT","C","GGA"
"417","ins",150,1,"SRR3698365.907",TRUE,TRUE,12,2.83018867924528,NA,"CCT","C","GGA"
"418","ins",150,1,"SRR3698365.908",TRUE,TRUE,12,2.83018867924528,NA,"CCT","C","GGA"
"419","ins",150,1,"SRR3698365.911",TRUE,TRUE,12,2.83018867924528,NA,"CCT","C","GGA"
"420","ins",150,1,"SRR3698365.914",TRUE,TRUE,12,2.83018867924528,NA,"CCT","C","GGA"
"421","ins",150,1,"SRR3698365.916",TRUE,TRUE,12,2.83018867924528,NA,"CCT","C","GGA"
"422","ins",150,1,"SRR3698365.921",TRUE,TRUE,12,2.83018867924528,NA,"CCT","C","GGA"
"423","ins",150,1,"SRR3698365.922",TRUE,TRUE,12,2.83018867924528,NA,"CCT","C","GGA"
"424","ins",150,1,"SRR3698365.924",TRUE,TRUE,12,2.83018867924528,NA,"CCT","C","GGA"
