"","Modification","Start","Length","Ids","above_error_rate","in_pick","freq","Perc","patterns","pre_ins_nt","ins_nt","post_ins_nt"
"1","del",5,1,"SRR3696876.1240",TRUE,FALSE,21,2.62172284644195,"NHEJ",NA,NA,NA
"2","del",5,1,"SRR3696876.1592",TRUE,FALSE,21,2.62172284644195,"NHEJ",NA,NA,NA
"3","del",5,1,"SRR3696876.3150",TRUE,FALSE,21,2.62172284644195,"NHEJ",NA,NA,NA
"4","del",5,1,"SRR3696876.3242",TRUE,FALSE,21,2.62172284644195,"NHEJ",NA,NA,NA
"5","del",5,1,"SRR3696876.452",TRUE,FALSE,21,2.62172284644195,"NHEJ",NA,NA,NA
"6","del",5,1,"SRR3696876.4620",TRUE,FALSE,21,2.62172284644195,"NHEJ",NA,NA,NA
"7","del",5,1,"SRR3696876.4744",TRUE,FALSE,21,2.62172284644195,"NHEJ",NA,NA,NA
"8","del",5,1,"SRR3696876.4902",TRUE,FALSE,21,2.62172284644195,"NHEJ",NA,NA,NA
"9","del",5,1,"SRR3696876.5139",TRUE,FALSE,21,2.62172284644195,"NHEJ",NA,NA,NA
"10","del",5,1,"SRR3696876.5414",TRUE,FALSE,21,2.62172284644195,"NHEJ",NA,NA,NA
"11","del",5,1,"SRR3696876.5574",TRUE,FALSE,21,2.62172284644195,"NHEJ",NA,NA,NA
"12","del",5,1,"SRR3696876.59",TRUE,FALSE,21,2.62172284644195,"NHEJ",NA,NA,NA
"13","del",5,1,"SRR3696876.6034",TRUE,FALSE,21,2.62172284644195,"NHEJ",NA,NA,NA
"14","del",5,1,"SRR3696876.6303",TRUE,FALSE,21,2.62172284644195,"NHEJ",NA,NA,NA
"15","del",5,1,"SRR3696876.7497",TRUE,FALSE,21,2.62172284644195,"NHEJ",NA,NA,NA
"16","del",5,1,"SRR3696876.7521",TRUE,FALSE,21,2.62172284644195,"NHEJ",NA,NA,NA
"17","del",5,1,"SRR3696876.7749",TRUE,FALSE,21,2.62172284644195,"NHEJ",NA,NA,NA
"18","del",5,1,"SRR3696876.7980",TRUE,FALSE,21,2.62172284644195,"NHEJ",NA,NA,NA
"19","del",5,1,"SRR3696876.8038",TRUE,FALSE,21,2.62172284644195,"NHEJ",NA,NA,NA
"20","del",5,1,"SRR3696876.840",TRUE,FALSE,21,2.62172284644195,"NHEJ",NA,NA,NA
"21","del",5,1,"SRR3696876.8658",TRUE,FALSE,21,2.62172284644195,"NHEJ",NA,NA,NA
"22","del",6,1,"SRR3696876.1461",TRUE,FALSE,33,4.11985018726592,"NHEJ",NA,NA,NA
"23","del",6,1,"SRR3696876.2364",TRUE,FALSE,33,4.11985018726592,"NHEJ",NA,NA,NA
"24","del",6,1,"SRR3696876.2584",TRUE,FALSE,33,4.11985018726592,"NHEJ",NA,NA,NA
"25","del",6,1,"SRR3696876.2771",TRUE,FALSE,33,4.11985018726592,"NHEJ",NA,NA,NA
"26","del",6,1,"SRR3696876.2826",TRUE,FALSE,33,4.11985018726592,"NHEJ",NA,NA,NA
"27","del",6,1,"SRR3696876.3215",TRUE,FALSE,33,4.11985018726592,"NHEJ",NA,NA,NA
"28","del",6,1,"SRR3696876.3464",TRUE,FALSE,33,4.11985018726592,"NHEJ",NA,NA,NA
"29","del",6,1,"SRR3696876.3599",TRUE,FALSE,33,4.11985018726592,"NHEJ",NA,NA,NA
"30","del",6,1,"SRR3696876.3605",TRUE,FALSE,33,4.11985018726592,"NHEJ",NA,NA,NA
"31","del",6,1,"SRR3696876.3787",TRUE,FALSE,33,4.11985018726592,"NHEJ",NA,NA,NA
"32","del",6,1,"SRR3696876.3863",TRUE,FALSE,33,4.11985018726592,"NHEJ",NA,NA,NA
"33","del",6,1,"SRR3696876.4366",TRUE,FALSE,33,4.11985018726592,"NHEJ",NA,NA,NA
"34","del",6,1,"SRR3696876.4417",TRUE,FALSE,33,4.11985018726592,"NHEJ",NA,NA,NA
"35","del",6,1,"SRR3696876.4534",TRUE,FALSE,33,4.11985018726592,"NHEJ",NA,NA,NA
"36","del",6,1,"SRR3696876.4906",TRUE,FALSE,33,4.11985018726592,"NHEJ",NA,NA,NA
"37","del",6,1,"SRR3696876.5634",TRUE,FALSE,33,4.11985018726592,"NHEJ",NA,NA,NA
"38","del",6,1,"SRR3696876.5729",TRUE,FALSE,33,4.11985018726592,"NHEJ",NA,NA,NA
"39","del",6,1,"SRR3696876.5835",TRUE,FALSE,33,4.11985018726592,"NHEJ",NA,NA,NA
"40","del",6,1,"SRR3696876.6013",TRUE,FALSE,33,4.11985018726592,"NHEJ",NA,NA,NA
"41","del",6,1,"SRR3696876.6206",TRUE,FALSE,33,4.11985018726592,"NHEJ",NA,NA,NA
"42","del",6,1,"SRR3696876.6271",TRUE,FALSE,33,4.11985018726592,"NHEJ",NA,NA,NA
"43","del",6,1,"SRR3696876.6323",TRUE,FALSE,33,4.11985018726592,"NHEJ",NA,NA,NA
"44","del",6,1,"SRR3696876.6437",TRUE,FALSE,33,4.11985018726592,"NHEJ",NA,NA,NA
"45","del",6,1,"SRR3696876.6579",TRUE,FALSE,33,4.11985018726592,"NHEJ",NA,NA,NA
"46","del",6,1,"SRR3696876.6908",TRUE,FALSE,33,4.11985018726592,"NHEJ",NA,NA,NA
"47","del",6,1,"SRR3696876.6939",TRUE,FALSE,33,4.11985018726592,"NHEJ",NA,NA,NA
"48","del",6,1,"SRR3696876.6943",TRUE,FALSE,33,4.11985018726592,"NHEJ",NA,NA,NA
"49","del",6,1,"SRR3696876.7066",TRUE,FALSE,33,4.11985018726592,"NHEJ",NA,NA,NA
"50","del",6,1,"SRR3696876.7191",TRUE,FALSE,33,4.11985018726592,"NHEJ",NA,NA,NA
"51","del",6,1,"SRR3696876.7265",TRUE,FALSE,33,4.11985018726592,"NHEJ",NA,NA,NA
"52","del",6,1,"SRR3696876.744",TRUE,FALSE,33,4.11985018726592,"NHEJ",NA,NA,NA
"53","del",6,1,"SRR3696876.7654",TRUE,FALSE,33,4.11985018726592,"NHEJ",NA,NA,NA
"54","del",6,1,"SRR3696876.8073",TRUE,FALSE,33,4.11985018726592,"NHEJ",NA,NA,NA
"55","del",6,2,"SRR3696876.3700",FALSE,FALSE,2,0.249687890137328,"NHEJ",NA,NA,NA
"56","del",6,2,"SRR3696876.7991",FALSE,FALSE,2,0.249687890137328,"NHEJ",NA,NA,NA
"57","del",7,1,"SRR3696876.1085",TRUE,FALSE,91,11.3607990012484,"G",NA,NA,NA
"58","del",7,1,"SRR3696876.1104",TRUE,FALSE,91,11.3607990012484,"G",NA,NA,NA
"59","del",7,1,"SRR3696876.1134",TRUE,FALSE,91,11.3607990012484,"G",NA,NA,NA
"60","del",7,1,"SRR3696876.116",TRUE,FALSE,91,11.3607990012484,"G",NA,NA,NA
"61","del",7,1,"SRR3696876.125",TRUE,FALSE,91,11.3607990012484,"G",NA,NA,NA
"62","del",7,1,"SRR3696876.1358",TRUE,FALSE,91,11.3607990012484,"G",NA,NA,NA
"63","del",7,1,"SRR3696876.1747",TRUE,FALSE,91,11.3607990012484,"G",NA,NA,NA
"64","del",7,1,"SRR3696876.1793",TRUE,FALSE,91,11.3607990012484,"G",NA,NA,NA
"65","del",7,1,"SRR3696876.1866",TRUE,FALSE,91,11.3607990012484,"G",NA,NA,NA
"66","del",7,1,"SRR3696876.1929",TRUE,FALSE,91,11.3607990012484,"G",NA,NA,NA
"67","del",7,1,"SRR3696876.1954",TRUE,FALSE,91,11.3607990012484,"G",NA,NA,NA
"68","del",7,1,"SRR3696876.2014",TRUE,FALSE,91,11.3607990012484,"G",NA,NA,NA
"69","del",7,1,"SRR3696876.2067",TRUE,FALSE,91,11.3607990012484,"G",NA,NA,NA
"70","del",7,1,"SRR3696876.2143",TRUE,FALSE,91,11.3607990012484,"G",NA,NA,NA
"71","del",7,1,"SRR3696876.2207",TRUE,FALSE,91,11.3607990012484,"G",NA,NA,NA
"72","del",7,1,"SRR3696876.2247",TRUE,FALSE,91,11.3607990012484,"G",NA,NA,NA
"73","del",7,1,"SRR3696876.2342",TRUE,FALSE,91,11.3607990012484,"G",NA,NA,NA
"74","del",7,1,"SRR3696876.24",TRUE,FALSE,91,11.3607990012484,"G",NA,NA,NA
"75","del",7,1,"SRR3696876.241",TRUE,FALSE,91,11.3607990012484,"G",NA,NA,NA
"76","del",7,1,"SRR3696876.2410",TRUE,FALSE,91,11.3607990012484,"G",NA,NA,NA
"77","del",7,1,"SRR3696876.2474",TRUE,FALSE,91,11.3607990012484,"G",NA,NA,NA
"78","del",7,1,"SRR3696876.2549",TRUE,FALSE,91,11.3607990012484,"G",NA,NA,NA
"79","del",7,1,"SRR3696876.2668",TRUE,FALSE,91,11.3607990012484,"G",NA,NA,NA
"80","del",7,1,"SRR3696876.2724",TRUE,FALSE,91,11.3607990012484,"G",NA,NA,NA
"81","del",7,1,"SRR3696876.2888",TRUE,FALSE,91,11.3607990012484,"G",NA,NA,NA
"82","del",7,1,"SRR3696876.2926",TRUE,FALSE,91,11.3607990012484,"G",NA,NA,NA
"83","del",7,1,"SRR3696876.2942",TRUE,FALSE,91,11.3607990012484,"G",NA,NA,NA
"84","del",7,1,"SRR3696876.2950",TRUE,FALSE,91,11.3607990012484,"G",NA,NA,NA
"85","del",7,1,"SRR3696876.2989",TRUE,FALSE,91,11.3607990012484,"G",NA,NA,NA
"86","del",7,1,"SRR3696876.301",TRUE,FALSE,91,11.3607990012484,"G",NA,NA,NA
"87","del",7,1,"SRR3696876.3055",TRUE,FALSE,91,11.3607990012484,"G",NA,NA,NA
"88","del",7,1,"SRR3696876.3105",TRUE,FALSE,91,11.3607990012484,"G",NA,NA,NA
"89","del",7,1,"SRR3696876.3164",TRUE,FALSE,91,11.3607990012484,"G",NA,NA,NA
"90","del",7,1,"SRR3696876.3266",TRUE,FALSE,91,11.3607990012484,"G",NA,NA,NA
"91","del",7,1,"SRR3696876.3477",TRUE,FALSE,91,11.3607990012484,"G",NA,NA,NA
"92","del",7,1,"SRR3696876.3862",TRUE,FALSE,91,11.3607990012484,"G",NA,NA,NA
"93","del",7,1,"SRR3696876.3901",TRUE,FALSE,91,11.3607990012484,"G",NA,NA,NA
"94","del",7,1,"SRR3696876.4026",TRUE,FALSE,91,11.3607990012484,"G",NA,NA,NA
"95","del",7,1,"SRR3696876.4054",TRUE,FALSE,91,11.3607990012484,"G",NA,NA,NA
"96","del",7,1,"SRR3696876.419",TRUE,FALSE,91,11.3607990012484,"G",NA,NA,NA
"97","del",7,1,"SRR3696876.4850",TRUE,FALSE,91,11.3607990012484,"G",NA,NA,NA
"98","del",7,1,"SRR3696876.4926",TRUE,FALSE,91,11.3607990012484,"G",NA,NA,NA
"99","del",7,1,"SRR3696876.4967",TRUE,FALSE,91,11.3607990012484,"G",NA,NA,NA
"100","del",7,1,"SRR3696876.517",TRUE,FALSE,91,11.3607990012484,"G",NA,NA,NA
"101","del",7,1,"SRR3696876.5171",TRUE,FALSE,91,11.3607990012484,"G",NA,NA,NA
"102","del",7,1,"SRR3696876.5227",TRUE,FALSE,91,11.3607990012484,"G",NA,NA,NA
"103","del",7,1,"SRR3696876.5253",TRUE,FALSE,91,11.3607990012484,"G",NA,NA,NA
"104","del",7,1,"SRR3696876.5369",TRUE,FALSE,91,11.3607990012484,"G",NA,NA,NA
"105","del",7,1,"SRR3696876.5385",TRUE,FALSE,91,11.3607990012484,"G",NA,NA,NA
"106","del",7,1,"SRR3696876.5460",TRUE,FALSE,91,11.3607990012484,"G",NA,NA,NA
"107","del",7,1,"SRR3696876.5483",TRUE,FALSE,91,11.3607990012484,"G",NA,NA,NA
"108","del",7,1,"SRR3696876.5486",TRUE,FALSE,91,11.3607990012484,"G",NA,NA,NA
"109","del",7,1,"SRR3696876.5780",TRUE,FALSE,91,11.3607990012484,"G",NA,NA,NA
"110","del",7,1,"SRR3696876.5831",TRUE,FALSE,91,11.3607990012484,"G",NA,NA,NA
"111","del",7,1,"SRR3696876.5920",TRUE,FALSE,91,11.3607990012484,"G",NA,NA,NA
"112","del",7,1,"SRR3696876.6047",TRUE,FALSE,91,11.3607990012484,"G",NA,NA,NA
"113","del",7,1,"SRR3696876.6050",TRUE,FALSE,91,11.3607990012484,"G",NA,NA,NA
"114","del",7,1,"SRR3696876.6096",TRUE,FALSE,91,11.3607990012484,"G",NA,NA,NA
"115","del",7,1,"SRR3696876.6134",TRUE,FALSE,91,11.3607990012484,"G",NA,NA,NA
"116","del",7,1,"SRR3696876.6188",TRUE,FALSE,91,11.3607990012484,"G",NA,NA,NA
"117","del",7,1,"SRR3696876.6327",TRUE,FALSE,91,11.3607990012484,"G",NA,NA,NA
"118","del",7,1,"SRR3696876.6530",TRUE,FALSE,91,11.3607990012484,"G",NA,NA,NA
"119","del",7,1,"SRR3696876.6547",TRUE,FALSE,91,11.3607990012484,"G",NA,NA,NA
"120","del",7,1,"SRR3696876.6722",TRUE,FALSE,91,11.3607990012484,"G",NA,NA,NA
"121","del",7,1,"SRR3696876.6740",TRUE,FALSE,91,11.3607990012484,"G",NA,NA,NA
"122","del",7,1,"SRR3696876.6834",TRUE,FALSE,91,11.3607990012484,"G",NA,NA,NA
"123","del",7,1,"SRR3696876.6863",TRUE,FALSE,91,11.3607990012484,"G",NA,NA,NA
"124","del",7,1,"SRR3696876.6975",TRUE,FALSE,91,11.3607990012484,"G",NA,NA,NA
"125","del",7,1,"SRR3696876.7161",TRUE,FALSE,91,11.3607990012484,"G",NA,NA,NA
"126","del",7,1,"SRR3696876.7272",TRUE,FALSE,91,11.3607990012484,"G",NA,NA,NA
"127","del",7,1,"SRR3696876.745",TRUE,FALSE,91,11.3607990012484,"G",NA,NA,NA
"128","del",7,1,"SRR3696876.7469",TRUE,FALSE,91,11.3607990012484,"G",NA,NA,NA
"129","del",7,1,"SRR3696876.7609",TRUE,FALSE,91,11.3607990012484,"G",NA,NA,NA
"130","del",7,1,"SRR3696876.7745",TRUE,FALSE,91,11.3607990012484,"G",NA,NA,NA
"131","del",7,1,"SRR3696876.801",TRUE,FALSE,91,11.3607990012484,"G",NA,NA,NA
"132","del",7,1,"SRR3696876.8184",TRUE,FALSE,91,11.3607990012484,"G",NA,NA,NA
"133","del",7,1,"SRR3696876.8255",TRUE,FALSE,91,11.3607990012484,"G",NA,NA,NA
"134","del",7,1,"SRR3696876.8347",TRUE,FALSE,91,11.3607990012484,"G",NA,NA,NA
"135","del",7,1,"SRR3696876.8373",TRUE,FALSE,91,11.3607990012484,"G",NA,NA,NA
"136","del",7,1,"SRR3696876.8384",TRUE,FALSE,91,11.3607990012484,"G",NA,NA,NA
"137","del",7,1,"SRR3696876.8444",TRUE,FALSE,91,11.3607990012484,"G",NA,NA,NA
"138","del",7,1,"SRR3696876.8499",TRUE,FALSE,91,11.3607990012484,"G",NA,NA,NA
"139","del",7,1,"SRR3696876.8529",TRUE,FALSE,91,11.3607990012484,"G",NA,NA,NA
"140","del",7,1,"SRR3696876.8581",TRUE,FALSE,91,11.3607990012484,"G",NA,NA,NA
"141","del",7,1,"SRR3696876.8582",TRUE,FALSE,91,11.3607990012484,"G",NA,NA,NA
"142","del",7,1,"SRR3696876.8615",TRUE,FALSE,91,11.3607990012484,"G",NA,NA,NA
"143","del",7,1,"SRR3696876.8700",TRUE,FALSE,91,11.3607990012484,"G",NA,NA,NA
"144","del",7,1,"SRR3696876.8794",TRUE,FALSE,91,11.3607990012484,"G",NA,NA,NA
"145","del",7,1,"SRR3696876.8799",TRUE,FALSE,91,11.3607990012484,"G",NA,NA,NA
"146","del",7,1,"SRR3696876.8802",TRUE,FALSE,91,11.3607990012484,"G",NA,NA,NA
"147","del",7,1,"SRR3696876.97",TRUE,FALSE,91,11.3607990012484,"G",NA,NA,NA
"148","del",7,2,"SRR3696876.1130",TRUE,FALSE,4,0.499375780274657,"G",NA,NA,NA
"149","del",7,2,"SRR3696876.1574",TRUE,FALSE,4,0.499375780274657,"G",NA,NA,NA
"150","del",7,2,"SRR3696876.658",TRUE,FALSE,4,0.499375780274657,"G",NA,NA,NA
"151","del",7,2,"SRR3696876.7663",TRUE,FALSE,4,0.499375780274657,"G",NA,NA,NA
"152","del",9,2,"SRR3696876.3926",FALSE,FALSE,1,0.124843945068664,"NHEJ",NA,NA,NA
"153","del",9,3,"SRR3696876.5187",FALSE,FALSE,1,0.124843945068664,"NHEJ",NA,NA,NA
"154","del",10,1,"SRR3696876.1816",TRUE,FALSE,18,2.24719101123596,"NHEJ",NA,NA,NA
"155","del",10,1,"SRR3696876.2360",TRUE,FALSE,18,2.24719101123596,"NHEJ",NA,NA,NA
"156","del",10,1,"SRR3696876.2566",TRUE,FALSE,18,2.24719101123596,"NHEJ",NA,NA,NA
"157","del",10,1,"SRR3696876.2849",TRUE,FALSE,18,2.24719101123596,"NHEJ",NA,NA,NA
"158","del",10,1,"SRR3696876.4008",TRUE,FALSE,18,2.24719101123596,"NHEJ",NA,NA,NA
"159","del",10,1,"SRR3696876.427",TRUE,FALSE,18,2.24719101123596,"NHEJ",NA,NA,NA
"160","del",10,1,"SRR3696876.4322",TRUE,FALSE,18,2.24719101123596,"NHEJ",NA,NA,NA
"161","del",10,1,"SRR3696876.4427",TRUE,FALSE,18,2.24719101123596,"NHEJ",NA,NA,NA
"162","del",10,1,"SRR3696876.4586",TRUE,FALSE,18,2.24719101123596,"NHEJ",NA,NA,NA
"163","del",10,1,"SRR3696876.462",TRUE,FALSE,18,2.24719101123596,"NHEJ",NA,NA,NA
"164","del",10,1,"SRR3696876.5077",TRUE,FALSE,18,2.24719101123596,"NHEJ",NA,NA,NA
"165","del",10,1,"SRR3696876.5791",TRUE,FALSE,18,2.24719101123596,"NHEJ",NA,NA,NA
"166","del",10,1,"SRR3696876.6068",TRUE,FALSE,18,2.24719101123596,"NHEJ",NA,NA,NA
"167","del",10,1,"SRR3696876.6443",TRUE,FALSE,18,2.24719101123596,"NHEJ",NA,NA,NA
"168","del",10,1,"SRR3696876.729",TRUE,FALSE,18,2.24719101123596,"NHEJ",NA,NA,NA
"169","del",10,1,"SRR3696876.7801",TRUE,FALSE,18,2.24719101123596,"NHEJ",NA,NA,NA
"170","del",10,1,"SRR3696876.7971",TRUE,FALSE,18,2.24719101123596,"NHEJ",NA,NA,NA
"171","del",10,1,"SRR3696876.8697",TRUE,FALSE,18,2.24719101123596,"NHEJ",NA,NA,NA
"172","del",10,2,"SRR3696876.3434",FALSE,FALSE,2,0.249687890137328,"NHEJ",NA,NA,NA
"173","del",10,2,"SRR3696876.5482",FALSE,FALSE,2,0.249687890137328,"NHEJ",NA,NA,NA
"174","del",11,1,"SRR3696876.1116",TRUE,FALSE,62,7.74032459425718,"T",NA,NA,NA
"175","del",11,1,"SRR3696876.1241",TRUE,FALSE,62,7.74032459425718,"T",NA,NA,NA
"176","del",11,1,"SRR3696876.1472",TRUE,FALSE,62,7.74032459425718,"T",NA,NA,NA
"177","del",11,1,"SRR3696876.1655",TRUE,FALSE,62,7.74032459425718,"T",NA,NA,NA
"178","del",11,1,"SRR3696876.1684",TRUE,FALSE,62,7.74032459425718,"T",NA,NA,NA
"179","del",11,1,"SRR3696876.1717",TRUE,FALSE,62,7.74032459425718,"T",NA,NA,NA
"180","del",11,1,"SRR3696876.1840",TRUE,FALSE,62,7.74032459425718,"T",NA,NA,NA
"181","del",11,1,"SRR3696876.2061",TRUE,FALSE,62,7.74032459425718,"T",NA,NA,NA
"182","del",11,1,"SRR3696876.2091",TRUE,FALSE,62,7.74032459425718,"T",NA,NA,NA
"183","del",11,1,"SRR3696876.2119",TRUE,FALSE,62,7.74032459425718,"T",NA,NA,NA
"184","del",11,1,"SRR3696876.2343",TRUE,FALSE,62,7.74032459425718,"T",NA,NA,NA
"185","del",11,1,"SRR3696876.240",TRUE,FALSE,62,7.74032459425718,"T",NA,NA,NA
"186","del",11,1,"SRR3696876.2415",TRUE,FALSE,62,7.74032459425718,"T",NA,NA,NA
"187","del",11,1,"SRR3696876.2446",TRUE,FALSE,62,7.74032459425718,"T",NA,NA,NA
"188","del",11,1,"SRR3696876.25",TRUE,FALSE,62,7.74032459425718,"T",NA,NA,NA
"189","del",11,1,"SRR3696876.2506",TRUE,FALSE,62,7.74032459425718,"T",NA,NA,NA
"190","del",11,1,"SRR3696876.2743",TRUE,FALSE,62,7.74032459425718,"T",NA,NA,NA
"191","del",11,1,"SRR3696876.2797",TRUE,FALSE,62,7.74032459425718,"T",NA,NA,NA
"192","del",11,1,"SRR3696876.2850",TRUE,FALSE,62,7.74032459425718,"T",NA,NA,NA
"193","del",11,1,"SRR3696876.2853",TRUE,FALSE,62,7.74032459425718,"T",NA,NA,NA
"194","del",11,1,"SRR3696876.3026",TRUE,FALSE,62,7.74032459425718,"T",NA,NA,NA
"195","del",11,1,"SRR3696876.3234",TRUE,FALSE,62,7.74032459425718,"T",NA,NA,NA
"196","del",11,1,"SRR3696876.3333",TRUE,FALSE,62,7.74032459425718,"T",NA,NA,NA
"197","del",11,1,"SRR3696876.3364",TRUE,FALSE,62,7.74032459425718,"T",NA,NA,NA
"198","del",11,1,"SRR3696876.3476",TRUE,FALSE,62,7.74032459425718,"T",NA,NA,NA
"199","del",11,1,"SRR3696876.3541",TRUE,FALSE,62,7.74032459425718,"T",NA,NA,NA
"200","del",11,1,"SRR3696876.3582",TRUE,FALSE,62,7.74032459425718,"T",NA,NA,NA
"201","del",11,1,"SRR3696876.3689",TRUE,FALSE,62,7.74032459425718,"T",NA,NA,NA
"202","del",11,1,"SRR3696876.3898",TRUE,FALSE,62,7.74032459425718,"T",NA,NA,NA
"203","del",11,1,"SRR3696876.4073",TRUE,FALSE,62,7.74032459425718,"T",NA,NA,NA
"204","del",11,1,"SRR3696876.4373",TRUE,FALSE,62,7.74032459425718,"T",NA,NA,NA
"205","del",11,1,"SRR3696876.4515",TRUE,FALSE,62,7.74032459425718,"T",NA,NA,NA
"206","del",11,1,"SRR3696876.4577",TRUE,FALSE,62,7.74032459425718,"T",NA,NA,NA
"207","del",11,1,"SRR3696876.4782",TRUE,FALSE,62,7.74032459425718,"T",NA,NA,NA
"208","del",11,1,"SRR3696876.4867",TRUE,FALSE,62,7.74032459425718,"T",NA,NA,NA
"209","del",11,1,"SRR3696876.4879",TRUE,FALSE,62,7.74032459425718,"T",NA,NA,NA
"210","del",11,1,"SRR3696876.4907",TRUE,FALSE,62,7.74032459425718,"T",NA,NA,NA
"211","del",11,1,"SRR3696876.5196",TRUE,FALSE,62,7.74032459425718,"T",NA,NA,NA
"212","del",11,1,"SRR3696876.5243",TRUE,FALSE,62,7.74032459425718,"T",NA,NA,NA
"213","del",11,1,"SRR3696876.5365",TRUE,FALSE,62,7.74032459425718,"T",NA,NA,NA
"214","del",11,1,"SRR3696876.548",TRUE,FALSE,62,7.74032459425718,"T",NA,NA,NA
"215","del",11,1,"SRR3696876.5490",TRUE,FALSE,62,7.74032459425718,"T",NA,NA,NA
"216","del",11,1,"SRR3696876.5587",TRUE,FALSE,62,7.74032459425718,"T",NA,NA,NA
"217","del",11,1,"SRR3696876.5610",TRUE,FALSE,62,7.74032459425718,"T",NA,NA,NA
"218","del",11,1,"SRR3696876.5667",TRUE,FALSE,62,7.74032459425718,"T",NA,NA,NA
"219","del",11,1,"SRR3696876.5668",TRUE,FALSE,62,7.74032459425718,"T",NA,NA,NA
"220","del",11,1,"SRR3696876.5830",TRUE,FALSE,62,7.74032459425718,"T",NA,NA,NA
"221","del",11,1,"SRR3696876.5998",TRUE,FALSE,62,7.74032459425718,"T",NA,NA,NA
"222","del",11,1,"SRR3696876.6178",TRUE,FALSE,62,7.74032459425718,"T",NA,NA,NA
"223","del",11,1,"SRR3696876.6407",TRUE,FALSE,62,7.74032459425718,"T",NA,NA,NA
"224","del",11,1,"SRR3696876.6561",TRUE,FALSE,62,7.74032459425718,"T",NA,NA,NA
"225","del",11,1,"SRR3696876.659",TRUE,FALSE,62,7.74032459425718,"T",NA,NA,NA
"226","del",11,1,"SRR3696876.6755",TRUE,FALSE,62,7.74032459425718,"T",NA,NA,NA
"227","del",11,1,"SRR3696876.6851",TRUE,FALSE,62,7.74032459425718,"T",NA,NA,NA
"228","del",11,1,"SRR3696876.7081",TRUE,FALSE,62,7.74032459425718,"T",NA,NA,NA
"229","del",11,1,"SRR3696876.7149",TRUE,FALSE,62,7.74032459425718,"T",NA,NA,NA
"230","del",11,1,"SRR3696876.7172",TRUE,FALSE,62,7.74032459425718,"T",NA,NA,NA
"231","del",11,1,"SRR3696876.7233",TRUE,FALSE,62,7.74032459425718,"T",NA,NA,NA
"232","del",11,1,"SRR3696876.7764",TRUE,FALSE,62,7.74032459425718,"T",NA,NA,NA
"233","del",11,1,"SRR3696876.8332",TRUE,FALSE,62,7.74032459425718,"T",NA,NA,NA
"234","del",11,1,"SRR3696876.8441",TRUE,FALSE,62,7.74032459425718,"T",NA,NA,NA
"235","del",11,1,"SRR3696876.8730",TRUE,FALSE,62,7.74032459425718,"T",NA,NA,NA
"236","del",11,2,"SRR3696876.425",FALSE,FALSE,2,0.249687890137328,"NHEJ",NA,NA,NA
"237","del",11,2,"SRR3696876.4524",FALSE,FALSE,2,0.249687890137328,"NHEJ",NA,NA,NA
"238","del",11,3,"SRR3696876.2317",FALSE,FALSE,1,0.124843945068664,"NHEJ",NA,NA,NA
"239","del",13,1,"SRR3696876.1072",TRUE,FALSE,16,1.99750312109863,"NHEJ",NA,NA,NA
"240","del",13,1,"SRR3696876.2020",TRUE,FALSE,16,1.99750312109863,"NHEJ",NA,NA,NA
"241","del",13,1,"SRR3696876.2128",TRUE,FALSE,16,1.99750312109863,"NHEJ",NA,NA,NA
"242","del",13,1,"SRR3696876.2437",TRUE,FALSE,16,1.99750312109863,"NHEJ",NA,NA,NA
"243","del",13,1,"SRR3696876.2880",TRUE,FALSE,16,1.99750312109863,"NHEJ",NA,NA,NA
"244","del",13,1,"SRR3696876.327",TRUE,FALSE,16,1.99750312109863,"NHEJ",NA,NA,NA
"245","del",13,1,"SRR3696876.4021",TRUE,FALSE,16,1.99750312109863,"NHEJ",NA,NA,NA
"246","del",13,1,"SRR3696876.4025",TRUE,FALSE,16,1.99750312109863,"NHEJ",NA,NA,NA
"247","del",13,1,"SRR3696876.4723",TRUE,FALSE,16,1.99750312109863,"NHEJ",NA,NA,NA
"248","del",13,1,"SRR3696876.584",TRUE,FALSE,16,1.99750312109863,"NHEJ",NA,NA,NA
"249","del",13,1,"SRR3696876.6615",TRUE,FALSE,16,1.99750312109863,"NHEJ",NA,NA,NA
"250","del",13,1,"SRR3696876.7107",TRUE,FALSE,16,1.99750312109863,"NHEJ",NA,NA,NA
"251","del",13,1,"SRR3696876.7383",TRUE,FALSE,16,1.99750312109863,"NHEJ",NA,NA,NA
"252","del",13,1,"SRR3696876.7472",TRUE,FALSE,16,1.99750312109863,"NHEJ",NA,NA,NA
"253","del",13,1,"SRR3696876.7533",TRUE,FALSE,16,1.99750312109863,"NHEJ",NA,NA,NA
"254","del",13,1,"SRR3696876.8408",TRUE,FALSE,16,1.99750312109863,"NHEJ",NA,NA,NA
"255","del",14,1,"SRR3696876.1018",TRUE,FALSE,37,4.61922596754057,"A",NA,NA,NA
"256","del",14,1,"SRR3696876.1064",TRUE,FALSE,37,4.61922596754057,"A",NA,NA,NA
"257","del",14,1,"SRR3696876.1127",TRUE,FALSE,37,4.61922596754057,"A",NA,NA,NA
"258","del",14,1,"SRR3696876.1637",TRUE,FALSE,37,4.61922596754057,"A",NA,NA,NA
"259","del",14,1,"SRR3696876.2176",TRUE,FALSE,37,4.61922596754057,"A",NA,NA,NA
"260","del",14,1,"SRR3696876.2255",TRUE,FALSE,37,4.61922596754057,"A",NA,NA,NA
"261","del",14,1,"SRR3696876.2341",TRUE,FALSE,37,4.61922596754057,"A",NA,NA,NA
"262","del",14,1,"SRR3696876.2485",TRUE,FALSE,37,4.61922596754057,"A",NA,NA,NA
"263","del",14,1,"SRR3696876.2607",TRUE,FALSE,37,4.61922596754057,"A",NA,NA,NA
"264","del",14,1,"SRR3696876.3052",TRUE,FALSE,37,4.61922596754057,"A",NA,NA,NA
"265","del",14,1,"SRR3696876.3433",TRUE,FALSE,37,4.61922596754057,"A",NA,NA,NA
"266","del",14,1,"SRR3696876.3612",TRUE,FALSE,37,4.61922596754057,"A",NA,NA,NA
"267","del",14,1,"SRR3696876.3678",TRUE,FALSE,37,4.61922596754057,"A",NA,NA,NA
"268","del",14,1,"SRR3696876.4055",TRUE,FALSE,37,4.61922596754057,"A",NA,NA,NA
"269","del",14,1,"SRR3696876.4210",TRUE,FALSE,37,4.61922596754057,"A",NA,NA,NA
"270","del",14,1,"SRR3696876.4214",TRUE,FALSE,37,4.61922596754057,"A",NA,NA,NA
"271","del",14,1,"SRR3696876.5306",TRUE,FALSE,37,4.61922596754057,"A",NA,NA,NA
"272","del",14,1,"SRR3696876.5316",TRUE,FALSE,37,4.61922596754057,"A",NA,NA,NA
"273","del",14,1,"SRR3696876.5550",TRUE,FALSE,37,4.61922596754057,"A",NA,NA,NA
"274","del",14,1,"SRR3696876.5643",TRUE,FALSE,37,4.61922596754057,"A",NA,NA,NA
"275","del",14,1,"SRR3696876.6701",TRUE,FALSE,37,4.61922596754057,"A",NA,NA,NA
"276","del",14,1,"SRR3696876.6847",TRUE,FALSE,37,4.61922596754057,"A",NA,NA,NA
"277","del",14,1,"SRR3696876.6932",TRUE,FALSE,37,4.61922596754057,"A",NA,NA,NA
"278","del",14,1,"SRR3696876.6954",TRUE,FALSE,37,4.61922596754057,"A",NA,NA,NA
"279","del",14,1,"SRR3696876.7206",TRUE,FALSE,37,4.61922596754057,"A",NA,NA,NA
"280","del",14,1,"SRR3696876.7301",TRUE,FALSE,37,4.61922596754057,"A",NA,NA,NA
"281","del",14,1,"SRR3696876.7903",TRUE,FALSE,37,4.61922596754057,"A",NA,NA,NA
"282","del",14,1,"SRR3696876.8092",TRUE,FALSE,37,4.61922596754057,"A",NA,NA,NA
"283","del",14,1,"SRR3696876.8162",TRUE,FALSE,37,4.61922596754057,"A",NA,NA,NA
"284","del",14,1,"SRR3696876.8217",TRUE,FALSE,37,4.61922596754057,"A",NA,NA,NA
"285","del",14,1,"SRR3696876.8351",TRUE,FALSE,37,4.61922596754057,"A",NA,NA,NA
"286","del",14,1,"SRR3696876.8652",TRUE,FALSE,37,4.61922596754057,"A",NA,NA,NA
"287","del",14,1,"SRR3696876.8678",TRUE,FALSE,37,4.61922596754057,"A",NA,NA,NA
"288","del",14,1,"SRR3696876.8729",TRUE,FALSE,37,4.61922596754057,"A",NA,NA,NA
"289","del",14,1,"SRR3696876.8739",TRUE,FALSE,37,4.61922596754057,"A",NA,NA,NA
"290","del",14,1,"SRR3696876.8782",TRUE,FALSE,37,4.61922596754057,"A",NA,NA,NA
"291","del",14,1,"SRR3696876.8822",TRUE,FALSE,37,4.61922596754057,"A",NA,NA,NA
"292","del",16,1,"SRR3696876.115",TRUE,FALSE,3,0.374531835205993,"NHEJ",NA,NA,NA
"293","del",16,1,"SRR3696876.2127",TRUE,FALSE,3,0.374531835205993,"NHEJ",NA,NA,NA
"294","del",16,1,"SRR3696876.3935",TRUE,FALSE,3,0.374531835205993,"NHEJ",NA,NA,NA
"295","del",19,1,"SRR3696876.2570",TRUE,FALSE,2,0.249687890137328,"G",NA,NA,NA
"296","del",19,1,"SRR3696876.7230",TRUE,FALSE,2,0.249687890137328,"G",NA,NA,NA
"297","del",50,1,"SRR3696876.1092",TRUE,FALSE,97,12.1098626716604,"C",NA,NA,NA
"298","del",50,1,"SRR3696876.1099",TRUE,FALSE,97,12.1098626716604,"C",NA,NA,NA
"299","del",50,1,"SRR3696876.1211",TRUE,FALSE,97,12.1098626716604,"C",NA,NA,NA
"300","del",50,1,"SRR3696876.1369",TRUE,FALSE,97,12.1098626716604,"C",NA,NA,NA
"301","del",50,1,"SRR3696876.1469",TRUE,FALSE,97,12.1098626716604,"C",NA,NA,NA
"302","del",50,1,"SRR3696876.1471",TRUE,FALSE,97,12.1098626716604,"C",NA,NA,NA
"303","del",50,1,"SRR3696876.1701",TRUE,FALSE,97,12.1098626716604,"C",NA,NA,NA
"304","del",50,1,"SRR3696876.1742",TRUE,FALSE,97,12.1098626716604,"C",NA,NA,NA
"305","del",50,1,"SRR3696876.1808",TRUE,FALSE,97,12.1098626716604,"C",NA,NA,NA
"306","del",50,1,"SRR3696876.1957",TRUE,FALSE,97,12.1098626716604,"C",NA,NA,NA
"307","del",50,1,"SRR3696876.2005",TRUE,FALSE,97,12.1098626716604,"C",NA,NA,NA
"308","del",50,1,"SRR3696876.2046",TRUE,FALSE,97,12.1098626716604,"C",NA,NA,NA
"309","del",50,1,"SRR3696876.238",TRUE,FALSE,97,12.1098626716604,"C",NA,NA,NA
"310","del",50,1,"SRR3696876.2383",TRUE,FALSE,97,12.1098626716604,"C",NA,NA,NA
"311","del",50,1,"SRR3696876.2505",TRUE,FALSE,97,12.1098626716604,"C",NA,NA,NA
"312","del",50,1,"SRR3696876.2551",TRUE,FALSE,97,12.1098626716604,"C",NA,NA,NA
"313","del",50,1,"SRR3696876.2638",TRUE,FALSE,97,12.1098626716604,"C",NA,NA,NA
"314","del",50,1,"SRR3696876.2665",TRUE,FALSE,97,12.1098626716604,"C",NA,NA,NA
"315","del",50,1,"SRR3696876.2687",TRUE,FALSE,97,12.1098626716604,"C",NA,NA,NA
"316","del",50,1,"SRR3696876.27",TRUE,FALSE,97,12.1098626716604,"C",NA,NA,NA
"317","del",50,1,"SRR3696876.2960",TRUE,FALSE,97,12.1098626716604,"C",NA,NA,NA
"318","del",50,1,"SRR3696876.2992",TRUE,FALSE,97,12.1098626716604,"C",NA,NA,NA
"319","del",50,1,"SRR3696876.2993",TRUE,FALSE,97,12.1098626716604,"C",NA,NA,NA
"320","del",50,1,"SRR3696876.3094",TRUE,FALSE,97,12.1098626716604,"C",NA,NA,NA
"321","del",50,1,"SRR3696876.311",TRUE,FALSE,97,12.1098626716604,"C",NA,NA,NA
"322","del",50,1,"SRR3696876.3163",TRUE,FALSE,97,12.1098626716604,"C",NA,NA,NA
"323","del",50,1,"SRR3696876.326",TRUE,FALSE,97,12.1098626716604,"C",NA,NA,NA
"324","del",50,1,"SRR3696876.3391",TRUE,FALSE,97,12.1098626716604,"C",NA,NA,NA
"325","del",50,1,"SRR3696876.344",TRUE,FALSE,97,12.1098626716604,"C",NA,NA,NA
"326","del",50,1,"SRR3696876.3545",TRUE,FALSE,97,12.1098626716604,"C",NA,NA,NA
"327","del",50,1,"SRR3696876.3754",TRUE,FALSE,97,12.1098626716604,"C",NA,NA,NA
"328","del",50,1,"SRR3696876.3762",TRUE,FALSE,97,12.1098626716604,"C",NA,NA,NA
"329","del",50,1,"SRR3696876.3778",TRUE,FALSE,97,12.1098626716604,"C",NA,NA,NA
"330","del",50,1,"SRR3696876.3855",TRUE,FALSE,97,12.1098626716604,"C",NA,NA,NA
"331","del",50,1,"SRR3696876.3864",TRUE,FALSE,97,12.1098626716604,"C",NA,NA,NA
"332","del",50,1,"SRR3696876.3909",TRUE,FALSE,97,12.1098626716604,"C",NA,NA,NA
"333","del",50,1,"SRR3696876.4159",TRUE,FALSE,97,12.1098626716604,"C",NA,NA,NA
"334","del",50,1,"SRR3696876.4324",TRUE,FALSE,97,12.1098626716604,"C",NA,NA,NA
"335","del",50,1,"SRR3696876.4336",TRUE,FALSE,97,12.1098626716604,"C",NA,NA,NA
"336","del",50,1,"SRR3696876.4365",TRUE,FALSE,97,12.1098626716604,"C",NA,NA,NA
"337","del",50,1,"SRR3696876.4394",TRUE,FALSE,97,12.1098626716604,"C",NA,NA,NA
"338","del",50,1,"SRR3696876.4445",TRUE,FALSE,97,12.1098626716604,"C",NA,NA,NA
"339","del",50,1,"SRR3696876.4446",TRUE,FALSE,97,12.1098626716604,"C",NA,NA,NA
"340","del",50,1,"SRR3696876.4552",TRUE,FALSE,97,12.1098626716604,"C",NA,NA,NA
"341","del",50,1,"SRR3696876.4561",TRUE,FALSE,97,12.1098626716604,"C",NA,NA,NA
"342","del",50,1,"SRR3696876.4626",TRUE,FALSE,97,12.1098626716604,"C",NA,NA,NA
"343","del",50,1,"SRR3696876.4668",TRUE,FALSE,97,12.1098626716604,"C",NA,NA,NA
"344","del",50,1,"SRR3696876.4688",TRUE,FALSE,97,12.1098626716604,"C",NA,NA,NA
"345","del",50,1,"SRR3696876.4709",TRUE,FALSE,97,12.1098626716604,"C",NA,NA,NA
"346","del",50,1,"SRR3696876.4753",TRUE,FALSE,97,12.1098626716604,"C",NA,NA,NA
"347","del",50,1,"SRR3696876.4764",TRUE,FALSE,97,12.1098626716604,"C",NA,NA,NA
"348","del",50,1,"SRR3696876.4785",TRUE,FALSE,97,12.1098626716604,"C",NA,NA,NA
"349","del",50,1,"SRR3696876.4824",TRUE,FALSE,97,12.1098626716604,"C",NA,NA,NA
"350","del",50,1,"SRR3696876.5129",TRUE,FALSE,97,12.1098626716604,"C",NA,NA,NA
"351","del",50,1,"SRR3696876.5188",TRUE,FALSE,97,12.1098626716604,"C",NA,NA,NA
"352","del",50,1,"SRR3696876.5201",TRUE,FALSE,97,12.1098626716604,"C",NA,NA,NA
"353","del",50,1,"SRR3696876.5246",TRUE,FALSE,97,12.1098626716604,"C",NA,NA,NA
"354","del",50,1,"SRR3696876.5282",TRUE,FALSE,97,12.1098626716604,"C",NA,NA,NA
"355","del",50,1,"SRR3696876.5286",TRUE,FALSE,97,12.1098626716604,"C",NA,NA,NA
"356","del",50,1,"SRR3696876.5407",TRUE,FALSE,97,12.1098626716604,"C",NA,NA,NA
"357","del",50,1,"SRR3696876.5459",TRUE,FALSE,97,12.1098626716604,"C",NA,NA,NA
"358","del",50,1,"SRR3696876.5498",TRUE,FALSE,97,12.1098626716604,"C",NA,NA,NA
"359","del",50,1,"SRR3696876.554",TRUE,FALSE,97,12.1098626716604,"C",NA,NA,NA
"360","del",50,1,"SRR3696876.5571",TRUE,FALSE,97,12.1098626716604,"C",NA,NA,NA
"361","del",50,1,"SRR3696876.5702",TRUE,FALSE,97,12.1098626716604,"C",NA,NA,NA
"362","del",50,1,"SRR3696876.5897",TRUE,FALSE,97,12.1098626716604,"C",NA,NA,NA
"363","del",50,1,"SRR3696876.6000",TRUE,FALSE,97,12.1098626716604,"C",NA,NA,NA
"364","del",50,1,"SRR3696876.6048",TRUE,FALSE,97,12.1098626716604,"C",NA,NA,NA
"365","del",50,1,"SRR3696876.6147",TRUE,FALSE,97,12.1098626716604,"C",NA,NA,NA
"366","del",50,1,"SRR3696876.6458",TRUE,FALSE,97,12.1098626716604,"C",NA,NA,NA
"367","del",50,1,"SRR3696876.6542",TRUE,FALSE,97,12.1098626716604,"C",NA,NA,NA
"368","del",50,1,"SRR3696876.6563",TRUE,FALSE,97,12.1098626716604,"C",NA,NA,NA
"369","del",50,1,"SRR3696876.6910",TRUE,FALSE,97,12.1098626716604,"C",NA,NA,NA
"370","del",50,1,"SRR3696876.7001",TRUE,FALSE,97,12.1098626716604,"C",NA,NA,NA
"371","del",50,1,"SRR3696876.7026",TRUE,FALSE,97,12.1098626716604,"C",NA,NA,NA
"372","del",50,1,"SRR3696876.7201",TRUE,FALSE,97,12.1098626716604,"C",NA,NA,NA
"373","del",50,1,"SRR3696876.7202",TRUE,FALSE,97,12.1098626716604,"C",NA,NA,NA
"374","del",50,1,"SRR3696876.7355",TRUE,FALSE,97,12.1098626716604,"C",NA,NA,NA
"375","del",50,1,"SRR3696876.7578",TRUE,FALSE,97,12.1098626716604,"C",NA,NA,NA
"376","del",50,1,"SRR3696876.7672",TRUE,FALSE,97,12.1098626716604,"C",NA,NA,NA
"377","del",50,1,"SRR3696876.7702",TRUE,FALSE,97,12.1098626716604,"C",NA,NA,NA
"378","del",50,1,"SRR3696876.7744",TRUE,FALSE,97,12.1098626716604,"C",NA,NA,NA
"379","del",50,1,"SRR3696876.7779",TRUE,FALSE,97,12.1098626716604,"C",NA,NA,NA
"380","del",50,1,"SRR3696876.7797",TRUE,FALSE,97,12.1098626716604,"C",NA,NA,NA
"381","del",50,1,"SRR3696876.7936",TRUE,FALSE,97,12.1098626716604,"C",NA,NA,NA
"382","del",50,1,"SRR3696876.7987",TRUE,FALSE,97,12.1098626716604,"C",NA,NA,NA
"383","del",50,1,"SRR3696876.8028",TRUE,FALSE,97,12.1098626716604,"C",NA,NA,NA
"384","del",50,1,"SRR3696876.8151",TRUE,FALSE,97,12.1098626716604,"C",NA,NA,NA
"385","del",50,1,"SRR3696876.834",TRUE,FALSE,97,12.1098626716604,"C",NA,NA,NA
"386","del",50,1,"SRR3696876.8381",TRUE,FALSE,97,12.1098626716604,"C",NA,NA,NA
"387","del",50,1,"SRR3696876.8495",TRUE,FALSE,97,12.1098626716604,"C",NA,NA,NA
"388","del",50,1,"SRR3696876.8711",TRUE,FALSE,97,12.1098626716604,"C",NA,NA,NA
"389","del",50,1,"SRR3696876.8763",TRUE,FALSE,97,12.1098626716604,"C",NA,NA,NA
"390","del",50,1,"SRR3696876.8786",TRUE,FALSE,97,12.1098626716604,"C",NA,NA,NA
"391","del",50,1,"SRR3696876.942",TRUE,FALSE,97,12.1098626716604,"C",NA,NA,NA
"392","del",50,1,"SRR3696876.974",TRUE,FALSE,97,12.1098626716604,"C",NA,NA,NA
"393","del",50,1,"SRR3696876.981",TRUE,FALSE,97,12.1098626716604,"C",NA,NA,NA
"394","del",56,1,"SRR3696876.1338",FALSE,FALSE,2,0.249687890137328,"NHEJ",NA,NA,NA
"395","del",56,1,"SRR3696876.5431",FALSE,FALSE,2,0.249687890137328,"NHEJ",NA,NA,NA
"396","del",87,1,"SRR3696876.6935",TRUE,FALSE,2,0.249687890137328,"C",NA,NA,NA
"397","del",87,1,"SRR3696876.7603",TRUE,FALSE,2,0.249687890137328,"C",NA,NA,NA
"398","del",93,1,"SRR3696876.3722",FALSE,FALSE,1,0.124843945068664,"G",NA,NA,NA
"399","del",104,25,"SRR3696876.5548",FALSE,FALSE,1,0.124843945068664,"NHEJ",NA,NA,NA
"400","del",108,33,"SRR3696876.7835",FALSE,TRUE,1,0.124843945068664,"GGA",NA,NA,NA
"401","del",110,17,"SRR3696876.1595",TRUE,TRUE,3,0.374531835205993,"AGC",NA,NA,NA
"402","del",110,17,"SRR3696876.2641",TRUE,TRUE,3,0.374531835205993,"AGC",NA,NA,NA
"403","del",110,17,"SRR3696876.3172",TRUE,TRUE,3,0.374531835205993,"AGC",NA,NA,NA
"404","del",111,22,"SRR3696876.2264",TRUE,TRUE,3,0.374531835205993,"GC",NA,NA,NA
"405","del",111,22,"SRR3696876.2635",TRUE,TRUE,3,0.374531835205993,"GC",NA,NA,NA
"406","del",111,22,"SRR3696876.4169",TRUE,TRUE,3,0.374531835205993,"GC",NA,NA,NA
"407","del",112,14,"SRR3696876.701",TRUE,TRUE,2,0.249687890137328,"CAG",NA,NA,NA
"408","del",112,14,"SRR3696876.784",TRUE,TRUE,2,0.249687890137328,"CAG",NA,NA,NA
"409","del",114,24,"SRR3696876.15",FALSE,TRUE,1,0.124843945068664,"G",NA,NA,NA
"410","del",114,27,"SRR3696876.5162",TRUE,TRUE,3,0.374531835205993,"GG",NA,NA,NA
"411","del",114,27,"SRR3696876.5875",TRUE,TRUE,3,0.374531835205993,"GG",NA,NA,NA
"412","del",114,27,"SRR3696876.973",TRUE,TRUE,3,0.374531835205993,"GG",NA,NA,NA
"413","del",114,38,"SRR3696876.8421",FALSE,TRUE,1,0.124843945068664,"GG",NA,NA,NA
"414","del",115,17,"SRR3696876.1869",TRUE,TRUE,3,0.374531835205993,"GG",NA,NA,NA
"415","del",115,17,"SRR3696876.2063",TRUE,TRUE,3,0.374531835205993,"GG",NA,NA,NA
"416","del",115,17,"SRR3696876.5295",TRUE,TRUE,3,0.374531835205993,"GG",NA,NA,NA
"417","del",115,26,"SRR3696876.3885",TRUE,TRUE,2,0.249687890137328,"GG",NA,NA,NA
"418","del",115,26,"SRR3696876.7247",TRUE,TRUE,2,0.249687890137328,"GG",NA,NA,NA
"419","del",115,41,"SRR3696876.2539",TRUE,TRUE,2,0.249687890137328,"GG",NA,NA,NA
"420","del",115,41,"SRR3696876.2829",TRUE,TRUE,2,0.249687890137328,"GG",NA,NA,NA
"421","del",116,11,"SRR3696876.1900",TRUE,TRUE,2,0.249687890137328,"NHEJ",NA,NA,NA
"422","del",116,11,"SRR3696876.5510",TRUE,TRUE,2,0.249687890137328,"NHEJ",NA,NA,NA
"423","del",116,12,"SRR3696876.2080",TRUE,TRUE,7,0.873907615480649,"G",NA,NA,NA
"424","del",116,12,"SRR3696876.392",TRUE,TRUE,7,0.873907615480649,"G",NA,NA,NA
"425","del",116,12,"SRR3696876.4549",TRUE,TRUE,7,0.873907615480649,"G",NA,NA,NA
"426","del",116,12,"SRR3696876.4654",TRUE,TRUE,7,0.873907615480649,"G",NA,NA,NA
"427","del",116,12,"SRR3696876.672",TRUE,TRUE,7,0.873907615480649,"G",NA,NA,NA
"428","del",116,12,"SRR3696876.6831",TRUE,TRUE,7,0.873907615480649,"G",NA,NA,NA
"429","del",116,12,"SRR3696876.7093",TRUE,TRUE,7,0.873907615480649,"G",NA,NA,NA
"430","del",116,20,"SRR3696876.1311",TRUE,TRUE,3,0.374531835205993,"GTG",NA,NA,NA
"431","del",116,20,"SRR3696876.6361",TRUE,TRUE,3,0.374531835205993,"GTG",NA,NA,NA
"432","del",116,20,"SRR3696876.8527",TRUE,TRUE,3,0.374531835205993,"GTG",NA,NA,NA
"433","del",117,14,"SRR3696876.1431",FALSE,TRUE,1,0.124843945068664,"TG",NA,NA,NA
"434","del",117,23,"SRR3696876.1056",FALSE,TRUE,1,0.124843945068664,"TG",NA,NA,NA
"435","del",118,10,"SRR3696876.8202",FALSE,TRUE,1,0.124843945068664,"G",NA,NA,NA
"436","del",118,11,"SRR3696876.1994",FALSE,TRUE,1,0.124843945068664,"NHEJ",NA,NA,NA
"437","del",118,24,"SRR3696876.2283",TRUE,TRUE,2,0.249687890137328,"GA",NA,NA,NA
"438","del",118,24,"SRR3696876.5731",TRUE,TRUE,2,0.249687890137328,"GA",NA,NA,NA
"439","del",118,26,"SRR3696876.6161",FALSE,TRUE,1,0.124843945068664,"NHEJ",NA,NA,NA
"440","del",119,8,"SRR3696876.2433",TRUE,TRUE,2,0.249687890137328,"AG",NA,NA,NA
"441","del",119,8,"SRR3696876.4701",TRUE,TRUE,2,0.249687890137328,"AG",NA,NA,NA
"442","del",119,16,"SRR3696876.2930",FALSE,TRUE,1,0.124843945068664,"NHEJ",NA,NA,NA
"443","del",120,16,"SRR3696876.1699",TRUE,TRUE,10,1.24843945068664,"GTGT",NA,NA,NA
"444","del",120,16,"SRR3696876.2200",TRUE,TRUE,10,1.24843945068664,"GTGT",NA,NA,NA
"445","del",120,16,"SRR3696876.401",TRUE,TRUE,10,1.24843945068664,"GTGT",NA,NA,NA
"446","del",120,16,"SRR3696876.4700",TRUE,TRUE,10,1.24843945068664,"GTGT",NA,NA,NA
"447","del",120,16,"SRR3696876.5065",TRUE,TRUE,10,1.24843945068664,"GTGT",NA,NA,NA
"448","del",120,16,"SRR3696876.5182",TRUE,TRUE,10,1.24843945068664,"GTGT",NA,NA,NA
"449","del",120,16,"SRR3696876.5546",TRUE,TRUE,10,1.24843945068664,"GTGT",NA,NA,NA
"450","del",120,16,"SRR3696876.5805",TRUE,TRUE,10,1.24843945068664,"GTGT",NA,NA,NA
"451","del",120,16,"SRR3696876.6370",TRUE,TRUE,10,1.24843945068664,"GTGT",NA,NA,NA
"452","del",120,16,"SRR3696876.7336",TRUE,TRUE,10,1.24843945068664,"GTGT",NA,NA,NA
"453","del",120,22,"SRR3696876.6131",FALSE,TRUE,1,0.124843945068664,"G",NA,NA,NA
"454","del",120,27,"SRR3696876.3070",FALSE,TRUE,1,0.124843945068664,"G",NA,NA,NA
"455","del",121,6,"SRR3696876.379",TRUE,TRUE,3,0.374531835205993,"NHEJ",NA,NA,NA
"456","del",121,6,"SRR3696876.4052",TRUE,TRUE,3,0.374531835205993,"NHEJ",NA,NA,NA
"457","del",121,6,"SRR3696876.6274",TRUE,TRUE,3,0.374531835205993,"NHEJ",NA,NA,NA
"458","del",121,14,"SRR3696876.3662",FALSE,TRUE,1,0.124843945068664,"NHEJ",NA,NA,NA
"459","del",122,6,"SRR3696876.1652",TRUE,TRUE,13,1.62297128589263,"G",NA,NA,NA
"460","del",122,6,"SRR3696876.1969",TRUE,TRUE,13,1.62297128589263,"G",NA,NA,NA
"461","del",122,6,"SRR3696876.291",TRUE,TRUE,13,1.62297128589263,"G",NA,NA,NA
"462","del",122,6,"SRR3696876.2997",TRUE,TRUE,13,1.62297128589263,"G",NA,NA,NA
"463","del",122,6,"SRR3696876.3470",TRUE,TRUE,13,1.62297128589263,"G",NA,NA,NA
"464","del",122,6,"SRR3696876.3489",TRUE,TRUE,13,1.62297128589263,"G",NA,NA,NA
"465","del",122,6,"SRR3696876.410",TRUE,TRUE,13,1.62297128589263,"G",NA,NA,NA
"466","del",122,6,"SRR3696876.4249",TRUE,TRUE,13,1.62297128589263,"G",NA,NA,NA
"467","del",122,6,"SRR3696876.5018",TRUE,TRUE,13,1.62297128589263,"G",NA,NA,NA
"468","del",122,6,"SRR3696876.5569",TRUE,TRUE,13,1.62297128589263,"G",NA,NA,NA
"469","del",122,6,"SRR3696876.6341",TRUE,TRUE,13,1.62297128589263,"G",NA,NA,NA
"470","del",122,6,"SRR3696876.7453",TRUE,TRUE,13,1.62297128589263,"G",NA,NA,NA
"471","del",122,6,"SRR3696876.825",TRUE,TRUE,13,1.62297128589263,"G",NA,NA,NA
"472","del",122,20,"SRR3696876.1159",TRUE,TRUE,3,0.374531835205993,"G",NA,NA,NA
"473","del",122,20,"SRR3696876.4094",TRUE,TRUE,3,0.374531835205993,"G",NA,NA,NA
"474","del",122,20,"SRR3696876.910",TRUE,TRUE,3,0.374531835205993,"G",NA,NA,NA
"475","del",122,23,"SRR3696876.7286",FALSE,TRUE,1,0.124843945068664,"NHEJ",NA,NA,NA
"476","del",123,4,"SRR3696876.3167",FALSE,TRUE,1,0.124843945068664,"NHEJ",NA,NA,NA
"477","del",124,3,"SRR3696876.5512",FALSE,TRUE,1,0.124843945068664,"NHEJ",NA,NA,NA
"478","del",124,4,"SRR3696876.7569",TRUE,TRUE,2,0.249687890137328,"NHEJ",NA,NA,NA
"479","del",124,4,"SRR3696876.7845",TRUE,TRUE,2,0.249687890137328,"NHEJ",NA,NA,NA
"480","del",124,5,"SRR3696876.923",FALSE,TRUE,1,0.124843945068664,"C",NA,NA,NA
"481","del",124,6,"SRR3696876.1158",TRUE,TRUE,2,0.249687890137328,"CT",NA,NA,NA
"482","del",124,6,"SRR3696876.6038",TRUE,TRUE,2,0.249687890137328,"CT",NA,NA,NA
"483","del",124,11,"SRR3696876.3100",FALSE,TRUE,1,0.124843945068664,"C",NA,NA,NA
"484","del",125,1,"SRR3696876.5080",FALSE,TRUE,1,0.124843945068664,"NHEJ",NA,NA,NA
"485","del",125,15,"SRR3696876.6286",TRUE,TRUE,2,0.249687890137328,"T",NA,NA,NA
"486","del",125,15,"SRR3696876.7431",TRUE,TRUE,2,0.249687890137328,"T",NA,NA,NA
"487","del",125,16,"SRR3696876.3724",TRUE,TRUE,3,0.374531835205993,"NHEJ",NA,NA,NA
"488","del",125,16,"SRR3696876.5526",TRUE,TRUE,3,0.374531835205993,"NHEJ",NA,NA,NA
"489","del",125,16,"SRR3696876.8577",TRUE,TRUE,3,0.374531835205993,"NHEJ",NA,NA,NA
"490","del",126,2,"SRR3696876.7322",FALSE,TRUE,1,0.124843945068664,"NHEJ",NA,NA,NA
"491","del",126,8,"SRR3696876.7815",FALSE,TRUE,1,0.124843945068664,"C",NA,NA,NA
"492","del",126,16,"SRR3696876.4150",FALSE,TRUE,1,0.124843945068664,"NHEJ",NA,NA,NA
"493","del",126,19,"SRR3696876.8313",FALSE,TRUE,1,0.124843945068664,"C",NA,NA,NA
"494","del",127,1,"SRR3696876.1097",TRUE,TRUE,9,1.12359550561798,"NHEJ",NA,NA,NA
"495","del",127,1,"SRR3696876.3235",TRUE,TRUE,9,1.12359550561798,"NHEJ",NA,NA,NA
"496","del",127,1,"SRR3696876.5514",TRUE,TRUE,9,1.12359550561798,"NHEJ",NA,NA,NA
"497","del",127,1,"SRR3696876.6012",TRUE,TRUE,9,1.12359550561798,"NHEJ",NA,NA,NA
"498","del",127,1,"SRR3696876.6415",TRUE,TRUE,9,1.12359550561798,"NHEJ",NA,NA,NA
"499","del",127,1,"SRR3696876.675",TRUE,TRUE,9,1.12359550561798,"NHEJ",NA,NA,NA
"500","del",127,1,"SRR3696876.7068",TRUE,TRUE,9,1.12359550561798,"NHEJ",NA,NA,NA
"501","del",127,1,"SRR3696876.909",TRUE,TRUE,9,1.12359550561798,"NHEJ",NA,NA,NA
"502","del",127,1,"SRR3696876.927",TRUE,TRUE,9,1.12359550561798,"NHEJ",NA,NA,NA
"503","del",127,2,"SRR3696876.1809",FALSE,TRUE,1,0.124843945068664,"NHEJ",NA,NA,NA
"504","del",127,6,"SRR3696876.1118",TRUE,TRUE,3,0.374531835205993,"NHEJ",NA,NA,NA
"505","del",127,6,"SRR3696876.1902",TRUE,TRUE,3,0.374531835205993,"NHEJ",NA,NA,NA
"506","del",127,6,"SRR3696876.7357",TRUE,TRUE,3,0.374531835205993,"NHEJ",NA,NA,NA
"507","del",127,15,"SRR3696876.7059",FALSE,TRUE,1,0.124843945068664,"NHEJ",NA,NA,NA
"508","del",127,16,"SRR3696876.7458",FALSE,TRUE,1,0.124843945068664,"A",NA,NA,NA
"509","del",127,22,"SRR3696876.2899",FALSE,TRUE,1,0.124843945068664,"NHEJ",NA,NA,NA
"510","del",128,2,"SRR3696876.6414",FALSE,TRUE,1,0.124843945068664,"NHEJ",NA,NA,NA
"511","del",128,3,"SRR3696876.1743",TRUE,TRUE,2,0.249687890137328,"NHEJ",NA,NA,NA
"512","del",128,3,"SRR3696876.1918",TRUE,TRUE,2,0.249687890137328,"NHEJ",NA,NA,NA
"513","del",128,6,"SRR3696876.3960",TRUE,TRUE,3,0.374531835205993,"NHEJ",NA,NA,NA
"514","del",128,6,"SRR3696876.4863",TRUE,TRUE,3,0.374531835205993,"NHEJ",NA,NA,NA
"515","del",128,6,"SRR3696876.5497",TRUE,TRUE,3,0.374531835205993,"NHEJ",NA,NA,NA
"516","del",128,7,"SRR3696876.2169",TRUE,TRUE,3,0.374531835205993,"NHEJ",NA,NA,NA
"517","del",128,7,"SRR3696876.4233",TRUE,TRUE,3,0.374531835205993,"NHEJ",NA,NA,NA
"518","del",128,7,"SRR3696876.8327",TRUE,TRUE,3,0.374531835205993,"NHEJ",NA,NA,NA
"519","del",128,9,"SRR3696876.2776",TRUE,TRUE,4,0.499375780274657,"NHEJ",NA,NA,NA
"520","del",128,9,"SRR3696876.5025",TRUE,TRUE,4,0.499375780274657,"NHEJ",NA,NA,NA
"521","del",128,9,"SRR3696876.8367",TRUE,TRUE,4,0.499375780274657,"NHEJ",NA,NA,NA
"522","del",128,9,"SRR3696876.991",TRUE,TRUE,4,0.499375780274657,"NHEJ",NA,NA,NA
"523","del",128,10,"SRR3696876.274",TRUE,TRUE,3,0.374531835205993,"G",NA,NA,NA
"524","del",128,10,"SRR3696876.3755",TRUE,TRUE,3,0.374531835205993,"G",NA,NA,NA
"525","del",128,10,"SRR3696876.4243",TRUE,TRUE,3,0.374531835205993,"G",NA,NA,NA
"526","del",128,12,"SRR3696876.3382",FALSE,TRUE,1,0.124843945068664,"NHEJ",NA,NA,NA
"527","del",128,13,"SRR3696876.1641",TRUE,TRUE,3,0.374531835205993,"G",NA,NA,NA
"528","del",128,13,"SRR3696876.329",TRUE,TRUE,3,0.374531835205993,"G",NA,NA,NA
"529","del",128,13,"SRR3696876.8081",TRUE,TRUE,3,0.374531835205993,"G",NA,NA,NA
"530","del",128,17,"SRR3696876.2103",FALSE,TRUE,1,0.124843945068664,"NHEJ",NA,NA,NA
"531","del",139,1,"SRR3696876.2922",FALSE,TRUE,1,0.124843945068664,"T",NA,NA,NA
"532","del",141,1,"SRR3696876.8375",FALSE,TRUE,1,0.124843945068664,"G",NA,NA,NA
"533","del",147,1,"SRR3696876.6856",TRUE,TRUE,2,0.249687890137328,"G",NA,NA,NA
"534","del",147,1,"SRR3696876.8262",TRUE,TRUE,2,0.249687890137328,"G",NA,NA,NA
"535","del",157,2,"SRR3696876.1519",FALSE,TRUE,1,0.124843945068664,"GC",NA,NA,NA
"536","del",180,1,"SRR3696876.5716",FALSE,FALSE,1,0.124843945068664,"G",NA,NA,NA
"537","del",199,1,"SRR3696876.1013",TRUE,FALSE,4,0.499375780274657,"NHEJ",NA,NA,NA
"538","del",199,1,"SRR3696876.2516",TRUE,FALSE,4,0.499375780274657,"NHEJ",NA,NA,NA
"539","del",199,1,"SRR3696876.2954",TRUE,FALSE,4,0.499375780274657,"NHEJ",NA,NA,NA
"540","del",199,1,"SRR3696876.5055",TRUE,FALSE,4,0.499375780274657,"NHEJ",NA,NA,NA
"541","del",200,1,"SRR3696876.1661",TRUE,FALSE,5,0.624219725343321,"NHEJ",NA,NA,NA
"542","del",200,1,"SRR3696876.2193",TRUE,FALSE,5,0.624219725343321,"NHEJ",NA,NA,NA
"543","del",200,1,"SRR3696876.3441",TRUE,FALSE,5,0.624219725343321,"NHEJ",NA,NA,NA
"544","del",200,1,"SRR3696876.5595",TRUE,FALSE,5,0.624219725343321,"NHEJ",NA,NA,NA
"545","del",200,1,"SRR3696876.5968",TRUE,FALSE,5,0.624219725343321,"NHEJ",NA,NA,NA
"546","del",201,1,"SRR3696876.1702",TRUE,FALSE,7,0.873907615480649,"NHEJ",NA,NA,NA
"547","del",201,1,"SRR3696876.2918",TRUE,FALSE,7,0.873907615480649,"NHEJ",NA,NA,NA
"548","del",201,1,"SRR3696876.4450",TRUE,FALSE,7,0.873907615480649,"NHEJ",NA,NA,NA
"549","del",201,1,"SRR3696876.4855",TRUE,FALSE,7,0.873907615480649,"NHEJ",NA,NA,NA
"550","del",201,1,"SRR3696876.5398",TRUE,FALSE,7,0.873907615480649,"NHEJ",NA,NA,NA
"551","del",201,1,"SRR3696876.6991",TRUE,FALSE,7,0.873907615480649,"NHEJ",NA,NA,NA
"552","del",201,1,"SRR3696876.7324",TRUE,FALSE,7,0.873907615480649,"NHEJ",NA,NA,NA
"553","del",201,2,"SRR3696876.2223",FALSE,FALSE,1,0.124843945068664,"NHEJ",NA,NA,NA
"554","del",202,1,"SRR3696876.1101",TRUE,FALSE,19,2.37203495630462,"NHEJ",NA,NA,NA
"555","del",202,1,"SRR3696876.135",TRUE,FALSE,19,2.37203495630462,"NHEJ",NA,NA,NA
"556","del",202,1,"SRR3696876.1815",TRUE,FALSE,19,2.37203495630462,"NHEJ",NA,NA,NA
"557","del",202,1,"SRR3696876.2292",TRUE,FALSE,19,2.37203495630462,"NHEJ",NA,NA,NA
"558","del",202,1,"SRR3696876.2440",TRUE,FALSE,19,2.37203495630462,"NHEJ",NA,NA,NA
"559","del",202,1,"SRR3696876.377",TRUE,FALSE,19,2.37203495630462,"NHEJ",NA,NA,NA
"560","del",202,1,"SRR3696876.4084",TRUE,FALSE,19,2.37203495630462,"NHEJ",NA,NA,NA
"561","del",202,1,"SRR3696876.4277",TRUE,FALSE,19,2.37203495630462,"NHEJ",NA,NA,NA
"562","del",202,1,"SRR3696876.4502",TRUE,FALSE,19,2.37203495630462,"NHEJ",NA,NA,NA
"563","del",202,1,"SRR3696876.4730",TRUE,FALSE,19,2.37203495630462,"NHEJ",NA,NA,NA
"564","del",202,1,"SRR3696876.4769",TRUE,FALSE,19,2.37203495630462,"NHEJ",NA,NA,NA
"565","del",202,1,"SRR3696876.5140",TRUE,FALSE,19,2.37203495630462,"NHEJ",NA,NA,NA
"566","del",202,1,"SRR3696876.5190",TRUE,FALSE,19,2.37203495630462,"NHEJ",NA,NA,NA
"567","del",202,1,"SRR3696876.6342",TRUE,FALSE,19,2.37203495630462,"NHEJ",NA,NA,NA
"568","del",202,1,"SRR3696876.6858",TRUE,FALSE,19,2.37203495630462,"NHEJ",NA,NA,NA
"569","del",202,1,"SRR3696876.7171",TRUE,FALSE,19,2.37203495630462,"NHEJ",NA,NA,NA
"570","del",202,1,"SRR3696876.7605",TRUE,FALSE,19,2.37203495630462,"NHEJ",NA,NA,NA
"571","del",202,1,"SRR3696876.7811",TRUE,FALSE,19,2.37203495630462,"NHEJ",NA,NA,NA
"572","del",202,1,"SRR3696876.8116",TRUE,FALSE,19,2.37203495630462,"NHEJ",NA,NA,NA
"573","del",202,2,"SRR3696876.1947",TRUE,FALSE,2,0.249687890137328,"NHEJ",NA,NA,NA
"574","del",202,2,"SRR3696876.4995",TRUE,FALSE,2,0.249687890137328,"NHEJ",NA,NA,NA
"575","del",202,3,"SRR3696876.846",FALSE,FALSE,1,0.124843945068664,"NHEJ",NA,NA,NA
"576","del",203,1,"SRR3696876.1079",TRUE,FALSE,27,3.37078651685393,"G",NA,NA,NA
"577","del",203,1,"SRR3696876.1291",TRUE,FALSE,27,3.37078651685393,"G",NA,NA,NA
"578","del",203,1,"SRR3696876.1617",TRUE,FALSE,27,3.37078651685393,"G",NA,NA,NA
"579","del",203,1,"SRR3696876.2122",TRUE,FALSE,27,3.37078651685393,"G",NA,NA,NA
"580","del",203,1,"SRR3696876.288",TRUE,FALSE,27,3.37078651685393,"G",NA,NA,NA
"581","del",203,1,"SRR3696876.3416",TRUE,FALSE,27,3.37078651685393,"G",NA,NA,NA
"582","del",203,1,"SRR3696876.3630",TRUE,FALSE,27,3.37078651685393,"G",NA,NA,NA
"583","del",203,1,"SRR3696876.4316",TRUE,FALSE,27,3.37078651685393,"G",NA,NA,NA
"584","del",203,1,"SRR3696876.4356",TRUE,FALSE,27,3.37078651685393,"G",NA,NA,NA
"585","del",203,1,"SRR3696876.539",TRUE,FALSE,27,3.37078651685393,"G",NA,NA,NA
"586","del",203,1,"SRR3696876.5485",TRUE,FALSE,27,3.37078651685393,"G",NA,NA,NA
"587","del",203,1,"SRR3696876.553",TRUE,FALSE,27,3.37078651685393,"G",NA,NA,NA
"588","del",203,1,"SRR3696876.5570",TRUE,FALSE,27,3.37078651685393,"G",NA,NA,NA
"589","del",203,1,"SRR3696876.5614",TRUE,FALSE,27,3.37078651685393,"G",NA,NA,NA
"590","del",203,1,"SRR3696876.5736",TRUE,FALSE,27,3.37078651685393,"G",NA,NA,NA
"591","del",203,1,"SRR3696876.6195",TRUE,FALSE,27,3.37078651685393,"G",NA,NA,NA
"592","del",203,1,"SRR3696876.6810",TRUE,FALSE,27,3.37078651685393,"G",NA,NA,NA
"593","del",203,1,"SRR3696876.6917",TRUE,FALSE,27,3.37078651685393,"G",NA,NA,NA
"594","del",203,1,"SRR3696876.6949",TRUE,FALSE,27,3.37078651685393,"G",NA,NA,NA
"595","del",203,1,"SRR3696876.6969",TRUE,FALSE,27,3.37078651685393,"G",NA,NA,NA
"596","del",203,1,"SRR3696876.7351",TRUE,FALSE,27,3.37078651685393,"G",NA,NA,NA
"597","del",203,1,"SRR3696876.7824",TRUE,FALSE,27,3.37078651685393,"G",NA,NA,NA
"598","del",203,1,"SRR3696876.8022",TRUE,FALSE,27,3.37078651685393,"G",NA,NA,NA
"599","del",203,1,"SRR3696876.8095",TRUE,FALSE,27,3.37078651685393,"G",NA,NA,NA
"600","del",203,1,"SRR3696876.8478",TRUE,FALSE,27,3.37078651685393,"G",NA,NA,NA
"601","del",203,1,"SRR3696876.8671",TRUE,FALSE,27,3.37078651685393,"G",NA,NA,NA
"602","del",203,1,"SRR3696876.8834",TRUE,FALSE,27,3.37078651685393,"G",NA,NA,NA
"603","del",203,2,"SRR3696876.1334",TRUE,FALSE,4,0.499375780274657,"NHEJ",NA,NA,NA
"604","del",203,2,"SRR3696876.3887",TRUE,FALSE,4,0.499375780274657,"NHEJ",NA,NA,NA
"605","del",203,2,"SRR3696876.4896",TRUE,FALSE,4,0.499375780274657,"NHEJ",NA,NA,NA
"606","del",203,2,"SRR3696876.5575",TRUE,FALSE,4,0.499375780274657,"NHEJ",NA,NA,NA
"607","del",203,3,"SRR3696876.8833",FALSE,FALSE,1,0.124843945068664,"G",NA,NA,NA
"608","del",204,2,"SRR3696876.4182",FALSE,FALSE,1,0.124843945068664,"G",NA,NA,NA
"609","del",205,1,"SRR3696876.1354",TRUE,FALSE,14,1.7478152309613,"NHEJ",NA,NA,NA
"610","del",205,1,"SRR3696876.1940",TRUE,FALSE,14,1.7478152309613,"NHEJ",NA,NA,NA
"611","del",205,1,"SRR3696876.2178",TRUE,FALSE,14,1.7478152309613,"NHEJ",NA,NA,NA
"612","del",205,1,"SRR3696876.2187",TRUE,FALSE,14,1.7478152309613,"NHEJ",NA,NA,NA
"613","del",205,1,"SRR3696876.2817",TRUE,FALSE,14,1.7478152309613,"NHEJ",NA,NA,NA
"614","del",205,1,"SRR3696876.4422",TRUE,FALSE,14,1.7478152309613,"NHEJ",NA,NA,NA
"615","del",205,1,"SRR3696876.4783",TRUE,FALSE,14,1.7478152309613,"NHEJ",NA,NA,NA
"616","del",205,1,"SRR3696876.5048",TRUE,FALSE,14,1.7478152309613,"NHEJ",NA,NA,NA
"617","del",205,1,"SRR3696876.5912",TRUE,FALSE,14,1.7478152309613,"NHEJ",NA,NA,NA
"618","del",205,1,"SRR3696876.6497",TRUE,FALSE,14,1.7478152309613,"NHEJ",NA,NA,NA
"619","del",205,1,"SRR3696876.6946",TRUE,FALSE,14,1.7478152309613,"NHEJ",NA,NA,NA
"620","del",205,1,"SRR3696876.7380",TRUE,FALSE,14,1.7478152309613,"NHEJ",NA,NA,NA
"621","del",205,1,"SRR3696876.7433",TRUE,FALSE,14,1.7478152309613,"NHEJ",NA,NA,NA
"622","del",205,1,"SRR3696876.995",TRUE,FALSE,14,1.7478152309613,"NHEJ",NA,NA,NA
"623","del",206,1,"SRR3696876.1501",TRUE,FALSE,12,1.49812734082397,"NHEJ",NA,NA,NA
"624","del",206,1,"SRR3696876.227",TRUE,FALSE,12,1.49812734082397,"NHEJ",NA,NA,NA
"625","del",206,1,"SRR3696876.277",TRUE,FALSE,12,1.49812734082397,"NHEJ",NA,NA,NA
"626","del",206,1,"SRR3696876.3412",TRUE,FALSE,12,1.49812734082397,"NHEJ",NA,NA,NA
"627","del",206,1,"SRR3696876.361",TRUE,FALSE,12,1.49812734082397,"NHEJ",NA,NA,NA
"628","del",206,1,"SRR3696876.3799",TRUE,FALSE,12,1.49812734082397,"NHEJ",NA,NA,NA
"629","del",206,1,"SRR3696876.3860",TRUE,FALSE,12,1.49812734082397,"NHEJ",NA,NA,NA
"630","del",206,1,"SRR3696876.6100",TRUE,FALSE,12,1.49812734082397,"NHEJ",NA,NA,NA
"631","del",206,1,"SRR3696876.7590",TRUE,FALSE,12,1.49812734082397,"NHEJ",NA,NA,NA
"632","del",206,1,"SRR3696876.7895",TRUE,FALSE,12,1.49812734082397,"NHEJ",NA,NA,NA
"633","del",206,1,"SRR3696876.8552",TRUE,FALSE,12,1.49812734082397,"NHEJ",NA,NA,NA
"634","del",206,1,"SRR3696876.8829",TRUE,FALSE,12,1.49812734082397,"NHEJ",NA,NA,NA
"635","del",207,1,"SRR3696876.1139",TRUE,FALSE,14,1.7478152309613,"NHEJ",NA,NA,NA
"636","del",207,1,"SRR3696876.1521",TRUE,FALSE,14,1.7478152309613,"NHEJ",NA,NA,NA
"637","del",207,1,"SRR3696876.1700",TRUE,FALSE,14,1.7478152309613,"NHEJ",NA,NA,NA
"638","del",207,1,"SRR3696876.1820",TRUE,FALSE,14,1.7478152309613,"NHEJ",NA,NA,NA
"639","del",207,1,"SRR3696876.3482",TRUE,FALSE,14,1.7478152309613,"NHEJ",NA,NA,NA
"640","del",207,1,"SRR3696876.4489",TRUE,FALSE,14,1.7478152309613,"NHEJ",NA,NA,NA
"641","del",207,1,"SRR3696876.4595",TRUE,FALSE,14,1.7478152309613,"NHEJ",NA,NA,NA
"642","del",207,1,"SRR3696876.5469",TRUE,FALSE,14,1.7478152309613,"NHEJ",NA,NA,NA
"643","del",207,1,"SRR3696876.6220",TRUE,FALSE,14,1.7478152309613,"NHEJ",NA,NA,NA
"644","del",207,1,"SRR3696876.6413",TRUE,FALSE,14,1.7478152309613,"NHEJ",NA,NA,NA
"645","del",207,1,"SRR3696876.6604",TRUE,FALSE,14,1.7478152309613,"NHEJ",NA,NA,NA
"646","del",207,1,"SRR3696876.7043",TRUE,FALSE,14,1.7478152309613,"NHEJ",NA,NA,NA
"647","del",207,1,"SRR3696876.7486",TRUE,FALSE,14,1.7478152309613,"NHEJ",NA,NA,NA
"648","del",207,1,"SRR3696876.7925",TRUE,FALSE,14,1.7478152309613,"NHEJ",NA,NA,NA
"649","del",208,1,"SRR3696876.2879",TRUE,FALSE,7,0.873907615480649,"NHEJ",NA,NA,NA
"650","del",208,1,"SRR3696876.408",TRUE,FALSE,7,0.873907615480649,"NHEJ",NA,NA,NA
"651","del",208,1,"SRR3696876.4374",TRUE,FALSE,7,0.873907615480649,"NHEJ",NA,NA,NA
"652","del",208,1,"SRR3696876.4425",TRUE,FALSE,7,0.873907615480649,"NHEJ",NA,NA,NA
"653","del",208,1,"SRR3696876.7518",TRUE,FALSE,7,0.873907615480649,"NHEJ",NA,NA,NA
"654","del",208,1,"SRR3696876.8231",TRUE,FALSE,7,0.873907615480649,"NHEJ",NA,NA,NA
"655","del",208,1,"SRR3696876.8233",TRUE,FALSE,7,0.873907615480649,"NHEJ",NA,NA,NA
"656","del",209,1,"SRR3696876.2239",TRUE,FALSE,7,0.873907615480649,"NHEJ",NA,NA,NA
"657","del",209,1,"SRR3696876.2949",TRUE,FALSE,7,0.873907615480649,"NHEJ",NA,NA,NA
"658","del",209,1,"SRR3696876.3056",TRUE,FALSE,7,0.873907615480649,"NHEJ",NA,NA,NA
"659","del",209,1,"SRR3696876.4738",TRUE,FALSE,7,0.873907615480649,"NHEJ",NA,NA,NA
"660","del",209,1,"SRR3696876.5030",TRUE,FALSE,7,0.873907615480649,"NHEJ",NA,NA,NA
"661","del",209,1,"SRR3696876.6107",TRUE,FALSE,7,0.873907615480649,"NHEJ",NA,NA,NA
"662","del",209,1,"SRR3696876.6746",TRUE,FALSE,7,0.873907615480649,"NHEJ",NA,NA,NA
"663","ins",7,1,"SRR3696876.3757",FALSE,FALSE,2,0.249687890137328,NA,"ACA","G","GGG"
"664","ins",7,1,"SRR3696876.8085",FALSE,FALSE,2,0.249687890137328,NA,"ACA","G","GGG"
"665","ins",13,1,"SRR3696876.458",FALSE,FALSE,1,0.124843945068664,NA,"CTT","G","GAA"
"666","ins",14,1,"SRR3696876.4377",TRUE,FALSE,2,0.249687890137328,NA,"TTG","A","AAG"
"667","ins",14,1,"SRR3696876.5354",TRUE,FALSE,2,0.249687890137328,NA,"TTG","A","AAG"
"668","ins",50,1,"SRR3696876.2355",FALSE,FALSE,1,0.124843945068664,NA,"CGG","C","CCC"
"669","ins",197,1,"SRR3696876.8128",FALSE,FALSE,1,0.124843945068664,NA,"AGA","C","CTG"
"670","ins",198,1,"SRR3696876.368",FALSE,FALSE,1,0.124843945068664,NA,"GAC","T","TGT"
"671","ins",199,1,"SRR3696876.7886",FALSE,FALSE,1,0.124843945068664,NA,"ACT","G","GTC"
"672","ins",201,1,"SRR3696876.2856",TRUE,FALSE,2,0.249687890137328,NA,"TGT","C","CAG"
"673","ins",201,1,"SRR3696876.8181",TRUE,FALSE,2,0.249687890137328,NA,"TGT","C","CAG"
"674","ins",205,1,"SRR3696876.5549",FALSE,FALSE,1,0.124843945068664,NA,"AGG","T","TGA"
"675","ins",208,1,"SRR3696876.5389",FALSE,FALSE,1,0.124843945068664,NA,"TGA","G","GAG"
"676","ins",209,1,"SRR3696876.1778",FALSE,FALSE,1,0.124843945068664,NA,"GAG","A","AGC"
"677","ins",128,2,"SRR3696876.8491",FALSE,TRUE,1,0.124843945068664,NA,"TCA","CA","GCC"
"678","ins",126,25,"SRR3696876.4985",FALSE,TRUE,1,0.124843945068664,NA,"TCT","CCTTGACCTCACCCTTGACCTCACC","CTG"
"679","ins",128,1,NA,TRUE,TRUE,118,14.7315855181024,NA,"TCA",NA,"GCC"
"680","ins",128,1,NA,TRUE,TRUE,118,14.7315855181024,NA,"TCA",NA,"GCC"
"681","ins",128,1,NA,TRUE,TRUE,118,14.7315855181024,NA,"TCA",NA,"GCC"
"682","ins",128,1,NA,TRUE,TRUE,118,14.7315855181024,NA,"TCA",NA,"GCC"
"683","ins",128,1,NA,TRUE,TRUE,118,14.7315855181024,NA,"TCA",NA,"GCC"
"684","ins",128,1,NA,TRUE,TRUE,118,14.7315855181024,NA,"TCA",NA,"GCC"
"685","ins",128,1,NA,TRUE,TRUE,118,14.7315855181024,NA,"TCA",NA,"GCC"
"686","ins",128,1,NA,TRUE,TRUE,118,14.7315855181024,NA,"TCA",NA,"GCC"
"687","ins",128,1,NA,TRUE,TRUE,118,14.7315855181024,NA,"TCA",NA,"GCC"
"688","ins",128,1,NA,TRUE,TRUE,118,14.7315855181024,NA,"TCA",NA,"GCC"
"689","ins",128,1,NA,TRUE,TRUE,118,14.7315855181024,NA,"TCA",NA,"GCC"
"690","ins",128,1,NA,TRUE,TRUE,118,14.7315855181024,NA,"TCA",NA,"GCC"
"691","ins",128,1,NA,TRUE,TRUE,118,14.7315855181024,NA,"TCA",NA,"GCC"
"692","ins",128,1,NA,TRUE,TRUE,118,14.7315855181024,NA,"TCA",NA,"GCC"
"693","ins",128,1,NA,TRUE,TRUE,118,14.7315855181024,NA,"TCA",NA,"GCC"
"694","ins",128,1,NA,TRUE,TRUE,118,14.7315855181024,NA,"TCA",NA,"GCC"
"695","ins",128,1,NA,TRUE,TRUE,118,14.7315855181024,NA,"TCA",NA,"GCC"
"696","ins",128,1,NA,TRUE,TRUE,118,14.7315855181024,NA,"TCA",NA,"GCC"
"697","ins",128,1,NA,TRUE,TRUE,118,14.7315855181024,NA,"TCA",NA,"GCC"
"698","ins",128,1,NA,TRUE,TRUE,118,14.7315855181024,NA,"TCA",NA,"GCC"
"699","ins",128,1,NA,TRUE,TRUE,118,14.7315855181024,NA,"TCA",NA,"GCC"
"700","ins",128,1,NA,TRUE,TRUE,118,14.7315855181024,NA,"TCA",NA,"GCC"
"701","ins",128,1,NA,TRUE,TRUE,118,14.7315855181024,NA,"TCA",NA,"GCC"
"702","ins",128,1,NA,TRUE,TRUE,118,14.7315855181024,NA,"TCA",NA,"GCC"
"703","ins",128,1,NA,TRUE,TRUE,118,14.7315855181024,NA,"TCA",NA,"GCC"
"704","ins",128,1,NA,TRUE,TRUE,118,14.7315855181024,NA,"TCA",NA,"GCC"
"705","ins",128,1,NA,TRUE,TRUE,118,14.7315855181024,NA,"TCA",NA,"GCC"
"706","ins",128,1,NA,TRUE,TRUE,118,14.7315855181024,NA,"TCA",NA,"GCC"
"707","ins",128,1,NA,TRUE,TRUE,118,14.7315855181024,NA,"TCA",NA,"GCC"
"708","ins",128,1,NA,TRUE,TRUE,118,14.7315855181024,NA,"TCA",NA,"GCC"
"709","ins",128,1,NA,TRUE,TRUE,118,14.7315855181024,NA,"TCA",NA,"GCC"
"710","ins",128,1,NA,TRUE,TRUE,118,14.7315855181024,NA,"TCA",NA,"GCC"
"711","ins",128,1,NA,TRUE,TRUE,118,14.7315855181024,NA,"TCA",NA,"GCC"
"712","ins",128,1,NA,TRUE,TRUE,118,14.7315855181024,NA,"TCA",NA,"GCC"
"713","ins",128,1,NA,TRUE,TRUE,118,14.7315855181024,NA,"TCA",NA,"GCC"
"714","ins",128,1,NA,TRUE,TRUE,118,14.7315855181024,NA,"TCA",NA,"GCC"
"715","ins",128,1,NA,TRUE,TRUE,118,14.7315855181024,NA,"TCA",NA,"GCC"
"716","ins",128,1,NA,TRUE,TRUE,118,14.7315855181024,NA,"TCA",NA,"GCC"
"717","ins",128,1,NA,TRUE,TRUE,118,14.7315855181024,NA,"TCA",NA,"GCC"
"718","ins",128,1,NA,TRUE,TRUE,118,14.7315855181024,NA,"TCA",NA,"GCC"
"719","ins",128,1,NA,TRUE,TRUE,118,14.7315855181024,NA,"TCA",NA,"GCC"
"720","ins",128,1,NA,TRUE,TRUE,118,14.7315855181024,NA,"TCA",NA,"GCC"
"721","ins",128,1,NA,TRUE,TRUE,118,14.7315855181024,NA,"TCA",NA,"GCC"
"722","ins",128,1,NA,TRUE,TRUE,118,14.7315855181024,NA,"TCA",NA,"GCC"
"723","ins",128,1,NA,TRUE,TRUE,118,14.7315855181024,NA,"TCA",NA,"GCC"
"724","ins",128,1,NA,TRUE,TRUE,118,14.7315855181024,NA,"TCA",NA,"GCC"
"725","ins",128,1,NA,TRUE,TRUE,118,14.7315855181024,NA,"TCA",NA,"GCC"
"726","ins",128,1,NA,TRUE,TRUE,118,14.7315855181024,NA,"TCA",NA,"GCC"
"727","ins",128,1,NA,TRUE,TRUE,118,14.7315855181024,NA,"TCA",NA,"GCC"
"728","ins",128,1,NA,TRUE,TRUE,118,14.7315855181024,NA,"TCA",NA,"GCC"
"729","ins",128,1,NA,TRUE,TRUE,118,14.7315855181024,NA,"TCA",NA,"GCC"
"730","ins",128,1,NA,TRUE,TRUE,118,14.7315855181024,NA,"TCA",NA,"GCC"
"731","ins",128,1,NA,TRUE,TRUE,118,14.7315855181024,NA,"TCA",NA,"GCC"
"732","ins",128,1,NA,TRUE,TRUE,118,14.7315855181024,NA,"TCA",NA,"GCC"
"733","ins",128,1,NA,TRUE,TRUE,118,14.7315855181024,NA,"TCA",NA,"GCC"
"734","ins",128,1,NA,TRUE,TRUE,118,14.7315855181024,NA,"TCA",NA,"GCC"
"735","ins",128,1,NA,TRUE,TRUE,118,14.7315855181024,NA,"TCA",NA,"GCC"
"736","ins",128,1,NA,TRUE,TRUE,118,14.7315855181024,NA,"TCA",NA,"GCC"
"737","ins",128,1,NA,TRUE,TRUE,118,14.7315855181024,NA,"TCA",NA,"GCC"
"738","ins",128,1,NA,TRUE,TRUE,118,14.7315855181024,NA,"TCA",NA,"GCC"
"739","ins",128,1,NA,TRUE,TRUE,118,14.7315855181024,NA,"TCA",NA,"GCC"
"740","ins",128,1,NA,TRUE,TRUE,118,14.7315855181024,NA,"TCA",NA,"GCC"
"741","ins",128,1,NA,TRUE,TRUE,118,14.7315855181024,NA,"TCA",NA,"GCC"
"742","ins",128,1,NA,TRUE,TRUE,118,14.7315855181024,NA,"TCA",NA,"GCC"
"743","ins",128,1,NA,TRUE,TRUE,118,14.7315855181024,NA,"TCA",NA,"GCC"
"744","ins",128,1,NA,TRUE,TRUE,118,14.7315855181024,NA,"TCA",NA,"GCC"
"745","ins",128,1,NA,TRUE,TRUE,118,14.7315855181024,NA,"TCA",NA,"GCC"
"746","ins",128,1,NA,TRUE,TRUE,118,14.7315855181024,NA,"TCA",NA,"GCC"
"747","ins",128,1,NA,TRUE,TRUE,118,14.7315855181024,NA,"TCA",NA,"GCC"
"748","ins",128,1,NA,TRUE,TRUE,118,14.7315855181024,NA,"TCA",NA,"GCC"
"749","ins",128,1,NA,TRUE,TRUE,118,14.7315855181024,NA,"TCA",NA,"GCC"
"750","ins",128,1,NA,TRUE,TRUE,118,14.7315855181024,NA,"TCA",NA,"GCC"
"751","ins",128,1,NA,TRUE,TRUE,118,14.7315855181024,NA,"TCA",NA,"GCC"
"752","ins",128,1,NA,TRUE,TRUE,118,14.7315855181024,NA,"TCA",NA,"GCC"
"753","ins",128,1,NA,TRUE,TRUE,118,14.7315855181024,NA,"TCA",NA,"GCC"
"754","ins",128,1,NA,TRUE,TRUE,118,14.7315855181024,NA,"TCA",NA,"GCC"
"755","ins",128,1,NA,TRUE,TRUE,118,14.7315855181024,NA,"TCA",NA,"GCC"
"756","ins",128,1,NA,TRUE,TRUE,118,14.7315855181024,NA,"TCA",NA,"GCC"
"757","ins",128,1,NA,TRUE,TRUE,118,14.7315855181024,NA,"TCA",NA,"GCC"
"758","ins",128,1,NA,TRUE,TRUE,118,14.7315855181024,NA,"TCA",NA,"GCC"
"759","ins",128,1,NA,TRUE,TRUE,118,14.7315855181024,NA,"TCA",NA,"GCC"
"760","ins",128,1,NA,TRUE,TRUE,118,14.7315855181024,NA,"TCA",NA,"GCC"
"761","ins",128,1,NA,TRUE,TRUE,118,14.7315855181024,NA,"TCA",NA,"GCC"
"762","ins",128,1,NA,TRUE,TRUE,118,14.7315855181024,NA,"TCA",NA,"GCC"
"763","ins",128,1,NA,TRUE,TRUE,118,14.7315855181024,NA,"TCA",NA,"GCC"
"764","ins",128,1,NA,TRUE,TRUE,118,14.7315855181024,NA,"TCA",NA,"GCC"
"765","ins",128,1,NA,TRUE,TRUE,118,14.7315855181024,NA,"TCA",NA,"GCC"
"766","ins",128,1,NA,TRUE,TRUE,118,14.7315855181024,NA,"TCA",NA,"GCC"
"767","ins",128,1,NA,TRUE,TRUE,118,14.7315855181024,NA,"TCA",NA,"GCC"
"768","ins",128,1,NA,TRUE,TRUE,118,14.7315855181024,NA,"TCA",NA,"GCC"
"769","ins",128,1,NA,TRUE,TRUE,118,14.7315855181024,NA,"TCA",NA,"GCC"
"770","ins",128,1,NA,TRUE,TRUE,118,14.7315855181024,NA,"TCA",NA,"GCC"
"771","ins",128,1,NA,TRUE,TRUE,118,14.7315855181024,NA,"TCA",NA,"GCC"
"772","ins",128,1,NA,TRUE,TRUE,118,14.7315855181024,NA,"TCA",NA,"GCC"
"773","ins",128,1,NA,TRUE,TRUE,118,14.7315855181024,NA,"TCA",NA,"GCC"
"774","ins",128,1,NA,TRUE,TRUE,118,14.7315855181024,NA,"TCA",NA,"GCC"
"775","ins",128,1,NA,TRUE,TRUE,118,14.7315855181024,NA,"TCA",NA,"GCC"
"776","ins",128,1,NA,TRUE,TRUE,118,14.7315855181024,NA,"TCA",NA,"GCC"
"777","ins",128,1,NA,TRUE,TRUE,118,14.7315855181024,NA,"TCA",NA,"GCC"
"778","ins",128,1,NA,TRUE,TRUE,118,14.7315855181024,NA,"TCA",NA,"GCC"
"779","ins",128,1,NA,TRUE,TRUE,118,14.7315855181024,NA,"TCA",NA,"GCC"
"780","ins",128,1,NA,TRUE,TRUE,118,14.7315855181024,NA,"TCA",NA,"GCC"
"781","ins",128,1,NA,TRUE,TRUE,118,14.7315855181024,NA,"TCA",NA,"GCC"
"782","ins",128,1,NA,TRUE,TRUE,118,14.7315855181024,NA,"TCA",NA,"GCC"
"783","ins",128,1,NA,TRUE,TRUE,118,14.7315855181024,NA,"TCA",NA,"GCC"
"784","ins",128,1,NA,TRUE,TRUE,118,14.7315855181024,NA,"TCA",NA,"GCC"
"785","ins",128,1,NA,TRUE,TRUE,118,14.7315855181024,NA,"TCA",NA,"GCC"
"786","ins",128,1,NA,TRUE,TRUE,118,14.7315855181024,NA,"TCA",NA,"GCC"
"787","ins",128,1,NA,TRUE,TRUE,118,14.7315855181024,NA,"TCA",NA,"GCC"
"788","ins",128,1,NA,TRUE,TRUE,118,14.7315855181024,NA,"TCA",NA,"GCC"
"789","ins",128,1,NA,TRUE,TRUE,118,14.7315855181024,NA,"TCA",NA,"GCC"
"790","ins",128,1,NA,TRUE,TRUE,118,14.7315855181024,NA,"TCA",NA,"GCC"
"791","ins",128,1,NA,TRUE,TRUE,118,14.7315855181024,NA,"TCA",NA,"GCC"
"792","ins",128,1,NA,TRUE,TRUE,118,14.7315855181024,NA,"TCA",NA,"GCC"
"793","ins",128,1,NA,TRUE,TRUE,118,14.7315855181024,NA,"TCA",NA,"GCC"
"794","ins",128,1,NA,TRUE,TRUE,118,14.7315855181024,NA,"TCA",NA,"GCC"
"795","ins",128,1,NA,TRUE,TRUE,118,14.7315855181024,NA,"TCA",NA,"GCC"
"796","ins",128,1,NA,TRUE,TRUE,118,14.7315855181024,NA,"TCA",NA,"GCC"
"797","ins",128,6,"SRR3696876.1180",TRUE,TRUE,3,0.374531835205993,NA,"TCA","CCCTGT","GCC"
"798","ins",128,6,"SRR3696876.5971",TRUE,TRUE,3,0.374531835205993,NA,"TCA","CCCTGT","GCC"
"799","ins",128,6,"SRR3696876.7483",TRUE,TRUE,3,0.374531835205993,NA,"TCA","CCCTGG","GCC"
"800","ins",128,24,"SRR3696876.105",FALSE,TRUE,1,0.124843945068664,NA,"TCA","CCTGGCCGTGTTGGACCTGGCCTG","GCC"
"801","ins",129,27,"SRR3696876.6390",FALSE,TRUE,1,0.124843945068664,NA,"CTG","GCCGTGTTGGACCTGGCCCGTGTTGGA","CCT"
