"","Modification","Start","Length","Ids","above_error_rate","in_pick","freq","Perc","patterns","pre_ins_nt","ins_nt","post_ins_nt"
"1","del",5,1,"SRR3696885.104",TRUE,FALSE,37,6.95488721804511,"C",NA,NA,NA
"2","del",5,1,"SRR3696885.1050",TRUE,FALSE,37,6.95488721804511,"C",NA,NA,NA
"3","del",5,1,"SRR3696885.1109",TRUE,FALSE,37,6.95488721804511,"C",NA,NA,NA
"4","del",5,1,"SRR3696885.1394",TRUE,FALSE,37,6.95488721804511,"C",NA,NA,NA
"5","del",5,1,"SRR3696885.1518",TRUE,FALSE,37,6.95488721804511,"C",NA,NA,NA
"6","del",5,1,"SRR3696885.1532",TRUE,FALSE,37,6.95488721804511,"C",NA,NA,NA
"7","del",5,1,"SRR3696885.1758",TRUE,FALSE,37,6.95488721804511,"C",NA,NA,NA
"8","del",5,1,"SRR3696885.1915",TRUE,FALSE,37,6.95488721804511,"C",NA,NA,NA
"9","del",5,1,"SRR3696885.204",TRUE,FALSE,37,6.95488721804511,"C",NA,NA,NA
"10","del",5,1,"SRR3696885.2127",TRUE,FALSE,37,6.95488721804511,"C",NA,NA,NA
"11","del",5,1,"SRR3696885.2707",TRUE,FALSE,37,6.95488721804511,"C",NA,NA,NA
"12","del",5,1,"SRR3696885.2804",TRUE,FALSE,37,6.95488721804511,"C",NA,NA,NA
"13","del",5,1,"SRR3696885.3056",TRUE,FALSE,37,6.95488721804511,"C",NA,NA,NA
"14","del",5,1,"SRR3696885.313",TRUE,FALSE,37,6.95488721804511,"C",NA,NA,NA
"15","del",5,1,"SRR3696885.3284",TRUE,FALSE,37,6.95488721804511,"C",NA,NA,NA
"16","del",5,1,"SRR3696885.3285",TRUE,FALSE,37,6.95488721804511,"C",NA,NA,NA
"17","del",5,1,"SRR3696885.3471",TRUE,FALSE,37,6.95488721804511,"C",NA,NA,NA
"18","del",5,1,"SRR3696885.3501",TRUE,FALSE,37,6.95488721804511,"C",NA,NA,NA
"19","del",5,1,"SRR3696885.3582",TRUE,FALSE,37,6.95488721804511,"C",NA,NA,NA
"20","del",5,1,"SRR3696885.3784",TRUE,FALSE,37,6.95488721804511,"C",NA,NA,NA
"21","del",5,1,"SRR3696885.4062",TRUE,FALSE,37,6.95488721804511,"C",NA,NA,NA
"22","del",5,1,"SRR3696885.4257",TRUE,FALSE,37,6.95488721804511,"C",NA,NA,NA
"23","del",5,1,"SRR3696885.4271",TRUE,FALSE,37,6.95488721804511,"C",NA,NA,NA
"24","del",5,1,"SRR3696885.4435",TRUE,FALSE,37,6.95488721804511,"C",NA,NA,NA
"25","del",5,1,"SRR3696885.4627",TRUE,FALSE,37,6.95488721804511,"C",NA,NA,NA
"26","del",5,1,"SRR3696885.4695",TRUE,FALSE,37,6.95488721804511,"C",NA,NA,NA
"27","del",5,1,"SRR3696885.4900",TRUE,FALSE,37,6.95488721804511,"C",NA,NA,NA
"28","del",5,1,"SRR3696885.5178",TRUE,FALSE,37,6.95488721804511,"C",NA,NA,NA
"29","del",5,1,"SRR3696885.5196",TRUE,FALSE,37,6.95488721804511,"C",NA,NA,NA
"30","del",5,1,"SRR3696885.5457",TRUE,FALSE,37,6.95488721804511,"C",NA,NA,NA
"31","del",5,1,"SRR3696885.5741",TRUE,FALSE,37,6.95488721804511,"C",NA,NA,NA
"32","del",5,1,"SRR3696885.6158",TRUE,FALSE,37,6.95488721804511,"C",NA,NA,NA
"33","del",5,1,"SRR3696885.6212",TRUE,FALSE,37,6.95488721804511,"C",NA,NA,NA
"34","del",5,1,"SRR3696885.654",TRUE,FALSE,37,6.95488721804511,"C",NA,NA,NA
"35","del",5,1,"SRR3696885.804",TRUE,FALSE,37,6.95488721804511,"C",NA,NA,NA
"36","del",5,1,"SRR3696885.810",TRUE,FALSE,37,6.95488721804511,"C",NA,NA,NA
"37","del",5,1,"SRR3696885.960",TRUE,FALSE,37,6.95488721804511,"C",NA,NA,NA
"38","del",6,2,"SRR3696885.3073",TRUE,FALSE,7,1.31578947368421,"NHEJ",NA,NA,NA
"39","del",6,2,"SRR3696885.3633",TRUE,FALSE,7,1.31578947368421,"NHEJ",NA,NA,NA
"40","del",6,2,"SRR3696885.4575",TRUE,FALSE,7,1.31578947368421,"NHEJ",NA,NA,NA
"41","del",6,2,"SRR3696885.4597",TRUE,FALSE,7,1.31578947368421,"NHEJ",NA,NA,NA
"42","del",6,2,"SRR3696885.5029",TRUE,FALSE,7,1.31578947368421,"NHEJ",NA,NA,NA
"43","del",6,2,"SRR3696885.5226",TRUE,FALSE,7,1.31578947368421,"NHEJ",NA,NA,NA
"44","del",6,2,"SRR3696885.5290",TRUE,FALSE,7,1.31578947368421,"NHEJ",NA,NA,NA
"45","del",7,1,"SRR3696885.1009",TRUE,FALSE,39,7.33082706766917,"G",NA,NA,NA
"46","del",7,1,"SRR3696885.1262",TRUE,FALSE,39,7.33082706766917,"G",NA,NA,NA
"47","del",7,1,"SRR3696885.1355",TRUE,FALSE,39,7.33082706766917,"G",NA,NA,NA
"48","del",7,1,"SRR3696885.1357",TRUE,FALSE,39,7.33082706766917,"G",NA,NA,NA
"49","del",7,1,"SRR3696885.1573",TRUE,FALSE,39,7.33082706766917,"G",NA,NA,NA
"50","del",7,1,"SRR3696885.2087",TRUE,FALSE,39,7.33082706766917,"G",NA,NA,NA
"51","del",7,1,"SRR3696885.2173",TRUE,FALSE,39,7.33082706766917,"G",NA,NA,NA
"52","del",7,1,"SRR3696885.267",TRUE,FALSE,39,7.33082706766917,"G",NA,NA,NA
"53","del",7,1,"SRR3696885.2737",TRUE,FALSE,39,7.33082706766917,"G",NA,NA,NA
"54","del",7,1,"SRR3696885.2832",TRUE,FALSE,39,7.33082706766917,"G",NA,NA,NA
"55","del",7,1,"SRR3696885.3015",TRUE,FALSE,39,7.33082706766917,"G",NA,NA,NA
"56","del",7,1,"SRR3696885.3108",TRUE,FALSE,39,7.33082706766917,"G",NA,NA,NA
"57","del",7,1,"SRR3696885.3241",TRUE,FALSE,39,7.33082706766917,"G",NA,NA,NA
"58","del",7,1,"SRR3696885.3244",TRUE,FALSE,39,7.33082706766917,"G",NA,NA,NA
"59","del",7,1,"SRR3696885.3305",TRUE,FALSE,39,7.33082706766917,"G",NA,NA,NA
"60","del",7,1,"SRR3696885.3397",TRUE,FALSE,39,7.33082706766917,"G",NA,NA,NA
"61","del",7,1,"SRR3696885.3443",TRUE,FALSE,39,7.33082706766917,"G",NA,NA,NA
"62","del",7,1,"SRR3696885.3740",TRUE,FALSE,39,7.33082706766917,"G",NA,NA,NA
"63","del",7,1,"SRR3696885.3884",TRUE,FALSE,39,7.33082706766917,"G",NA,NA,NA
"64","del",7,1,"SRR3696885.4303",TRUE,FALSE,39,7.33082706766917,"G",NA,NA,NA
"65","del",7,1,"SRR3696885.4582",TRUE,FALSE,39,7.33082706766917,"G",NA,NA,NA
"66","del",7,1,"SRR3696885.4665",TRUE,FALSE,39,7.33082706766917,"G",NA,NA,NA
"67","del",7,1,"SRR3696885.4812",TRUE,FALSE,39,7.33082706766917,"G",NA,NA,NA
"68","del",7,1,"SRR3696885.4862",TRUE,FALSE,39,7.33082706766917,"G",NA,NA,NA
"69","del",7,1,"SRR3696885.4869",TRUE,FALSE,39,7.33082706766917,"G",NA,NA,NA
"70","del",7,1,"SRR3696885.4926",TRUE,FALSE,39,7.33082706766917,"G",NA,NA,NA
"71","del",7,1,"SRR3696885.5043",TRUE,FALSE,39,7.33082706766917,"G",NA,NA,NA
"72","del",7,1,"SRR3696885.5142",TRUE,FALSE,39,7.33082706766917,"G",NA,NA,NA
"73","del",7,1,"SRR3696885.5212",TRUE,FALSE,39,7.33082706766917,"G",NA,NA,NA
"74","del",7,1,"SRR3696885.5278",TRUE,FALSE,39,7.33082706766917,"G",NA,NA,NA
"75","del",7,1,"SRR3696885.5653",TRUE,FALSE,39,7.33082706766917,"G",NA,NA,NA
"76","del",7,1,"SRR3696885.5722",TRUE,FALSE,39,7.33082706766917,"G",NA,NA,NA
"77","del",7,1,"SRR3696885.5846",TRUE,FALSE,39,7.33082706766917,"G",NA,NA,NA
"78","del",7,1,"SRR3696885.6292",TRUE,FALSE,39,7.33082706766917,"G",NA,NA,NA
"79","del",7,1,"SRR3696885.670",TRUE,FALSE,39,7.33082706766917,"G",NA,NA,NA
"80","del",7,1,"SRR3696885.699",TRUE,FALSE,39,7.33082706766917,"G",NA,NA,NA
"81","del",7,1,"SRR3696885.773",TRUE,FALSE,39,7.33082706766917,"G",NA,NA,NA
"82","del",7,1,"SRR3696885.877",TRUE,FALSE,39,7.33082706766917,"G",NA,NA,NA
"83","del",7,1,"SRR3696885.930",TRUE,FALSE,39,7.33082706766917,"G",NA,NA,NA
"84","del",8,2,"SRR3696885.2771",FALSE,FALSE,2,0.37593984962406,"G",NA,NA,NA
"85","del",8,2,"SRR3696885.3296",FALSE,FALSE,2,0.37593984962406,"G",NA,NA,NA
"86","del",9,1,"SRR3696885.1096",TRUE,FALSE,17,3.19548872180451,"NHEJ",NA,NA,NA
"87","del",9,1,"SRR3696885.1367",TRUE,FALSE,17,3.19548872180451,"NHEJ",NA,NA,NA
"88","del",9,1,"SRR3696885.1603",TRUE,FALSE,17,3.19548872180451,"NHEJ",NA,NA,NA
"89","del",9,1,"SRR3696885.1705",TRUE,FALSE,17,3.19548872180451,"NHEJ",NA,NA,NA
"90","del",9,1,"SRR3696885.1748",TRUE,FALSE,17,3.19548872180451,"NHEJ",NA,NA,NA
"91","del",9,1,"SRR3696885.186",TRUE,FALSE,17,3.19548872180451,"NHEJ",NA,NA,NA
"92","del",9,1,"SRR3696885.197",TRUE,FALSE,17,3.19548872180451,"NHEJ",NA,NA,NA
"93","del",9,1,"SRR3696885.2140",TRUE,FALSE,17,3.19548872180451,"NHEJ",NA,NA,NA
"94","del",9,1,"SRR3696885.2425",TRUE,FALSE,17,3.19548872180451,"NHEJ",NA,NA,NA
"95","del",9,1,"SRR3696885.2617",TRUE,FALSE,17,3.19548872180451,"NHEJ",NA,NA,NA
"96","del",9,1,"SRR3696885.4338",TRUE,FALSE,17,3.19548872180451,"NHEJ",NA,NA,NA
"97","del",9,1,"SRR3696885.4486",TRUE,FALSE,17,3.19548872180451,"NHEJ",NA,NA,NA
"98","del",9,1,"SRR3696885.4768",TRUE,FALSE,17,3.19548872180451,"NHEJ",NA,NA,NA
"99","del",9,1,"SRR3696885.5121",TRUE,FALSE,17,3.19548872180451,"NHEJ",NA,NA,NA
"100","del",9,1,"SRR3696885.5436",TRUE,FALSE,17,3.19548872180451,"NHEJ",NA,NA,NA
"101","del",9,1,"SRR3696885.5716",TRUE,FALSE,17,3.19548872180451,"NHEJ",NA,NA,NA
"102","del",9,1,"SRR3696885.5993",TRUE,FALSE,17,3.19548872180451,"NHEJ",NA,NA,NA
"103","del",10,1,"SRR3696885.1304",TRUE,FALSE,4,0.75187969924812,"G",NA,NA,NA
"104","del",10,1,"SRR3696885.405",TRUE,FALSE,4,0.75187969924812,"G",NA,NA,NA
"105","del",10,1,"SRR3696885.4221",TRUE,FALSE,4,0.75187969924812,"G",NA,NA,NA
"106","del",10,1,"SRR3696885.546",TRUE,FALSE,4,0.75187969924812,"G",NA,NA,NA
"107","del",10,2,"SRR3696885.5123",FALSE,FALSE,1,0.18796992481203,"NHEJ",NA,NA,NA
"108","del",12,1,"SRR3696885.1158",TRUE,FALSE,9,1.69172932330827,"A",NA,NA,NA
"109","del",12,1,"SRR3696885.1714",TRUE,FALSE,9,1.69172932330827,"A",NA,NA,NA
"110","del",12,1,"SRR3696885.2944",TRUE,FALSE,9,1.69172932330827,"A",NA,NA,NA
"111","del",12,1,"SRR3696885.4164",TRUE,FALSE,9,1.69172932330827,"A",NA,NA,NA
"112","del",12,1,"SRR3696885.5833",TRUE,FALSE,9,1.69172932330827,"A",NA,NA,NA
"113","del",12,1,"SRR3696885.762",TRUE,FALSE,9,1.69172932330827,"A",NA,NA,NA
"114","del",12,1,"SRR3696885.828",TRUE,FALSE,9,1.69172932330827,"A",NA,NA,NA
"115","del",12,1,"SRR3696885.914",TRUE,FALSE,9,1.69172932330827,"A",NA,NA,NA
"116","del",12,1,"SRR3696885.925",TRUE,FALSE,9,1.69172932330827,"A",NA,NA,NA
"117","del",34,1,"SRR3696885.6211",FALSE,FALSE,1,0.18796992481203,"NHEJ",NA,NA,NA
"118","del",42,1,"SRR3696885.869",FALSE,FALSE,1,0.18796992481203,"C",NA,NA,NA
"119","del",50,1,"SRR3696885.2027",TRUE,FALSE,1,0.18796992481203,"G",NA,NA,NA
"120","del",104,28,"SRR3696885.831",FALSE,FALSE,1,0.18796992481203,"GCC",NA,NA,NA
"121","del",107,25,"SRR3696885.3731",TRUE,TRUE,3,0.56390977443609,"NHEJ",NA,NA,NA
"122","del",107,25,"SRR3696885.4244",TRUE,TRUE,3,0.56390977443609,"NHEJ",NA,NA,NA
"123","del",107,25,"SRR3696885.728",TRUE,TRUE,3,0.56390977443609,"NHEJ",NA,NA,NA
"124","del",111,21,"SRR3696885.1918",TRUE,TRUE,3,0.56390977443609,"G",NA,NA,NA
"125","del",111,21,"SRR3696885.2846",TRUE,TRUE,3,0.56390977443609,"G",NA,NA,NA
"126","del",111,21,"SRR3696885.6084",TRUE,TRUE,3,0.56390977443609,"G",NA,NA,NA
"127","del",113,19,"SRR3696885.1035",FALSE,TRUE,1,0.18796992481203,"NHEJ",NA,NA,NA
"128","del",115,16,"SRR3696885.198",TRUE,TRUE,7,1.31578947368421,"GG",NA,NA,NA
"129","del",115,16,"SRR3696885.3615",TRUE,TRUE,7,1.31578947368421,"GG",NA,NA,NA
"130","del",115,16,"SRR3696885.3727",TRUE,TRUE,7,1.31578947368421,"GG",NA,NA,NA
"131","del",115,16,"SRR3696885.4678",TRUE,TRUE,7,1.31578947368421,"GG",NA,NA,NA
"132","del",115,16,"SRR3696885.5098",TRUE,TRUE,7,1.31578947368421,"GG",NA,NA,NA
"133","del",115,16,"SRR3696885.6457",TRUE,TRUE,7,1.31578947368421,"GG",NA,NA,NA
"134","del",115,16,"SRR3696885.888",TRUE,TRUE,7,1.31578947368421,"GG",NA,NA,NA
"135","del",117,30,"SRR3696885.1233",TRUE,TRUE,3,0.56390977443609,"TG",NA,NA,NA
"136","del",117,30,"SRR3696885.342",TRUE,TRUE,3,0.56390977443609,"TG",NA,NA,NA
"137","del",117,30,"SRR3696885.38",TRUE,TRUE,3,0.56390977443609,"TG",NA,NA,NA
"138","del",118,1,"SRR3696885.1147",TRUE,TRUE,3,0.56390977443609,"G",NA,NA,NA
"139","del",118,1,"SRR3696885.2338",TRUE,TRUE,3,0.56390977443609,"G",NA,NA,NA
"140","del",118,1,"SRR3696885.4241",TRUE,TRUE,3,0.56390977443609,"G",NA,NA,NA
"141","del",118,2,"SRR3696885.5576",FALSE,TRUE,1,0.18796992481203,"GG",NA,NA,NA
"142","del",118,10,"SRR3696885.1501",TRUE,TRUE,3,0.56390977443609,"GGGGGC",NA,NA,NA
"143","del",118,10,"SRR3696885.1921",TRUE,TRUE,3,0.56390977443609,"GGGGGC",NA,NA,NA
"144","del",118,10,"SRR3696885.3180",TRUE,TRUE,3,0.56390977443609,"GGGGGC",NA,NA,NA
"145","del",118,11,"SRR3696885.3250",TRUE,TRUE,3,0.56390977443609,"GGGG",NA,NA,NA
"146","del",118,11,"SRR3696885.5508",TRUE,TRUE,3,0.56390977443609,"GGGG",NA,NA,NA
"147","del",118,11,"SRR3696885.6283",TRUE,TRUE,3,0.56390977443609,"GGGG",NA,NA,NA
"148","del",118,13,"SRR3696885.1542",TRUE,TRUE,4,0.75187969924812,"GG",NA,NA,NA
"149","del",118,13,"SRR3696885.1968",TRUE,TRUE,4,0.75187969924812,"GG",NA,NA,NA
"150","del",118,13,"SRR3696885.2078",TRUE,TRUE,4,0.75187969924812,"GG",NA,NA,NA
"151","del",118,13,"SRR3696885.355",TRUE,TRUE,4,0.75187969924812,"GG",NA,NA,NA
"152","del",118,17,"SRR3696885.3961",TRUE,TRUE,2,0.37593984962406,"GGG",NA,NA,NA
"153","del",118,17,"SRR3696885.4229",TRUE,TRUE,2,0.37593984962406,"GGG",NA,NA,NA
"154","del",118,19,"SRR3696885.181",TRUE,TRUE,3,0.56390977443609,"G",NA,NA,NA
"155","del",118,19,"SRR3696885.2473",TRUE,TRUE,3,0.56390977443609,"G",NA,NA,NA
"156","del",118,19,"SRR3696885.4615",TRUE,TRUE,3,0.56390977443609,"G",NA,NA,NA
"157","del",118,21,"SRR3696885.4875",TRUE,TRUE,1,0.18796992481203,"G",NA,NA,NA
"158","del",119,16,"SRR3696885.1250",FALSE,TRUE,1,0.18796992481203,"GGG",NA,NA,NA
"159","del",119,24,"SRR3696885.5156",FALSE,TRUE,1,0.18796992481203,"G",NA,NA,NA
"160","del",120,8,"SRR3696885.3878",FALSE,TRUE,1,0.18796992481203,"GGG",NA,NA,NA
"161","del",120,15,"SRR3696885.1063",TRUE,TRUE,8,1.50375939849624,"GGGCG",NA,NA,NA
"162","del",120,15,"SRR3696885.1451",TRUE,TRUE,8,1.50375939849624,"GGGCG",NA,NA,NA
"163","del",120,15,"SRR3696885.1838",TRUE,TRUE,8,1.50375939849624,"GGGCG",NA,NA,NA
"164","del",120,15,"SRR3696885.1958",TRUE,TRUE,8,1.50375939849624,"GGGCG",NA,NA,NA
"165","del",120,15,"SRR3696885.2202",TRUE,TRUE,8,1.50375939849624,"GGGCG",NA,NA,NA
"166","del",120,15,"SRR3696885.513",TRUE,TRUE,8,1.50375939849624,"GGGCG",NA,NA,NA
"167","del",120,15,"SRR3696885.5843",TRUE,TRUE,8,1.50375939849624,"GGGCG",NA,NA,NA
"168","del",120,15,"SRR3696885.645",TRUE,TRUE,8,1.50375939849624,"GGGCG",NA,NA,NA
"169","del",121,21,"SRR3696885.1124",TRUE,TRUE,3,0.56390977443609,"NHEJ",NA,NA,NA
"170","del",121,21,"SRR3696885.1879",TRUE,TRUE,3,0.56390977443609,"NHEJ",NA,NA,NA
"171","del",121,21,"SRR3696885.292",TRUE,TRUE,3,0.56390977443609,"NHEJ",NA,NA,NA
"172","del",124,6,"SRR3696885.2013",FALSE,TRUE,1,0.18796992481203,"GG",NA,NA,NA
"173","del",124,8,"SRR3696885.5",TRUE,TRUE,2,0.37593984962406,"G",NA,NA,NA
"174","del",124,8,"SRR3696885.5545",TRUE,TRUE,2,0.37593984962406,"G",NA,NA,NA
"175","del",124,12,"SRR3696885.2313",FALSE,TRUE,1,0.18796992481203,"GG",NA,NA,NA
"176","del",125,35,"SRR3696885.6342",FALSE,TRUE,1,0.18796992481203,"G",NA,NA,NA
"177","del",127,12,"SRR3696885.1908",TRUE,TRUE,1,0.18796992481203,"NHEJ",NA,NA,NA
"178","del",127,15,"SRR3696885.2212",TRUE,TRUE,3,0.56390977443609,"AG",NA,NA,NA
"179","del",127,15,"SRR3696885.3230",TRUE,TRUE,3,0.56390977443609,"AG",NA,NA,NA
"180","del",127,15,"SRR3696885.5437",TRUE,TRUE,3,0.56390977443609,"AG",NA,NA,NA
"181","del",127,22,"SRR3696885.2895",TRUE,TRUE,3,0.56390977443609,"NHEJ",NA,NA,NA
"182","del",127,22,"SRR3696885.5137",TRUE,TRUE,3,0.56390977443609,"NHEJ",NA,NA,NA
"183","del",127,22,"SRR3696885.6085",TRUE,TRUE,3,0.56390977443609,"NHEJ",NA,NA,NA
"184","del",128,1,"SRR3696885.1053",TRUE,TRUE,34,6.39097744360902,"G",NA,NA,NA
"185","del",128,1,"SRR3696885.106",TRUE,TRUE,34,6.39097744360902,"G",NA,NA,NA
"186","del",128,1,"SRR3696885.1298",TRUE,TRUE,34,6.39097744360902,"G",NA,NA,NA
"187","del",128,1,"SRR3696885.1689",TRUE,TRUE,34,6.39097744360902,"G",NA,NA,NA
"188","del",128,1,"SRR3696885.1928",TRUE,TRUE,34,6.39097744360902,"G",NA,NA,NA
"189","del",128,1,"SRR3696885.2481",TRUE,TRUE,34,6.39097744360902,"G",NA,NA,NA
"190","del",128,1,"SRR3696885.2543",TRUE,TRUE,34,6.39097744360902,"G",NA,NA,NA
"191","del",128,1,"SRR3696885.2573",TRUE,TRUE,34,6.39097744360902,"G",NA,NA,NA
"192","del",128,1,"SRR3696885.2727",TRUE,TRUE,34,6.39097744360902,"G",NA,NA,NA
"193","del",128,1,"SRR3696885.3042",TRUE,TRUE,34,6.39097744360902,"G",NA,NA,NA
"194","del",128,1,"SRR3696885.3093",TRUE,TRUE,34,6.39097744360902,"G",NA,NA,NA
"195","del",128,1,"SRR3696885.3310",TRUE,TRUE,34,6.39097744360902,"G",NA,NA,NA
"196","del",128,1,"SRR3696885.3401",TRUE,TRUE,34,6.39097744360902,"G",NA,NA,NA
"197","del",128,1,"SRR3696885.3421",TRUE,TRUE,34,6.39097744360902,"G",NA,NA,NA
"198","del",128,1,"SRR3696885.4066",TRUE,TRUE,34,6.39097744360902,"G",NA,NA,NA
"199","del",128,1,"SRR3696885.4240",TRUE,TRUE,34,6.39097744360902,"G",NA,NA,NA
"200","del",128,1,"SRR3696885.4411",TRUE,TRUE,34,6.39097744360902,"G",NA,NA,NA
"201","del",128,1,"SRR3696885.4433",TRUE,TRUE,34,6.39097744360902,"G",NA,NA,NA
"202","del",128,1,"SRR3696885.4497",TRUE,TRUE,34,6.39097744360902,"G",NA,NA,NA
"203","del",128,1,"SRR3696885.4571",TRUE,TRUE,34,6.39097744360902,"G",NA,NA,NA
"204","del",128,1,"SRR3696885.4696",TRUE,TRUE,34,6.39097744360902,"G",NA,NA,NA
"205","del",128,1,"SRR3696885.4797",TRUE,TRUE,34,6.39097744360902,"G",NA,NA,NA
"206","del",128,1,"SRR3696885.4964",TRUE,TRUE,34,6.39097744360902,"G",NA,NA,NA
"207","del",128,1,"SRR3696885.5607",TRUE,TRUE,34,6.39097744360902,"G",NA,NA,NA
"208","del",128,1,"SRR3696885.5732",TRUE,TRUE,34,6.39097744360902,"G",NA,NA,NA
"209","del",128,1,"SRR3696885.5827",TRUE,TRUE,34,6.39097744360902,"G",NA,NA,NA
"210","del",128,1,"SRR3696885.5871",TRUE,TRUE,34,6.39097744360902,"G",NA,NA,NA
"211","del",128,1,"SRR3696885.6009",TRUE,TRUE,34,6.39097744360902,"G",NA,NA,NA
"212","del",128,1,"SRR3696885.6188",TRUE,TRUE,34,6.39097744360902,"G",NA,NA,NA
"213","del",128,1,"SRR3696885.6474",TRUE,TRUE,34,6.39097744360902,"G",NA,NA,NA
"214","del",128,1,"SRR3696885.713",TRUE,TRUE,34,6.39097744360902,"G",NA,NA,NA
"215","del",128,1,"SRR3696885.724",TRUE,TRUE,34,6.39097744360902,"G",NA,NA,NA
"216","del",128,1,"SRR3696885.926",TRUE,TRUE,34,6.39097744360902,"G",NA,NA,NA
"217","del",128,1,"SRR3696885.961",TRUE,TRUE,34,6.39097744360902,"G",NA,NA,NA
"218","del",128,2,"SRR3696885.222",TRUE,TRUE,5,0.93984962406015,"GG",NA,NA,NA
"219","del",128,2,"SRR3696885.4200",TRUE,TRUE,5,0.93984962406015,"GG",NA,NA,NA
"220","del",128,2,"SRR3696885.4353",TRUE,TRUE,5,0.93984962406015,"GG",NA,NA,NA
"221","del",128,2,"SRR3696885.5491",TRUE,TRUE,5,0.93984962406015,"GG",NA,NA,NA
"222","del",128,2,"SRR3696885.5587",TRUE,TRUE,5,0.93984962406015,"GG",NA,NA,NA
"223","del",128,3,"SRR3696885.183",FALSE,TRUE,4,0.75187969924812,"GG",NA,NA,NA
"224","del",128,3,"SRR3696885.2151",FALSE,TRUE,4,0.75187969924812,"GG",NA,NA,NA
"225","del",128,3,"SRR3696885.2980",FALSE,TRUE,4,0.75187969924812,"GG",NA,NA,NA
"226","del",128,3,"SRR3696885.588",FALSE,TRUE,4,0.75187969924812,"GG",NA,NA,NA
"227","del",128,4,"SRR3696885.1075",TRUE,TRUE,9,1.69172932330827,"G",NA,NA,NA
"228","del",128,4,"SRR3696885.167",TRUE,TRUE,9,1.69172932330827,"G",NA,NA,NA
"229","del",128,4,"SRR3696885.2101",TRUE,TRUE,9,1.69172932330827,"G",NA,NA,NA
"230","del",128,4,"SRR3696885.3896",TRUE,TRUE,9,1.69172932330827,"G",NA,NA,NA
"231","del",128,4,"SRR3696885.4499",TRUE,TRUE,9,1.69172932330827,"G",NA,NA,NA
"232","del",128,4,"SRR3696885.5719",TRUE,TRUE,9,1.69172932330827,"G",NA,NA,NA
"233","del",128,4,"SRR3696885.6201",TRUE,TRUE,9,1.69172932330827,"G",NA,NA,NA
"234","del",128,4,"SRR3696885.6400",TRUE,TRUE,9,1.69172932330827,"G",NA,NA,NA
"235","del",128,4,"SRR3696885.736",TRUE,TRUE,9,1.69172932330827,"G",NA,NA,NA
"236","del",128,7,"SRR3696885.2465",TRUE,TRUE,6,1.12781954887218,"GGG",NA,NA,NA
"237","del",128,7,"SRR3696885.3144",TRUE,TRUE,6,1.12781954887218,"GGG",NA,NA,NA
"238","del",128,7,"SRR3696885.3531",TRUE,TRUE,6,1.12781954887218,"GGG",NA,NA,NA
"239","del",128,7,"SRR3696885.5093",TRUE,TRUE,6,1.12781954887218,"GGG",NA,NA,NA
"240","del",128,7,"SRR3696885.5670",TRUE,TRUE,6,1.12781954887218,"GGG",NA,NA,NA
"241","del",128,7,"SRR3696885.6170",TRUE,TRUE,6,1.12781954887218,"GGG",NA,NA,NA
"242","del",128,8,"SRR3696885.3160",FALSE,TRUE,1,0.18796992481203,"GG",NA,NA,NA
"243","del",129,6,"SRR3696885.1270",TRUE,TRUE,10,1.8796992481203,"GGG",NA,NA,NA
"244","del",129,6,"SRR3696885.3297",TRUE,TRUE,10,1.8796992481203,"GGG",NA,NA,NA
"245","del",129,6,"SRR3696885.3502",TRUE,TRUE,10,1.8796992481203,"GGG",NA,NA,NA
"246","del",129,6,"SRR3696885.3860",TRUE,TRUE,10,1.8796992481203,"GGG",NA,NA,NA
"247","del",129,6,"SRR3696885.5157",TRUE,TRUE,10,1.8796992481203,"GGG",NA,NA,NA
"248","del",129,6,"SRR3696885.543",TRUE,TRUE,10,1.8796992481203,"GGG",NA,NA,NA
"249","del",129,6,"SRR3696885.58",TRUE,TRUE,10,1.8796992481203,"GGG",NA,NA,NA
"250","del",129,6,"SRR3696885.6266",TRUE,TRUE,10,1.8796992481203,"GGG",NA,NA,NA
"251","del",129,6,"SRR3696885.68",TRUE,TRUE,10,1.8796992481203,"GGG",NA,NA,NA
"252","del",129,6,"SRR3696885.866",TRUE,TRUE,10,1.8796992481203,"GGG",NA,NA,NA
"253","del",129,10,"SRR3696885.22",TRUE,TRUE,3,0.56390977443609,"G",NA,NA,NA
"254","del",129,10,"SRR3696885.2776",TRUE,TRUE,3,0.56390977443609,"G",NA,NA,NA
"255","del",129,10,"SRR3696885.3126",TRUE,TRUE,3,0.56390977443609,"G",NA,NA,NA
"256","del",129,39,"SRR3696885.3627",TRUE,TRUE,1,0.18796992481203,"G",NA,NA,NA
"257","del",130,5,"SRR3696885.4274",TRUE,TRUE,3,0.56390977443609,"GGGC",NA,NA,NA
"258","del",130,5,"SRR3696885.5873",TRUE,TRUE,3,0.56390977443609,"GGGC",NA,NA,NA
"259","del",130,5,"SRR3696885.714",TRUE,TRUE,3,0.56390977443609,"GGGC",NA,NA,NA
"260","del",130,13,"SRR3696885.1880",TRUE,TRUE,3,0.56390977443609,"G",NA,NA,NA
"261","del",130,13,"SRR3696885.6455",TRUE,TRUE,3,0.56390977443609,"G",NA,NA,NA
"262","del",130,13,"SRR3696885.820",TRUE,TRUE,3,0.56390977443609,"G",NA,NA,NA
"263","del",131,8,"SRR3696885.1377",TRUE,TRUE,8,1.50375939849624,"G",NA,NA,NA
"264","del",131,8,"SRR3696885.1538",TRUE,TRUE,8,1.50375939849624,"G",NA,NA,NA
"265","del",131,8,"SRR3696885.2913",TRUE,TRUE,8,1.50375939849624,"G",NA,NA,NA
"266","del",131,8,"SRR3696885.3330",TRUE,TRUE,8,1.50375939849624,"G",NA,NA,NA
"267","del",131,8,"SRR3696885.361",TRUE,TRUE,8,1.50375939849624,"G",NA,NA,NA
"268","del",131,8,"SRR3696885.4406",TRUE,TRUE,8,1.50375939849624,"G",NA,NA,NA
"269","del",131,8,"SRR3696885.575",TRUE,TRUE,8,1.50375939849624,"G",NA,NA,NA
"270","del",131,8,"SRR3696885.6027",TRUE,TRUE,8,1.50375939849624,"G",NA,NA,NA
"271","del",131,10,"SRR3696885.5265",FALSE,TRUE,1,0.18796992481203,"NHEJ",NA,NA,NA
"272","del",131,12,"SRR3696885.2225",TRUE,TRUE,5,0.93984962406015,"G",NA,NA,NA
"273","del",131,12,"SRR3696885.3956",TRUE,TRUE,5,0.93984962406015,"G",NA,NA,NA
"274","del",131,12,"SRR3696885.3991",TRUE,TRUE,5,0.93984962406015,"G",NA,NA,NA
"275","del",131,12,"SRR3696885.4500",TRUE,TRUE,5,0.93984962406015,"G",NA,NA,NA
"276","del",131,12,"SRR3696885.5433",TRUE,TRUE,5,0.93984962406015,"G",NA,NA,NA
"277","del",131,14,"SRR3696885.3496",TRUE,TRUE,2,0.37593984962406,"G",NA,NA,NA
"278","del",131,14,"SRR3696885.4903",TRUE,TRUE,2,0.37593984962406,"G",NA,NA,NA
"279","del",132,7,"SRR3696885.5459",TRUE,TRUE,1,0.18796992481203,"GCC",NA,NA,NA
"280","del",132,9,"SRR3696885.420",TRUE,TRUE,2,0.37593984962406,"NHEJ",NA,NA,NA
"281","del",132,9,"SRR3696885.631",TRUE,TRUE,2,0.37593984962406,"NHEJ",NA,NA,NA
"282","del",132,16,"SRR3696885.1060",FALSE,TRUE,1,0.18796992481203,"GCC",NA,NA,NA
"283","del",132,28,"SRR3696885.569",FALSE,TRUE,1,0.18796992481203,"GCCGGG",NA,NA,NA
"284","del",133,1,"SRR3696885.2670",FALSE,TRUE,1,0.18796992481203,"C",NA,NA,NA
"285","del",151,1,"SRR3696885.2274",TRUE,TRUE,1,0.18796992481203,"T",NA,NA,NA
"286","del",192,3,"SRR3696885.5380",TRUE,FALSE,1,0.18796992481203,"G",NA,NA,NA
"287","del",213,1,"SRR3696885.1316",TRUE,FALSE,10,1.8796992481203,"G",NA,NA,NA
"288","del",213,1,"SRR3696885.1522",TRUE,FALSE,10,1.8796992481203,"G",NA,NA,NA
"289","del",213,1,"SRR3696885.3020",TRUE,FALSE,10,1.8796992481203,"G",NA,NA,NA
"290","del",213,1,"SRR3696885.330",TRUE,FALSE,10,1.8796992481203,"G",NA,NA,NA
"291","del",213,1,"SRR3696885.4046",TRUE,FALSE,10,1.8796992481203,"G",NA,NA,NA
"292","del",213,1,"SRR3696885.440",TRUE,FALSE,10,1.8796992481203,"G",NA,NA,NA
"293","del",213,1,"SRR3696885.4955",TRUE,FALSE,10,1.8796992481203,"G",NA,NA,NA
"294","del",213,1,"SRR3696885.5853",TRUE,FALSE,10,1.8796992481203,"G",NA,NA,NA
"295","del",213,1,"SRR3696885.6245",TRUE,FALSE,10,1.8796992481203,"G",NA,NA,NA
"296","del",213,1,"SRR3696885.6319",TRUE,FALSE,10,1.8796992481203,"G",NA,NA,NA
"297","del",228,1,"SRR3696885.4138",FALSE,FALSE,1,0.18796992481203,"G",NA,NA,NA
"298","del",234,1,"SRR3696885.137",TRUE,FALSE,15,2.81954887218045,"C",NA,NA,NA
"299","del",234,1,"SRR3696885.1541",TRUE,FALSE,15,2.81954887218045,"C",NA,NA,NA
"300","del",234,1,"SRR3696885.1687",TRUE,FALSE,15,2.81954887218045,"C",NA,NA,NA
"301","del",234,1,"SRR3696885.2207",TRUE,FALSE,15,2.81954887218045,"C",NA,NA,NA
"302","del",234,1,"SRR3696885.2527",TRUE,FALSE,15,2.81954887218045,"C",NA,NA,NA
"303","del",234,1,"SRR3696885.2623",TRUE,FALSE,15,2.81954887218045,"C",NA,NA,NA
"304","del",234,1,"SRR3696885.3136",TRUE,FALSE,15,2.81954887218045,"C",NA,NA,NA
"305","del",234,1,"SRR3696885.3378",TRUE,FALSE,15,2.81954887218045,"C",NA,NA,NA
"306","del",234,1,"SRR3696885.3933",TRUE,FALSE,15,2.81954887218045,"C",NA,NA,NA
"307","del",234,1,"SRR3696885.3987",TRUE,FALSE,15,2.81954887218045,"C",NA,NA,NA
"308","del",234,1,"SRR3696885.4144",TRUE,FALSE,15,2.81954887218045,"C",NA,NA,NA
"309","del",234,1,"SRR3696885.4870",TRUE,FALSE,15,2.81954887218045,"C",NA,NA,NA
"310","del",234,1,"SRR3696885.4956",TRUE,FALSE,15,2.81954887218045,"C",NA,NA,NA
"311","del",234,1,"SRR3696885.5500",TRUE,FALSE,15,2.81954887218045,"C",NA,NA,NA
"312","del",234,1,"SRR3696885.5963",TRUE,FALSE,15,2.81954887218045,"C",NA,NA,NA
"313","del",238,1,"SRR3696885.1018",TRUE,FALSE,39,7.33082706766917,"NHEJ",NA,NA,NA
"314","del",238,1,"SRR3696885.1129",TRUE,FALSE,39,7.33082706766917,"NHEJ",NA,NA,NA
"315","del",238,1,"SRR3696885.1149",TRUE,FALSE,39,7.33082706766917,"NHEJ",NA,NA,NA
"316","del",238,1,"SRR3696885.1153",TRUE,FALSE,39,7.33082706766917,"NHEJ",NA,NA,NA
"317","del",238,1,"SRR3696885.1334",TRUE,FALSE,39,7.33082706766917,"NHEJ",NA,NA,NA
"318","del",238,1,"SRR3696885.1655",TRUE,FALSE,39,7.33082706766917,"NHEJ",NA,NA,NA
"319","del",238,1,"SRR3696885.1805",TRUE,FALSE,39,7.33082706766917,"NHEJ",NA,NA,NA
"320","del",238,1,"SRR3696885.1852",TRUE,FALSE,39,7.33082706766917,"NHEJ",NA,NA,NA
"321","del",238,1,"SRR3696885.1907",TRUE,FALSE,39,7.33082706766917,"NHEJ",NA,NA,NA
"322","del",238,1,"SRR3696885.2058",TRUE,FALSE,39,7.33082706766917,"NHEJ",NA,NA,NA
"323","del",238,1,"SRR3696885.2073",TRUE,FALSE,39,7.33082706766917,"NHEJ",NA,NA,NA
"324","del",238,1,"SRR3696885.217",TRUE,FALSE,39,7.33082706766917,"NHEJ",NA,NA,NA
"325","del",238,1,"SRR3696885.2179",TRUE,FALSE,39,7.33082706766917,"NHEJ",NA,NA,NA
"326","del",238,1,"SRR3696885.2608",TRUE,FALSE,39,7.33082706766917,"NHEJ",NA,NA,NA
"327","del",238,1,"SRR3696885.2629",TRUE,FALSE,39,7.33082706766917,"NHEJ",NA,NA,NA
"328","del",238,1,"SRR3696885.3252",TRUE,FALSE,39,7.33082706766917,"NHEJ",NA,NA,NA
"329","del",238,1,"SRR3696885.3470",TRUE,FALSE,39,7.33082706766917,"NHEJ",NA,NA,NA
"330","del",238,1,"SRR3696885.369",TRUE,FALSE,39,7.33082706766917,"NHEJ",NA,NA,NA
"331","del",238,1,"SRR3696885.3849",TRUE,FALSE,39,7.33082706766917,"NHEJ",NA,NA,NA
"332","del",238,1,"SRR3696885.3978",TRUE,FALSE,39,7.33082706766917,"NHEJ",NA,NA,NA
"333","del",238,1,"SRR3696885.4231",TRUE,FALSE,39,7.33082706766917,"NHEJ",NA,NA,NA
"334","del",238,1,"SRR3696885.434",TRUE,FALSE,39,7.33082706766917,"NHEJ",NA,NA,NA
"335","del",238,1,"SRR3696885.4541",TRUE,FALSE,39,7.33082706766917,"NHEJ",NA,NA,NA
"336","del",238,1,"SRR3696885.4608",TRUE,FALSE,39,7.33082706766917,"NHEJ",NA,NA,NA
"337","del",238,1,"SRR3696885.4626",TRUE,FALSE,39,7.33082706766917,"NHEJ",NA,NA,NA
"338","del",238,1,"SRR3696885.4721",TRUE,FALSE,39,7.33082706766917,"NHEJ",NA,NA,NA
"339","del",238,1,"SRR3696885.4791",TRUE,FALSE,39,7.33082706766917,"NHEJ",NA,NA,NA
"340","del",238,1,"SRR3696885.5331",TRUE,FALSE,39,7.33082706766917,"NHEJ",NA,NA,NA
"341","del",238,1,"SRR3696885.5544",TRUE,FALSE,39,7.33082706766917,"NHEJ",NA,NA,NA
"342","del",238,1,"SRR3696885.5549",TRUE,FALSE,39,7.33082706766917,"NHEJ",NA,NA,NA
"343","del",238,1,"SRR3696885.5550",TRUE,FALSE,39,7.33082706766917,"NHEJ",NA,NA,NA
"344","del",238,1,"SRR3696885.5615",TRUE,FALSE,39,7.33082706766917,"NHEJ",NA,NA,NA
"345","del",238,1,"SRR3696885.5641",TRUE,FALSE,39,7.33082706766917,"NHEJ",NA,NA,NA
"346","del",238,1,"SRR3696885.5979",TRUE,FALSE,39,7.33082706766917,"NHEJ",NA,NA,NA
"347","del",238,1,"SRR3696885.6483",TRUE,FALSE,39,7.33082706766917,"NHEJ",NA,NA,NA
"348","del",238,1,"SRR3696885.6484",TRUE,FALSE,39,7.33082706766917,"NHEJ",NA,NA,NA
"349","del",238,1,"SRR3696885.6485",TRUE,FALSE,39,7.33082706766917,"NHEJ",NA,NA,NA
"350","del",238,1,"SRR3696885.796",TRUE,FALSE,39,7.33082706766917,"NHEJ",NA,NA,NA
"351","del",238,1,"SRR3696885.83",TRUE,FALSE,39,7.33082706766917,"NHEJ",NA,NA,NA
"352","del",238,2,"SRR3696885.2121",FALSE,FALSE,1,0.18796992481203,"A",NA,NA,NA
"353","del",239,1,"SRR3696885.1058",TRUE,FALSE,26,4.88721804511278,"NHEJ",NA,NA,NA
"354","del",239,1,"SRR3696885.1112",TRUE,FALSE,26,4.88721804511278,"NHEJ",NA,NA,NA
"355","del",239,1,"SRR3696885.1470",TRUE,FALSE,26,4.88721804511278,"NHEJ",NA,NA,NA
"356","del",239,1,"SRR3696885.1698",TRUE,FALSE,26,4.88721804511278,"NHEJ",NA,NA,NA
"357","del",239,1,"SRR3696885.1740",TRUE,FALSE,26,4.88721804511278,"NHEJ",NA,NA,NA
"358","del",239,1,"SRR3696885.1800",TRUE,FALSE,26,4.88721804511278,"NHEJ",NA,NA,NA
"359","del",239,1,"SRR3696885.1840",TRUE,FALSE,26,4.88721804511278,"NHEJ",NA,NA,NA
"360","del",239,1,"SRR3696885.1866",TRUE,FALSE,26,4.88721804511278,"NHEJ",NA,NA,NA
"361","del",239,1,"SRR3696885.2271",TRUE,FALSE,26,4.88721804511278,"NHEJ",NA,NA,NA
"362","del",239,1,"SRR3696885.2322",TRUE,FALSE,26,4.88721804511278,"NHEJ",NA,NA,NA
"363","del",239,1,"SRR3696885.2869",TRUE,FALSE,26,4.88721804511278,"NHEJ",NA,NA,NA
"364","del",239,1,"SRR3696885.3294",TRUE,FALSE,26,4.88721804511278,"NHEJ",NA,NA,NA
"365","del",239,1,"SRR3696885.3463",TRUE,FALSE,26,4.88721804511278,"NHEJ",NA,NA,NA
"366","del",239,1,"SRR3696885.3507",TRUE,FALSE,26,4.88721804511278,"NHEJ",NA,NA,NA
"367","del",239,1,"SRR3696885.3739",TRUE,FALSE,26,4.88721804511278,"NHEJ",NA,NA,NA
"368","del",239,1,"SRR3696885.3822",TRUE,FALSE,26,4.88721804511278,"NHEJ",NA,NA,NA
"369","del",239,1,"SRR3696885.4385",TRUE,FALSE,26,4.88721804511278,"NHEJ",NA,NA,NA
"370","del",239,1,"SRR3696885.4679",TRUE,FALSE,26,4.88721804511278,"NHEJ",NA,NA,NA
"371","del",239,1,"SRR3696885.5236",TRUE,FALSE,26,4.88721804511278,"NHEJ",NA,NA,NA
"372","del",239,1,"SRR3696885.5409",TRUE,FALSE,26,4.88721804511278,"NHEJ",NA,NA,NA
"373","del",239,1,"SRR3696885.5539",TRUE,FALSE,26,4.88721804511278,"NHEJ",NA,NA,NA
"374","del",239,1,"SRR3696885.6013",TRUE,FALSE,26,4.88721804511278,"NHEJ",NA,NA,NA
"375","del",239,1,"SRR3696885.6100",TRUE,FALSE,26,4.88721804511278,"NHEJ",NA,NA,NA
"376","del",239,1,"SRR3696885.7",TRUE,FALSE,26,4.88721804511278,"NHEJ",NA,NA,NA
"377","del",239,1,"SRR3696885.911",TRUE,FALSE,26,4.88721804511278,"NHEJ",NA,NA,NA
"378","del",239,1,"SRR3696885.974",TRUE,FALSE,26,4.88721804511278,"NHEJ",NA,NA,NA
"379","del",240,1,"SRR3696885.1251",TRUE,FALSE,37,6.95488721804511,"NHEJ",NA,NA,NA
"380","del",240,1,"SRR3696885.1648",TRUE,FALSE,37,6.95488721804511,"NHEJ",NA,NA,NA
"381","del",240,1,"SRR3696885.1765",TRUE,FALSE,37,6.95488721804511,"NHEJ",NA,NA,NA
"382","del",240,1,"SRR3696885.1801",TRUE,FALSE,37,6.95488721804511,"NHEJ",NA,NA,NA
"383","del",240,1,"SRR3696885.1850",TRUE,FALSE,37,6.95488721804511,"NHEJ",NA,NA,NA
"384","del",240,1,"SRR3696885.1865",TRUE,FALSE,37,6.95488721804511,"NHEJ",NA,NA,NA
"385","del",240,1,"SRR3696885.2209",TRUE,FALSE,37,6.95488721804511,"NHEJ",NA,NA,NA
"386","del",240,1,"SRR3696885.2241",TRUE,FALSE,37,6.95488721804511,"NHEJ",NA,NA,NA
"387","del",240,1,"SRR3696885.2285",TRUE,FALSE,37,6.95488721804511,"NHEJ",NA,NA,NA
"388","del",240,1,"SRR3696885.2533",TRUE,FALSE,37,6.95488721804511,"NHEJ",NA,NA,NA
"389","del",240,1,"SRR3696885.2792",TRUE,FALSE,37,6.95488721804511,"NHEJ",NA,NA,NA
"390","del",240,1,"SRR3696885.2966",TRUE,FALSE,37,6.95488721804511,"NHEJ",NA,NA,NA
"391","del",240,1,"SRR3696885.3087",TRUE,FALSE,37,6.95488721804511,"NHEJ",NA,NA,NA
"392","del",240,1,"SRR3696885.3127",TRUE,FALSE,37,6.95488721804511,"NHEJ",NA,NA,NA
"393","del",240,1,"SRR3696885.3375",TRUE,FALSE,37,6.95488721804511,"NHEJ",NA,NA,NA
"394","del",240,1,"SRR3696885.3555",TRUE,FALSE,37,6.95488721804511,"NHEJ",NA,NA,NA
"395","del",240,1,"SRR3696885.3568",TRUE,FALSE,37,6.95488721804511,"NHEJ",NA,NA,NA
"396","del",240,1,"SRR3696885.3819",TRUE,FALSE,37,6.95488721804511,"NHEJ",NA,NA,NA
"397","del",240,1,"SRR3696885.3916",TRUE,FALSE,37,6.95488721804511,"NHEJ",NA,NA,NA
"398","del",240,1,"SRR3696885.3949",TRUE,FALSE,37,6.95488721804511,"NHEJ",NA,NA,NA
"399","del",240,1,"SRR3696885.4510",TRUE,FALSE,37,6.95488721804511,"NHEJ",NA,NA,NA
"400","del",240,1,"SRR3696885.4643",TRUE,FALSE,37,6.95488721804511,"NHEJ",NA,NA,NA
"401","del",240,1,"SRR3696885.4801",TRUE,FALSE,37,6.95488721804511,"NHEJ",NA,NA,NA
"402","del",240,1,"SRR3696885.5076",TRUE,FALSE,37,6.95488721804511,"NHEJ",NA,NA,NA
"403","del",240,1,"SRR3696885.5079",TRUE,FALSE,37,6.95488721804511,"NHEJ",NA,NA,NA
"404","del",240,1,"SRR3696885.5228",TRUE,FALSE,37,6.95488721804511,"NHEJ",NA,NA,NA
"405","del",240,1,"SRR3696885.5534",TRUE,FALSE,37,6.95488721804511,"NHEJ",NA,NA,NA
"406","del",240,1,"SRR3696885.5611",TRUE,FALSE,37,6.95488721804511,"NHEJ",NA,NA,NA
"407","del",240,1,"SRR3696885.5640",TRUE,FALSE,37,6.95488721804511,"NHEJ",NA,NA,NA
"408","del",240,1,"SRR3696885.5703",TRUE,FALSE,37,6.95488721804511,"NHEJ",NA,NA,NA
"409","del",240,1,"SRR3696885.6138",TRUE,FALSE,37,6.95488721804511,"NHEJ",NA,NA,NA
"410","del",240,1,"SRR3696885.6294",TRUE,FALSE,37,6.95488721804511,"NHEJ",NA,NA,NA
"411","del",240,1,"SRR3696885.6305",TRUE,FALSE,37,6.95488721804511,"NHEJ",NA,NA,NA
"412","del",240,1,"SRR3696885.6327",TRUE,FALSE,37,6.95488721804511,"NHEJ",NA,NA,NA
"413","del",240,1,"SRR3696885.6376",TRUE,FALSE,37,6.95488721804511,"NHEJ",NA,NA,NA
"414","del",240,1,"SRR3696885.6420",TRUE,FALSE,37,6.95488721804511,"NHEJ",NA,NA,NA
"415","del",240,1,"SRR3696885.832",TRUE,FALSE,37,6.95488721804511,"NHEJ",NA,NA,NA
"416","del",241,1,"SRR3696885.1027",TRUE,FALSE,43,8.08270676691729,"C",NA,NA,NA
"417","del",241,1,"SRR3696885.1406",TRUE,FALSE,43,8.08270676691729,"C",NA,NA,NA
"418","del",241,1,"SRR3696885.149",TRUE,FALSE,43,8.08270676691729,"C",NA,NA,NA
"419","del",241,1,"SRR3696885.1649",TRUE,FALSE,43,8.08270676691729,"C",NA,NA,NA
"420","del",241,1,"SRR3696885.172",TRUE,FALSE,43,8.08270676691729,"C",NA,NA,NA
"421","del",241,1,"SRR3696885.1815",TRUE,FALSE,43,8.08270676691729,"C",NA,NA,NA
"422","del",241,1,"SRR3696885.1963",TRUE,FALSE,43,8.08270676691729,"C",NA,NA,NA
"423","del",241,1,"SRR3696885.2035",TRUE,FALSE,43,8.08270676691729,"C",NA,NA,NA
"424","del",241,1,"SRR3696885.2125",TRUE,FALSE,43,8.08270676691729,"C",NA,NA,NA
"425","del",241,1,"SRR3696885.2272",TRUE,FALSE,43,8.08270676691729,"C",NA,NA,NA
"426","del",241,1,"SRR3696885.2350",TRUE,FALSE,43,8.08270676691729,"C",NA,NA,NA
"427","del",241,1,"SRR3696885.238",TRUE,FALSE,43,8.08270676691729,"C",NA,NA,NA
"428","del",241,1,"SRR3696885.2405",TRUE,FALSE,43,8.08270676691729,"C",NA,NA,NA
"429","del",241,1,"SRR3696885.2577",TRUE,FALSE,43,8.08270676691729,"C",NA,NA,NA
"430","del",241,1,"SRR3696885.2633",TRUE,FALSE,43,8.08270676691729,"C",NA,NA,NA
"431","del",241,1,"SRR3696885.2642",TRUE,FALSE,43,8.08270676691729,"C",NA,NA,NA
"432","del",241,1,"SRR3696885.2874",TRUE,FALSE,43,8.08270676691729,"C",NA,NA,NA
"433","del",241,1,"SRR3696885.2954",TRUE,FALSE,43,8.08270676691729,"C",NA,NA,NA
"434","del",241,1,"SRR3696885.3057",TRUE,FALSE,43,8.08270676691729,"C",NA,NA,NA
"435","del",241,1,"SRR3696885.3116",TRUE,FALSE,43,8.08270676691729,"C",NA,NA,NA
"436","del",241,1,"SRR3696885.3134",TRUE,FALSE,43,8.08270676691729,"C",NA,NA,NA
"437","del",241,1,"SRR3696885.4165",TRUE,FALSE,43,8.08270676691729,"C",NA,NA,NA
"438","del",241,1,"SRR3696885.4170",TRUE,FALSE,43,8.08270676691729,"C",NA,NA,NA
"439","del",241,1,"SRR3696885.4388",TRUE,FALSE,43,8.08270676691729,"C",NA,NA,NA
"440","del",241,1,"SRR3696885.4559",TRUE,FALSE,43,8.08270676691729,"C",NA,NA,NA
"441","del",241,1,"SRR3696885.4685",TRUE,FALSE,43,8.08270676691729,"C",NA,NA,NA
"442","del",241,1,"SRR3696885.4780",TRUE,FALSE,43,8.08270676691729,"C",NA,NA,NA
"443","del",241,1,"SRR3696885.4825",TRUE,FALSE,43,8.08270676691729,"C",NA,NA,NA
"444","del",241,1,"SRR3696885.4838",TRUE,FALSE,43,8.08270676691729,"C",NA,NA,NA
"445","del",241,1,"SRR3696885.4842",TRUE,FALSE,43,8.08270676691729,"C",NA,NA,NA
"446","del",241,1,"SRR3696885.485",TRUE,FALSE,43,8.08270676691729,"C",NA,NA,NA
"447","del",241,1,"SRR3696885.5030",TRUE,FALSE,43,8.08270676691729,"C",NA,NA,NA
"448","del",241,1,"SRR3696885.5032",TRUE,FALSE,43,8.08270676691729,"C",NA,NA,NA
"449","del",241,1,"SRR3696885.5442",TRUE,FALSE,43,8.08270676691729,"C",NA,NA,NA
"450","del",241,1,"SRR3696885.5497",TRUE,FALSE,43,8.08270676691729,"C",NA,NA,NA
"451","del",241,1,"SRR3696885.5600",TRUE,FALSE,43,8.08270676691729,"C",NA,NA,NA
"452","del",241,1,"SRR3696885.5689",TRUE,FALSE,43,8.08270676691729,"C",NA,NA,NA
"453","del",241,1,"SRR3696885.5761",TRUE,FALSE,43,8.08270676691729,"C",NA,NA,NA
"454","del",241,1,"SRR3696885.6055",TRUE,FALSE,43,8.08270676691729,"C",NA,NA,NA
"455","del",241,1,"SRR3696885.6068",TRUE,FALSE,43,8.08270676691729,"C",NA,NA,NA
"456","del",241,1,"SRR3696885.6210",TRUE,FALSE,43,8.08270676691729,"C",NA,NA,NA
"457","del",241,1,"SRR3696885.846",TRUE,FALSE,43,8.08270676691729,"C",NA,NA,NA
"458","del",241,1,"SRR3696885.899",TRUE,FALSE,43,8.08270676691729,"C",NA,NA,NA
"459","del",243,1,"SRR3696885.100",TRUE,FALSE,39,7.33082706766917,"NHEJ",NA,NA,NA
"460","del",243,1,"SRR3696885.123",TRUE,FALSE,39,7.33082706766917,"NHEJ",NA,NA,NA
"461","del",243,1,"SRR3696885.1348",TRUE,FALSE,39,7.33082706766917,"NHEJ",NA,NA,NA
"462","del",243,1,"SRR3696885.1463",TRUE,FALSE,39,7.33082706766917,"NHEJ",NA,NA,NA
"463","del",243,1,"SRR3696885.1524",TRUE,FALSE,39,7.33082706766917,"NHEJ",NA,NA,NA
"464","del",243,1,"SRR3696885.161",TRUE,FALSE,39,7.33082706766917,"NHEJ",NA,NA,NA
"465","del",243,1,"SRR3696885.1795",TRUE,FALSE,39,7.33082706766917,"NHEJ",NA,NA,NA
"466","del",243,1,"SRR3696885.2016",TRUE,FALSE,39,7.33082706766917,"NHEJ",NA,NA,NA
"467","del",243,1,"SRR3696885.2330",TRUE,FALSE,39,7.33082706766917,"NHEJ",NA,NA,NA
"468","del",243,1,"SRR3696885.234",TRUE,FALSE,39,7.33082706766917,"NHEJ",NA,NA,NA
"469","del",243,1,"SRR3696885.2502",TRUE,FALSE,39,7.33082706766917,"NHEJ",NA,NA,NA
"470","del",243,1,"SRR3696885.2868",TRUE,FALSE,39,7.33082706766917,"NHEJ",NA,NA,NA
"471","del",243,1,"SRR3696885.2943",TRUE,FALSE,39,7.33082706766917,"NHEJ",NA,NA,NA
"472","del",243,1,"SRR3696885.2996",TRUE,FALSE,39,7.33082706766917,"NHEJ",NA,NA,NA
"473","del",243,1,"SRR3696885.3003",TRUE,FALSE,39,7.33082706766917,"NHEJ",NA,NA,NA
"474","del",243,1,"SRR3696885.3008",TRUE,FALSE,39,7.33082706766917,"NHEJ",NA,NA,NA
"475","del",243,1,"SRR3696885.3062",TRUE,FALSE,39,7.33082706766917,"NHEJ",NA,NA,NA
"476","del",243,1,"SRR3696885.3118",TRUE,FALSE,39,7.33082706766917,"NHEJ",NA,NA,NA
"477","del",243,1,"SRR3696885.3143",TRUE,FALSE,39,7.33082706766917,"NHEJ",NA,NA,NA
"478","del",243,1,"SRR3696885.3178",TRUE,FALSE,39,7.33082706766917,"NHEJ",NA,NA,NA
"479","del",243,1,"SRR3696885.3363",TRUE,FALSE,39,7.33082706766917,"NHEJ",NA,NA,NA
"480","del",243,1,"SRR3696885.3371",TRUE,FALSE,39,7.33082706766917,"NHEJ",NA,NA,NA
"481","del",243,1,"SRR3696885.3643",TRUE,FALSE,39,7.33082706766917,"NHEJ",NA,NA,NA
"482","del",243,1,"SRR3696885.368",TRUE,FALSE,39,7.33082706766917,"NHEJ",NA,NA,NA
"483","del",243,1,"SRR3696885.3766",TRUE,FALSE,39,7.33082706766917,"NHEJ",NA,NA,NA
"484","del",243,1,"SRR3696885.4081",TRUE,FALSE,39,7.33082706766917,"NHEJ",NA,NA,NA
"485","del",243,1,"SRR3696885.4453",TRUE,FALSE,39,7.33082706766917,"NHEJ",NA,NA,NA
"486","del",243,1,"SRR3696885.4487",TRUE,FALSE,39,7.33082706766917,"NHEJ",NA,NA,NA
"487","del",243,1,"SRR3696885.4527",TRUE,FALSE,39,7.33082706766917,"NHEJ",NA,NA,NA
"488","del",243,1,"SRR3696885.4674",TRUE,FALSE,39,7.33082706766917,"NHEJ",NA,NA,NA
"489","del",243,1,"SRR3696885.468",TRUE,FALSE,39,7.33082706766917,"NHEJ",NA,NA,NA
"490","del",243,1,"SRR3696885.481",TRUE,FALSE,39,7.33082706766917,"NHEJ",NA,NA,NA
"491","del",243,1,"SRR3696885.4845",TRUE,FALSE,39,7.33082706766917,"NHEJ",NA,NA,NA
"492","del",243,1,"SRR3696885.4877",TRUE,FALSE,39,7.33082706766917,"NHEJ",NA,NA,NA
"493","del",243,1,"SRR3696885.5183",TRUE,FALSE,39,7.33082706766917,"NHEJ",NA,NA,NA
"494","del",243,1,"SRR3696885.5327",TRUE,FALSE,39,7.33082706766917,"NHEJ",NA,NA,NA
"495","del",243,1,"SRR3696885.5635",TRUE,FALSE,39,7.33082706766917,"NHEJ",NA,NA,NA
"496","del",243,1,"SRR3696885.66",TRUE,FALSE,39,7.33082706766917,"NHEJ",NA,NA,NA
"497","del",243,1,"SRR3696885.706",TRUE,FALSE,39,7.33082706766917,"NHEJ",NA,NA,NA
"498","del",244,1,"SRR3696885.1161",TRUE,FALSE,22,4.13533834586466,"NHEJ",NA,NA,NA
"499","del",244,1,"SRR3696885.1281",TRUE,FALSE,22,4.13533834586466,"NHEJ",NA,NA,NA
"500","del",244,1,"SRR3696885.1433",TRUE,FALSE,22,4.13533834586466,"NHEJ",NA,NA,NA
"501","del",244,1,"SRR3696885.1435",TRUE,FALSE,22,4.13533834586466,"NHEJ",NA,NA,NA
"502","del",244,1,"SRR3696885.1485",TRUE,FALSE,22,4.13533834586466,"NHEJ",NA,NA,NA
"503","del",244,1,"SRR3696885.2122",TRUE,FALSE,22,4.13533834586466,"NHEJ",NA,NA,NA
"504","del",244,1,"SRR3696885.2603",TRUE,FALSE,22,4.13533834586466,"NHEJ",NA,NA,NA
"505","del",244,1,"SRR3696885.3191",TRUE,FALSE,22,4.13533834586466,"NHEJ",NA,NA,NA
"506","del",244,1,"SRR3696885.3473",TRUE,FALSE,22,4.13533834586466,"NHEJ",NA,NA,NA
"507","del",244,1,"SRR3696885.3810",TRUE,FALSE,22,4.13533834586466,"NHEJ",NA,NA,NA
"508","del",244,1,"SRR3696885.390",TRUE,FALSE,22,4.13533834586466,"NHEJ",NA,NA,NA
"509","del",244,1,"SRR3696885.4018",TRUE,FALSE,22,4.13533834586466,"NHEJ",NA,NA,NA
"510","del",244,1,"SRR3696885.4111",TRUE,FALSE,22,4.13533834586466,"NHEJ",NA,NA,NA
"511","del",244,1,"SRR3696885.4517",TRUE,FALSE,22,4.13533834586466,"NHEJ",NA,NA,NA
"512","del",244,1,"SRR3696885.4547",TRUE,FALSE,22,4.13533834586466,"NHEJ",NA,NA,NA
"513","del",244,1,"SRR3696885.4829",TRUE,FALSE,22,4.13533834586466,"NHEJ",NA,NA,NA
"514","del",244,1,"SRR3696885.5923",TRUE,FALSE,22,4.13533834586466,"NHEJ",NA,NA,NA
"515","del",244,1,"SRR3696885.5942",TRUE,FALSE,22,4.13533834586466,"NHEJ",NA,NA,NA
"516","del",244,1,"SRR3696885.6031",TRUE,FALSE,22,4.13533834586466,"NHEJ",NA,NA,NA
"517","del",244,1,"SRR3696885.642",TRUE,FALSE,22,4.13533834586466,"NHEJ",NA,NA,NA
"518","del",244,1,"SRR3696885.854",TRUE,FALSE,22,4.13533834586466,"NHEJ",NA,NA,NA
"519","del",244,1,"SRR3696885.929",TRUE,FALSE,22,4.13533834586466,"NHEJ",NA,NA,NA
"520","ins",7,1,"SRR3696885.3095",FALSE,FALSE,1,0.18796992481203,NA,"GCC","G","GGC"
"521","ins",12,1,"SRR3696885.3075",FALSE,FALSE,2,0.37593984962406,NA,"CGG","A","AAA"
"522","ins",12,1,"SRR3696885.6330",FALSE,FALSE,2,0.37593984962406,NA,"CGG","A","AAA"
"523","ins",234,1,"SRR3696885.2000",FALSE,FALSE,1,0.18796992481203,NA,"AGA","C","CCC"
"524","ins",238,1,"SRR3696885.421",FALSE,FALSE,1,0.18796992481203,NA,"CCC","A","AGA"
"525","ins",241,1,"SRR3696885.2969",FALSE,FALSE,1,0.18796992481203,NA,"AGA","C","CCG"
"526","ins",128,1,"SRR3696885.1477",TRUE,TRUE,3,0.56390977443609,NA,"GAA","G","GGG"
"527","ins",128,1,"SRR3696885.2750",TRUE,TRUE,3,0.56390977443609,NA,"GAA","G","GGG"
"528","ins",128,1,"SRR3696885.3631",TRUE,TRUE,3,0.56390977443609,NA,"GAA","G","GGG"
"529","ins",132,6,"SRR3696885.2386",TRUE,TRUE,2,0.37593984962406,NA,"GGG","TGATTG","GCC"
"530","ins",132,6,"SRR3696885.5731",TRUE,TRUE,2,0.37593984962406,NA,"GGG","TGATTG","GCC"
"531","ins",132,6,"SRR3696885.4459",TRUE,TRUE,2,0.37593984962406,NA,"GGG","CCGGGC","GCC"
"532","ins",132,6,"SRR3696885.5896",TRUE,TRUE,2,0.37593984962406,NA,"GGG","CCGGGC","GCC"
