"","Modification","Start","Length","Ids","above_error_rate","in_pick","freq","Perc","patterns","pre_ins_nt","ins_nt","post_ins_nt"
"1","del",5,1,"SRR3699957.1032",TRUE,FALSE,47,6.98365527488856,"C",NA,NA,NA
"2","del",5,1,"SRR3699957.1184",TRUE,FALSE,47,6.98365527488856,"C",NA,NA,NA
"3","del",5,1,"SRR3699957.1421",TRUE,FALSE,47,6.98365527488856,"C",NA,NA,NA
"4","del",5,1,"SRR3699957.1506",TRUE,FALSE,47,6.98365527488856,"C",NA,NA,NA
"5","del",5,1,"SRR3699957.1597",TRUE,FALSE,47,6.98365527488856,"C",NA,NA,NA
"6","del",5,1,"SRR3699957.1905",TRUE,FALSE,47,6.98365527488856,"C",NA,NA,NA
"7","del",5,1,"SRR3699957.1911",TRUE,FALSE,47,6.98365527488856,"C",NA,NA,NA
"8","del",5,1,"SRR3699957.1939",TRUE,FALSE,47,6.98365527488856,"C",NA,NA,NA
"9","del",5,1,"SRR3699957.1948",TRUE,FALSE,47,6.98365527488856,"C",NA,NA,NA
"10","del",5,1,"SRR3699957.2263",TRUE,FALSE,47,6.98365527488856,"C",NA,NA,NA
"11","del",5,1,"SRR3699957.2618",TRUE,FALSE,47,6.98365527488856,"C",NA,NA,NA
"12","del",5,1,"SRR3699957.3645",TRUE,FALSE,47,6.98365527488856,"C",NA,NA,NA
"13","del",5,1,"SRR3699957.3668",TRUE,FALSE,47,6.98365527488856,"C",NA,NA,NA
"14","del",5,1,"SRR3699957.417",TRUE,FALSE,47,6.98365527488856,"C",NA,NA,NA
"15","del",5,1,"SRR3699957.4332",TRUE,FALSE,47,6.98365527488856,"C",NA,NA,NA
"16","del",5,1,"SRR3699957.4385",TRUE,FALSE,47,6.98365527488856,"C",NA,NA,NA
"17","del",5,1,"SRR3699957.4778",TRUE,FALSE,47,6.98365527488856,"C",NA,NA,NA
"18","del",5,1,"SRR3699957.4862",TRUE,FALSE,47,6.98365527488856,"C",NA,NA,NA
"19","del",5,1,"SRR3699957.5007",TRUE,FALSE,47,6.98365527488856,"C",NA,NA,NA
"20","del",5,1,"SRR3699957.5247",TRUE,FALSE,47,6.98365527488856,"C",NA,NA,NA
"21","del",5,1,"SRR3699957.5548",TRUE,FALSE,47,6.98365527488856,"C",NA,NA,NA
"22","del",5,1,"SRR3699957.5675",TRUE,FALSE,47,6.98365527488856,"C",NA,NA,NA
"23","del",5,1,"SRR3699957.5698",TRUE,FALSE,47,6.98365527488856,"C",NA,NA,NA
"24","del",5,1,"SRR3699957.5787",TRUE,FALSE,47,6.98365527488856,"C",NA,NA,NA
"25","del",5,1,"SRR3699957.5921",TRUE,FALSE,47,6.98365527488856,"C",NA,NA,NA
"26","del",5,1,"SRR3699957.5922",TRUE,FALSE,47,6.98365527488856,"C",NA,NA,NA
"27","del",5,1,"SRR3699957.612",TRUE,FALSE,47,6.98365527488856,"C",NA,NA,NA
"28","del",5,1,"SRR3699957.6186",TRUE,FALSE,47,6.98365527488856,"C",NA,NA,NA
"29","del",5,1,"SRR3699957.6207",TRUE,FALSE,47,6.98365527488856,"C",NA,NA,NA
"30","del",5,1,"SRR3699957.6444",TRUE,FALSE,47,6.98365527488856,"C",NA,NA,NA
"31","del",5,1,"SRR3699957.6472",TRUE,FALSE,47,6.98365527488856,"C",NA,NA,NA
"32","del",5,1,"SRR3699957.6559",TRUE,FALSE,47,6.98365527488856,"C",NA,NA,NA
"33","del",5,1,"SRR3699957.694",TRUE,FALSE,47,6.98365527488856,"C",NA,NA,NA
"34","del",5,1,"SRR3699957.6979",TRUE,FALSE,47,6.98365527488856,"C",NA,NA,NA
"35","del",5,1,"SRR3699957.723",TRUE,FALSE,47,6.98365527488856,"C",NA,NA,NA
"36","del",5,1,"SRR3699957.7247",TRUE,FALSE,47,6.98365527488856,"C",NA,NA,NA
"37","del",5,1,"SRR3699957.7371",TRUE,FALSE,47,6.98365527488856,"C",NA,NA,NA
"38","del",5,1,"SRR3699957.76",TRUE,FALSE,47,6.98365527488856,"C",NA,NA,NA
"39","del",5,1,"SRR3699957.837",TRUE,FALSE,47,6.98365527488856,"C",NA,NA,NA
"40","del",5,1,"SRR3699957.861",TRUE,FALSE,47,6.98365527488856,"C",NA,NA,NA
"41","del",5,1,"SRR3699957.8793",TRUE,FALSE,47,6.98365527488856,"C",NA,NA,NA
"42","del",5,1,"SRR3699957.885",TRUE,FALSE,47,6.98365527488856,"C",NA,NA,NA
"43","del",5,1,"SRR3699957.8910",TRUE,FALSE,47,6.98365527488856,"C",NA,NA,NA
"44","del",5,1,"SRR3699957.8934",TRUE,FALSE,47,6.98365527488856,"C",NA,NA,NA
"45","del",5,1,"SRR3699957.9104",TRUE,FALSE,47,6.98365527488856,"C",NA,NA,NA
"46","del",5,1,"SRR3699957.9163",TRUE,FALSE,47,6.98365527488856,"C",NA,NA,NA
"47","del",5,1,"SRR3699957.949",TRUE,FALSE,47,6.98365527488856,"C",NA,NA,NA
"48","del",6,2,"SRR3699957.262",TRUE,FALSE,5,0.742942050520059,"NHEJ",NA,NA,NA
"49","del",6,2,"SRR3699957.3198",TRUE,FALSE,5,0.742942050520059,"NHEJ",NA,NA,NA
"50","del",6,2,"SRR3699957.3947",TRUE,FALSE,5,0.742942050520059,"NHEJ",NA,NA,NA
"51","del",6,2,"SRR3699957.6707",TRUE,FALSE,5,0.742942050520059,"NHEJ",NA,NA,NA
"52","del",6,2,"SRR3699957.8097",TRUE,FALSE,5,0.742942050520059,"NHEJ",NA,NA,NA
"53","del",7,1,"SRR3699957.1126",TRUE,FALSE,56,8.32095096582466,"G",NA,NA,NA
"54","del",7,1,"SRR3699957.1155",TRUE,FALSE,56,8.32095096582466,"G",NA,NA,NA
"55","del",7,1,"SRR3699957.1202",TRUE,FALSE,56,8.32095096582466,"G",NA,NA,NA
"56","del",7,1,"SRR3699957.1275",TRUE,FALSE,56,8.32095096582466,"G",NA,NA,NA
"57","del",7,1,"SRR3699957.1337",TRUE,FALSE,56,8.32095096582466,"G",NA,NA,NA
"58","del",7,1,"SRR3699957.1396",TRUE,FALSE,56,8.32095096582466,"G",NA,NA,NA
"59","del",7,1,"SRR3699957.142",TRUE,FALSE,56,8.32095096582466,"G",NA,NA,NA
"60","del",7,1,"SRR3699957.1515",TRUE,FALSE,56,8.32095096582466,"G",NA,NA,NA
"61","del",7,1,"SRR3699957.1943",TRUE,FALSE,56,8.32095096582466,"G",NA,NA,NA
"62","del",7,1,"SRR3699957.1960",TRUE,FALSE,56,8.32095096582466,"G",NA,NA,NA
"63","del",7,1,"SRR3699957.244",TRUE,FALSE,56,8.32095096582466,"G",NA,NA,NA
"64","del",7,1,"SRR3699957.2440",TRUE,FALSE,56,8.32095096582466,"G",NA,NA,NA
"65","del",7,1,"SRR3699957.2712",TRUE,FALSE,56,8.32095096582466,"G",NA,NA,NA
"66","del",7,1,"SRR3699957.3324",TRUE,FALSE,56,8.32095096582466,"G",NA,NA,NA
"67","del",7,1,"SRR3699957.3340",TRUE,FALSE,56,8.32095096582466,"G",NA,NA,NA
"68","del",7,1,"SRR3699957.3437",TRUE,FALSE,56,8.32095096582466,"G",NA,NA,NA
"69","del",7,1,"SRR3699957.4001",TRUE,FALSE,56,8.32095096582466,"G",NA,NA,NA
"70","del",7,1,"SRR3699957.4004",TRUE,FALSE,56,8.32095096582466,"G",NA,NA,NA
"71","del",7,1,"SRR3699957.4103",TRUE,FALSE,56,8.32095096582466,"G",NA,NA,NA
"72","del",7,1,"SRR3699957.4122",TRUE,FALSE,56,8.32095096582466,"G",NA,NA,NA
"73","del",7,1,"SRR3699957.4255",TRUE,FALSE,56,8.32095096582466,"G",NA,NA,NA
"74","del",7,1,"SRR3699957.444",TRUE,FALSE,56,8.32095096582466,"G",NA,NA,NA
"75","del",7,1,"SRR3699957.501",TRUE,FALSE,56,8.32095096582466,"G",NA,NA,NA
"76","del",7,1,"SRR3699957.5225",TRUE,FALSE,56,8.32095096582466,"G",NA,NA,NA
"77","del",7,1,"SRR3699957.5257",TRUE,FALSE,56,8.32095096582466,"G",NA,NA,NA
"78","del",7,1,"SRR3699957.5270",TRUE,FALSE,56,8.32095096582466,"G",NA,NA,NA
"79","del",7,1,"SRR3699957.5313",TRUE,FALSE,56,8.32095096582466,"G",NA,NA,NA
"80","del",7,1,"SRR3699957.532",TRUE,FALSE,56,8.32095096582466,"G",NA,NA,NA
"81","del",7,1,"SRR3699957.5519",TRUE,FALSE,56,8.32095096582466,"G",NA,NA,NA
"82","del",7,1,"SRR3699957.5942",TRUE,FALSE,56,8.32095096582466,"G",NA,NA,NA
"83","del",7,1,"SRR3699957.5954",TRUE,FALSE,56,8.32095096582466,"G",NA,NA,NA
"84","del",7,1,"SRR3699957.5967",TRUE,FALSE,56,8.32095096582466,"G",NA,NA,NA
"85","del",7,1,"SRR3699957.5972",TRUE,FALSE,56,8.32095096582466,"G",NA,NA,NA
"86","del",7,1,"SRR3699957.6081",TRUE,FALSE,56,8.32095096582466,"G",NA,NA,NA
"87","del",7,1,"SRR3699957.6167",TRUE,FALSE,56,8.32095096582466,"G",NA,NA,NA
"88","del",7,1,"SRR3699957.6437",TRUE,FALSE,56,8.32095096582466,"G",NA,NA,NA
"89","del",7,1,"SRR3699957.6471",TRUE,FALSE,56,8.32095096582466,"G",NA,NA,NA
"90","del",7,1,"SRR3699957.675",TRUE,FALSE,56,8.32095096582466,"G",NA,NA,NA
"91","del",7,1,"SRR3699957.683",TRUE,FALSE,56,8.32095096582466,"G",NA,NA,NA
"92","del",7,1,"SRR3699957.6941",TRUE,FALSE,56,8.32095096582466,"G",NA,NA,NA
"93","del",7,1,"SRR3699957.7068",TRUE,FALSE,56,8.32095096582466,"G",NA,NA,NA
"94","del",7,1,"SRR3699957.7089",TRUE,FALSE,56,8.32095096582466,"G",NA,NA,NA
"95","del",7,1,"SRR3699957.7110",TRUE,FALSE,56,8.32095096582466,"G",NA,NA,NA
"96","del",7,1,"SRR3699957.7132",TRUE,FALSE,56,8.32095096582466,"G",NA,NA,NA
"97","del",7,1,"SRR3699957.7368",TRUE,FALSE,56,8.32095096582466,"G",NA,NA,NA
"98","del",7,1,"SRR3699957.7702",TRUE,FALSE,56,8.32095096582466,"G",NA,NA,NA
"99","del",7,1,"SRR3699957.7756",TRUE,FALSE,56,8.32095096582466,"G",NA,NA,NA
"100","del",7,1,"SRR3699957.7810",TRUE,FALSE,56,8.32095096582466,"G",NA,NA,NA
"101","del",7,1,"SRR3699957.8338",TRUE,FALSE,56,8.32095096582466,"G",NA,NA,NA
"102","del",7,1,"SRR3699957.8381",TRUE,FALSE,56,8.32095096582466,"G",NA,NA,NA
"103","del",7,1,"SRR3699957.8475",TRUE,FALSE,56,8.32095096582466,"G",NA,NA,NA
"104","del",7,1,"SRR3699957.8583",TRUE,FALSE,56,8.32095096582466,"G",NA,NA,NA
"105","del",7,1,"SRR3699957.8654",TRUE,FALSE,56,8.32095096582466,"G",NA,NA,NA
"106","del",7,1,"SRR3699957.8655",TRUE,FALSE,56,8.32095096582466,"G",NA,NA,NA
"107","del",7,1,"SRR3699957.87",TRUE,FALSE,56,8.32095096582466,"G",NA,NA,NA
"108","del",7,1,"SRR3699957.9196",TRUE,FALSE,56,8.32095096582466,"G",NA,NA,NA
"109","del",7,2,"SRR3699957.628",FALSE,FALSE,1,0.148588410104012,"NHEJ",NA,NA,NA
"110","del",8,2,"SRR3699957.5312",FALSE,FALSE,1,0.148588410104012,"G",NA,NA,NA
"111","del",9,1,"SRR3699957.185",TRUE,FALSE,12,1.78306092124814,"NHEJ",NA,NA,NA
"112","del",9,1,"SRR3699957.2431",TRUE,FALSE,12,1.78306092124814,"NHEJ",NA,NA,NA
"113","del",9,1,"SRR3699957.2565",TRUE,FALSE,12,1.78306092124814,"NHEJ",NA,NA,NA
"114","del",9,1,"SRR3699957.4611",TRUE,FALSE,12,1.78306092124814,"NHEJ",NA,NA,NA
"115","del",9,1,"SRR3699957.5036",TRUE,FALSE,12,1.78306092124814,"NHEJ",NA,NA,NA
"116","del",9,1,"SRR3699957.6786",TRUE,FALSE,12,1.78306092124814,"NHEJ",NA,NA,NA
"117","del",9,1,"SRR3699957.6954",TRUE,FALSE,12,1.78306092124814,"NHEJ",NA,NA,NA
"118","del",9,1,"SRR3699957.7656",TRUE,FALSE,12,1.78306092124814,"NHEJ",NA,NA,NA
"119","del",9,1,"SRR3699957.7657",TRUE,FALSE,12,1.78306092124814,"NHEJ",NA,NA,NA
"120","del",9,1,"SRR3699957.8023",TRUE,FALSE,12,1.78306092124814,"NHEJ",NA,NA,NA
"121","del",9,1,"SRR3699957.8216",TRUE,FALSE,12,1.78306092124814,"NHEJ",NA,NA,NA
"122","del",9,1,"SRR3699957.8492",TRUE,FALSE,12,1.78306092124814,"NHEJ",NA,NA,NA
"123","del",10,1,"SRR3699957.1028",TRUE,FALSE,12,1.78306092124814,"G",NA,NA,NA
"124","del",10,1,"SRR3699957.1182",TRUE,FALSE,12,1.78306092124814,"G",NA,NA,NA
"125","del",10,1,"SRR3699957.2055",TRUE,FALSE,12,1.78306092124814,"G",NA,NA,NA
"126","del",10,1,"SRR3699957.2707",TRUE,FALSE,12,1.78306092124814,"G",NA,NA,NA
"127","del",10,1,"SRR3699957.3446",TRUE,FALSE,12,1.78306092124814,"G",NA,NA,NA
"128","del",10,1,"SRR3699957.3966",TRUE,FALSE,12,1.78306092124814,"G",NA,NA,NA
"129","del",10,1,"SRR3699957.5049",TRUE,FALSE,12,1.78306092124814,"G",NA,NA,NA
"130","del",10,1,"SRR3699957.5934",TRUE,FALSE,12,1.78306092124814,"G",NA,NA,NA
"131","del",10,1,"SRR3699957.6525",TRUE,FALSE,12,1.78306092124814,"G",NA,NA,NA
"132","del",10,1,"SRR3699957.850",TRUE,FALSE,12,1.78306092124814,"G",NA,NA,NA
"133","del",10,1,"SRR3699957.866",TRUE,FALSE,12,1.78306092124814,"G",NA,NA,NA
"134","del",10,1,"SRR3699957.8863",TRUE,FALSE,12,1.78306092124814,"G",NA,NA,NA
"135","del",10,2,"SRR3699957.3588",FALSE,FALSE,2,0.297176820208024,"NHEJ",NA,NA,NA
"136","del",10,2,"SRR3699957.8110",FALSE,FALSE,2,0.297176820208024,"NHEJ",NA,NA,NA
"137","del",12,1,"SRR3699957.1113",TRUE,FALSE,7,1.04011887072808,"A",NA,NA,NA
"138","del",12,1,"SRR3699957.2625",TRUE,FALSE,7,1.04011887072808,"A",NA,NA,NA
"139","del",12,1,"SRR3699957.5477",TRUE,FALSE,7,1.04011887072808,"A",NA,NA,NA
"140","del",12,1,"SRR3699957.5484",TRUE,FALSE,7,1.04011887072808,"A",NA,NA,NA
"141","del",12,1,"SRR3699957.6587",TRUE,FALSE,7,1.04011887072808,"A",NA,NA,NA
"142","del",12,1,"SRR3699957.6691",TRUE,FALSE,7,1.04011887072808,"A",NA,NA,NA
"143","del",12,1,"SRR3699957.8371",TRUE,FALSE,7,1.04011887072808,"A",NA,NA,NA
"144","del",34,1,"SRR3699957.4362",FALSE,FALSE,1,0.148588410104012,"NHEJ",NA,NA,NA
"145","del",42,1,"SRR3699957.3263",FALSE,FALSE,1,0.148588410104012,"C",NA,NA,NA
"146","del",50,1,"SRR3699957.1541",TRUE,FALSE,2,0.297176820208024,"G",NA,NA,NA
"147","del",50,1,"SRR3699957.3520",TRUE,FALSE,2,0.297176820208024,"G",NA,NA,NA
"148","del",59,1,"SRR3699957.8850",FALSE,FALSE,1,0.148588410104012,"NHEJ",NA,NA,NA
"149","del",83,1,"SRR3699957.3119",FALSE,FALSE,1,0.148588410104012,"NHEJ",NA,NA,NA
"150","del",87,47,"SRR3699957.1230",FALSE,FALSE,1,0.148588410104012,"NHEJ",NA,NA,NA
"151","del",98,1,"SRR3699957.1713",FALSE,TRUE,1,0.148588410104012,"G",NA,NA,NA
"152","del",103,29,"SRR3699957.4176",FALSE,TRUE,1,0.148588410104012,"NHEJ",NA,NA,NA
"153","del",105,1,"SRR3699957.8664",FALSE,TRUE,1,0.148588410104012,"C",NA,NA,NA
"154","del",107,25,"SRR3699957.2021",TRUE,TRUE,3,0.445765230312036,"NHEJ",NA,NA,NA
"155","del",107,25,"SRR3699957.2205",TRUE,TRUE,3,0.445765230312036,"NHEJ",NA,NA,NA
"156","del",107,25,"SRR3699957.3675",TRUE,TRUE,3,0.445765230312036,"NHEJ",NA,NA,NA
"157","del",108,23,"SRR3699957.3505",FALSE,TRUE,1,0.148588410104012,"GG",NA,NA,NA
"158","del",111,20,"SRR3699957.1318",TRUE,TRUE,4,0.594353640416048,"G",NA,NA,NA
"159","del",111,20,"SRR3699957.1870",TRUE,TRUE,4,0.594353640416048,"G",NA,NA,NA
"160","del",111,20,"SRR3699957.4115",TRUE,TRUE,4,0.594353640416048,"G",NA,NA,NA
"161","del",111,20,"SRR3699957.7002",TRUE,TRUE,4,0.594353640416048,"G",NA,NA,NA
"162","del",111,21,"SRR3699957.2129",TRUE,TRUE,4,0.594353640416048,"G",NA,NA,NA
"163","del",111,21,"SRR3699957.3297",TRUE,TRUE,4,0.594353640416048,"G",NA,NA,NA
"164","del",111,21,"SRR3699957.4104",TRUE,TRUE,4,0.594353640416048,"G",NA,NA,NA
"165","del",111,21,"SRR3699957.5889",TRUE,TRUE,4,0.594353640416048,"G",NA,NA,NA
"166","del",115,16,"SRR3699957.3383",FALSE,TRUE,2,0.297176820208024,"GG",NA,NA,NA
"167","del",115,16,"SRR3699957.5174",FALSE,TRUE,2,0.297176820208024,"GG",NA,NA,NA
"168","del",115,17,"SRR3699957.7120",FALSE,TRUE,1,0.148588410104012,"G",NA,NA,NA
"169","del",115,28,"SRR3699957.2020",FALSE,TRUE,1,0.148588410104012,"G",NA,NA,NA
"170","del",116,27,"SRR3699957.580",TRUE,TRUE,2,0.297176820208024,"G",NA,NA,NA
"171","del",116,27,"SRR3699957.5930",TRUE,TRUE,2,0.297176820208024,"G",NA,NA,NA
"172","del",118,1,"SRR3699957.2859",TRUE,TRUE,9,1.33729569093611,"G",NA,NA,NA
"173","del",118,1,"SRR3699957.3330",TRUE,TRUE,9,1.33729569093611,"G",NA,NA,NA
"174","del",118,1,"SRR3699957.5143",TRUE,TRUE,9,1.33729569093611,"G",NA,NA,NA
"175","del",118,1,"SRR3699957.5755",TRUE,TRUE,9,1.33729569093611,"G",NA,NA,NA
"176","del",118,1,"SRR3699957.6571",TRUE,TRUE,9,1.33729569093611,"G",NA,NA,NA
"177","del",118,1,"SRR3699957.7457",TRUE,TRUE,9,1.33729569093611,"G",NA,NA,NA
"178","del",118,1,"SRR3699957.7848",TRUE,TRUE,9,1.33729569093611,"G",NA,NA,NA
"179","del",118,1,"SRR3699957.8379",TRUE,TRUE,9,1.33729569093611,"G",NA,NA,NA
"180","del",118,1,"SRR3699957.8476",TRUE,TRUE,9,1.33729569093611,"G",NA,NA,NA
"181","del",118,10,"SRR3699957.2559",FALSE,TRUE,1,0.148588410104012,"GGGGGC",NA,NA,NA
"182","del",118,11,"SRR3699957.4029",FALSE,TRUE,1,0.148588410104012,"GGGG",NA,NA,NA
"183","del",118,12,"SRR3699957.1858",FALSE,TRUE,1,0.148588410104012,"GGG",NA,NA,NA
"184","del",118,14,"SRR3699957.1271",FALSE,TRUE,1,0.148588410104012,"G",NA,NA,NA
"185","del",118,17,"SRR3699957.2862",FALSE,TRUE,1,0.148588410104012,"GGG",NA,NA,NA
"186","del",118,18,"SRR3699957.1393",TRUE,TRUE,2,0.297176820208024,"GG",NA,NA,NA
"187","del",118,18,"SRR3699957.8485",TRUE,TRUE,2,0.297176820208024,"GG",NA,NA,NA
"188","del",120,14,"SRR3699957.2945",TRUE,TRUE,3,0.445765230312036,"NHEJ",NA,NA,NA
"189","del",120,14,"SRR3699957.3956",TRUE,TRUE,3,0.445765230312036,"NHEJ",NA,NA,NA
"190","del",120,14,"SRR3699957.4038",TRUE,TRUE,3,0.445765230312036,"NHEJ",NA,NA,NA
"191","del",120,15,"SRR3699957.1122",TRUE,TRUE,11,1.63447251114413,"GGGCG",NA,NA,NA
"192","del",120,15,"SRR3699957.1593",TRUE,TRUE,11,1.63447251114413,"GGGCG",NA,NA,NA
"193","del",120,15,"SRR3699957.1792",TRUE,TRUE,11,1.63447251114413,"GGGCG",NA,NA,NA
"194","del",120,15,"SRR3699957.2",TRUE,TRUE,11,1.63447251114413,"GGGCG",NA,NA,NA
"195","del",120,15,"SRR3699957.2534",TRUE,TRUE,11,1.63447251114413,"GGGCG",NA,NA,NA
"196","del",120,15,"SRR3699957.2651",TRUE,TRUE,11,1.63447251114413,"GGGCG",NA,NA,NA
"197","del",120,15,"SRR3699957.2856",TRUE,TRUE,11,1.63447251114413,"GGGCG",NA,NA,NA
"198","del",120,15,"SRR3699957.3097",TRUE,TRUE,11,1.63447251114413,"GGGCG",NA,NA,NA
"199","del",120,15,"SRR3699957.3537",TRUE,TRUE,11,1.63447251114413,"GGGCG",NA,NA,NA
"200","del",120,15,"SRR3699957.4019",TRUE,TRUE,11,1.63447251114413,"GGGCG",NA,NA,NA
"201","del",120,15,"SRR3699957.6575",TRUE,TRUE,11,1.63447251114413,"GGGCG",NA,NA,NA
"202","del",121,18,"SRR3699957.3403",TRUE,TRUE,2,0.297176820208024,"G",NA,NA,NA
"203","del",121,18,"SRR3699957.5677",TRUE,TRUE,2,0.297176820208024,"G",NA,NA,NA
"204","del",122,17,"SRR3699957.5396",FALSE,TRUE,1,0.148588410104012,"GC",NA,NA,NA
"205","del",122,34,"SRR3699957.1658",TRUE,TRUE,3,0.445765230312036,"NHEJ",NA,NA,NA
"206","del",122,34,"SRR3699957.3346",TRUE,TRUE,3,0.445765230312036,"NHEJ",NA,NA,NA
"207","del",122,34,"SRR3699957.3428",TRUE,TRUE,3,0.445765230312036,"NHEJ",NA,NA,NA
"208","del",123,11,"SRR3699957.3322",FALSE,TRUE,1,0.148588410104012,"CGG",NA,NA,NA
"209","del",123,18,"SRR3699957.6183",TRUE,TRUE,3,0.445765230312036,"C",NA,NA,NA
"210","del",123,18,"SRR3699957.7874",TRUE,TRUE,3,0.445765230312036,"C",NA,NA,NA
"211","del",123,18,"SRR3699957.8752",TRUE,TRUE,3,0.445765230312036,"C",NA,NA,NA
"212","del",124,6,"SRR3699957.4297",TRUE,TRUE,2,0.297176820208024,"GG",NA,NA,NA
"213","del",124,6,"SRR3699957.487",TRUE,TRUE,2,0.297176820208024,"GG",NA,NA,NA
"214","del",124,8,"SRR3699957.3290",TRUE,TRUE,3,0.445765230312036,"G",NA,NA,NA
"215","del",124,8,"SRR3699957.512",TRUE,TRUE,3,0.445765230312036,"G",NA,NA,NA
"216","del",124,8,"SRR3699957.7764",TRUE,TRUE,3,0.445765230312036,"G",NA,NA,NA
"217","del",124,16,"SRR3699957.1864",FALSE,TRUE,1,0.148588410104012,"NHEJ",NA,NA,NA
"218","del",125,18,"SRR3699957.483",FALSE,TRUE,1,0.148588410104012,"G",NA,NA,NA
"219","del",127,2,"SRR3699957.1368",FALSE,TRUE,1,0.148588410104012,"NHEJ",NA,NA,NA
"220","del",127,11,"SRR3699957.1300",FALSE,TRUE,1,0.148588410104012,"NHEJ",NA,NA,NA
"221","del",127,15,"SRR3699957.1565",TRUE,TRUE,9,1.33729569093611,"AG",NA,NA,NA
"222","del",127,15,"SRR3699957.2574",TRUE,TRUE,9,1.33729569093611,"AG",NA,NA,NA
"223","del",127,15,"SRR3699957.2908",TRUE,TRUE,9,1.33729569093611,"AG",NA,NA,NA
"224","del",127,15,"SRR3699957.3511",TRUE,TRUE,9,1.33729569093611,"AG",NA,NA,NA
"225","del",127,15,"SRR3699957.3631",TRUE,TRUE,9,1.33729569093611,"AG",NA,NA,NA
"226","del",127,15,"SRR3699957.5362",TRUE,TRUE,9,1.33729569093611,"AG",NA,NA,NA
"227","del",127,15,"SRR3699957.6188",TRUE,TRUE,9,1.33729569093611,"AG",NA,NA,NA
"228","del",127,15,"SRR3699957.6347",TRUE,TRUE,9,1.33729569093611,"AG",NA,NA,NA
"229","del",127,15,"SRR3699957.8007",TRUE,TRUE,9,1.33729569093611,"AG",NA,NA,NA
"230","del",128,1,"SRR3699957.14",TRUE,TRUE,22,3.26894502228826,"G",NA,NA,NA
"231","del",128,1,"SRR3699957.1570",TRUE,TRUE,22,3.26894502228826,"G",NA,NA,NA
"232","del",128,1,"SRR3699957.254",TRUE,TRUE,22,3.26894502228826,"G",NA,NA,NA
"233","del",128,1,"SRR3699957.2762",TRUE,TRUE,22,3.26894502228826,"G",NA,NA,NA
"234","del",128,1,"SRR3699957.3142",TRUE,TRUE,22,3.26894502228826,"G",NA,NA,NA
"235","del",128,1,"SRR3699957.3222",TRUE,TRUE,22,3.26894502228826,"G",NA,NA,NA
"236","del",128,1,"SRR3699957.3223",TRUE,TRUE,22,3.26894502228826,"G",NA,NA,NA
"237","del",128,1,"SRR3699957.3552",TRUE,TRUE,22,3.26894502228826,"G",NA,NA,NA
"238","del",128,1,"SRR3699957.3667",TRUE,TRUE,22,3.26894502228826,"G",NA,NA,NA
"239","del",128,1,"SRR3699957.3952",TRUE,TRUE,22,3.26894502228826,"G",NA,NA,NA
"240","del",128,1,"SRR3699957.4048",TRUE,TRUE,22,3.26894502228826,"G",NA,NA,NA
"241","del",128,1,"SRR3699957.4089",TRUE,TRUE,22,3.26894502228826,"G",NA,NA,NA
"242","del",128,1,"SRR3699957.4782",TRUE,TRUE,22,3.26894502228826,"G",NA,NA,NA
"243","del",128,1,"SRR3699957.4866",TRUE,TRUE,22,3.26894502228826,"G",NA,NA,NA
"244","del",128,1,"SRR3699957.5042",TRUE,TRUE,22,3.26894502228826,"G",NA,NA,NA
"245","del",128,1,"SRR3699957.6410",TRUE,TRUE,22,3.26894502228826,"G",NA,NA,NA
"246","del",128,1,"SRR3699957.6915",TRUE,TRUE,22,3.26894502228826,"G",NA,NA,NA
"247","del",128,1,"SRR3699957.7040",TRUE,TRUE,22,3.26894502228826,"G",NA,NA,NA
"248","del",128,1,"SRR3699957.7460",TRUE,TRUE,22,3.26894502228826,"G",NA,NA,NA
"249","del",128,1,"SRR3699957.7601",TRUE,TRUE,22,3.26894502228826,"G",NA,NA,NA
"250","del",128,1,"SRR3699957.8063",TRUE,TRUE,22,3.26894502228826,"G",NA,NA,NA
"251","del",128,1,"SRR3699957.843",TRUE,TRUE,22,3.26894502228826,"G",NA,NA,NA
"252","del",128,2,"SRR3699957.1941",TRUE,TRUE,6,0.891530460624071,"GG",NA,NA,NA
"253","del",128,2,"SRR3699957.2814",TRUE,TRUE,6,0.891530460624071,"GG",NA,NA,NA
"254","del",128,2,"SRR3699957.3282",TRUE,TRUE,6,0.891530460624071,"GG",NA,NA,NA
"255","del",128,2,"SRR3699957.7714",TRUE,TRUE,6,0.891530460624071,"GG",NA,NA,NA
"256","del",128,2,"SRR3699957.7969",TRUE,TRUE,6,0.891530460624071,"GG",NA,NA,NA
"257","del",128,2,"SRR3699957.9091",TRUE,TRUE,6,0.891530460624071,"GG",NA,NA,NA
"258","del",128,3,"SRR3699957.2307",TRUE,TRUE,2,0.297176820208024,"GG",NA,NA,NA
"259","del",128,3,"SRR3699957.5739",TRUE,TRUE,2,0.297176820208024,"GG",NA,NA,NA
"260","del",128,4,"SRR3699957.2469",TRUE,TRUE,6,0.891530460624071,"G",NA,NA,NA
"261","del",128,4,"SRR3699957.3357",TRUE,TRUE,6,0.891530460624071,"G",NA,NA,NA
"262","del",128,4,"SRR3699957.4446",TRUE,TRUE,6,0.891530460624071,"G",NA,NA,NA
"263","del",128,4,"SRR3699957.6423",TRUE,TRUE,6,0.891530460624071,"G",NA,NA,NA
"264","del",128,4,"SRR3699957.6445",TRUE,TRUE,6,0.891530460624071,"G",NA,NA,NA
"265","del",128,4,"SRR3699957.8551",TRUE,TRUE,6,0.891530460624071,"G",NA,NA,NA
"266","del",128,7,"SRR3699957.1873",TRUE,TRUE,12,1.78306092124814,"GGG",NA,NA,NA
"267","del",128,7,"SRR3699957.2309",TRUE,TRUE,12,1.78306092124814,"GGG",NA,NA,NA
"268","del",128,7,"SRR3699957.2833",TRUE,TRUE,12,1.78306092124814,"GGG",NA,NA,NA
"269","del",128,7,"SRR3699957.3421",TRUE,TRUE,12,1.78306092124814,"GGG",NA,NA,NA
"270","del",128,7,"SRR3699957.3682",TRUE,TRUE,12,1.78306092124814,"GGG",NA,NA,NA
"271","del",128,7,"SRR3699957.4267",TRUE,TRUE,12,1.78306092124814,"GGG",NA,NA,NA
"272","del",128,7,"SRR3699957.4272",TRUE,TRUE,12,1.78306092124814,"GGG",NA,NA,NA
"273","del",128,7,"SRR3699957.4379",TRUE,TRUE,12,1.78306092124814,"GGG",NA,NA,NA
"274","del",128,7,"SRR3699957.5316",TRUE,TRUE,12,1.78306092124814,"GGG",NA,NA,NA
"275","del",128,7,"SRR3699957.6282",TRUE,TRUE,12,1.78306092124814,"GGG",NA,NA,NA
"276","del",128,7,"SRR3699957.6624",TRUE,TRUE,12,1.78306092124814,"GGG",NA,NA,NA
"277","del",128,7,"SRR3699957.7540",TRUE,TRUE,12,1.78306092124814,"GGG",NA,NA,NA
"278","del",128,8,"SRR3699957.1659",TRUE,TRUE,5,0.742942050520059,"GG",NA,NA,NA
"279","del",128,8,"SRR3699957.3715",TRUE,TRUE,5,0.742942050520059,"GG",NA,NA,NA
"280","del",128,8,"SRR3699957.3810",TRUE,TRUE,5,0.742942050520059,"GG",NA,NA,NA
"281","del",128,8,"SRR3699957.7450",TRUE,TRUE,5,0.742942050520059,"GG",NA,NA,NA
"282","del",128,8,"SRR3699957.8872",TRUE,TRUE,5,0.742942050520059,"GG",NA,NA,NA
"283","del",128,11,"SRR3699957.8961",TRUE,TRUE,2,0.297176820208024,"G",NA,NA,NA
"284","del",128,11,"SRR3699957.9123",TRUE,TRUE,2,0.297176820208024,"G",NA,NA,NA
"285","del",128,12,"SRR3699957.510",FALSE,TRUE,1,0.148588410104012,"NHEJ",NA,NA,NA
"286","del",128,35,"SRR3699957.4655",TRUE,TRUE,2,0.297176820208024,"GGG",NA,NA,NA
"287","del",128,35,"SRR3699957.7687",TRUE,TRUE,2,0.297176820208024,"GGG",NA,NA,NA
"288","del",129,6,"SRR3699957.2465",TRUE,TRUE,13,1.93164933135215,"GGG",NA,NA,NA
"289","del",129,6,"SRR3699957.2616",TRUE,TRUE,13,1.93164933135215,"GGG",NA,NA,NA
"290","del",129,6,"SRR3699957.317",TRUE,TRUE,13,1.93164933135215,"GGG",NA,NA,NA
"291","del",129,6,"SRR3699957.3281",TRUE,TRUE,13,1.93164933135215,"GGG",NA,NA,NA
"292","del",129,6,"SRR3699957.420",TRUE,TRUE,13,1.93164933135215,"GGG",NA,NA,NA
"293","del",129,6,"SRR3699957.4219",TRUE,TRUE,13,1.93164933135215,"GGG",NA,NA,NA
"294","del",129,6,"SRR3699957.4762",TRUE,TRUE,13,1.93164933135215,"GGG",NA,NA,NA
"295","del",129,6,"SRR3699957.5974",TRUE,TRUE,13,1.93164933135215,"GGG",NA,NA,NA
"296","del",129,6,"SRR3699957.6549",TRUE,TRUE,13,1.93164933135215,"GGG",NA,NA,NA
"297","del",129,6,"SRR3699957.6835",TRUE,TRUE,13,1.93164933135215,"GGG",NA,NA,NA
"298","del",129,6,"SRR3699957.7505",TRUE,TRUE,13,1.93164933135215,"GGG",NA,NA,NA
"299","del",129,6,"SRR3699957.8309",TRUE,TRUE,13,1.93164933135215,"GGG",NA,NA,NA
"300","del",129,6,"SRR3699957.8580",TRUE,TRUE,13,1.93164933135215,"GGG",NA,NA,NA
"301","del",129,34,"SRR3699957.1549",FALSE,TRUE,1,0.148588410104012,"GGG",NA,NA,NA
"302","del",130,13,"SRR3699957.3173",TRUE,TRUE,2,0.297176820208024,"G",NA,NA,NA
"303","del",130,13,"SRR3699957.4565",TRUE,TRUE,2,0.297176820208024,"G",NA,NA,NA
"304","del",130,15,"SRR3699957.2184",TRUE,TRUE,3,0.445765230312036,"G",NA,NA,NA
"305","del",130,15,"SRR3699957.2518",TRUE,TRUE,3,0.445765230312036,"G",NA,NA,NA
"306","del",130,15,"SRR3699957.4091",TRUE,TRUE,3,0.445765230312036,"G",NA,NA,NA
"307","del",131,4,"SRR3699957.2351",TRUE,TRUE,2,0.297176820208024,"GG",NA,NA,NA
"308","del",131,4,"SRR3699957.3463",TRUE,TRUE,2,0.297176820208024,"GG",NA,NA,NA
"309","del",131,8,"SRR3699957.1785",TRUE,TRUE,13,1.93164933135215,"G",NA,NA,NA
"310","del",131,8,"SRR3699957.231",TRUE,TRUE,13,1.93164933135215,"G",NA,NA,NA
"311","del",131,8,"SRR3699957.2316",TRUE,TRUE,13,1.93164933135215,"G",NA,NA,NA
"312","del",131,8,"SRR3699957.2884",TRUE,TRUE,13,1.93164933135215,"G",NA,NA,NA
"313","del",131,8,"SRR3699957.3234",TRUE,TRUE,13,1.93164933135215,"G",NA,NA,NA
"314","del",131,8,"SRR3699957.3925",TRUE,TRUE,13,1.93164933135215,"G",NA,NA,NA
"315","del",131,8,"SRR3699957.5035",TRUE,TRUE,13,1.93164933135215,"G",NA,NA,NA
"316","del",131,8,"SRR3699957.5159",TRUE,TRUE,13,1.93164933135215,"G",NA,NA,NA
"317","del",131,8,"SRR3699957.5361",TRUE,TRUE,13,1.93164933135215,"G",NA,NA,NA
"318","del",131,8,"SRR3699957.5624",TRUE,TRUE,13,1.93164933135215,"G",NA,NA,NA
"319","del",131,8,"SRR3699957.5834",TRUE,TRUE,13,1.93164933135215,"G",NA,NA,NA
"320","del",131,8,"SRR3699957.7239",TRUE,TRUE,13,1.93164933135215,"G",NA,NA,NA
"321","del",131,8,"SRR3699957.764",TRUE,TRUE,13,1.93164933135215,"G",NA,NA,NA
"322","del",131,12,"SRR3699957.4590",TRUE,TRUE,2,0.297176820208024,"G",NA,NA,NA
"323","del",131,12,"SRR3699957.5481",TRUE,TRUE,2,0.297176820208024,"G",NA,NA,NA
"324","del",131,14,"SRR3699957.116",TRUE,TRUE,4,0.594353640416048,"G",NA,NA,NA
"325","del",131,14,"SRR3699957.181",TRUE,TRUE,4,0.594353640416048,"G",NA,NA,NA
"326","del",131,14,"SRR3699957.6425",TRUE,TRUE,4,0.594353640416048,"G",NA,NA,NA
"327","del",131,14,"SRR3699957.8736",TRUE,TRUE,4,0.594353640416048,"G",NA,NA,NA
"328","del",132,7,"SRR3699957.1443",TRUE,TRUE,3,0.445765230312036,"GCC",NA,NA,NA
"329","del",132,7,"SRR3699957.724",TRUE,TRUE,3,0.445765230312036,"GCC",NA,NA,NA
"330","del",132,7,"SRR3699957.941",TRUE,TRUE,3,0.445765230312036,"GCC",NA,NA,NA
"331","del",132,20,"SRR3699957.1377",TRUE,TRUE,2,0.297176820208024,"NHEJ",NA,NA,NA
"332","del",132,20,"SRR3699957.3801",TRUE,TRUE,2,0.297176820208024,"NHEJ",NA,NA,NA
"333","del",133,9,"SRR3699957.5175",FALSE,TRUE,1,0.148588410104012,"NHEJ",NA,NA,NA
"334","del",135,1,"SRR3699957.7196",FALSE,TRUE,1,0.148588410104012,"G",NA,NA,NA
"335","del",151,1,"SRR3699957.1198",TRUE,TRUE,8,1.1887072808321,"T",NA,NA,NA
"336","del",151,1,"SRR3699957.143",TRUE,TRUE,8,1.1887072808321,"T",NA,NA,NA
"337","del",151,1,"SRR3699957.3395",TRUE,TRUE,8,1.1887072808321,"T",NA,NA,NA
"338","del",151,1,"SRR3699957.3790",TRUE,TRUE,8,1.1887072808321,"T",NA,NA,NA
"339","del",151,1,"SRR3699957.5496",TRUE,TRUE,8,1.1887072808321,"T",NA,NA,NA
"340","del",151,1,"SRR3699957.5531",TRUE,TRUE,8,1.1887072808321,"T",NA,NA,NA
"341","del",151,1,"SRR3699957.7263",TRUE,TRUE,8,1.1887072808321,"T",NA,NA,NA
"342","del",151,1,"SRR3699957.884",TRUE,TRUE,8,1.1887072808321,"T",NA,NA,NA
"343","del",197,1,"SRR3699957.2251",TRUE,FALSE,3,0.445765230312036,"G",NA,NA,NA
"344","del",197,1,"SRR3699957.4471",TRUE,FALSE,3,0.445765230312036,"G",NA,NA,NA
"345","del",197,1,"SRR3699957.7200",TRUE,FALSE,3,0.445765230312036,"G",NA,NA,NA
"346","del",210,1,"SRR3699957.96",FALSE,FALSE,1,0.148588410104012,"NHEJ",NA,NA,NA
"347","del",213,1,"SRR3699957.1306",TRUE,FALSE,32,4.75482912332838,"G",NA,NA,NA
"348","del",213,1,"SRR3699957.2008",TRUE,FALSE,32,4.75482912332838,"G",NA,NA,NA
"349","del",213,1,"SRR3699957.2147",TRUE,FALSE,32,4.75482912332838,"G",NA,NA,NA
"350","del",213,1,"SRR3699957.3003",TRUE,FALSE,32,4.75482912332838,"G",NA,NA,NA
"351","del",213,1,"SRR3699957.3107",TRUE,FALSE,32,4.75482912332838,"G",NA,NA,NA
"352","del",213,1,"SRR3699957.3187",TRUE,FALSE,32,4.75482912332838,"G",NA,NA,NA
"353","del",213,1,"SRR3699957.3920",TRUE,FALSE,32,4.75482912332838,"G",NA,NA,NA
"354","del",213,1,"SRR3699957.3945",TRUE,FALSE,32,4.75482912332838,"G",NA,NA,NA
"355","del",213,1,"SRR3699957.4090",TRUE,FALSE,32,4.75482912332838,"G",NA,NA,NA
"356","del",213,1,"SRR3699957.4130",TRUE,FALSE,32,4.75482912332838,"G",NA,NA,NA
"357","del",213,1,"SRR3699957.4299",TRUE,FALSE,32,4.75482912332838,"G",NA,NA,NA
"358","del",213,1,"SRR3699957.4338",TRUE,FALSE,32,4.75482912332838,"G",NA,NA,NA
"359","del",213,1,"SRR3699957.4388",TRUE,FALSE,32,4.75482912332838,"G",NA,NA,NA
"360","del",213,1,"SRR3699957.447",TRUE,FALSE,32,4.75482912332838,"G",NA,NA,NA
"361","del",213,1,"SRR3699957.4583",TRUE,FALSE,32,4.75482912332838,"G",NA,NA,NA
"362","del",213,1,"SRR3699957.4689",TRUE,FALSE,32,4.75482912332838,"G",NA,NA,NA
"363","del",213,1,"SRR3699957.4757",TRUE,FALSE,32,4.75482912332838,"G",NA,NA,NA
"364","del",213,1,"SRR3699957.4776",TRUE,FALSE,32,4.75482912332838,"G",NA,NA,NA
"365","del",213,1,"SRR3699957.4870",TRUE,FALSE,32,4.75482912332838,"G",NA,NA,NA
"366","del",213,1,"SRR3699957.4988",TRUE,FALSE,32,4.75482912332838,"G",NA,NA,NA
"367","del",213,1,"SRR3699957.511",TRUE,FALSE,32,4.75482912332838,"G",NA,NA,NA
"368","del",213,1,"SRR3699957.5861",TRUE,FALSE,32,4.75482912332838,"G",NA,NA,NA
"369","del",213,1,"SRR3699957.5939",TRUE,FALSE,32,4.75482912332838,"G",NA,NA,NA
"370","del",213,1,"SRR3699957.5979",TRUE,FALSE,32,4.75482912332838,"G",NA,NA,NA
"371","del",213,1,"SRR3699957.6154",TRUE,FALSE,32,4.75482912332838,"G",NA,NA,NA
"372","del",213,1,"SRR3699957.6311",TRUE,FALSE,32,4.75482912332838,"G",NA,NA,NA
"373","del",213,1,"SRR3699957.7245",TRUE,FALSE,32,4.75482912332838,"G",NA,NA,NA
"374","del",213,1,"SRR3699957.7648",TRUE,FALSE,32,4.75482912332838,"G",NA,NA,NA
"375","del",213,1,"SRR3699957.8224",TRUE,FALSE,32,4.75482912332838,"G",NA,NA,NA
"376","del",213,1,"SRR3699957.8562",TRUE,FALSE,32,4.75482912332838,"G",NA,NA,NA
"377","del",213,1,"SRR3699957.8615",TRUE,FALSE,32,4.75482912332838,"G",NA,NA,NA
"378","del",213,1,"SRR3699957.9022",TRUE,FALSE,32,4.75482912332838,"G",NA,NA,NA
"379","del",234,1,"SRR3699957.1220",FALSE,FALSE,15,2.22882615156018,"C",NA,NA,NA
"380","del",234,1,"SRR3699957.1754",FALSE,FALSE,15,2.22882615156018,"C",NA,NA,NA
"381","del",234,1,"SRR3699957.1957",FALSE,FALSE,15,2.22882615156018,"C",NA,NA,NA
"382","del",234,1,"SRR3699957.2520",FALSE,FALSE,15,2.22882615156018,"C",NA,NA,NA
"383","del",234,1,"SRR3699957.2883",FALSE,FALSE,15,2.22882615156018,"C",NA,NA,NA
"384","del",234,1,"SRR3699957.3139",FALSE,FALSE,15,2.22882615156018,"C",NA,NA,NA
"385","del",234,1,"SRR3699957.3804",FALSE,FALSE,15,2.22882615156018,"C",NA,NA,NA
"386","del",234,1,"SRR3699957.5590",FALSE,FALSE,15,2.22882615156018,"C",NA,NA,NA
"387","del",234,1,"SRR3699957.5706",FALSE,FALSE,15,2.22882615156018,"C",NA,NA,NA
"388","del",234,1,"SRR3699957.6386",FALSE,FALSE,15,2.22882615156018,"C",NA,NA,NA
"389","del",234,1,"SRR3699957.7708",FALSE,FALSE,15,2.22882615156018,"C",NA,NA,NA
"390","del",234,1,"SRR3699957.7742",FALSE,FALSE,15,2.22882615156018,"C",NA,NA,NA
"391","del",234,1,"SRR3699957.8491",FALSE,FALSE,15,2.22882615156018,"C",NA,NA,NA
"392","del",234,1,"SRR3699957.9118",FALSE,FALSE,15,2.22882615156018,"C",NA,NA,NA
"393","del",234,1,"SRR3699957.9152",FALSE,FALSE,15,2.22882615156018,"C",NA,NA,NA
"394","del",237,4,"SRR3699957.6531",FALSE,FALSE,1,0.148588410104012,"C",NA,NA,NA
"395","del",238,1,"SRR3699957.1183",TRUE,FALSE,35,5.20059435364042,"NHEJ",NA,NA,NA
"396","del",238,1,"SRR3699957.1606",TRUE,FALSE,35,5.20059435364042,"NHEJ",NA,NA,NA
"397","del",238,1,"SRR3699957.1964",TRUE,FALSE,35,5.20059435364042,"NHEJ",NA,NA,NA
"398","del",238,1,"SRR3699957.2207",TRUE,FALSE,35,5.20059435364042,"NHEJ",NA,NA,NA
"399","del",238,1,"SRR3699957.241",TRUE,FALSE,35,5.20059435364042,"NHEJ",NA,NA,NA
"400","del",238,1,"SRR3699957.2842",TRUE,FALSE,35,5.20059435364042,"NHEJ",NA,NA,NA
"401","del",238,1,"SRR3699957.2965",TRUE,FALSE,35,5.20059435364042,"NHEJ",NA,NA,NA
"402","del",238,1,"SRR3699957.3189",TRUE,FALSE,35,5.20059435364042,"NHEJ",NA,NA,NA
"403","del",238,1,"SRR3699957.360",TRUE,FALSE,35,5.20059435364042,"NHEJ",NA,NA,NA
"404","del",238,1,"SRR3699957.3723",TRUE,FALSE,35,5.20059435364042,"NHEJ",NA,NA,NA
"405","del",238,1,"SRR3699957.3764",TRUE,FALSE,35,5.20059435364042,"NHEJ",NA,NA,NA
"406","del",238,1,"SRR3699957.5137",TRUE,FALSE,35,5.20059435364042,"NHEJ",NA,NA,NA
"407","del",238,1,"SRR3699957.5621",TRUE,FALSE,35,5.20059435364042,"NHEJ",NA,NA,NA
"408","del",238,1,"SRR3699957.5803",TRUE,FALSE,35,5.20059435364042,"NHEJ",NA,NA,NA
"409","del",238,1,"SRR3699957.5960",TRUE,FALSE,35,5.20059435364042,"NHEJ",NA,NA,NA
"410","del",238,1,"SRR3699957.6060",TRUE,FALSE,35,5.20059435364042,"NHEJ",NA,NA,NA
"411","del",238,1,"SRR3699957.6302",TRUE,FALSE,35,5.20059435364042,"NHEJ",NA,NA,NA
"412","del",238,1,"SRR3699957.6474",TRUE,FALSE,35,5.20059435364042,"NHEJ",NA,NA,NA
"413","del",238,1,"SRR3699957.7116",TRUE,FALSE,35,5.20059435364042,"NHEJ",NA,NA,NA
"414","del",238,1,"SRR3699957.7211",TRUE,FALSE,35,5.20059435364042,"NHEJ",NA,NA,NA
"415","del",238,1,"SRR3699957.7352",TRUE,FALSE,35,5.20059435364042,"NHEJ",NA,NA,NA
"416","del",238,1,"SRR3699957.7399",TRUE,FALSE,35,5.20059435364042,"NHEJ",NA,NA,NA
"417","del",238,1,"SRR3699957.774",TRUE,FALSE,35,5.20059435364042,"NHEJ",NA,NA,NA
"418","del",238,1,"SRR3699957.7866",TRUE,FALSE,35,5.20059435364042,"NHEJ",NA,NA,NA
"419","del",238,1,"SRR3699957.7893",TRUE,FALSE,35,5.20059435364042,"NHEJ",NA,NA,NA
"420","del",238,1,"SRR3699957.8083",TRUE,FALSE,35,5.20059435364042,"NHEJ",NA,NA,NA
"421","del",238,1,"SRR3699957.829",TRUE,FALSE,35,5.20059435364042,"NHEJ",NA,NA,NA
"422","del",238,1,"SRR3699957.8355",TRUE,FALSE,35,5.20059435364042,"NHEJ",NA,NA,NA
"423","del",238,1,"SRR3699957.8402",TRUE,FALSE,35,5.20059435364042,"NHEJ",NA,NA,NA
"424","del",238,1,"SRR3699957.8437",TRUE,FALSE,35,5.20059435364042,"NHEJ",NA,NA,NA
"425","del",238,1,"SRR3699957.8598",TRUE,FALSE,35,5.20059435364042,"NHEJ",NA,NA,NA
"426","del",238,1,"SRR3699957.8870",TRUE,FALSE,35,5.20059435364042,"NHEJ",NA,NA,NA
"427","del",238,1,"SRR3699957.892",TRUE,FALSE,35,5.20059435364042,"NHEJ",NA,NA,NA
"428","del",238,1,"SRR3699957.9032",TRUE,FALSE,35,5.20059435364042,"NHEJ",NA,NA,NA
"429","del",238,1,"SRR3699957.9112",TRUE,FALSE,35,5.20059435364042,"NHEJ",NA,NA,NA
"430","del",238,2,"SRR3699957.2497",FALSE,FALSE,2,0.297176820208024,"A",NA,NA,NA
"431","del",238,2,"SRR3699957.5271",FALSE,FALSE,2,0.297176820208024,"A",NA,NA,NA
"432","del",239,1,"SRR3699957.1201",TRUE,FALSE,31,4.60624071322437,"NHEJ",NA,NA,NA
"433","del",239,1,"SRR3699957.1451",TRUE,FALSE,31,4.60624071322437,"NHEJ",NA,NA,NA
"434","del",239,1,"SRR3699957.1828",TRUE,FALSE,31,4.60624071322437,"NHEJ",NA,NA,NA
"435","del",239,1,"SRR3699957.2143",TRUE,FALSE,31,4.60624071322437,"NHEJ",NA,NA,NA
"436","del",239,1,"SRR3699957.2935",TRUE,FALSE,31,4.60624071322437,"NHEJ",NA,NA,NA
"437","del",239,1,"SRR3699957.3316",TRUE,FALSE,31,4.60624071322437,"NHEJ",NA,NA,NA
"438","del",239,1,"SRR3699957.350",TRUE,FALSE,31,4.60624071322437,"NHEJ",NA,NA,NA
"439","del",239,1,"SRR3699957.3625",TRUE,FALSE,31,4.60624071322437,"NHEJ",NA,NA,NA
"440","del",239,1,"SRR3699957.4053",TRUE,FALSE,31,4.60624071322437,"NHEJ",NA,NA,NA
"441","del",239,1,"SRR3699957.4629",TRUE,FALSE,31,4.60624071322437,"NHEJ",NA,NA,NA
"442","del",239,1,"SRR3699957.4744",TRUE,FALSE,31,4.60624071322437,"NHEJ",NA,NA,NA
"443","del",239,1,"SRR3699957.4833",TRUE,FALSE,31,4.60624071322437,"NHEJ",NA,NA,NA
"444","del",239,1,"SRR3699957.492",TRUE,FALSE,31,4.60624071322437,"NHEJ",NA,NA,NA
"445","del",239,1,"SRR3699957.5012",TRUE,FALSE,31,4.60624071322437,"NHEJ",NA,NA,NA
"446","del",239,1,"SRR3699957.5188",TRUE,FALSE,31,4.60624071322437,"NHEJ",NA,NA,NA
"447","del",239,1,"SRR3699957.5220",TRUE,FALSE,31,4.60624071322437,"NHEJ",NA,NA,NA
"448","del",239,1,"SRR3699957.5773",TRUE,FALSE,31,4.60624071322437,"NHEJ",NA,NA,NA
"449","del",239,1,"SRR3699957.6127",TRUE,FALSE,31,4.60624071322437,"NHEJ",NA,NA,NA
"450","del",239,1,"SRR3699957.6190",TRUE,FALSE,31,4.60624071322437,"NHEJ",NA,NA,NA
"451","del",239,1,"SRR3699957.6669",TRUE,FALSE,31,4.60624071322437,"NHEJ",NA,NA,NA
"452","del",239,1,"SRR3699957.6747",TRUE,FALSE,31,4.60624071322437,"NHEJ",NA,NA,NA
"453","del",239,1,"SRR3699957.6807",TRUE,FALSE,31,4.60624071322437,"NHEJ",NA,NA,NA
"454","del",239,1,"SRR3699957.6809",TRUE,FALSE,31,4.60624071322437,"NHEJ",NA,NA,NA
"455","del",239,1,"SRR3699957.6872",TRUE,FALSE,31,4.60624071322437,"NHEJ",NA,NA,NA
"456","del",239,1,"SRR3699957.6956",TRUE,FALSE,31,4.60624071322437,"NHEJ",NA,NA,NA
"457","del",239,1,"SRR3699957.7887",TRUE,FALSE,31,4.60624071322437,"NHEJ",NA,NA,NA
"458","del",239,1,"SRR3699957.8554",TRUE,FALSE,31,4.60624071322437,"NHEJ",NA,NA,NA
"459","del",239,1,"SRR3699957.8619",TRUE,FALSE,31,4.60624071322437,"NHEJ",NA,NA,NA
"460","del",239,1,"SRR3699957.8831",TRUE,FALSE,31,4.60624071322437,"NHEJ",NA,NA,NA
"461","del",239,1,"SRR3699957.9212",TRUE,FALSE,31,4.60624071322437,"NHEJ",NA,NA,NA
"462","del",239,1,"SRR3699957.9214",TRUE,FALSE,31,4.60624071322437,"NHEJ",NA,NA,NA
"463","del",240,1,"SRR3699957.1082",TRUE,FALSE,44,6.53789004457652,"NHEJ",NA,NA,NA
"464","del",240,1,"SRR3699957.1157",TRUE,FALSE,44,6.53789004457652,"NHEJ",NA,NA,NA
"465","del",240,1,"SRR3699957.1233",TRUE,FALSE,44,6.53789004457652,"NHEJ",NA,NA,NA
"466","del",240,1,"SRR3699957.1462",TRUE,FALSE,44,6.53789004457652,"NHEJ",NA,NA,NA
"467","del",240,1,"SRR3699957.1711",TRUE,FALSE,44,6.53789004457652,"NHEJ",NA,NA,NA
"468","del",240,1,"SRR3699957.1786",TRUE,FALSE,44,6.53789004457652,"NHEJ",NA,NA,NA
"469","del",240,1,"SRR3699957.1794",TRUE,FALSE,44,6.53789004457652,"NHEJ",NA,NA,NA
"470","del",240,1,"SRR3699957.1921",TRUE,FALSE,44,6.53789004457652,"NHEJ",NA,NA,NA
"471","del",240,1,"SRR3699957.2343",TRUE,FALSE,44,6.53789004457652,"NHEJ",NA,NA,NA
"472","del",240,1,"SRR3699957.2397",TRUE,FALSE,44,6.53789004457652,"NHEJ",NA,NA,NA
"473","del",240,1,"SRR3699957.2451",TRUE,FALSE,44,6.53789004457652,"NHEJ",NA,NA,NA
"474","del",240,1,"SRR3699957.2872",TRUE,FALSE,44,6.53789004457652,"NHEJ",NA,NA,NA
"475","del",240,1,"SRR3699957.3010",TRUE,FALSE,44,6.53789004457652,"NHEJ",NA,NA,NA
"476","del",240,1,"SRR3699957.3144",TRUE,FALSE,44,6.53789004457652,"NHEJ",NA,NA,NA
"477","del",240,1,"SRR3699957.341",TRUE,FALSE,44,6.53789004457652,"NHEJ",NA,NA,NA
"478","del",240,1,"SRR3699957.3519",TRUE,FALSE,44,6.53789004457652,"NHEJ",NA,NA,NA
"479","del",240,1,"SRR3699957.3615",TRUE,FALSE,44,6.53789004457652,"NHEJ",NA,NA,NA
"480","del",240,1,"SRR3699957.3700",TRUE,FALSE,44,6.53789004457652,"NHEJ",NA,NA,NA
"481","del",240,1,"SRR3699957.4264",TRUE,FALSE,44,6.53789004457652,"NHEJ",NA,NA,NA
"482","del",240,1,"SRR3699957.4445",TRUE,FALSE,44,6.53789004457652,"NHEJ",NA,NA,NA
"483","del",240,1,"SRR3699957.4457",TRUE,FALSE,44,6.53789004457652,"NHEJ",NA,NA,NA
"484","del",240,1,"SRR3699957.4777",TRUE,FALSE,44,6.53789004457652,"NHEJ",NA,NA,NA
"485","del",240,1,"SRR3699957.5069",TRUE,FALSE,44,6.53789004457652,"NHEJ",NA,NA,NA
"486","del",240,1,"SRR3699957.5586",TRUE,FALSE,44,6.53789004457652,"NHEJ",NA,NA,NA
"487","del",240,1,"SRR3699957.5681",TRUE,FALSE,44,6.53789004457652,"NHEJ",NA,NA,NA
"488","del",240,1,"SRR3699957.5845",TRUE,FALSE,44,6.53789004457652,"NHEJ",NA,NA,NA
"489","del",240,1,"SRR3699957.5997",TRUE,FALSE,44,6.53789004457652,"NHEJ",NA,NA,NA
"490","del",240,1,"SRR3699957.6004",TRUE,FALSE,44,6.53789004457652,"NHEJ",NA,NA,NA
"491","del",240,1,"SRR3699957.6023",TRUE,FALSE,44,6.53789004457652,"NHEJ",NA,NA,NA
"492","del",240,1,"SRR3699957.6222",TRUE,FALSE,44,6.53789004457652,"NHEJ",NA,NA,NA
"493","del",240,1,"SRR3699957.6481",TRUE,FALSE,44,6.53789004457652,"NHEJ",NA,NA,NA
"494","del",240,1,"SRR3699957.6489",TRUE,FALSE,44,6.53789004457652,"NHEJ",NA,NA,NA
"495","del",240,1,"SRR3699957.7138",TRUE,FALSE,44,6.53789004457652,"NHEJ",NA,NA,NA
"496","del",240,1,"SRR3699957.7317",TRUE,FALSE,44,6.53789004457652,"NHEJ",NA,NA,NA
"497","del",240,1,"SRR3699957.7369",TRUE,FALSE,44,6.53789004457652,"NHEJ",NA,NA,NA
"498","del",240,1,"SRR3699957.7651",TRUE,FALSE,44,6.53789004457652,"NHEJ",NA,NA,NA
"499","del",240,1,"SRR3699957.7667",TRUE,FALSE,44,6.53789004457652,"NHEJ",NA,NA,NA
"500","del",240,1,"SRR3699957.7800",TRUE,FALSE,44,6.53789004457652,"NHEJ",NA,NA,NA
"501","del",240,1,"SRR3699957.805",TRUE,FALSE,44,6.53789004457652,"NHEJ",NA,NA,NA
"502","del",240,1,"SRR3699957.8404",TRUE,FALSE,44,6.53789004457652,"NHEJ",NA,NA,NA
"503","del",240,1,"SRR3699957.8410",TRUE,FALSE,44,6.53789004457652,"NHEJ",NA,NA,NA
"504","del",240,1,"SRR3699957.8734",TRUE,FALSE,44,6.53789004457652,"NHEJ",NA,NA,NA
"505","del",240,1,"SRR3699957.8868",TRUE,FALSE,44,6.53789004457652,"NHEJ",NA,NA,NA
"506","del",240,1,"SRR3699957.9053",TRUE,FALSE,44,6.53789004457652,"NHEJ",NA,NA,NA
"507","del",241,1,"SRR3699957.1045",TRUE,FALSE,53,7.87518573551263,"C",NA,NA,NA
"508","del",241,1,"SRR3699957.1142",TRUE,FALSE,53,7.87518573551263,"C",NA,NA,NA
"509","del",241,1,"SRR3699957.1366",TRUE,FALSE,53,7.87518573551263,"C",NA,NA,NA
"510","del",241,1,"SRR3699957.159",TRUE,FALSE,53,7.87518573551263,"C",NA,NA,NA
"511","del",241,1,"SRR3699957.198",TRUE,FALSE,53,7.87518573551263,"C",NA,NA,NA
"512","del",241,1,"SRR3699957.1994",TRUE,FALSE,53,7.87518573551263,"C",NA,NA,NA
"513","del",241,1,"SRR3699957.2186",TRUE,FALSE,53,7.87518573551263,"C",NA,NA,NA
"514","del",241,1,"SRR3699957.2193",TRUE,FALSE,53,7.87518573551263,"C",NA,NA,NA
"515","del",241,1,"SRR3699957.2452",TRUE,FALSE,53,7.87518573551263,"C",NA,NA,NA
"516","del",241,1,"SRR3699957.2598",TRUE,FALSE,53,7.87518573551263,"C",NA,NA,NA
"517","del",241,1,"SRR3699957.2881",TRUE,FALSE,53,7.87518573551263,"C",NA,NA,NA
"518","del",241,1,"SRR3699957.2941",TRUE,FALSE,53,7.87518573551263,"C",NA,NA,NA
"519","del",241,1,"SRR3699957.2983",TRUE,FALSE,53,7.87518573551263,"C",NA,NA,NA
"520","del",241,1,"SRR3699957.3500",TRUE,FALSE,53,7.87518573551263,"C",NA,NA,NA
"521","del",241,1,"SRR3699957.3647",TRUE,FALSE,53,7.87518573551263,"C",NA,NA,NA
"522","del",241,1,"SRR3699957.3729",TRUE,FALSE,53,7.87518573551263,"C",NA,NA,NA
"523","del",241,1,"SRR3699957.3794",TRUE,FALSE,53,7.87518573551263,"C",NA,NA,NA
"524","del",241,1,"SRR3699957.4060",TRUE,FALSE,53,7.87518573551263,"C",NA,NA,NA
"525","del",241,1,"SRR3699957.4559",TRUE,FALSE,53,7.87518573551263,"C",NA,NA,NA
"526","del",241,1,"SRR3699957.4761",TRUE,FALSE,53,7.87518573551263,"C",NA,NA,NA
"527","del",241,1,"SRR3699957.5119",TRUE,FALSE,53,7.87518573551263,"C",NA,NA,NA
"528","del",241,1,"SRR3699957.5330",TRUE,FALSE,53,7.87518573551263,"C",NA,NA,NA
"529","del",241,1,"SRR3699957.545",TRUE,FALSE,53,7.87518573551263,"C",NA,NA,NA
"530","del",241,1,"SRR3699957.5703",TRUE,FALSE,53,7.87518573551263,"C",NA,NA,NA
"531","del",241,1,"SRR3699957.5748",TRUE,FALSE,53,7.87518573551263,"C",NA,NA,NA
"532","del",241,1,"SRR3699957.5778",TRUE,FALSE,53,7.87518573551263,"C",NA,NA,NA
"533","del",241,1,"SRR3699957.5815",TRUE,FALSE,53,7.87518573551263,"C",NA,NA,NA
"534","del",241,1,"SRR3699957.596",TRUE,FALSE,53,7.87518573551263,"C",NA,NA,NA
"535","del",241,1,"SRR3699957.6123",TRUE,FALSE,53,7.87518573551263,"C",NA,NA,NA
"536","del",241,1,"SRR3699957.614",TRUE,FALSE,53,7.87518573551263,"C",NA,NA,NA
"537","del",241,1,"SRR3699957.619",TRUE,FALSE,53,7.87518573551263,"C",NA,NA,NA
"538","del",241,1,"SRR3699957.6290",TRUE,FALSE,53,7.87518573551263,"C",NA,NA,NA
"539","del",241,1,"SRR3699957.6291",TRUE,FALSE,53,7.87518573551263,"C",NA,NA,NA
"540","del",241,1,"SRR3699957.639",TRUE,FALSE,53,7.87518573551263,"C",NA,NA,NA
"541","del",241,1,"SRR3699957.676",TRUE,FALSE,53,7.87518573551263,"C",NA,NA,NA
"542","del",241,1,"SRR3699957.6777",TRUE,FALSE,53,7.87518573551263,"C",NA,NA,NA
"543","del",241,1,"SRR3699957.6799",TRUE,FALSE,53,7.87518573551263,"C",NA,NA,NA
"544","del",241,1,"SRR3699957.6876",TRUE,FALSE,53,7.87518573551263,"C",NA,NA,NA
"545","del",241,1,"SRR3699957.7534",TRUE,FALSE,53,7.87518573551263,"C",NA,NA,NA
"546","del",241,1,"SRR3699957.7568",TRUE,FALSE,53,7.87518573551263,"C",NA,NA,NA
"547","del",241,1,"SRR3699957.7664",TRUE,FALSE,53,7.87518573551263,"C",NA,NA,NA
"548","del",241,1,"SRR3699957.7849",TRUE,FALSE,53,7.87518573551263,"C",NA,NA,NA
"549","del",241,1,"SRR3699957.8233",TRUE,FALSE,53,7.87518573551263,"C",NA,NA,NA
"550","del",241,1,"SRR3699957.8400",TRUE,FALSE,53,7.87518573551263,"C",NA,NA,NA
"551","del",241,1,"SRR3699957.8427",TRUE,FALSE,53,7.87518573551263,"C",NA,NA,NA
"552","del",241,1,"SRR3699957.8479",TRUE,FALSE,53,7.87518573551263,"C",NA,NA,NA
"553","del",241,1,"SRR3699957.8540",TRUE,FALSE,53,7.87518573551263,"C",NA,NA,NA
"554","del",241,1,"SRR3699957.8556",TRUE,FALSE,53,7.87518573551263,"C",NA,NA,NA
"555","del",241,1,"SRR3699957.8990",TRUE,FALSE,53,7.87518573551263,"C",NA,NA,NA
"556","del",241,1,"SRR3699957.9044",TRUE,FALSE,53,7.87518573551263,"C",NA,NA,NA
"557","del",241,1,"SRR3699957.9082",TRUE,FALSE,53,7.87518573551263,"C",NA,NA,NA
"558","del",241,1,"SRR3699957.9202",TRUE,FALSE,53,7.87518573551263,"C",NA,NA,NA
"559","del",241,1,"SRR3699957.927",TRUE,FALSE,53,7.87518573551263,"C",NA,NA,NA
"560","del",241,2,"SRR3699957.9206",TRUE,FALSE,2,0.297176820208024,"NHEJ",NA,NA,NA
"561","del",241,2,"SRR3699957.9208",TRUE,FALSE,2,0.297176820208024,"NHEJ",NA,NA,NA
"562","del",242,2,"SRR3699957.2050",FALSE,FALSE,4,0.594353640416048,"NHEJ",NA,NA,NA
"563","del",242,2,"SRR3699957.4848",FALSE,FALSE,4,0.594353640416048,"NHEJ",NA,NA,NA
"564","del",242,2,"SRR3699957.9198",FALSE,FALSE,4,0.594353640416048,"NHEJ",NA,NA,NA
"565","del",242,2,"SRR3699957.9203",FALSE,FALSE,4,0.594353640416048,"NHEJ",NA,NA,NA
"566","del",243,1,"SRR3699957.1316",TRUE,FALSE,47,6.98365527488856,"NHEJ",NA,NA,NA
"567","del",243,1,"SRR3699957.1475",TRUE,FALSE,47,6.98365527488856,"NHEJ",NA,NA,NA
"568","del",243,1,"SRR3699957.161",TRUE,FALSE,47,6.98365527488856,"NHEJ",NA,NA,NA
"569","del",243,1,"SRR3699957.1776",TRUE,FALSE,47,6.98365527488856,"NHEJ",NA,NA,NA
"570","del",243,1,"SRR3699957.1787",TRUE,FALSE,47,6.98365527488856,"NHEJ",NA,NA,NA
"571","del",243,1,"SRR3699957.2070",TRUE,FALSE,47,6.98365527488856,"NHEJ",NA,NA,NA
"572","del",243,1,"SRR3699957.2095",TRUE,FALSE,47,6.98365527488856,"NHEJ",NA,NA,NA
"573","del",243,1,"SRR3699957.2326",TRUE,FALSE,47,6.98365527488856,"NHEJ",NA,NA,NA
"574","del",243,1,"SRR3699957.2844",TRUE,FALSE,47,6.98365527488856,"NHEJ",NA,NA,NA
"575","del",243,1,"SRR3699957.3024",TRUE,FALSE,47,6.98365527488856,"NHEJ",NA,NA,NA
"576","del",243,1,"SRR3699957.3373",TRUE,FALSE,47,6.98365527488856,"NHEJ",NA,NA,NA
"577","del",243,1,"SRR3699957.3635",TRUE,FALSE,47,6.98365527488856,"NHEJ",NA,NA,NA
"578","del",243,1,"SRR3699957.3701",TRUE,FALSE,47,6.98365527488856,"NHEJ",NA,NA,NA
"579","del",243,1,"SRR3699957.3835",TRUE,FALSE,47,6.98365527488856,"NHEJ",NA,NA,NA
"580","del",243,1,"SRR3699957.3918",TRUE,FALSE,47,6.98365527488856,"NHEJ",NA,NA,NA
"581","del",243,1,"SRR3699957.4084",TRUE,FALSE,47,6.98365527488856,"NHEJ",NA,NA,NA
"582","del",243,1,"SRR3699957.4187",TRUE,FALSE,47,6.98365527488856,"NHEJ",NA,NA,NA
"583","del",243,1,"SRR3699957.4282",TRUE,FALSE,47,6.98365527488856,"NHEJ",NA,NA,NA
"584","del",243,1,"SRR3699957.4547",TRUE,FALSE,47,6.98365527488856,"NHEJ",NA,NA,NA
"585","del",243,1,"SRR3699957.4606",TRUE,FALSE,47,6.98365527488856,"NHEJ",NA,NA,NA
"586","del",243,1,"SRR3699957.4657",TRUE,FALSE,47,6.98365527488856,"NHEJ",NA,NA,NA
"587","del",243,1,"SRR3699957.4826",TRUE,FALSE,47,6.98365527488856,"NHEJ",NA,NA,NA
"588","del",243,1,"SRR3699957.4887",TRUE,FALSE,47,6.98365527488856,"NHEJ",NA,NA,NA
"589","del",243,1,"SRR3699957.5211",TRUE,FALSE,47,6.98365527488856,"NHEJ",NA,NA,NA
"590","del",243,1,"SRR3699957.5393",TRUE,FALSE,47,6.98365527488856,"NHEJ",NA,NA,NA
"591","del",243,1,"SRR3699957.5522",TRUE,FALSE,47,6.98365527488856,"NHEJ",NA,NA,NA
"592","del",243,1,"SRR3699957.5667",TRUE,FALSE,47,6.98365527488856,"NHEJ",NA,NA,NA
"593","del",243,1,"SRR3699957.5673",TRUE,FALSE,47,6.98365527488856,"NHEJ",NA,NA,NA
"594","del",243,1,"SRR3699957.5763",TRUE,FALSE,47,6.98365527488856,"NHEJ",NA,NA,NA
"595","del",243,1,"SRR3699957.5802",TRUE,FALSE,47,6.98365527488856,"NHEJ",NA,NA,NA
"596","del",243,1,"SRR3699957.5993",TRUE,FALSE,47,6.98365527488856,"NHEJ",NA,NA,NA
"597","del",243,1,"SRR3699957.6709",TRUE,FALSE,47,6.98365527488856,"NHEJ",NA,NA,NA
"598","del",243,1,"SRR3699957.7045",TRUE,FALSE,47,6.98365527488856,"NHEJ",NA,NA,NA
"599","del",243,1,"SRR3699957.7146",TRUE,FALSE,47,6.98365527488856,"NHEJ",NA,NA,NA
"600","del",243,1,"SRR3699957.7178",TRUE,FALSE,47,6.98365527488856,"NHEJ",NA,NA,NA
"601","del",243,1,"SRR3699957.7318",TRUE,FALSE,47,6.98365527488856,"NHEJ",NA,NA,NA
"602","del",243,1,"SRR3699957.7790",TRUE,FALSE,47,6.98365527488856,"NHEJ",NA,NA,NA
"603","del",243,1,"SRR3699957.7795",TRUE,FALSE,47,6.98365527488856,"NHEJ",NA,NA,NA
"604","del",243,1,"SRR3699957.8088",TRUE,FALSE,47,6.98365527488856,"NHEJ",NA,NA,NA
"605","del",243,1,"SRR3699957.8127",TRUE,FALSE,47,6.98365527488856,"NHEJ",NA,NA,NA
"606","del",243,1,"SRR3699957.8132",TRUE,FALSE,47,6.98365527488856,"NHEJ",NA,NA,NA
"607","del",243,1,"SRR3699957.8173",TRUE,FALSE,47,6.98365527488856,"NHEJ",NA,NA,NA
"608","del",243,1,"SRR3699957.8413",TRUE,FALSE,47,6.98365527488856,"NHEJ",NA,NA,NA
"609","del",243,1,"SRR3699957.8496",TRUE,FALSE,47,6.98365527488856,"NHEJ",NA,NA,NA
"610","del",243,1,"SRR3699957.8500",TRUE,FALSE,47,6.98365527488856,"NHEJ",NA,NA,NA
"611","del",243,1,"SRR3699957.8679",TRUE,FALSE,47,6.98365527488856,"NHEJ",NA,NA,NA
"612","del",243,1,"SRR3699957.8876",TRUE,FALSE,47,6.98365527488856,"NHEJ",NA,NA,NA
"613","del",244,1,"SRR3699957.1228",TRUE,FALSE,39,5.79494799405646,"NHEJ",NA,NA,NA
"614","del",244,1,"SRR3699957.1249",TRUE,FALSE,39,5.79494799405646,"NHEJ",NA,NA,NA
"615","del",244,1,"SRR3699957.1261",TRUE,FALSE,39,5.79494799405646,"NHEJ",NA,NA,NA
"616","del",244,1,"SRR3699957.1371",TRUE,FALSE,39,5.79494799405646,"NHEJ",NA,NA,NA
"617","del",244,1,"SRR3699957.1381",TRUE,FALSE,39,5.79494799405646,"NHEJ",NA,NA,NA
"618","del",244,1,"SRR3699957.1552",TRUE,FALSE,39,5.79494799405646,"NHEJ",NA,NA,NA
"619","del",244,1,"SRR3699957.1745",TRUE,FALSE,39,5.79494799405646,"NHEJ",NA,NA,NA
"620","del",244,1,"SRR3699957.1798",TRUE,FALSE,39,5.79494799405646,"NHEJ",NA,NA,NA
"621","del",244,1,"SRR3699957.1823",TRUE,FALSE,39,5.79494799405646,"NHEJ",NA,NA,NA
"622","del",244,1,"SRR3699957.1950",TRUE,FALSE,39,5.79494799405646,"NHEJ",NA,NA,NA
"623","del",244,1,"SRR3699957.2311",TRUE,FALSE,39,5.79494799405646,"NHEJ",NA,NA,NA
"624","del",244,1,"SRR3699957.2346",TRUE,FALSE,39,5.79494799405646,"NHEJ",NA,NA,NA
"625","del",244,1,"SRR3699957.2519",TRUE,FALSE,39,5.79494799405646,"NHEJ",NA,NA,NA
"626","del",244,1,"SRR3699957.2666",TRUE,FALSE,39,5.79494799405646,"NHEJ",NA,NA,NA
"627","del",244,1,"SRR3699957.3152",TRUE,FALSE,39,5.79494799405646,"NHEJ",NA,NA,NA
"628","del",244,1,"SRR3699957.3204",TRUE,FALSE,39,5.79494799405646,"NHEJ",NA,NA,NA
"629","del",244,1,"SRR3699957.3216",TRUE,FALSE,39,5.79494799405646,"NHEJ",NA,NA,NA
"630","del",244,1,"SRR3699957.3245",TRUE,FALSE,39,5.79494799405646,"NHEJ",NA,NA,NA
"631","del",244,1,"SRR3699957.337",TRUE,FALSE,39,5.79494799405646,"NHEJ",NA,NA,NA
"632","del",244,1,"SRR3699957.4526",TRUE,FALSE,39,5.79494799405646,"NHEJ",NA,NA,NA
"633","del",244,1,"SRR3699957.5051",TRUE,FALSE,39,5.79494799405646,"NHEJ",NA,NA,NA
"634","del",244,1,"SRR3699957.5274",TRUE,FALSE,39,5.79494799405646,"NHEJ",NA,NA,NA
"635","del",244,1,"SRR3699957.5381",TRUE,FALSE,39,5.79494799405646,"NHEJ",NA,NA,NA
"636","del",244,1,"SRR3699957.5776",TRUE,FALSE,39,5.79494799405646,"NHEJ",NA,NA,NA
"637","del",244,1,"SRR3699957.6063",TRUE,FALSE,39,5.79494799405646,"NHEJ",NA,NA,NA
"638","del",244,1,"SRR3699957.6240",TRUE,FALSE,39,5.79494799405646,"NHEJ",NA,NA,NA
"639","del",244,1,"SRR3699957.6456",TRUE,FALSE,39,5.79494799405646,"NHEJ",NA,NA,NA
"640","del",244,1,"SRR3699957.6729",TRUE,FALSE,39,5.79494799405646,"NHEJ",NA,NA,NA
"641","del",244,1,"SRR3699957.6862",TRUE,FALSE,39,5.79494799405646,"NHEJ",NA,NA,NA
"642","del",244,1,"SRR3699957.6904",TRUE,FALSE,39,5.79494799405646,"NHEJ",NA,NA,NA
"643","del",244,1,"SRR3699957.7021",TRUE,FALSE,39,5.79494799405646,"NHEJ",NA,NA,NA
"644","del",244,1,"SRR3699957.7166",TRUE,FALSE,39,5.79494799405646,"NHEJ",NA,NA,NA
"645","del",244,1,"SRR3699957.7295",TRUE,FALSE,39,5.79494799405646,"NHEJ",NA,NA,NA
"646","del",244,1,"SRR3699957.7391",TRUE,FALSE,39,5.79494799405646,"NHEJ",NA,NA,NA
"647","del",244,1,"SRR3699957.7526",TRUE,FALSE,39,5.79494799405646,"NHEJ",NA,NA,NA
"648","del",244,1,"SRR3699957.7535",TRUE,FALSE,39,5.79494799405646,"NHEJ",NA,NA,NA
"649","del",244,1,"SRR3699957.8366",TRUE,FALSE,39,5.79494799405646,"NHEJ",NA,NA,NA
"650","del",244,1,"SRR3699957.8955",TRUE,FALSE,39,5.79494799405646,"NHEJ",NA,NA,NA
"651","del",244,1,"SRR3699957.951",TRUE,FALSE,39,5.79494799405646,"NHEJ",NA,NA,NA
"652","ins",7,1,"SRR3699957.267",FALSE,FALSE,1,0.148588410104012,NA,"GCC","G","GGC"
"653","ins",9,1,"SRR3699957.2603",FALSE,FALSE,1,0.148588410104012,NA,"CGG","C","CGG"
"654","ins",10,1,"SRR3699957.4588",FALSE,FALSE,2,0.297176820208024,NA,"GGC","G","GGA"
"655","ins",10,1,"SRR3699957.5295",FALSE,FALSE,2,0.297176820208024,NA,"GGC","G","GGA"
"656","ins",99,2,"SRR3699957.5235",FALSE,TRUE,1,0.148588410104012,NA,"GCG","GC","GAG"
"657","ins",124,4,"SRR3699957.2967",FALSE,TRUE,1,0.148588410104012,NA,"GGC","GGAA","GGA"
"658","ins",213,1,"SRR3699957.1580",TRUE,FALSE,2,0.297176820208024,NA,"ACC","G","GGG"
"659","ins",213,1,"SRR3699957.3684",TRUE,FALSE,2,0.297176820208024,NA,"ACC","G","GGG"
"660","ins",234,1,"SRR3699957.5716",FALSE,FALSE,1,0.148588410104012,NA,"AGA","C","CCC"
"661","ins",240,1,"SRR3699957.4381",FALSE,FALSE,1,0.148588410104012,NA,"CAG","A","ACC"
"662","ins",128,1,"SRR3699957.169",TRUE,TRUE,6,0.891530460624071,NA,"GAA","G","GGG"
"663","ins",128,1,"SRR3699957.2947",TRUE,TRUE,6,0.891530460624071,NA,"GAA","G","GGG"
"664","ins",128,1,"SRR3699957.3368",TRUE,TRUE,6,0.891530460624071,NA,"GAA","G","GGG"
"665","ins",128,1,"SRR3699957.4449",TRUE,TRUE,6,0.891530460624071,NA,"GAA","G","GGG"
"666","ins",128,1,"SRR3699957.4803",TRUE,TRUE,6,0.891530460624071,NA,"GAA","G","GGG"
"667","ins",128,1,"SRR3699957.8498",TRUE,TRUE,6,0.891530460624071,NA,"GAA","G","GGG"
"668","ins",132,8,"SRR3699957.5880",FALSE,TRUE,1,0.148588410104012,NA,"GGG","CGGAAGGG","GCC"
"669","ins",132,9,"SRR3699957.2179",FALSE,TRUE,1,0.148588410104012,NA,"GGG","CCGGAAGGG","GCC"
"670","ins",132,9,"SRR3699957.373",FALSE,TRUE,1,0.148588410104012,NA,"GGG","CCGGAAAGG","GCC"
"671","ins",130,25,"SRR3699957.8395",FALSE,TRUE,1,0.148588410104012,NA,"AGG","CCGCCCGGTGATTGGTGGGGGCGGA","AGG"
"672","ins",132,11,"SRR3699957.1500",FALSE,TRUE,1,0.148588410104012,NA,"GGG","CGCACCGGCCG","GCC"
"673","ins",132,13,"SRR3699957.6935",FALSE,TRUE,1,0.148588410104012,NA,"GGG","CGCCAGCGCCAGC","GCC"
