"","Modification","Start","Length","Ids","above_error_rate","in_pick","freq","Perc","patterns","pre_ins_nt","ins_nt","post_ins_nt"
"1","del",5,1,"SRR3698453.5881",FALSE,FALSE,4,0.392541707556428,"NHEJ",NA,NA,NA
"2","del",5,1,"SRR3698453.6815",FALSE,FALSE,4,0.392541707556428,"NHEJ",NA,NA,NA
"3","del",5,1,"SRR3698453.8539",FALSE,FALSE,4,0.392541707556428,"NHEJ",NA,NA,NA
"4","del",5,1,"SRR3698453.9312",FALSE,FALSE,4,0.392541707556428,"NHEJ",NA,NA,NA
"5","del",6,1,"SRR3698453.1976",TRUE,FALSE,9,0.883218842001963,"NHEJ",NA,NA,NA
"6","del",6,1,"SRR3698453.2486",TRUE,FALSE,9,0.883218842001963,"NHEJ",NA,NA,NA
"7","del",6,1,"SRR3698453.3650",TRUE,FALSE,9,0.883218842001963,"NHEJ",NA,NA,NA
"8","del",6,1,"SRR3698453.5144",TRUE,FALSE,9,0.883218842001963,"NHEJ",NA,NA,NA
"9","del",6,1,"SRR3698453.7042",TRUE,FALSE,9,0.883218842001963,"NHEJ",NA,NA,NA
"10","del",6,1,"SRR3698453.7527",TRUE,FALSE,9,0.883218842001963,"NHEJ",NA,NA,NA
"11","del",6,1,"SRR3698453.7547",TRUE,FALSE,9,0.883218842001963,"NHEJ",NA,NA,NA
"12","del",6,1,"SRR3698453.861",TRUE,FALSE,9,0.883218842001963,"NHEJ",NA,NA,NA
"13","del",6,1,"SRR3698453.943",TRUE,FALSE,9,0.883218842001963,"NHEJ",NA,NA,NA
"14","del",7,1,"SRR3698453.252",TRUE,FALSE,8,0.785083415112856,"NHEJ",NA,NA,NA
"15","del",7,1,"SRR3698453.307",TRUE,FALSE,8,0.785083415112856,"NHEJ",NA,NA,NA
"16","del",7,1,"SRR3698453.3521",TRUE,FALSE,8,0.785083415112856,"NHEJ",NA,NA,NA
"17","del",7,1,"SRR3698453.6299",TRUE,FALSE,8,0.785083415112856,"NHEJ",NA,NA,NA
"18","del",7,1,"SRR3698453.6397",TRUE,FALSE,8,0.785083415112856,"NHEJ",NA,NA,NA
"19","del",7,1,"SRR3698453.7766",TRUE,FALSE,8,0.785083415112856,"NHEJ",NA,NA,NA
"20","del",7,1,"SRR3698453.7842",TRUE,FALSE,8,0.785083415112856,"NHEJ",NA,NA,NA
"21","del",7,1,"SRR3698453.8403",TRUE,FALSE,8,0.785083415112856,"NHEJ",NA,NA,NA
"22","del",8,1,"SRR3698453.3077",TRUE,FALSE,10,0.98135426889107,"C",NA,NA,NA
"23","del",8,1,"SRR3698453.3270",TRUE,FALSE,10,0.98135426889107,"C",NA,NA,NA
"24","del",8,1,"SRR3698453.6496",TRUE,FALSE,10,0.98135426889107,"C",NA,NA,NA
"25","del",8,1,"SRR3698453.6967",TRUE,FALSE,10,0.98135426889107,"C",NA,NA,NA
"26","del",8,1,"SRR3698453.7798",TRUE,FALSE,10,0.98135426889107,"C",NA,NA,NA
"27","del",8,1,"SRR3698453.7962",TRUE,FALSE,10,0.98135426889107,"C",NA,NA,NA
"28","del",8,1,"SRR3698453.8854",TRUE,FALSE,10,0.98135426889107,"C",NA,NA,NA
"29","del",8,1,"SRR3698453.9124",TRUE,FALSE,10,0.98135426889107,"C",NA,NA,NA
"30","del",8,1,"SRR3698453.9136",TRUE,FALSE,10,0.98135426889107,"C",NA,NA,NA
"31","del",8,1,"SRR3698453.971",TRUE,FALSE,10,0.98135426889107,"C",NA,NA,NA
"32","del",8,2,"SRR3698453.2688",TRUE,FALSE,4,0.392541707556428,"NHEJ",NA,NA,NA
"33","del",8,2,"SRR3698453.3421",TRUE,FALSE,4,0.392541707556428,"NHEJ",NA,NA,NA
"34","del",8,2,"SRR3698453.4984",TRUE,FALSE,4,0.392541707556428,"NHEJ",NA,NA,NA
"35","del",8,2,"SRR3698453.981",TRUE,FALSE,4,0.392541707556428,"NHEJ",NA,NA,NA
"36","del",8,3,"SRR3698453.5336",FALSE,FALSE,1,0.098135426889107,"C",NA,NA,NA
"37","del",10,1,"SRR3698453.2882",TRUE,FALSE,5,0.490677134445535,"NHEJ",NA,NA,NA
"38","del",10,1,"SRR3698453.4050",TRUE,FALSE,5,0.490677134445535,"NHEJ",NA,NA,NA
"39","del",10,1,"SRR3698453.5912",TRUE,FALSE,5,0.490677134445535,"NHEJ",NA,NA,NA
"40","del",10,1,"SRR3698453.6661",TRUE,FALSE,5,0.490677134445535,"NHEJ",NA,NA,NA
"41","del",10,1,"SRR3698453.8264",TRUE,FALSE,5,0.490677134445535,"NHEJ",NA,NA,NA
"42","del",10,3,"SRR3698453.3760",FALSE,FALSE,1,0.098135426889107,"TC",NA,NA,NA
"43","del",11,1,"SRR3698453.2239",TRUE,FALSE,3,0.294406280667321,"NHEJ",NA,NA,NA
"44","del",11,1,"SRR3698453.4509",TRUE,FALSE,3,0.294406280667321,"NHEJ",NA,NA,NA
"45","del",11,1,"SRR3698453.8829",TRUE,FALSE,3,0.294406280667321,"NHEJ",NA,NA,NA
"46","del",11,2,"SRR3698453.3697",TRUE,FALSE,2,0.196270853778214,"NHEJ",NA,NA,NA
"47","del",11,2,"SRR3698453.479",TRUE,FALSE,2,0.196270853778214,"NHEJ",NA,NA,NA
"48","del",12,1,"SRR3698453.1781",TRUE,FALSE,3,0.294406280667321,"NHEJ",NA,NA,NA
"49","del",12,1,"SRR3698453.4618",TRUE,FALSE,3,0.294406280667321,"NHEJ",NA,NA,NA
"50","del",12,1,"SRR3698453.5328",TRUE,FALSE,3,0.294406280667321,"NHEJ",NA,NA,NA
"51","del",13,1,"SRR3698453.4617",TRUE,FALSE,4,0.392541707556428,"NHEJ",NA,NA,NA
"52","del",13,1,"SRR3698453.5281",TRUE,FALSE,4,0.392541707556428,"NHEJ",NA,NA,NA
"53","del",13,1,"SRR3698453.7027",TRUE,FALSE,4,0.392541707556428,"NHEJ",NA,NA,NA
"54","del",13,1,"SRR3698453.7083",TRUE,FALSE,4,0.392541707556428,"NHEJ",NA,NA,NA
"55","del",14,1,"SRR3698453.2606",TRUE,FALSE,7,0.686947988223749,"NHEJ",NA,NA,NA
"56","del",14,1,"SRR3698453.3554",TRUE,FALSE,7,0.686947988223749,"NHEJ",NA,NA,NA
"57","del",14,1,"SRR3698453.5075",TRUE,FALSE,7,0.686947988223749,"NHEJ",NA,NA,NA
"58","del",14,1,"SRR3698453.5706",TRUE,FALSE,7,0.686947988223749,"NHEJ",NA,NA,NA
"59","del",14,1,"SRR3698453.590",TRUE,FALSE,7,0.686947988223749,"NHEJ",NA,NA,NA
"60","del",14,1,"SRR3698453.7057",TRUE,FALSE,7,0.686947988223749,"NHEJ",NA,NA,NA
"61","del",14,1,"SRR3698453.9230",TRUE,FALSE,7,0.686947988223749,"NHEJ",NA,NA,NA
"62","del",15,1,"SRR3698453.1102",TRUE,FALSE,3,0.294406280667321,"T",NA,NA,NA
"63","del",15,1,"SRR3698453.133",TRUE,FALSE,3,0.294406280667321,"T",NA,NA,NA
"64","del",15,1,"SRR3698453.3841",TRUE,FALSE,3,0.294406280667321,"T",NA,NA,NA
"65","del",17,1,"SRR3698453.1985",TRUE,FALSE,2,0.196270853778214,"NHEJ",NA,NA,NA
"66","del",17,1,"SRR3698453.5927",TRUE,FALSE,2,0.196270853778214,"NHEJ",NA,NA,NA
"67","del",30,1,"SRR3698453.4801",FALSE,FALSE,1,0.098135426889107,"T",NA,NA,NA
"68","del",74,24,"SRR3698453.3437",FALSE,FALSE,1,0.098135426889107,"NHEJ",NA,NA,NA
"69","del",75,23,"SRR3698453.7077",TRUE,FALSE,2,0.196270853778214,"TG",NA,NA,NA
"70","del",75,23,"SRR3698453.8123",TRUE,FALSE,2,0.196270853778214,"TG",NA,NA,NA
"71","del",76,22,"SRR3698453.1625",TRUE,TRUE,2,0.196270853778214,"NHEJ",NA,NA,NA
"72","del",76,22,"SRR3698453.6162",TRUE,TRUE,2,0.196270853778214,"NHEJ",NA,NA,NA
"73","del",77,19,"SRR3698453.3560",TRUE,TRUE,3,0.294406280667321,"TCTG",NA,NA,NA
"74","del",77,19,"SRR3698453.5331",TRUE,TRUE,3,0.294406280667321,"TCTG",NA,NA,NA
"75","del",77,19,"SRR3698453.603",TRUE,TRUE,3,0.294406280667321,"TCTG",NA,NA,NA
"76","del",78,17,"SRR3698453.8423",FALSE,TRUE,1,0.098135426889107,"CT",NA,NA,NA
"77","del",78,20,"SRR3698453.1402",FALSE,TRUE,1,0.098135426889107,"NHEJ",NA,NA,NA
"78","del",78,33,"SRR3698453.1608",TRUE,TRUE,7,0.686947988223749,"CTG",NA,NA,NA
"79","del",78,33,"SRR3698453.3587",TRUE,TRUE,7,0.686947988223749,"CTG",NA,NA,NA
"80","del",78,33,"SRR3698453.6004",TRUE,TRUE,7,0.686947988223749,"CTG",NA,NA,NA
"81","del",78,33,"SRR3698453.668",TRUE,TRUE,7,0.686947988223749,"CTG",NA,NA,NA
"82","del",78,33,"SRR3698453.7926",TRUE,TRUE,7,0.686947988223749,"CTG",NA,NA,NA
"83","del",78,33,"SRR3698453.7935",TRUE,TRUE,7,0.686947988223749,"CTG",NA,NA,NA
"84","del",78,33,"SRR3698453.8073",TRUE,TRUE,7,0.686947988223749,"CTG",NA,NA,NA
"85","del",78,48,"SRR3698453.4377",TRUE,TRUE,4,0.392541707556428,"CTGG",NA,NA,NA
"86","del",78,48,"SRR3698453.5176",TRUE,TRUE,4,0.392541707556428,"CTGG",NA,NA,NA
"87","del",78,48,"SRR3698453.7060",TRUE,TRUE,4,0.392541707556428,"CTGG",NA,NA,NA
"88","del",78,48,"SRR3698453.9057",TRUE,TRUE,4,0.392541707556428,"CTGG",NA,NA,NA
"89","del",79,63,"SRR3698453.4145",FALSE,TRUE,1,0.098135426889107,"TG",NA,NA,NA
"90","del",80,18,"SRR3698453.1859",FALSE,TRUE,1,0.098135426889107,"NHEJ",NA,NA,NA
"91","del",80,22,"SRR3698453.1360",TRUE,TRUE,15,1.4720314033366,"GGA",NA,NA,NA
"92","del",80,22,"SRR3698453.1504",TRUE,TRUE,15,1.4720314033366,"GGA",NA,NA,NA
"93","del",80,22,"SRR3698453.1806",TRUE,TRUE,15,1.4720314033366,"GGA",NA,NA,NA
"94","del",80,22,"SRR3698453.1885",TRUE,TRUE,15,1.4720314033366,"GGA",NA,NA,NA
"95","del",80,22,"SRR3698453.2592",TRUE,TRUE,15,1.4720314033366,"GGA",NA,NA,NA
"96","del",80,22,"SRR3698453.2850",TRUE,TRUE,15,1.4720314033366,"GGA",NA,NA,NA
"97","del",80,22,"SRR3698453.2883",TRUE,TRUE,15,1.4720314033366,"GGA",NA,NA,NA
"98","del",80,22,"SRR3698453.3916",TRUE,TRUE,15,1.4720314033366,"GGA",NA,NA,NA
"99","del",80,22,"SRR3698453.5167",TRUE,TRUE,15,1.4720314033366,"GGA",NA,NA,NA
"100","del",80,22,"SRR3698453.5987",TRUE,TRUE,15,1.4720314033366,"GGA",NA,NA,NA
"101","del",80,22,"SRR3698453.7089",TRUE,TRUE,15,1.4720314033366,"GGA",NA,NA,NA
"102","del",80,22,"SRR3698453.7330",TRUE,TRUE,15,1.4720314033366,"GGA",NA,NA,NA
"103","del",80,22,"SRR3698453.7802",TRUE,TRUE,15,1.4720314033366,"GGA",NA,NA,NA
"104","del",80,22,"SRR3698453.8724",TRUE,TRUE,15,1.4720314033366,"GGA",NA,NA,NA
"105","del",80,22,"SRR3698453.947",TRUE,TRUE,15,1.4720314033366,"GGA",NA,NA,NA
"106","del",80,23,"SRR3698453.202",FALSE,TRUE,1,0.098135426889107,"G",NA,NA,NA
"107","del",80,38,"SRR3698453.2031",TRUE,TRUE,2,0.196270853778214,"G",NA,NA,NA
"108","del",80,38,"SRR3698453.2829",TRUE,TRUE,2,0.196270853778214,"G",NA,NA,NA
"109","del",80,52,"SRR3698453.1862",TRUE,TRUE,2,0.196270853778214,"GGA",NA,NA,NA
"110","del",80,52,"SRR3698453.4205",TRUE,TRUE,2,0.196270853778214,"GGA",NA,NA,NA
"111","del",81,17,"SRR3698453.535",FALSE,TRUE,1,0.098135426889107,"NHEJ",NA,NA,NA
"112","del",81,18,"SRR3698453.1930",FALSE,TRUE,1,0.098135426889107,"G",NA,NA,NA
"113","del",81,32,"SRR3698453.2650",TRUE,TRUE,3,0.294406280667321,"G",NA,NA,NA
"114","del",81,32,"SRR3698453.3076",TRUE,TRUE,3,0.294406280667321,"G",NA,NA,NA
"115","del",81,32,"SRR3698453.693",TRUE,TRUE,3,0.294406280667321,"G",NA,NA,NA
"116","del",81,47,"SRR3698453.388",TRUE,TRUE,2,0.196270853778214,"G",NA,NA,NA
"117","del",81,47,"SRR3698453.7968",TRUE,TRUE,2,0.196270853778214,"G",NA,NA,NA
"118","del",82,19,"SRR3698453.2763",TRUE,TRUE,3,0.294406280667321,"AG",NA,NA,NA
"119","del",82,19,"SRR3698453.4251",TRUE,TRUE,3,0.294406280667321,"AG",NA,NA,NA
"120","del",82,19,"SRR3698453.7923",TRUE,TRUE,3,0.294406280667321,"AG",NA,NA,NA
"121","del",82,24,"SRR3698453.3117",FALSE,TRUE,1,0.098135426889107,"A",NA,NA,NA
"122","del",82,27,"SRR3698453.8753",FALSE,TRUE,1,0.098135426889107,"NHEJ",NA,NA,NA
"123","del",82,28,"SRR3698453.209",TRUE,TRUE,3,0.294406280667321,"NHEJ",NA,NA,NA
"124","del",82,28,"SRR3698453.5079",TRUE,TRUE,3,0.294406280667321,"NHEJ",NA,NA,NA
"125","del",82,28,"SRR3698453.8732",TRUE,TRUE,3,0.294406280667321,"NHEJ",NA,NA,NA
"126","del",82,33,"SRR3698453.2832",FALSE,TRUE,1,0.098135426889107,"NHEJ",NA,NA,NA
"127","del",82,34,"SRR3698453.334",TRUE,TRUE,2,0.196270853778214,"A",NA,NA,NA
"128","del",82,34,"SRR3698453.9212",TRUE,TRUE,2,0.196270853778214,"A",NA,NA,NA
"129","del",82,35,"SRR3698453.3930",TRUE,TRUE,2,0.196270853778214,"AG",NA,NA,NA
"130","del",82,35,"SRR3698453.4093",TRUE,TRUE,2,0.196270853778214,"AG",NA,NA,NA
"131","del",82,46,"SRR3698453.5974",FALSE,TRUE,1,0.098135426889107,"NHEJ",NA,NA,NA
"132","del",83,15,"SRR3698453.6527",FALSE,TRUE,1,0.098135426889107,"NHEJ",NA,NA,NA
"133","del",83,16,"SRR3698453.4745",FALSE,TRUE,1,0.098135426889107,"GC",NA,NA,NA
"134","del",83,20,"SRR3698453.1632",TRUE,TRUE,7,0.686947988223749,"G",NA,NA,NA
"135","del",83,20,"SRR3698453.2081",TRUE,TRUE,7,0.686947988223749,"G",NA,NA,NA
"136","del",83,20,"SRR3698453.2796",TRUE,TRUE,7,0.686947988223749,"G",NA,NA,NA
"137","del",83,20,"SRR3698453.3704",TRUE,TRUE,7,0.686947988223749,"G",NA,NA,NA
"138","del",83,20,"SRR3698453.5761",TRUE,TRUE,7,0.686947988223749,"G",NA,NA,NA
"139","del",83,20,"SRR3698453.7150",TRUE,TRUE,7,0.686947988223749,"G",NA,NA,NA
"140","del",83,20,"SRR3698453.8521",TRUE,TRUE,7,0.686947988223749,"G",NA,NA,NA
"141","del",83,26,"SRR3698453.6459",FALSE,TRUE,1,0.098135426889107,"NHEJ",NA,NA,NA
"142","del",83,30,"SRR3698453.1075",TRUE,TRUE,52,5.10304219823356,"GCCAAG",NA,NA,NA
"143","del",83,30,"SRR3698453.1268",TRUE,TRUE,52,5.10304219823356,"GCCAAG",NA,NA,NA
"144","del",83,30,"SRR3698453.1369",TRUE,TRUE,52,5.10304219823356,"GCCAAG",NA,NA,NA
"145","del",83,30,"SRR3698453.1453",TRUE,TRUE,52,5.10304219823356,"GCCAAG",NA,NA,NA
"146","del",83,30,"SRR3698453.1511",TRUE,TRUE,52,5.10304219823356,"GCCAAG",NA,NA,NA
"147","del",83,30,"SRR3698453.1537",TRUE,TRUE,52,5.10304219823356,"GCCAAG",NA,NA,NA
"148","del",83,30,"SRR3698453.1579",TRUE,TRUE,52,5.10304219823356,"GCCAAG",NA,NA,NA
"149","del",83,30,"SRR3698453.1626",TRUE,TRUE,52,5.10304219823356,"GCCAAG",NA,NA,NA
"150","del",83,30,"SRR3698453.2030",TRUE,TRUE,52,5.10304219823356,"GCCAAG",NA,NA,NA
"151","del",83,30,"SRR3698453.2155",TRUE,TRUE,52,5.10304219823356,"GCCAAG",NA,NA,NA
"152","del",83,30,"SRR3698453.2263",TRUE,TRUE,52,5.10304219823356,"GCCAAG",NA,NA,NA
"153","del",83,30,"SRR3698453.2335",TRUE,TRUE,52,5.10304219823356,"GCCAAG",NA,NA,NA
"154","del",83,30,"SRR3698453.2455",TRUE,TRUE,52,5.10304219823356,"GCCAAG",NA,NA,NA
"155","del",83,30,"SRR3698453.2687",TRUE,TRUE,52,5.10304219823356,"GCCAAG",NA,NA,NA
"156","del",83,30,"SRR3698453.2748",TRUE,TRUE,52,5.10304219823356,"GCCAAG",NA,NA,NA
"157","del",83,30,"SRR3698453.2769",TRUE,TRUE,52,5.10304219823356,"GCCAAG",NA,NA,NA
"158","del",83,30,"SRR3698453.3137",TRUE,TRUE,52,5.10304219823356,"GCCAAG",NA,NA,NA
"159","del",83,30,"SRR3698453.3404",TRUE,TRUE,52,5.10304219823356,"GCCAAG",NA,NA,NA
"160","del",83,30,"SRR3698453.3574",TRUE,TRUE,52,5.10304219823356,"GCCAAG",NA,NA,NA
"161","del",83,30,"SRR3698453.3809",TRUE,TRUE,52,5.10304219823356,"GCCAAG",NA,NA,NA
"162","del",83,30,"SRR3698453.3980",TRUE,TRUE,52,5.10304219823356,"GCCAAG",NA,NA,NA
"163","del",83,30,"SRR3698453.4013",TRUE,TRUE,52,5.10304219823356,"GCCAAG",NA,NA,NA
"164","del",83,30,"SRR3698453.405",TRUE,TRUE,52,5.10304219823356,"GCCAAG",NA,NA,NA
"165","del",83,30,"SRR3698453.4056",TRUE,TRUE,52,5.10304219823356,"GCCAAG",NA,NA,NA
"166","del",83,30,"SRR3698453.414",TRUE,TRUE,52,5.10304219823356,"GCCAAG",NA,NA,NA
"167","del",83,30,"SRR3698453.4445",TRUE,TRUE,52,5.10304219823356,"GCCAAG",NA,NA,NA
"168","del",83,30,"SRR3698453.4834",TRUE,TRUE,52,5.10304219823356,"GCCAAG",NA,NA,NA
"169","del",83,30,"SRR3698453.4944",TRUE,TRUE,52,5.10304219823356,"GCCAAG",NA,NA,NA
"170","del",83,30,"SRR3698453.5001",TRUE,TRUE,52,5.10304219823356,"GCCAAG",NA,NA,NA
"171","del",83,30,"SRR3698453.5411",TRUE,TRUE,52,5.10304219823356,"GCCAAG",NA,NA,NA
"172","del",83,30,"SRR3698453.5511",TRUE,TRUE,52,5.10304219823356,"GCCAAG",NA,NA,NA
"173","del",83,30,"SRR3698453.5595",TRUE,TRUE,52,5.10304219823356,"GCCAAG",NA,NA,NA
"174","del",83,30,"SRR3698453.6098",TRUE,TRUE,52,5.10304219823356,"GCCAAG",NA,NA,NA
"175","del",83,30,"SRR3698453.6252",TRUE,TRUE,52,5.10304219823356,"GCCAAG",NA,NA,NA
"176","del",83,30,"SRR3698453.6718",TRUE,TRUE,52,5.10304219823356,"GCCAAG",NA,NA,NA
"177","del",83,30,"SRR3698453.7142",TRUE,TRUE,52,5.10304219823356,"GCCAAG",NA,NA,NA
"178","del",83,30,"SRR3698453.733",TRUE,TRUE,52,5.10304219823356,"GCCAAG",NA,NA,NA
"179","del",83,30,"SRR3698453.763",TRUE,TRUE,52,5.10304219823356,"GCCAAG",NA,NA,NA
"180","del",83,30,"SRR3698453.7908",TRUE,TRUE,52,5.10304219823356,"GCCAAG",NA,NA,NA
"181","del",83,30,"SRR3698453.7954",TRUE,TRUE,52,5.10304219823356,"GCCAAG",NA,NA,NA
"182","del",83,30,"SRR3698453.8117",TRUE,TRUE,52,5.10304219823356,"GCCAAG",NA,NA,NA
"183","del",83,30,"SRR3698453.8347",TRUE,TRUE,52,5.10304219823356,"GCCAAG",NA,NA,NA
"184","del",83,30,"SRR3698453.8406",TRUE,TRUE,52,5.10304219823356,"GCCAAG",NA,NA,NA
"185","del",83,30,"SRR3698453.8426",TRUE,TRUE,52,5.10304219823356,"GCCAAG",NA,NA,NA
"186","del",83,30,"SRR3698453.858",TRUE,TRUE,52,5.10304219823356,"GCCAAG",NA,NA,NA
"187","del",83,30,"SRR3698453.8706",TRUE,TRUE,52,5.10304219823356,"GCCAAG",NA,NA,NA
"188","del",83,30,"SRR3698453.8721",TRUE,TRUE,52,5.10304219823356,"GCCAAG",NA,NA,NA
"189","del",83,30,"SRR3698453.885",TRUE,TRUE,52,5.10304219823356,"GCCAAG",NA,NA,NA
"190","del",83,30,"SRR3698453.8857",TRUE,TRUE,52,5.10304219823356,"GCCAAG",NA,NA,NA
"191","del",83,30,"SRR3698453.8951",TRUE,TRUE,52,5.10304219823356,"GCCAAG",NA,NA,NA
"192","del",83,30,"SRR3698453.9006",TRUE,TRUE,52,5.10304219823356,"GCCAAG",NA,NA,NA
"193","del",83,30,"SRR3698453.9075",TRUE,TRUE,52,5.10304219823356,"GCCAAG",NA,NA,NA
"194","del",83,32,"SRR3698453.1923",FALSE,TRUE,1,0.098135426889107,"NHEJ",NA,NA,NA
"195","del",83,41,"SRR3698453.5873",TRUE,TRUE,3,0.294406280667321,"GCC",NA,NA,NA
"196","del",83,41,"SRR3698453.6007",TRUE,TRUE,3,0.294406280667321,"GCC",NA,NA,NA
"197","del",83,41,"SRR3698453.8176",TRUE,TRUE,3,0.294406280667321,"GCC",NA,NA,NA
"198","del",83,46,"SRR3698453.1056",TRUE,TRUE,5,0.490677134445535,"GCC",NA,NA,NA
"199","del",83,46,"SRR3698453.3062",TRUE,TRUE,5,0.490677134445535,"GCC",NA,NA,NA
"200","del",83,46,"SRR3698453.3747",TRUE,TRUE,5,0.490677134445535,"GCC",NA,NA,NA
"201","del",83,46,"SRR3698453.64",TRUE,TRUE,5,0.490677134445535,"GCC",NA,NA,NA
"202","del",83,46,"SRR3698453.8294",TRUE,TRUE,5,0.490677134445535,"GCC",NA,NA,NA
"203","del",83,50,"SRR3698453.1959",FALSE,TRUE,1,0.098135426889107,"G",NA,NA,NA
"204","del",83,70,"SRR3698453.9324",TRUE,TRUE,2,0.196270853778214,"GCCA",NA,NA,NA
"205","del",83,70,"SRR3698453.9326",TRUE,TRUE,2,0.196270853778214,"GCCA",NA,NA,NA
"206","del",84,13,"SRR3698453.6451",FALSE,TRUE,1,0.098135426889107,"C",NA,NA,NA
"207","del",84,14,"SRR3698453.2938",TRUE,TRUE,3,0.294406280667321,"NHEJ",NA,NA,NA
"208","del",84,14,"SRR3698453.4629",TRUE,TRUE,3,0.294406280667321,"NHEJ",NA,NA,NA
"209","del",84,14,"SRR3698453.4639",TRUE,TRUE,3,0.294406280667321,"NHEJ",NA,NA,NA
"210","del",84,21,"SRR3698453.5287",TRUE,TRUE,5,0.490677134445535,"C",NA,NA,NA
"211","del",84,21,"SRR3698453.677",TRUE,TRUE,5,0.490677134445535,"C",NA,NA,NA
"212","del",84,21,"SRR3698453.7562",TRUE,TRUE,5,0.490677134445535,"C",NA,NA,NA
"213","del",84,21,"SRR3698453.7610",TRUE,TRUE,5,0.490677134445535,"C",NA,NA,NA
"214","del",84,21,"SRR3698453.7804",TRUE,TRUE,5,0.490677134445535,"C",NA,NA,NA
"215","del",84,22,"SRR3698453.4367",FALSE,TRUE,1,0.098135426889107,"NHEJ",NA,NA,NA
"216","del",84,23,"SRR3698453.1805",TRUE,TRUE,6,0.588812561334642,"C",NA,NA,NA
"217","del",84,23,"SRR3698453.1870",TRUE,TRUE,6,0.588812561334642,"C",NA,NA,NA
"218","del",84,23,"SRR3698453.6132",TRUE,TRUE,6,0.588812561334642,"C",NA,NA,NA
"219","del",84,23,"SRR3698453.6195",TRUE,TRUE,6,0.588812561334642,"C",NA,NA,NA
"220","del",84,23,"SRR3698453.6670",TRUE,TRUE,6,0.588812561334642,"C",NA,NA,NA
"221","del",84,23,"SRR3698453.9142",TRUE,TRUE,6,0.588812561334642,"C",NA,NA,NA
"222","del",84,26,"SRR3698453.1701",TRUE,TRUE,15,1.4720314033366,"CC",NA,NA,NA
"223","del",84,26,"SRR3698453.2086",TRUE,TRUE,15,1.4720314033366,"CC",NA,NA,NA
"224","del",84,26,"SRR3698453.3624",TRUE,TRUE,15,1.4720314033366,"CC",NA,NA,NA
"225","del",84,26,"SRR3698453.4209",TRUE,TRUE,15,1.4720314033366,"CC",NA,NA,NA
"226","del",84,26,"SRR3698453.4404",TRUE,TRUE,15,1.4720314033366,"CC",NA,NA,NA
"227","del",84,26,"SRR3698453.4873",TRUE,TRUE,15,1.4720314033366,"CC",NA,NA,NA
"228","del",84,26,"SRR3698453.5194",TRUE,TRUE,15,1.4720314033366,"CC",NA,NA,NA
"229","del",84,26,"SRR3698453.5338",TRUE,TRUE,15,1.4720314033366,"CC",NA,NA,NA
"230","del",84,26,"SRR3698453.6576",TRUE,TRUE,15,1.4720314033366,"CC",NA,NA,NA
"231","del",84,26,"SRR3698453.7046",TRUE,TRUE,15,1.4720314033366,"CC",NA,NA,NA
"232","del",84,26,"SRR3698453.7164",TRUE,TRUE,15,1.4720314033366,"CC",NA,NA,NA
"233","del",84,26,"SRR3698453.7217",TRUE,TRUE,15,1.4720314033366,"CC",NA,NA,NA
"234","del",84,26,"SRR3698453.7951",TRUE,TRUE,15,1.4720314033366,"CC",NA,NA,NA
"235","del",84,26,"SRR3698453.8773",TRUE,TRUE,15,1.4720314033366,"CC",NA,NA,NA
"236","del",84,26,"SRR3698453.9054",TRUE,TRUE,15,1.4720314033366,"CC",NA,NA,NA
"237","del",84,27,"SRR3698453.3300",TRUE,TRUE,4,0.392541707556428,"C",NA,NA,NA
"238","del",84,27,"SRR3698453.7005",TRUE,TRUE,4,0.392541707556428,"C",NA,NA,NA
"239","del",84,27,"SRR3698453.7161",TRUE,TRUE,4,0.392541707556428,"C",NA,NA,NA
"240","del",84,27,"SRR3698453.8785",TRUE,TRUE,4,0.392541707556428,"C",NA,NA,NA
"241","del",84,31,"SRR3698453.2235",TRUE,TRUE,2,0.196270853778214,"C",NA,NA,NA
"242","del",84,31,"SRR3698453.6868",TRUE,TRUE,2,0.196270853778214,"C",NA,NA,NA
"243","del",84,36,"SRR3698453.1158",TRUE,TRUE,6,0.588812561334642,"CCA",NA,NA,NA
"244","del",84,36,"SRR3698453.3198",TRUE,TRUE,6,0.588812561334642,"CCA",NA,NA,NA
"245","del",84,36,"SRR3698453.3413",TRUE,TRUE,6,0.588812561334642,"CCA",NA,NA,NA
"246","del",84,36,"SRR3698453.7706",TRUE,TRUE,6,0.588812561334642,"CCA",NA,NA,NA
"247","del",84,36,"SRR3698453.8719",TRUE,TRUE,6,0.588812561334642,"CCA",NA,NA,NA
"248","del",84,36,"SRR3698453.8822",TRUE,TRUE,6,0.588812561334642,"CCA",NA,NA,NA
"249","del",84,51,"SRR3698453.1491",TRUE,TRUE,2,0.196270853778214,"C",NA,NA,NA
"250","del",84,51,"SRR3698453.3278",TRUE,TRUE,2,0.196270853778214,"C",NA,NA,NA
"251","del",85,12,"SRR3698453.708",FALSE,TRUE,1,0.098135426889107,"C",NA,NA,NA
"252","del",85,14,"SRR3698453.1981",FALSE,TRUE,1,0.098135426889107,"NHEJ",NA,NA,NA
"253","del",85,15,"SRR3698453.4000",FALSE,TRUE,1,0.098135426889107,"CA",NA,NA,NA
"254","del",85,20,"SRR3698453.1228",TRUE,TRUE,10,0.98135426889107,"CA",NA,NA,NA
"255","del",85,20,"SRR3698453.2583",TRUE,TRUE,10,0.98135426889107,"CA",NA,NA,NA
"256","del",85,20,"SRR3698453.3017",TRUE,TRUE,10,0.98135426889107,"CA",NA,NA,NA
"257","del",85,20,"SRR3698453.3493",TRUE,TRUE,10,0.98135426889107,"CA",NA,NA,NA
"258","del",85,20,"SRR3698453.4995",TRUE,TRUE,10,0.98135426889107,"CA",NA,NA,NA
"259","del",85,20,"SRR3698453.5081",TRUE,TRUE,10,0.98135426889107,"CA",NA,NA,NA
"260","del",85,20,"SRR3698453.5845",TRUE,TRUE,10,0.98135426889107,"CA",NA,NA,NA
"261","del",85,20,"SRR3698453.7416",TRUE,TRUE,10,0.98135426889107,"CA",NA,NA,NA
"262","del",85,20,"SRR3698453.7913",TRUE,TRUE,10,0.98135426889107,"CA",NA,NA,NA
"263","del",85,20,"SRR3698453.9034",TRUE,TRUE,10,0.98135426889107,"CA",NA,NA,NA
"264","del",85,22,"SRR3698453.1250",TRUE,TRUE,7,0.686947988223749,"C",NA,NA,NA
"265","del",85,22,"SRR3698453.2959",TRUE,TRUE,7,0.686947988223749,"C",NA,NA,NA
"266","del",85,22,"SRR3698453.4099",TRUE,TRUE,7,0.686947988223749,"C",NA,NA,NA
"267","del",85,22,"SRR3698453.5271",TRUE,TRUE,7,0.686947988223749,"C",NA,NA,NA
"268","del",85,22,"SRR3698453.614",TRUE,TRUE,7,0.686947988223749,"C",NA,NA,NA
"269","del",85,22,"SRR3698453.828",TRUE,TRUE,7,0.686947988223749,"C",NA,NA,NA
"270","del",85,22,"SRR3698453.8683",TRUE,TRUE,7,0.686947988223749,"C",NA,NA,NA
"271","del",85,24,"SRR3698453.3032",TRUE,TRUE,2,0.196270853778214,"NHEJ",NA,NA,NA
"272","del",85,24,"SRR3698453.6951",TRUE,TRUE,2,0.196270853778214,"NHEJ",NA,NA,NA
"273","del",85,25,"SRR3698453.1857",TRUE,TRUE,5,0.490677134445535,"C",NA,NA,NA
"274","del",85,25,"SRR3698453.298",TRUE,TRUE,5,0.490677134445535,"C",NA,NA,NA
"275","del",85,25,"SRR3698453.5360",TRUE,TRUE,5,0.490677134445535,"C",NA,NA,NA
"276","del",85,25,"SRR3698453.6408",TRUE,TRUE,5,0.490677134445535,"C",NA,NA,NA
"277","del",85,25,"SRR3698453.7872",TRUE,TRUE,5,0.490677134445535,"C",NA,NA,NA
"278","del",85,29,"SRR3698453.4678",FALSE,TRUE,1,0.098135426889107,"C",NA,NA,NA
"279","del",85,35,"SRR3698453.7907",TRUE,TRUE,2,0.196270853778214,"C",NA,NA,NA
"280","del",85,35,"SRR3698453.8235",TRUE,TRUE,2,0.196270853778214,"C",NA,NA,NA
"281","del",86,17,"SRR3698453.7942",FALSE,TRUE,1,0.098135426889107,"NHEJ",NA,NA,NA
"282","del",86,18,"SRR3698453.2720",TRUE,TRUE,5,0.490677134445535,"A",NA,NA,NA
"283","del",86,18,"SRR3698453.3933",TRUE,TRUE,5,0.490677134445535,"A",NA,NA,NA
"284","del",86,18,"SRR3698453.7194",TRUE,TRUE,5,0.490677134445535,"A",NA,NA,NA
"285","del",86,18,"SRR3698453.7566",TRUE,TRUE,5,0.490677134445535,"A",NA,NA,NA
"286","del",86,18,"SRR3698453.7922",TRUE,TRUE,5,0.490677134445535,"A",NA,NA,NA
"287","del",86,21,"SRR3698453.8279",FALSE,TRUE,1,0.098135426889107,"NHEJ",NA,NA,NA
"288","del",86,23,"SRR3698453.2518",FALSE,TRUE,1,0.098135426889107,"NHEJ",NA,NA,NA
"289","del",86,31,"SRR3698453.5029",FALSE,TRUE,1,0.098135426889107,"A",NA,NA,NA
"290","del",86,38,"SRR3698453.2730",FALSE,TRUE,1,0.098135426889107,"NHEJ",NA,NA,NA
"291","del",87,11,"SRR3698453.2574",TRUE,TRUE,2,0.196270853778214,"NHEJ",NA,NA,NA
"292","del",87,11,"SRR3698453.6218",TRUE,TRUE,2,0.196270853778214,"NHEJ",NA,NA,NA
"293","del",87,14,"SRR3698453.1774",TRUE,TRUE,8,0.785083415112856,"AG",NA,NA,NA
"294","del",87,14,"SRR3698453.2529",TRUE,TRUE,8,0.785083415112856,"AG",NA,NA,NA
"295","del",87,14,"SRR3698453.4163",TRUE,TRUE,8,0.785083415112856,"AG",NA,NA,NA
"296","del",87,14,"SRR3698453.5062",TRUE,TRUE,8,0.785083415112856,"AG",NA,NA,NA
"297","del",87,14,"SRR3698453.571",TRUE,TRUE,8,0.785083415112856,"AG",NA,NA,NA
"298","del",87,14,"SRR3698453.7053",TRUE,TRUE,8,0.785083415112856,"AG",NA,NA,NA
"299","del",87,14,"SRR3698453.7997",TRUE,TRUE,8,0.785083415112856,"AG",NA,NA,NA
"300","del",87,14,"SRR3698453.8594",TRUE,TRUE,8,0.785083415112856,"AG",NA,NA,NA
"301","del",87,17,"SRR3698453.1831",FALSE,TRUE,1,0.098135426889107,"A",NA,NA,NA
"302","del",87,19,"SRR3698453.1485",TRUE,TRUE,6,0.588812561334642,"A",NA,NA,NA
"303","del",87,19,"SRR3698453.4391",TRUE,TRUE,6,0.588812561334642,"A",NA,NA,NA
"304","del",87,19,"SRR3698453.4510",TRUE,TRUE,6,0.588812561334642,"A",NA,NA,NA
"305","del",87,19,"SRR3698453.7125",TRUE,TRUE,6,0.588812561334642,"A",NA,NA,NA
"306","del",87,19,"SRR3698453.8373",TRUE,TRUE,6,0.588812561334642,"A",NA,NA,NA
"307","del",87,19,"SRR3698453.8376",TRUE,TRUE,6,0.588812561334642,"A",NA,NA,NA
"308","del",87,21,"SRR3698453.8239",FALSE,TRUE,1,0.098135426889107,"NHEJ",NA,NA,NA
"309","del",87,22,"SRR3698453.4177",TRUE,TRUE,2,0.196270853778214,"NHEJ",NA,NA,NA
"310","del",87,22,"SRR3698453.8938",TRUE,TRUE,2,0.196270853778214,"NHEJ",NA,NA,NA
"311","del",87,25,"SRR3698453.3592",TRUE,TRUE,2,0.196270853778214,"NHEJ",NA,NA,NA
"312","del",87,25,"SRR3698453.4523",TRUE,TRUE,2,0.196270853778214,"NHEJ",NA,NA,NA
"313","del",87,26,"SRR3698453.6161",FALSE,TRUE,1,0.098135426889107,"NHEJ",NA,NA,NA
"314","del",87,51,"SRR3698453.4619",FALSE,TRUE,1,0.098135426889107,"A",NA,NA,NA
"315","del",88,9,"SRR3698453.6679",FALSE,TRUE,1,0.098135426889107,"NHEJ",NA,NA,NA
"316","del",88,10,"SRR3698453.4667",TRUE,TRUE,3,0.294406280667321,"NHEJ",NA,NA,NA
"317","del",88,10,"SRR3698453.8999",TRUE,TRUE,3,0.294406280667321,"NHEJ",NA,NA,NA
"318","del",88,10,"SRR3698453.950",TRUE,TRUE,3,0.294406280667321,"NHEJ",NA,NA,NA
"319","del",88,11,"SRR3698453.5850",TRUE,TRUE,2,0.196270853778214,"G",NA,NA,NA
"320","del",88,11,"SRR3698453.8528",TRUE,TRUE,2,0.196270853778214,"G",NA,NA,NA
"321","del",88,15,"SRR3698453.1270",TRUE,TRUE,14,1.3738959764475,"GA",NA,NA,NA
"322","del",88,15,"SRR3698453.1689",TRUE,TRUE,14,1.3738959764475,"GA",NA,NA,NA
"323","del",88,15,"SRR3698453.2104",TRUE,TRUE,14,1.3738959764475,"GA",NA,NA,NA
"324","del",88,15,"SRR3698453.2201",TRUE,TRUE,14,1.3738959764475,"GA",NA,NA,NA
"325","del",88,15,"SRR3698453.2782",TRUE,TRUE,14,1.3738959764475,"GA",NA,NA,NA
"326","del",88,15,"SRR3698453.3022",TRUE,TRUE,14,1.3738959764475,"GA",NA,NA,NA
"327","del",88,15,"SRR3698453.3084",TRUE,TRUE,14,1.3738959764475,"GA",NA,NA,NA
"328","del",88,15,"SRR3698453.4198",TRUE,TRUE,14,1.3738959764475,"GA",NA,NA,NA
"329","del",88,15,"SRR3698453.6774",TRUE,TRUE,14,1.3738959764475,"GA",NA,NA,NA
"330","del",88,15,"SRR3698453.7035",TRUE,TRUE,14,1.3738959764475,"GA",NA,NA,NA
"331","del",88,15,"SRR3698453.7859",TRUE,TRUE,14,1.3738959764475,"GA",NA,NA,NA
"332","del",88,15,"SRR3698453.7860",TRUE,TRUE,14,1.3738959764475,"GA",NA,NA,NA
"333","del",88,15,"SRR3698453.8262",TRUE,TRUE,14,1.3738959764475,"GA",NA,NA,NA
"334","del",88,15,"SRR3698453.9206",TRUE,TRUE,14,1.3738959764475,"GA",NA,NA,NA
"335","del",88,16,"SRR3698453.7710",FALSE,TRUE,1,0.098135426889107,"NHEJ",NA,NA,NA
"336","del",88,20,"SRR3698453.2209",FALSE,TRUE,1,0.098135426889107,"NHEJ",NA,NA,NA
"337","del",88,22,"SRR3698453.5369",TRUE,TRUE,2,0.196270853778214,"NHEJ",NA,NA,NA
"338","del",88,22,"SRR3698453.6009",TRUE,TRUE,2,0.196270853778214,"NHEJ",NA,NA,NA
"339","del",88,25,"SRR3698453.1136",TRUE,TRUE,7,0.686947988223749,"G",NA,NA,NA
"340","del",88,25,"SRR3698453.1414",TRUE,TRUE,7,0.686947988223749,"G",NA,NA,NA
"341","del",88,25,"SRR3698453.4975",TRUE,TRUE,7,0.686947988223749,"G",NA,NA,NA
"342","del",88,25,"SRR3698453.6477",TRUE,TRUE,7,0.686947988223749,"G",NA,NA,NA
"343","del",88,25,"SRR3698453.781",TRUE,TRUE,7,0.686947988223749,"G",NA,NA,NA
"344","del",88,25,"SRR3698453.9031",TRUE,TRUE,7,0.686947988223749,"G",NA,NA,NA
"345","del",88,25,"SRR3698453.9033",TRUE,TRUE,7,0.686947988223749,"G",NA,NA,NA
"346","del",88,36,"SRR3698453.3603",TRUE,TRUE,2,0.196270853778214,"G",NA,NA,NA
"347","del",88,36,"SRR3698453.8267",TRUE,TRUE,2,0.196270853778214,"G",NA,NA,NA
"348","del",88,40,"SRR3698453.157",TRUE,TRUE,4,0.392541707556428,"G",NA,NA,NA
"349","del",88,40,"SRR3698453.2619",TRUE,TRUE,4,0.392541707556428,"G",NA,NA,NA
"350","del",88,40,"SRR3698453.5407",TRUE,TRUE,4,0.392541707556428,"G",NA,NA,NA
"351","del",88,40,"SRR3698453.68",TRUE,TRUE,4,0.392541707556428,"G",NA,NA,NA
"352","del",88,41,"SRR3698453.6502",TRUE,TRUE,2,0.196270853778214,"G",NA,NA,NA
"353","del",88,41,"SRR3698453.9137",TRUE,TRUE,2,0.196270853778214,"G",NA,NA,NA
"354","del",88,45,"SRR3698453.7873",TRUE,TRUE,2,0.196270853778214,"GA",NA,NA,NA
"355","del",88,45,"SRR3698453.8046",TRUE,TRUE,2,0.196270853778214,"GA",NA,NA,NA
"356","del",89,9,"SRR3698453.1388",TRUE,TRUE,7,0.686947988223749,"NHEJ",NA,NA,NA
"357","del",89,9,"SRR3698453.2010",TRUE,TRUE,7,0.686947988223749,"NHEJ",NA,NA,NA
"358","del",89,9,"SRR3698453.6820",TRUE,TRUE,7,0.686947988223749,"NHEJ",NA,NA,NA
"359","del",89,9,"SRR3698453.6932",TRUE,TRUE,7,0.686947988223749,"NHEJ",NA,NA,NA
"360","del",89,9,"SRR3698453.815",TRUE,TRUE,7,0.686947988223749,"NHEJ",NA,NA,NA
"361","del",89,9,"SRR3698453.8624",TRUE,TRUE,7,0.686947988223749,"NHEJ",NA,NA,NA
"362","del",89,9,"SRR3698453.8627",TRUE,TRUE,7,0.686947988223749,"NHEJ",NA,NA,NA
"363","del",89,17,"SRR3698453.4305",TRUE,TRUE,4,0.392541707556428,"A",NA,NA,NA
"364","del",89,17,"SRR3698453.6853",TRUE,TRUE,4,0.392541707556428,"A",NA,NA,NA
"365","del",89,17,"SRR3698453.7455",TRUE,TRUE,4,0.392541707556428,"A",NA,NA,NA
"366","del",89,17,"SRR3698453.9096",TRUE,TRUE,4,0.392541707556428,"A",NA,NA,NA
"367","del",89,18,"SRR3698453.4860",FALSE,TRUE,1,0.098135426889107,"NHEJ",NA,NA,NA
"368","del",89,20,"SRR3698453.8541",FALSE,TRUE,1,0.098135426889107,"NHEJ",NA,NA,NA
"369","del",89,21,"SRR3698453.2074",FALSE,TRUE,1,0.098135426889107,"NHEJ",NA,NA,NA
"370","del",89,22,"SRR3698453.1169",FALSE,TRUE,1,0.098135426889107,"NHEJ",NA,NA,NA
"371","del",89,27,"SRR3698453.2414",TRUE,TRUE,4,0.392541707556428,"A",NA,NA,NA
"372","del",89,27,"SRR3698453.2497",TRUE,TRUE,4,0.392541707556428,"A",NA,NA,NA
"373","del",89,27,"SRR3698453.8656",TRUE,TRUE,4,0.392541707556428,"A",NA,NA,NA
"374","del",89,27,"SRR3698453.9074",TRUE,TRUE,4,0.392541707556428,"A",NA,NA,NA
"375","del",89,28,"SRR3698453.6354",TRUE,TRUE,4,0.392541707556428,"A",NA,NA,NA
"376","del",89,28,"SRR3698453.7394",TRUE,TRUE,4,0.392541707556428,"A",NA,NA,NA
"377","del",89,28,"SRR3698453.7870",TRUE,TRUE,4,0.392541707556428,"A",NA,NA,NA
"378","del",89,28,"SRR3698453.8538",TRUE,TRUE,4,0.392541707556428,"A",NA,NA,NA
"379","del",89,29,"SRR3698453.2786",TRUE,TRUE,2,0.196270853778214,"NHEJ",NA,NA,NA
"380","del",89,29,"SRR3698453.8268",TRUE,TRUE,2,0.196270853778214,"NHEJ",NA,NA,NA
"381","del",89,33,"SRR3698453.1302",TRUE,TRUE,6,0.588812561334642,"ATG",NA,NA,NA
"382","del",89,33,"SRR3698453.1876",TRUE,TRUE,6,0.588812561334642,"ATG",NA,NA,NA
"383","del",89,33,"SRR3698453.2076",TRUE,TRUE,6,0.588812561334642,"ATG",NA,NA,NA
"384","del",89,33,"SRR3698453.212",TRUE,TRUE,6,0.588812561334642,"ATG",NA,NA,NA
"385","del",89,33,"SRR3698453.2534",TRUE,TRUE,6,0.588812561334642,"ATG",NA,NA,NA
"386","del",89,33,"SRR3698453.3834",TRUE,TRUE,6,0.588812561334642,"ATG",NA,NA,NA
"387","del",89,34,"SRR3698453.4582",TRUE,TRUE,3,0.294406280667321,"NHEJ",NA,NA,NA
"388","del",89,34,"SRR3698453.5252",TRUE,TRUE,3,0.294406280667321,"NHEJ",NA,NA,NA
"389","del",89,34,"SRR3698453.7661",TRUE,TRUE,3,0.294406280667321,"NHEJ",NA,NA,NA
"390","del",90,8,"SRR3698453.1341",TRUE,TRUE,20,1.96270853778214,"TG",NA,NA,NA
"391","del",90,8,"SRR3698453.1604",TRUE,TRUE,20,1.96270853778214,"TG",NA,NA,NA
"392","del",90,8,"SRR3698453.1841",TRUE,TRUE,20,1.96270853778214,"TG",NA,NA,NA
"393","del",90,8,"SRR3698453.2057",TRUE,TRUE,20,1.96270853778214,"TG",NA,NA,NA
"394","del",90,8,"SRR3698453.2557",TRUE,TRUE,20,1.96270853778214,"TG",NA,NA,NA
"395","del",90,8,"SRR3698453.2670",TRUE,TRUE,20,1.96270853778214,"TG",NA,NA,NA
"396","del",90,8,"SRR3698453.2879",TRUE,TRUE,20,1.96270853778214,"TG",NA,NA,NA
"397","del",90,8,"SRR3698453.3223",TRUE,TRUE,20,1.96270853778214,"TG",NA,NA,NA
"398","del",90,8,"SRR3698453.3812",TRUE,TRUE,20,1.96270853778214,"TG",NA,NA,NA
"399","del",90,8,"SRR3698453.4158",TRUE,TRUE,20,1.96270853778214,"TG",NA,NA,NA
"400","del",90,8,"SRR3698453.5783",TRUE,TRUE,20,1.96270853778214,"TG",NA,NA,NA
"401","del",90,8,"SRR3698453.6410",TRUE,TRUE,20,1.96270853778214,"TG",NA,NA,NA
"402","del",90,8,"SRR3698453.6528",TRUE,TRUE,20,1.96270853778214,"TG",NA,NA,NA
"403","del",90,8,"SRR3698453.6575",TRUE,TRUE,20,1.96270853778214,"TG",NA,NA,NA
"404","del",90,8,"SRR3698453.6880",TRUE,TRUE,20,1.96270853778214,"TG",NA,NA,NA
"405","del",90,8,"SRR3698453.7442",TRUE,TRUE,20,1.96270853778214,"TG",NA,NA,NA
"406","del",90,8,"SRR3698453.7674",TRUE,TRUE,20,1.96270853778214,"TG",NA,NA,NA
"407","del",90,8,"SRR3698453.7932",TRUE,TRUE,20,1.96270853778214,"TG",NA,NA,NA
"408","del",90,8,"SRR3698453.8884",TRUE,TRUE,20,1.96270853778214,"TG",NA,NA,NA
"409","del",90,8,"SRR3698453.9301",TRUE,TRUE,20,1.96270853778214,"TG",NA,NA,NA
"410","del",90,18,"SRR3698453.1321",TRUE,TRUE,5,0.490677134445535,"T",NA,NA,NA
"411","del",90,18,"SRR3698453.4363",TRUE,TRUE,5,0.490677134445535,"T",NA,NA,NA
"412","del",90,18,"SRR3698453.4723",TRUE,TRUE,5,0.490677134445535,"T",NA,NA,NA
"413","del",90,18,"SRR3698453.488",TRUE,TRUE,5,0.490677134445535,"T",NA,NA,NA
"414","del",90,18,"SRR3698453.5485",TRUE,TRUE,5,0.490677134445535,"T",NA,NA,NA
"415","del",90,19,"SRR3698453.1089",TRUE,TRUE,10,0.98135426889107,"T",NA,NA,NA
"416","del",90,19,"SRR3698453.2132",TRUE,TRUE,10,0.98135426889107,"T",NA,NA,NA
"417","del",90,19,"SRR3698453.2971",TRUE,TRUE,10,0.98135426889107,"T",NA,NA,NA
"418","del",90,19,"SRR3698453.3311",TRUE,TRUE,10,0.98135426889107,"T",NA,NA,NA
"419","del",90,19,"SRR3698453.4208",TRUE,TRUE,10,0.98135426889107,"T",NA,NA,NA
"420","del",90,19,"SRR3698453.4716",TRUE,TRUE,10,0.98135426889107,"T",NA,NA,NA
"421","del",90,19,"SRR3698453.5551",TRUE,TRUE,10,0.98135426889107,"T",NA,NA,NA
"422","del",90,19,"SRR3698453.6972",TRUE,TRUE,10,0.98135426889107,"T",NA,NA,NA
"423","del",90,19,"SRR3698453.962",TRUE,TRUE,10,0.98135426889107,"T",NA,NA,NA
"424","del",90,19,"SRR3698453.966",TRUE,TRUE,10,0.98135426889107,"T",NA,NA,NA
"425","del",90,20,"SRR3698453.1118",TRUE,TRUE,4,0.392541707556428,"NHEJ",NA,NA,NA
"426","del",90,20,"SRR3698453.1868",TRUE,TRUE,4,0.392541707556428,"NHEJ",NA,NA,NA
"427","del",90,20,"SRR3698453.4712",TRUE,TRUE,4,0.392541707556428,"NHEJ",NA,NA,NA
"428","del",90,20,"SRR3698453.5024",TRUE,TRUE,4,0.392541707556428,"NHEJ",NA,NA,NA
"429","del",90,22,"SRR3698453.1412",TRUE,TRUE,13,1.27576054955839,"TG",NA,NA,NA
"430","del",90,22,"SRR3698453.1963",TRUE,TRUE,13,1.27576054955839,"TG",NA,NA,NA
"431","del",90,22,"SRR3698453.2347",TRUE,TRUE,13,1.27576054955839,"TG",NA,NA,NA
"432","del",90,22,"SRR3698453.2472",TRUE,TRUE,13,1.27576054955839,"TG",NA,NA,NA
"433","del",90,22,"SRR3698453.468",TRUE,TRUE,13,1.27576054955839,"TG",NA,NA,NA
"434","del",90,22,"SRR3698453.516",TRUE,TRUE,13,1.27576054955839,"TG",NA,NA,NA
"435","del",90,22,"SRR3698453.6429",TRUE,TRUE,13,1.27576054955839,"TG",NA,NA,NA
"436","del",90,22,"SRR3698453.6508",TRUE,TRUE,13,1.27576054955839,"TG",NA,NA,NA
"437","del",90,22,"SRR3698453.799",TRUE,TRUE,13,1.27576054955839,"TG",NA,NA,NA
"438","del",90,22,"SRR3698453.8059",TRUE,TRUE,13,1.27576054955839,"TG",NA,NA,NA
"439","del",90,22,"SRR3698453.817",TRUE,TRUE,13,1.27576054955839,"TG",NA,NA,NA
"440","del",90,22,"SRR3698453.8762",TRUE,TRUE,13,1.27576054955839,"TG",NA,NA,NA
"441","del",90,22,"SRR3698453.8945",TRUE,TRUE,13,1.27576054955839,"TG",NA,NA,NA
"442","del",90,24,"SRR3698453.2794",FALSE,TRUE,1,0.098135426889107,"NHEJ",NA,NA,NA
"443","del",90,29,"SRR3698453.1645",TRUE,TRUE,7,0.686947988223749,"T",NA,NA,NA
"444","del",90,29,"SRR3698453.1884",TRUE,TRUE,7,0.686947988223749,"T",NA,NA,NA
"445","del",90,29,"SRR3698453.3488",TRUE,TRUE,7,0.686947988223749,"T",NA,NA,NA
"446","del",90,29,"SRR3698453.529",TRUE,TRUE,7,0.686947988223749,"T",NA,NA,NA
"447","del",90,29,"SRR3698453.7569",TRUE,TRUE,7,0.686947988223749,"T",NA,NA,NA
"448","del",90,29,"SRR3698453.7987",TRUE,TRUE,7,0.686947988223749,"T",NA,NA,NA
"449","del",90,29,"SRR3698453.8750",TRUE,TRUE,7,0.686947988223749,"T",NA,NA,NA
"450","del",90,30,"SRR3698453.1864",TRUE,TRUE,3,0.294406280667321,"NHEJ",NA,NA,NA
"451","del",90,30,"SRR3698453.4704",TRUE,TRUE,3,0.294406280667321,"NHEJ",NA,NA,NA
"452","del",90,30,"SRR3698453.6081",TRUE,TRUE,3,0.294406280667321,"NHEJ",NA,NA,NA
"453","del",90,31,"SRR3698453.1702",TRUE,TRUE,3,0.294406280667321,"NHEJ",NA,NA,NA
"454","del",90,31,"SRR3698453.4973",TRUE,TRUE,3,0.294406280667321,"NHEJ",NA,NA,NA
"455","del",90,31,"SRR3698453.7727",TRUE,TRUE,3,0.294406280667321,"NHEJ",NA,NA,NA
"456","del",90,37,"SRR3698453.1299",TRUE,TRUE,3,0.294406280667321,"TGG",NA,NA,NA
"457","del",90,37,"SRR3698453.4248",TRUE,TRUE,3,0.294406280667321,"TGG",NA,NA,NA
"458","del",90,37,"SRR3698453.6933",TRUE,TRUE,3,0.294406280667321,"TGG",NA,NA,NA
"459","del",90,70,"SRR3698453.9320",TRUE,TRUE,2,0.196270853778214,"TG",NA,NA,NA
"460","del",90,70,"SRR3698453.9321",TRUE,TRUE,2,0.196270853778214,"TG",NA,NA,NA
"461","del",91,1,"SRR3698453.1533",FALSE,TRUE,1,0.098135426889107,"G",NA,NA,NA
"462","del",91,7,"SRR3698453.3409",TRUE,TRUE,8,0.785083415112856,"NHEJ",NA,NA,NA
"463","del",91,7,"SRR3698453.443",TRUE,TRUE,8,0.785083415112856,"NHEJ",NA,NA,NA
"464","del",91,7,"SRR3698453.5514",TRUE,TRUE,8,0.785083415112856,"NHEJ",NA,NA,NA
"465","del",91,7,"SRR3698453.5554",TRUE,TRUE,8,0.785083415112856,"NHEJ",NA,NA,NA
"466","del",91,7,"SRR3698453.56",TRUE,TRUE,8,0.785083415112856,"NHEJ",NA,NA,NA
"467","del",91,7,"SRR3698453.857",TRUE,TRUE,8,0.785083415112856,"NHEJ",NA,NA,NA
"468","del",91,7,"SRR3698453.866",TRUE,TRUE,8,0.785083415112856,"NHEJ",NA,NA,NA
"469","del",91,7,"SRR3698453.9004",TRUE,TRUE,8,0.785083415112856,"NHEJ",NA,NA,NA
"470","del",91,9,"SRR3698453.3614",FALSE,TRUE,1,0.098135426889107,"NHEJ",NA,NA,NA
"471","del",91,10,"SRR3698453.2350",FALSE,TRUE,1,0.098135426889107,"NHEJ",NA,NA,NA
"472","del",91,11,"SRR3698453.1467",TRUE,TRUE,6,0.588812561334642,"GG",NA,NA,NA
"473","del",91,11,"SRR3698453.3626",TRUE,TRUE,6,0.588812561334642,"GG",NA,NA,NA
"474","del",91,11,"SRR3698453.3899",TRUE,TRUE,6,0.588812561334642,"GG",NA,NA,NA
"475","del",91,11,"SRR3698453.6152",TRUE,TRUE,6,0.588812561334642,"GG",NA,NA,NA
"476","del",91,11,"SRR3698453.6387",TRUE,TRUE,6,0.588812561334642,"GG",NA,NA,NA
"477","del",91,11,"SRR3698453.8142",TRUE,TRUE,6,0.588812561334642,"GG",NA,NA,NA
"478","del",91,12,"SRR3698453.1860",TRUE,TRUE,4,0.392541707556428,"G",NA,NA,NA
"479","del",91,12,"SRR3698453.2953",TRUE,TRUE,4,0.392541707556428,"G",NA,NA,NA
"480","del",91,12,"SRR3698453.3049",TRUE,TRUE,4,0.392541707556428,"G",NA,NA,NA
"481","del",91,12,"SRR3698453.5606",TRUE,TRUE,4,0.392541707556428,"G",NA,NA,NA
"482","del",91,15,"SRR3698453.2206",FALSE,TRUE,1,0.098135426889107,"NHEJ",NA,NA,NA
"483","del",91,16,"SRR3698453.2937",FALSE,TRUE,1,0.098135426889107,"NHEJ",NA,NA,NA
"484","del",91,17,"SRR3698453.5566",FALSE,TRUE,1,0.098135426889107,"NHEJ",NA,NA,NA
"485","del",91,21,"SRR3698453.3398",TRUE,TRUE,4,0.392541707556428,"NHEJ",NA,NA,NA
"486","del",91,21,"SRR3698453.4952",TRUE,TRUE,4,0.392541707556428,"NHEJ",NA,NA,NA
"487","del",91,21,"SRR3698453.5115",TRUE,TRUE,4,0.392541707556428,"NHEJ",NA,NA,NA
"488","del",91,21,"SRR3698453.825",TRUE,TRUE,4,0.392541707556428,"NHEJ",NA,NA,NA
"489","del",91,23,"SRR3698453.8180",TRUE,TRUE,2,0.196270853778214,"NHEJ",NA,NA,NA
"490","del",91,23,"SRR3698453.8459",TRUE,TRUE,2,0.196270853778214,"NHEJ",NA,NA,NA
"491","del",91,24,"SRR3698453.169",TRUE,TRUE,2,0.196270853778214,"NHEJ",NA,NA,NA
"492","del",91,24,"SRR3698453.2885",TRUE,TRUE,2,0.196270853778214,"NHEJ",NA,NA,NA
"493","del",91,25,"SRR3698453.1282",TRUE,TRUE,2,0.196270853778214,"NHEJ",NA,NA,NA
"494","del",91,25,"SRR3698453.168",TRUE,TRUE,2,0.196270853778214,"NHEJ",NA,NA,NA
"495","del",91,26,"SRR3698453.160",TRUE,TRUE,4,0.392541707556428,"NHEJ",NA,NA,NA
"496","del",91,26,"SRR3698453.1647",TRUE,TRUE,4,0.392541707556428,"NHEJ",NA,NA,NA
"497","del",91,26,"SRR3698453.3768",TRUE,TRUE,4,0.392541707556428,"NHEJ",NA,NA,NA
"498","del",91,26,"SRR3698453.4588",TRUE,TRUE,4,0.392541707556428,"NHEJ",NA,NA,NA
"499","del",91,27,"SRR3698453.1469",TRUE,TRUE,4,0.392541707556428,"G",NA,NA,NA
"500","del",91,27,"SRR3698453.5755",TRUE,TRUE,4,0.392541707556428,"G",NA,NA,NA
"501","del",91,27,"SRR3698453.7759",TRUE,TRUE,4,0.392541707556428,"G",NA,NA,NA
"502","del",91,27,"SRR3698453.8587",TRUE,TRUE,4,0.392541707556428,"G",NA,NA,NA
"503","del",91,28,"SRR3698453.4889",FALSE,TRUE,1,0.098135426889107,"NHEJ",NA,NA,NA
"504","del",91,35,"SRR3698453.3932",FALSE,TRUE,1,0.098135426889107,"NHEJ",NA,NA,NA
"505","del",91,36,"SRR3698453.1931",FALSE,TRUE,1,0.098135426889107,"NHEJ",NA,NA,NA
"506","del",91,40,"SRR3698453.1381",FALSE,TRUE,1,0.098135426889107,"NHEJ",NA,NA,NA
"507","del",91,47,"SRR3698453.467",FALSE,TRUE,1,0.098135426889107,"NHEJ",NA,NA,NA
"508","del",92,5,"SRR3698453.6582",FALSE,TRUE,1,0.098135426889107,"NHEJ",NA,NA,NA
"509","del",92,7,"SRR3698453.2154",TRUE,TRUE,6,0.588812561334642,"G",NA,NA,NA
"510","del",92,7,"SRR3698453.2253",TRUE,TRUE,6,0.588812561334642,"G",NA,NA,NA
"511","del",92,7,"SRR3698453.4180",TRUE,TRUE,6,0.588812561334642,"G",NA,NA,NA
"512","del",92,7,"SRR3698453.4280",TRUE,TRUE,6,0.588812561334642,"G",NA,NA,NA
"513","del",92,7,"SRR3698453.8651",TRUE,TRUE,6,0.588812561334642,"G",NA,NA,NA
"514","del",92,7,"SRR3698453.98",TRUE,TRUE,6,0.588812561334642,"G",NA,NA,NA
"515","del",92,10,"SRR3698453.1266",TRUE,TRUE,10,0.98135426889107,"GG",NA,NA,NA
"516","del",92,10,"SRR3698453.1796",TRUE,TRUE,10,0.98135426889107,"GG",NA,NA,NA
"517","del",92,10,"SRR3698453.2070",TRUE,TRUE,10,0.98135426889107,"GG",NA,NA,NA
"518","del",92,10,"SRR3698453.2524",TRUE,TRUE,10,0.98135426889107,"GG",NA,NA,NA
"519","del",92,10,"SRR3698453.3687",TRUE,TRUE,10,0.98135426889107,"GG",NA,NA,NA
"520","del",92,10,"SRR3698453.5463",TRUE,TRUE,10,0.98135426889107,"GG",NA,NA,NA
"521","del",92,10,"SRR3698453.5972",TRUE,TRUE,10,0.98135426889107,"GG",NA,NA,NA
"522","del",92,10,"SRR3698453.8182",TRUE,TRUE,10,0.98135426889107,"GG",NA,NA,NA
"523","del",92,10,"SRR3698453.8523",TRUE,TRUE,10,0.98135426889107,"GG",NA,NA,NA
"524","del",92,10,"SRR3698453.8581",TRUE,TRUE,10,0.98135426889107,"GG",NA,NA,NA
"525","del",92,14,"SRR3698453.1176",TRUE,TRUE,3,0.294406280667321,"NHEJ",NA,NA,NA
"526","del",92,14,"SRR3698453.5769",TRUE,TRUE,3,0.294406280667321,"NHEJ",NA,NA,NA
"527","del",92,14,"SRR3698453.8693",TRUE,TRUE,3,0.294406280667321,"NHEJ",NA,NA,NA
"528","del",92,25,"SRR3698453.865",FALSE,TRUE,1,0.098135426889107,"NHEJ",NA,NA,NA
"529","del",92,31,"SRR3698453.7113",TRUE,TRUE,3,0.294406280667321,"NHEJ",NA,NA,NA
"530","del",92,31,"SRR3698453.7302",TRUE,TRUE,3,0.294406280667321,"NHEJ",NA,NA,NA
"531","del",92,31,"SRR3698453.8588",TRUE,TRUE,3,0.294406280667321,"NHEJ",NA,NA,NA
"532","del",92,45,"SRR3698453.7185",FALSE,TRUE,1,0.098135426889107,"G",NA,NA,NA
"533","del",93,6,"SRR3698453.4905",TRUE,TRUE,2,0.196270853778214,"G",NA,NA,NA
"534","del",93,6,"SRR3698453.8735",TRUE,TRUE,2,0.196270853778214,"G",NA,NA,NA
"535","del",93,9,"SRR3698453.1160",TRUE,TRUE,21,2.06084396467125,"GG",NA,NA,NA
"536","del",93,9,"SRR3698453.1179",TRUE,TRUE,21,2.06084396467125,"GG",NA,NA,NA
"537","del",93,9,"SRR3698453.1204",TRUE,TRUE,21,2.06084396467125,"GG",NA,NA,NA
"538","del",93,9,"SRR3698453.1800",TRUE,TRUE,21,2.06084396467125,"GG",NA,NA,NA
"539","del",93,9,"SRR3698453.1827",TRUE,TRUE,21,2.06084396467125,"GG",NA,NA,NA
"540","del",93,9,"SRR3698453.3958",TRUE,TRUE,21,2.06084396467125,"GG",NA,NA,NA
"541","del",93,9,"SRR3698453.4086",TRUE,TRUE,21,2.06084396467125,"GG",NA,NA,NA
"542","del",93,9,"SRR3698453.4638",TRUE,TRUE,21,2.06084396467125,"GG",NA,NA,NA
"543","del",93,9,"SRR3698453.4881",TRUE,TRUE,21,2.06084396467125,"GG",NA,NA,NA
"544","del",93,9,"SRR3698453.5367",TRUE,TRUE,21,2.06084396467125,"GG",NA,NA,NA
"545","del",93,9,"SRR3698453.5749",TRUE,TRUE,21,2.06084396467125,"GG",NA,NA,NA
"546","del",93,9,"SRR3698453.5983",TRUE,TRUE,21,2.06084396467125,"GG",NA,NA,NA
"547","del",93,9,"SRR3698453.6607",TRUE,TRUE,21,2.06084396467125,"GG",NA,NA,NA
"548","del",93,9,"SRR3698453.678",TRUE,TRUE,21,2.06084396467125,"GG",NA,NA,NA
"549","del",93,9,"SRR3698453.6862",TRUE,TRUE,21,2.06084396467125,"GG",NA,NA,NA
"550","del",93,9,"SRR3698453.7056",TRUE,TRUE,21,2.06084396467125,"GG",NA,NA,NA
"551","del",93,9,"SRR3698453.739",TRUE,TRUE,21,2.06084396467125,"GG",NA,NA,NA
"552","del",93,9,"SRR3698453.7567",TRUE,TRUE,21,2.06084396467125,"GG",NA,NA,NA
"553","del",93,9,"SRR3698453.7616",TRUE,TRUE,21,2.06084396467125,"GG",NA,NA,NA
"554","del",93,9,"SRR3698453.7762",TRUE,TRUE,21,2.06084396467125,"GG",NA,NA,NA
"555","del",93,9,"SRR3698453.8478",TRUE,TRUE,21,2.06084396467125,"GG",NA,NA,NA
"556","del",93,12,"SRR3698453.6585",FALSE,TRUE,1,0.098135426889107,"NHEJ",NA,NA,NA
"557","del",93,13,"SRR3698453.2790",TRUE,TRUE,4,0.392541707556428,"NHEJ",NA,NA,NA
"558","del",93,13,"SRR3698453.5472",TRUE,TRUE,4,0.392541707556428,"NHEJ",NA,NA,NA
"559","del",93,13,"SRR3698453.5998",TRUE,TRUE,4,0.392541707556428,"NHEJ",NA,NA,NA
"560","del",93,13,"SRR3698453.6455",TRUE,TRUE,4,0.392541707556428,"NHEJ",NA,NA,NA
"561","del",93,20,"SRR3698453.5334",FALSE,TRUE,1,0.098135426889107,"G",NA,NA,NA
"562","del",93,25,"SRR3698453.2251",TRUE,TRUE,2,0.196270853778214,"G",NA,NA,NA
"563","del",93,25,"SRR3698453.9122",TRUE,TRUE,2,0.196270853778214,"G",NA,NA,NA
"564","del",93,35,"SRR3698453.2593",TRUE,TRUE,3,0.294406280667321,"GGC",NA,NA,NA
"565","del",93,35,"SRR3698453.4864",TRUE,TRUE,3,0.294406280667321,"GGC",NA,NA,NA
"566","del",93,35,"SRR3698453.6491",TRUE,TRUE,3,0.294406280667321,"GGC",NA,NA,NA
"567","del",93,39,"SRR3698453.1987",FALSE,TRUE,1,0.098135426889107,"GG",NA,NA,NA
"568","del",93,59,"SRR3698453.9316",FALSE,TRUE,1,0.098135426889107,"GGC",NA,NA,NA
"569","del",94,5,"SRR3698453.1267",TRUE,TRUE,43,4.2198233562316,"GC",NA,NA,NA
"570","del",94,5,"SRR3698453.13",TRUE,TRUE,43,4.2198233562316,"GC",NA,NA,NA
"571","del",94,5,"SRR3698453.1479",TRUE,TRUE,43,4.2198233562316,"GC",NA,NA,NA
"572","del",94,5,"SRR3698453.1581",TRUE,TRUE,43,4.2198233562316,"GC",NA,NA,NA
"573","del",94,5,"SRR3698453.1664",TRUE,TRUE,43,4.2198233562316,"GC",NA,NA,NA
"574","del",94,5,"SRR3698453.1924",TRUE,TRUE,43,4.2198233562316,"GC",NA,NA,NA
"575","del",94,5,"SRR3698453.2065",TRUE,TRUE,43,4.2198233562316,"GC",NA,NA,NA
"576","del",94,5,"SRR3698453.2316",TRUE,TRUE,43,4.2198233562316,"GC",NA,NA,NA
"577","del",94,5,"SRR3698453.2353",TRUE,TRUE,43,4.2198233562316,"GC",NA,NA,NA
"578","del",94,5,"SRR3698453.2451",TRUE,TRUE,43,4.2198233562316,"GC",NA,NA,NA
"579","del",94,5,"SRR3698453.2728",TRUE,TRUE,43,4.2198233562316,"GC",NA,NA,NA
"580","del",94,5,"SRR3698453.2776",TRUE,TRUE,43,4.2198233562316,"GC",NA,NA,NA
"581","del",94,5,"SRR3698453.279",TRUE,TRUE,43,4.2198233562316,"GC",NA,NA,NA
"582","del",94,5,"SRR3698453.3050",TRUE,TRUE,43,4.2198233562316,"GC",NA,NA,NA
"583","del",94,5,"SRR3698453.3068",TRUE,TRUE,43,4.2198233562316,"GC",NA,NA,NA
"584","del",94,5,"SRR3698453.3092",TRUE,TRUE,43,4.2198233562316,"GC",NA,NA,NA
"585","del",94,5,"SRR3698453.3121",TRUE,TRUE,43,4.2198233562316,"GC",NA,NA,NA
"586","del",94,5,"SRR3698453.3127",TRUE,TRUE,43,4.2198233562316,"GC",NA,NA,NA
"587","del",94,5,"SRR3698453.3442",TRUE,TRUE,43,4.2198233562316,"GC",NA,NA,NA
"588","del",94,5,"SRR3698453.3639",TRUE,TRUE,43,4.2198233562316,"GC",NA,NA,NA
"589","del",94,5,"SRR3698453.3833",TRUE,TRUE,43,4.2198233562316,"GC",NA,NA,NA
"590","del",94,5,"SRR3698453.3929",TRUE,TRUE,43,4.2198233562316,"GC",NA,NA,NA
"591","del",94,5,"SRR3698453.3953",TRUE,TRUE,43,4.2198233562316,"GC",NA,NA,NA
"592","del",94,5,"SRR3698453.3965",TRUE,TRUE,43,4.2198233562316,"GC",NA,NA,NA
"593","del",94,5,"SRR3698453.4721",TRUE,TRUE,43,4.2198233562316,"GC",NA,NA,NA
"594","del",94,5,"SRR3698453.4846",TRUE,TRUE,43,4.2198233562316,"GC",NA,NA,NA
"595","del",94,5,"SRR3698453.5070",TRUE,TRUE,43,4.2198233562316,"GC",NA,NA,NA
"596","del",94,5,"SRR3698453.5410",TRUE,TRUE,43,4.2198233562316,"GC",NA,NA,NA
"597","del",94,5,"SRR3698453.6350",TRUE,TRUE,43,4.2198233562316,"GC",NA,NA,NA
"598","del",94,5,"SRR3698453.6521",TRUE,TRUE,43,4.2198233562316,"GC",NA,NA,NA
"599","del",94,5,"SRR3698453.6627",TRUE,TRUE,43,4.2198233562316,"GC",NA,NA,NA
"600","del",94,5,"SRR3698453.6731",TRUE,TRUE,43,4.2198233562316,"GC",NA,NA,NA
"601","del",94,5,"SRR3698453.7254",TRUE,TRUE,43,4.2198233562316,"GC",NA,NA,NA
"602","del",94,5,"SRR3698453.7324",TRUE,TRUE,43,4.2198233562316,"GC",NA,NA,NA
"603","del",94,5,"SRR3698453.7495",TRUE,TRUE,43,4.2198233562316,"GC",NA,NA,NA
"604","del",94,5,"SRR3698453.7596",TRUE,TRUE,43,4.2198233562316,"GC",NA,NA,NA
"605","del",94,5,"SRR3698453.7867",TRUE,TRUE,43,4.2198233562316,"GC",NA,NA,NA
"606","del",94,5,"SRR3698453.7980",TRUE,TRUE,43,4.2198233562316,"GC",NA,NA,NA
"607","del",94,5,"SRR3698453.7986",TRUE,TRUE,43,4.2198233562316,"GC",NA,NA,NA
"608","del",94,5,"SRR3698453.8244",TRUE,TRUE,43,4.2198233562316,"GC",NA,NA,NA
"609","del",94,5,"SRR3698453.8682",TRUE,TRUE,43,4.2198233562316,"GC",NA,NA,NA
"610","del",94,5,"SRR3698453.8879",TRUE,TRUE,43,4.2198233562316,"GC",NA,NA,NA
"611","del",94,5,"SRR3698453.9207",TRUE,TRUE,43,4.2198233562316,"GC",NA,NA,NA
"612","del",94,8,"SRR3698453.5708",FALSE,TRUE,1,0.098135426889107,"G",NA,NA,NA
"613","del",94,11,"SRR3698453.1962",FALSE,TRUE,1,0.098135426889107,"NHEJ",NA,NA,NA
"614","del",94,12,"SRR3698453.4916",FALSE,TRUE,1,0.098135426889107,"NHEJ",NA,NA,NA
"615","del",94,19,"SRR3698453.2411",TRUE,TRUE,11,1.07948969578018,"GC",NA,NA,NA
"616","del",94,19,"SRR3698453.3895",TRUE,TRUE,11,1.07948969578018,"GC",NA,NA,NA
"617","del",94,19,"SRR3698453.3917",TRUE,TRUE,11,1.07948969578018,"GC",NA,NA,NA
"618","del",94,19,"SRR3698453.4230",TRUE,TRUE,11,1.07948969578018,"GC",NA,NA,NA
"619","del",94,19,"SRR3698453.4516",TRUE,TRUE,11,1.07948969578018,"GC",NA,NA,NA
"620","del",94,19,"SRR3698453.4680",TRUE,TRUE,11,1.07948969578018,"GC",NA,NA,NA
"621","del",94,19,"SRR3698453.5757",TRUE,TRUE,11,1.07948969578018,"GC",NA,NA,NA
"622","del",94,19,"SRR3698453.6724",TRUE,TRUE,11,1.07948969578018,"GC",NA,NA,NA
"623","del",94,19,"SRR3698453.6753",TRUE,TRUE,11,1.07948969578018,"GC",NA,NA,NA
"624","del",94,19,"SRR3698453.7695",TRUE,TRUE,11,1.07948969578018,"GC",NA,NA,NA
"625","del",94,19,"SRR3698453.8635",TRUE,TRUE,11,1.07948969578018,"GC",NA,NA,NA
"626","del",94,26,"SRR3698453.8114",FALSE,TRUE,1,0.098135426889107,"NHEJ",NA,NA,NA
"627","del",94,30,"SRR3698453.1512",TRUE,TRUE,5,0.490677134445535,"GC",NA,NA,NA
"628","del",94,30,"SRR3698453.3634",TRUE,TRUE,5,0.490677134445535,"GC",NA,NA,NA
"629","del",94,30,"SRR3698453.469",TRUE,TRUE,5,0.490677134445535,"GC",NA,NA,NA
"630","del",94,30,"SRR3698453.6645",TRUE,TRUE,5,0.490677134445535,"GC",NA,NA,NA
"631","del",94,30,"SRR3698453.8298",TRUE,TRUE,5,0.490677134445535,"GC",NA,NA,NA
"632","del",94,51,"SRR3698453.7701",FALSE,TRUE,1,0.098135426889107,"G",NA,NA,NA
"633","del",95,2,"SRR3698453.3751",TRUE,TRUE,2,0.196270853778214,"CT",NA,NA,NA
"634","del",95,2,"SRR3698453.558",TRUE,TRUE,2,0.196270853778214,"CT",NA,NA,NA
"635","del",95,10,"SRR3698453.1747",TRUE,TRUE,16,1.57016683022571,"C",NA,NA,NA
"636","del",95,10,"SRR3698453.2163",TRUE,TRUE,16,1.57016683022571,"C",NA,NA,NA
"637","del",95,10,"SRR3698453.261",TRUE,TRUE,16,1.57016683022571,"C",NA,NA,NA
"638","del",95,10,"SRR3698453.274",TRUE,TRUE,16,1.57016683022571,"C",NA,NA,NA
"639","del",95,10,"SRR3698453.2740",TRUE,TRUE,16,1.57016683022571,"C",NA,NA,NA
"640","del",95,10,"SRR3698453.3145",TRUE,TRUE,16,1.57016683022571,"C",NA,NA,NA
"641","del",95,10,"SRR3698453.4293",TRUE,TRUE,16,1.57016683022571,"C",NA,NA,NA
"642","del",95,10,"SRR3698453.5064",TRUE,TRUE,16,1.57016683022571,"C",NA,NA,NA
"643","del",95,10,"SRR3698453.6083",TRUE,TRUE,16,1.57016683022571,"C",NA,NA,NA
"644","del",95,10,"SRR3698453.6325",TRUE,TRUE,16,1.57016683022571,"C",NA,NA,NA
"645","del",95,10,"SRR3698453.7353",TRUE,TRUE,16,1.57016683022571,"C",NA,NA,NA
"646","del",95,10,"SRR3698453.8695",TRUE,TRUE,16,1.57016683022571,"C",NA,NA,NA
"647","del",95,10,"SRR3698453.887",TRUE,TRUE,16,1.57016683022571,"C",NA,NA,NA
"648","del",95,10,"SRR3698453.892",TRUE,TRUE,16,1.57016683022571,"C",NA,NA,NA
"649","del",95,10,"SRR3698453.9211",TRUE,TRUE,16,1.57016683022571,"C",NA,NA,NA
"650","del",95,10,"SRR3698453.9258",TRUE,TRUE,16,1.57016683022571,"C",NA,NA,NA
"651","del",95,12,"SRR3698453.1110",TRUE,TRUE,19,1.86457311089303,"CT",NA,NA,NA
"652","del",95,12,"SRR3698453.1418",TRUE,TRUE,19,1.86457311089303,"CT",NA,NA,NA
"653","del",95,12,"SRR3698453.1703",TRUE,TRUE,19,1.86457311089303,"CT",NA,NA,NA
"654","del",95,12,"SRR3698453.2088",TRUE,TRUE,19,1.86457311089303,"CT",NA,NA,NA
"655","del",95,12,"SRR3698453.2106",TRUE,TRUE,19,1.86457311089303,"CT",NA,NA,NA
"656","del",95,12,"SRR3698453.2450",TRUE,TRUE,19,1.86457311089303,"CT",NA,NA,NA
"657","del",95,12,"SRR3698453.2812",TRUE,TRUE,19,1.86457311089303,"CT",NA,NA,NA
"658","del",95,12,"SRR3698453.3738",TRUE,TRUE,19,1.86457311089303,"CT",NA,NA,NA
"659","del",95,12,"SRR3698453.4552",TRUE,TRUE,19,1.86457311089303,"CT",NA,NA,NA
"660","del",95,12,"SRR3698453.486",TRUE,TRUE,19,1.86457311089303,"CT",NA,NA,NA
"661","del",95,12,"SRR3698453.5340",TRUE,TRUE,19,1.86457311089303,"CT",NA,NA,NA
"662","del",95,12,"SRR3698453.5497",TRUE,TRUE,19,1.86457311089303,"CT",NA,NA,NA
"663","del",95,12,"SRR3698453.6026",TRUE,TRUE,19,1.86457311089303,"CT",NA,NA,NA
"664","del",95,12,"SRR3698453.6437",TRUE,TRUE,19,1.86457311089303,"CT",NA,NA,NA
"665","del",95,12,"SRR3698453.6442",TRUE,TRUE,19,1.86457311089303,"CT",NA,NA,NA
"666","del",95,12,"SRR3698453.6943",TRUE,TRUE,19,1.86457311089303,"CT",NA,NA,NA
"667","del",95,12,"SRR3698453.7841",TRUE,TRUE,19,1.86457311089303,"CT",NA,NA,NA
"668","del",95,12,"SRR3698453.8140",TRUE,TRUE,19,1.86457311089303,"CT",NA,NA,NA
"669","del",95,12,"SRR3698453.9049",TRUE,TRUE,19,1.86457311089303,"CT",NA,NA,NA
"670","del",95,15,"SRR3698453.3149",TRUE,TRUE,4,0.392541707556428,"C",NA,NA,NA
"671","del",95,15,"SRR3698453.4997",TRUE,TRUE,4,0.392541707556428,"C",NA,NA,NA
"672","del",95,15,"SRR3698453.7198",TRUE,TRUE,4,0.392541707556428,"C",NA,NA,NA
"673","del",95,15,"SRR3698453.7388",TRUE,TRUE,4,0.392541707556428,"C",NA,NA,NA
"674","del",95,16,"SRR3698453.2020",TRUE,TRUE,3,0.294406280667321,"CT",NA,NA,NA
"675","del",95,16,"SRR3698453.3244",TRUE,TRUE,3,0.294406280667321,"CT",NA,NA,NA
"676","del",95,16,"SRR3698453.6790",TRUE,TRUE,3,0.294406280667321,"CT",NA,NA,NA
"677","del",95,20,"SRR3698453.7623",FALSE,TRUE,1,0.098135426889107,"C",NA,NA,NA
"678","del",95,31,"SRR3698453.8136",FALSE,TRUE,1,0.098135426889107,"CT",NA,NA,NA
"679","del",95,60,"SRR3698453.5456",FALSE,TRUE,1,0.098135426889107,"C",NA,NA,NA
"680","del",96,4,"SRR3698453.8620",FALSE,TRUE,1,0.098135426889107,"NHEJ",NA,NA,NA
"681","del",96,13,"SRR3698453.1995",TRUE,TRUE,8,0.785083415112856,"TC",NA,NA,NA
"682","del",96,13,"SRR3698453.3156",TRUE,TRUE,8,0.785083415112856,"TC",NA,NA,NA
"683","del",96,13,"SRR3698453.5523",TRUE,TRUE,8,0.785083415112856,"TC",NA,NA,NA
"684","del",96,13,"SRR3698453.6651",TRUE,TRUE,8,0.785083415112856,"TC",NA,NA,NA
"685","del",96,13,"SRR3698453.6833",TRUE,TRUE,8,0.785083415112856,"TC",NA,NA,NA
"686","del",96,13,"SRR3698453.7627",TRUE,TRUE,8,0.785083415112856,"TC",NA,NA,NA
"687","del",96,13,"SRR3698453.7901",TRUE,TRUE,8,0.785083415112856,"TC",NA,NA,NA
"688","del",96,13,"SRR3698453.8866",TRUE,TRUE,8,0.785083415112856,"TC",NA,NA,NA
"689","del",96,23,"SRR3698453.2008",TRUE,TRUE,7,0.686947988223749,"TC",NA,NA,NA
"690","del",96,23,"SRR3698453.2758",TRUE,TRUE,7,0.686947988223749,"TC",NA,NA,NA
"691","del",96,23,"SRR3698453.3534",TRUE,TRUE,7,0.686947988223749,"TC",NA,NA,NA
"692","del",96,23,"SRR3698453.4140",TRUE,TRUE,7,0.686947988223749,"TC",NA,NA,NA
"693","del",96,23,"SRR3698453.4537",TRUE,TRUE,7,0.686947988223749,"TC",NA,NA,NA
"694","del",96,23,"SRR3698453.7428",TRUE,TRUE,7,0.686947988223749,"TC",NA,NA,NA
"695","del",96,23,"SRR3698453.7961",TRUE,TRUE,7,0.686947988223749,"TC",NA,NA,NA
"696","del",97,1,"SRR3698453.1144",TRUE,TRUE,13,1.27576054955839,"NHEJ",NA,NA,NA
"697","del",97,1,"SRR3698453.1240",TRUE,TRUE,13,1.27576054955839,"NHEJ",NA,NA,NA
"698","del",97,1,"SRR3698453.3765",TRUE,TRUE,13,1.27576054955839,"NHEJ",NA,NA,NA
"699","del",97,1,"SRR3698453.3878",TRUE,TRUE,13,1.27576054955839,"NHEJ",NA,NA,NA
"700","del",97,1,"SRR3698453.3986",TRUE,TRUE,13,1.27576054955839,"NHEJ",NA,NA,NA
"701","del",97,1,"SRR3698453.3992",TRUE,TRUE,13,1.27576054955839,"NHEJ",NA,NA,NA
"702","del",97,1,"SRR3698453.4683",TRUE,TRUE,13,1.27576054955839,"NHEJ",NA,NA,NA
"703","del",97,1,"SRR3698453.476",TRUE,TRUE,13,1.27576054955839,"NHEJ",NA,NA,NA
"704","del",97,1,"SRR3698453.5119",TRUE,TRUE,13,1.27576054955839,"NHEJ",NA,NA,NA
"705","del",97,1,"SRR3698453.7688",TRUE,TRUE,13,1.27576054955839,"NHEJ",NA,NA,NA
"706","del",97,1,"SRR3698453.7998",TRUE,TRUE,13,1.27576054955839,"NHEJ",NA,NA,NA
"707","del",97,1,"SRR3698453.8503",TRUE,TRUE,13,1.27576054955839,"NHEJ",NA,NA,NA
"708","del",97,1,"SRR3698453.8612",TRUE,TRUE,13,1.27576054955839,"NHEJ",NA,NA,NA
"709","del",97,3,"SRR3698453.1398",TRUE,TRUE,5,0.490677134445535,"C",NA,NA,NA
"710","del",97,3,"SRR3698453.1559",TRUE,TRUE,5,0.490677134445535,"C",NA,NA,NA
"711","del",97,3,"SRR3698453.2255",TRUE,TRUE,5,0.490677134445535,"C",NA,NA,NA
"712","del",97,3,"SRR3698453.3254",TRUE,TRUE,5,0.490677134445535,"C",NA,NA,NA
"713","del",97,3,"SRR3698453.8864",TRUE,TRUE,5,0.490677134445535,"C",NA,NA,NA
"714","del",97,8,"SRR3698453.1603",TRUE,TRUE,3,0.294406280667321,"C",NA,NA,NA
"715","del",97,8,"SRR3698453.4492",TRUE,TRUE,3,0.294406280667321,"C",NA,NA,NA
"716","del",97,8,"SRR3698453.8249",TRUE,TRUE,3,0.294406280667321,"C",NA,NA,NA
"717","del",97,10,"SRR3698453.1552",TRUE,TRUE,16,1.57016683022571,"CT",NA,NA,NA
"718","del",97,10,"SRR3698453.1693",TRUE,TRUE,16,1.57016683022571,"CT",NA,NA,NA
"719","del",97,10,"SRR3698453.3323",TRUE,TRUE,16,1.57016683022571,"CT",NA,NA,NA
"720","del",97,10,"SRR3698453.3385",TRUE,TRUE,16,1.57016683022571,"CT",NA,NA,NA
"721","del",97,10,"SRR3698453.4375",TRUE,TRUE,16,1.57016683022571,"CT",NA,NA,NA
"722","del",97,10,"SRR3698453.4393",TRUE,TRUE,16,1.57016683022571,"CT",NA,NA,NA
"723","del",97,10,"SRR3698453.4743",TRUE,TRUE,16,1.57016683022571,"CT",NA,NA,NA
"724","del",97,10,"SRR3698453.4950",TRUE,TRUE,16,1.57016683022571,"CT",NA,NA,NA
"725","del",97,10,"SRR3698453.5528",TRUE,TRUE,16,1.57016683022571,"CT",NA,NA,NA
"726","del",97,10,"SRR3698453.5849",TRUE,TRUE,16,1.57016683022571,"CT",NA,NA,NA
"727","del",97,10,"SRR3698453.718",TRUE,TRUE,16,1.57016683022571,"CT",NA,NA,NA
"728","del",97,10,"SRR3698453.7306",TRUE,TRUE,16,1.57016683022571,"CT",NA,NA,NA
"729","del",97,10,"SRR3698453.7685",TRUE,TRUE,16,1.57016683022571,"CT",NA,NA,NA
"730","del",97,10,"SRR3698453.8074",TRUE,TRUE,16,1.57016683022571,"CT",NA,NA,NA
"731","del",97,10,"SRR3698453.8460",TRUE,TRUE,16,1.57016683022571,"CT",NA,NA,NA
"732","del",97,10,"SRR3698453.9164",TRUE,TRUE,16,1.57016683022571,"CT",NA,NA,NA
"733","del",97,14,"SRR3698453.265",TRUE,TRUE,4,0.392541707556428,"CTGC",NA,NA,NA
"734","del",97,14,"SRR3698453.3144",TRUE,TRUE,4,0.392541707556428,"CTGC",NA,NA,NA
"735","del",97,14,"SRR3698453.4373",TRUE,TRUE,4,0.392541707556428,"CTGC",NA,NA,NA
"736","del",97,14,"SRR3698453.7728",TRUE,TRUE,4,0.392541707556428,"CTGC",NA,NA,NA
"737","del",97,17,"SRR3698453.2924",TRUE,TRUE,8,0.785083415112856,"C",NA,NA,NA
"738","del",97,17,"SRR3698453.4214",TRUE,TRUE,8,0.785083415112856,"C",NA,NA,NA
"739","del",97,17,"SRR3698453.5003",TRUE,TRUE,8,0.785083415112856,"C",NA,NA,NA
"740","del",97,17,"SRR3698453.5446",TRUE,TRUE,8,0.785083415112856,"C",NA,NA,NA
"741","del",97,17,"SRR3698453.5574",TRUE,TRUE,8,0.785083415112856,"C",NA,NA,NA
"742","del",97,17,"SRR3698453.7294",TRUE,TRUE,8,0.785083415112856,"C",NA,NA,NA
"743","del",97,17,"SRR3698453.8308",TRUE,TRUE,8,0.785083415112856,"C",NA,NA,NA
"744","del",97,17,"SRR3698453.9261",TRUE,TRUE,8,0.785083415112856,"C",NA,NA,NA
"745","del",97,25,"SRR3698453.3711",FALSE,TRUE,1,0.098135426889107,"NHEJ",NA,NA,NA
"746","del",97,26,"SRR3698453.6423",FALSE,TRUE,1,0.098135426889107,"NHEJ",NA,NA,NA
"747","del",97,28,"SRR3698453.7690",FALSE,TRUE,1,0.098135426889107,"C",NA,NA,NA
"748","del",97,29,"SRR3698453.5674",TRUE,TRUE,2,0.196270853778214,"CTG",NA,NA,NA
"749","del",97,29,"SRR3698453.8368",TRUE,TRUE,2,0.196270853778214,"CTG",NA,NA,NA
"750","del",97,33,"SRR3698453.8764",FALSE,TRUE,1,0.098135426889107,"C",NA,NA,NA
"751","del",98,1,"SRR3698453.1009",TRUE,TRUE,17,1.66830225711482,"NHEJ",NA,NA,NA
"752","del",98,1,"SRR3698453.200",TRUE,TRUE,17,1.66830225711482,"NHEJ",NA,NA,NA
"753","del",98,1,"SRR3698453.2001",TRUE,TRUE,17,1.66830225711482,"NHEJ",NA,NA,NA
"754","del",98,1,"SRR3698453.2249",TRUE,TRUE,17,1.66830225711482,"NHEJ",NA,NA,NA
"755","del",98,1,"SRR3698453.2360",TRUE,TRUE,17,1.66830225711482,"NHEJ",NA,NA,NA
"756","del",98,1,"SRR3698453.345",TRUE,TRUE,17,1.66830225711482,"NHEJ",NA,NA,NA
"757","del",98,1,"SRR3698453.4067",TRUE,TRUE,17,1.66830225711482,"NHEJ",NA,NA,NA
"758","del",98,1,"SRR3698453.4682",TRUE,TRUE,17,1.66830225711482,"NHEJ",NA,NA,NA
"759","del",98,1,"SRR3698453.4844",TRUE,TRUE,17,1.66830225711482,"NHEJ",NA,NA,NA
"760","del",98,1,"SRR3698453.4900",TRUE,TRUE,17,1.66830225711482,"NHEJ",NA,NA,NA
"761","del",98,1,"SRR3698453.4939",TRUE,TRUE,17,1.66830225711482,"NHEJ",NA,NA,NA
"762","del",98,1,"SRR3698453.4992",TRUE,TRUE,17,1.66830225711482,"NHEJ",NA,NA,NA
"763","del",98,1,"SRR3698453.5235",TRUE,TRUE,17,1.66830225711482,"NHEJ",NA,NA,NA
"764","del",98,1,"SRR3698453.8382",TRUE,TRUE,17,1.66830225711482,"NHEJ",NA,NA,NA
"765","del",98,1,"SRR3698453.8802",TRUE,TRUE,17,1.66830225711482,"NHEJ",NA,NA,NA
"766","del",98,1,"SRR3698453.8815",TRUE,TRUE,17,1.66830225711482,"NHEJ",NA,NA,NA
"767","del",98,1,"SRR3698453.954",TRUE,TRUE,17,1.66830225711482,"NHEJ",NA,NA,NA
"768","del",98,2,"SRR3698453.1049",TRUE,TRUE,8,0.785083415112856,"NHEJ",NA,NA,NA
"769","del",98,2,"SRR3698453.3064",TRUE,TRUE,8,0.785083415112856,"NHEJ",NA,NA,NA
"770","del",98,2,"SRR3698453.3273",TRUE,TRUE,8,0.785083415112856,"NHEJ",NA,NA,NA
"771","del",98,2,"SRR3698453.3647",TRUE,TRUE,8,0.785083415112856,"NHEJ",NA,NA,NA
"772","del",98,2,"SRR3698453.4819",TRUE,TRUE,8,0.785083415112856,"NHEJ",NA,NA,NA
"773","del",98,2,"SRR3698453.7343",TRUE,TRUE,8,0.785083415112856,"NHEJ",NA,NA,NA
"774","del",98,2,"SRR3698453.8800",TRUE,TRUE,8,0.785083415112856,"NHEJ",NA,NA,NA
"775","del",98,2,"SRR3698453.9032",TRUE,TRUE,8,0.785083415112856,"NHEJ",NA,NA,NA
"776","del",98,5,"SRR3698453.221",TRUE,TRUE,2,0.196270853778214,"NHEJ",NA,NA,NA
"777","del",98,5,"SRR3698453.7122",TRUE,TRUE,2,0.196270853778214,"NHEJ",NA,NA,NA
"778","del",98,6,"SRR3698453.4260",FALSE,TRUE,1,0.098135426889107,"NHEJ",NA,NA,NA
"779","del",98,7,"SRR3698453.3021",TRUE,TRUE,8,0.785083415112856,"NHEJ",NA,NA,NA
"780","del",98,7,"SRR3698453.3169",TRUE,TRUE,8,0.785083415112856,"NHEJ",NA,NA,NA
"781","del",98,7,"SRR3698453.540",TRUE,TRUE,8,0.785083415112856,"NHEJ",NA,NA,NA
"782","del",98,7,"SRR3698453.5524",TRUE,TRUE,8,0.785083415112856,"NHEJ",NA,NA,NA
"783","del",98,7,"SRR3698453.6568",TRUE,TRUE,8,0.785083415112856,"NHEJ",NA,NA,NA
"784","del",98,7,"SRR3698453.7664",TRUE,TRUE,8,0.785083415112856,"NHEJ",NA,NA,NA
"785","del",98,7,"SRR3698453.788",TRUE,TRUE,8,0.785083415112856,"NHEJ",NA,NA,NA
"786","del",98,7,"SRR3698453.8955",TRUE,TRUE,8,0.785083415112856,"NHEJ",NA,NA,NA
"787","del",98,9,"SRR3698453.4454",TRUE,TRUE,3,0.294406280667321,"NHEJ",NA,NA,NA
"788","del",98,9,"SRR3698453.6352",TRUE,TRUE,3,0.294406280667321,"NHEJ",NA,NA,NA
"789","del",98,9,"SRR3698453.7864",TRUE,TRUE,3,0.294406280667321,"NHEJ",NA,NA,NA
"790","del",98,11,"SRR3698453.1592",TRUE,TRUE,2,0.196270853778214,"T",NA,NA,NA
"791","del",98,11,"SRR3698453.7742",TRUE,TRUE,2,0.196270853778214,"T",NA,NA,NA
"792","del",98,12,"SRR3698453.3463",FALSE,TRUE,1,0.098135426889107,"NHEJ",NA,NA,NA
"793","del",98,15,"SRR3698453.1726",TRUE,TRUE,4,0.392541707556428,"NHEJ",NA,NA,NA
"794","del",98,15,"SRR3698453.2140",TRUE,TRUE,4,0.392541707556428,"NHEJ",NA,NA,NA
"795","del",98,15,"SRR3698453.2205",TRUE,TRUE,4,0.392541707556428,"NHEJ",NA,NA,NA
"796","del",98,15,"SRR3698453.5955",TRUE,TRUE,4,0.392541707556428,"NHEJ",NA,NA,NA
"797","del",98,16,"SRR3698453.832",FALSE,TRUE,1,0.098135426889107,"NHEJ",NA,NA,NA
"798","del",98,25,"SRR3698453.6602",TRUE,TRUE,2,0.196270853778214,"TGC",NA,NA,NA
"799","del",98,25,"SRR3698453.716",TRUE,TRUE,2,0.196270853778214,"TGC",NA,NA,NA
"800","del",98,26,"SRR3698453.1032",TRUE,TRUE,2,0.196270853778214,"NHEJ",NA,NA,NA
"801","del",98,26,"SRR3698453.7255",TRUE,TRUE,2,0.196270853778214,"NHEJ",NA,NA,NA
"802","del",98,32,"SRR3698453.5282",FALSE,TRUE,1,0.098135426889107,"NHEJ",NA,NA,NA
"803","del",98,37,"SRR3698453.8275",FALSE,TRUE,1,0.098135426889107,"NHEJ",NA,NA,NA
"804","del",98,67,"SRR3698453.9315",FALSE,TRUE,1,0.098135426889107,"NHEJ",NA,NA,NA
"805","del",99,1,"SRR3698453.8905",FALSE,TRUE,1,0.098135426889107,"NHEJ",NA,NA,NA
"806","del",99,2,"SRR3698453.69",FALSE,TRUE,1,0.098135426889107,"NHEJ",NA,NA,NA
"807","del",99,3,"SRR3698453.5356",FALSE,TRUE,1,0.098135426889107,"G",NA,NA,NA
"808","del",99,5,"SRR3698453.6958",FALSE,TRUE,1,0.098135426889107,"NHEJ",NA,NA,NA
"809","del",99,6,"SRR3698453.6927",FALSE,TRUE,1,0.098135426889107,"NHEJ",NA,NA,NA
"810","del",99,8,"SRR3698453.301",TRUE,TRUE,2,0.196270853778214,"NHEJ",NA,NA,NA
"811","del",99,8,"SRR3698453.8640",TRUE,TRUE,2,0.196270853778214,"NHEJ",NA,NA,NA
"812","del",120,1,"SRR3698453.7181",FALSE,TRUE,1,0.098135426889107,"C",NA,NA,NA
"813","del",128,1,"SRR3698453.7560",FALSE,TRUE,1,0.098135426889107,"G",NA,NA,NA
"814","del",179,1,"SRR3698453.3025",FALSE,FALSE,1,0.098135426889107,"G",NA,NA,NA
"815","del",205,1,"SRR3698453.992",FALSE,FALSE,1,0.098135426889107,"NHEJ",NA,NA,NA
"816","del",207,1,"SRR3698453.3662",TRUE,FALSE,2,0.196270853778214,"NHEJ",NA,NA,NA
"817","del",207,1,"SRR3698453.6900",TRUE,FALSE,2,0.196270853778214,"NHEJ",NA,NA,NA
"818","del",208,1,"SRR3698453.1029",TRUE,FALSE,21,2.06084396467125,"G",NA,NA,NA
"819","del",208,1,"SRR3698453.1506",TRUE,FALSE,21,2.06084396467125,"G",NA,NA,NA
"820","del",208,1,"SRR3698453.2037",TRUE,FALSE,21,2.06084396467125,"G",NA,NA,NA
"821","del",208,1,"SRR3698453.2176",TRUE,FALSE,21,2.06084396467125,"G",NA,NA,NA
"822","del",208,1,"SRR3698453.341",TRUE,FALSE,21,2.06084396467125,"G",NA,NA,NA
"823","del",208,1,"SRR3698453.4004",TRUE,FALSE,21,2.06084396467125,"G",NA,NA,NA
"824","del",208,1,"SRR3698453.4149",TRUE,FALSE,21,2.06084396467125,"G",NA,NA,NA
"825","del",208,1,"SRR3698453.4497",TRUE,FALSE,21,2.06084396467125,"G",NA,NA,NA
"826","del",208,1,"SRR3698453.456",TRUE,FALSE,21,2.06084396467125,"G",NA,NA,NA
"827","del",208,1,"SRR3698453.4620",TRUE,FALSE,21,2.06084396467125,"G",NA,NA,NA
"828","del",208,1,"SRR3698453.498",TRUE,FALSE,21,2.06084396467125,"G",NA,NA,NA
"829","del",208,1,"SRR3698453.5365",TRUE,FALSE,21,2.06084396467125,"G",NA,NA,NA
"830","del",208,1,"SRR3698453.5552",TRUE,FALSE,21,2.06084396467125,"G",NA,NA,NA
"831","del",208,1,"SRR3698453.5560",TRUE,FALSE,21,2.06084396467125,"G",NA,NA,NA
"832","del",208,1,"SRR3698453.5711",TRUE,FALSE,21,2.06084396467125,"G",NA,NA,NA
"833","del",208,1,"SRR3698453.5947",TRUE,FALSE,21,2.06084396467125,"G",NA,NA,NA
"834","del",208,1,"SRR3698453.7001",TRUE,FALSE,21,2.06084396467125,"G",NA,NA,NA
"835","del",208,1,"SRR3698453.7536",TRUE,FALSE,21,2.06084396467125,"G",NA,NA,NA
"836","del",208,1,"SRR3698453.7991",TRUE,FALSE,21,2.06084396467125,"G",NA,NA,NA
"837","del",208,1,"SRR3698453.8266",TRUE,FALSE,21,2.06084396467125,"G",NA,NA,NA
"838","del",208,1,"SRR3698453.8803",TRUE,FALSE,21,2.06084396467125,"G",NA,NA,NA
"839","del",210,1,"SRR3698453.3500",TRUE,FALSE,4,0.392541707556428,"NHEJ",NA,NA,NA
"840","del",210,1,"SRR3698453.5093",TRUE,FALSE,4,0.392541707556428,"NHEJ",NA,NA,NA
"841","del",210,1,"SRR3698453.5363",TRUE,FALSE,4,0.392541707556428,"NHEJ",NA,NA,NA
"842","del",210,1,"SRR3698453.5975",TRUE,FALSE,4,0.392541707556428,"NHEJ",NA,NA,NA
"843","del",210,3,"SRR3698453.9112",FALSE,FALSE,1,0.098135426889107,"NHEJ",NA,NA,NA
"844","del",211,1,"SRR3698453.1141",TRUE,FALSE,20,1.96270853778214,"NHEJ",NA,NA,NA
"845","del",211,1,"SRR3698453.243",TRUE,FALSE,20,1.96270853778214,"NHEJ",NA,NA,NA
"846","del",211,1,"SRR3698453.2617",TRUE,FALSE,20,1.96270853778214,"NHEJ",NA,NA,NA
"847","del",211,1,"SRR3698453.3157",TRUE,FALSE,20,1.96270853778214,"NHEJ",NA,NA,NA
"848","del",211,1,"SRR3698453.3295",TRUE,FALSE,20,1.96270853778214,"NHEJ",NA,NA,NA
"849","del",211,1,"SRR3698453.3340",TRUE,FALSE,20,1.96270853778214,"NHEJ",NA,NA,NA
"850","del",211,1,"SRR3698453.3362",TRUE,FALSE,20,1.96270853778214,"NHEJ",NA,NA,NA
"851","del",211,1,"SRR3698453.3767",TRUE,FALSE,20,1.96270853778214,"NHEJ",NA,NA,NA
"852","del",211,1,"SRR3698453.5357",TRUE,FALSE,20,1.96270853778214,"NHEJ",NA,NA,NA
"853","del",211,1,"SRR3698453.6835",TRUE,FALSE,20,1.96270853778214,"NHEJ",NA,NA,NA
"854","del",211,1,"SRR3698453.6950",TRUE,FALSE,20,1.96270853778214,"NHEJ",NA,NA,NA
"855","del",211,1,"SRR3698453.7322",TRUE,FALSE,20,1.96270853778214,"NHEJ",NA,NA,NA
"856","del",211,1,"SRR3698453.7397",TRUE,FALSE,20,1.96270853778214,"NHEJ",NA,NA,NA
"857","del",211,1,"SRR3698453.783",TRUE,FALSE,20,1.96270853778214,"NHEJ",NA,NA,NA
"858","del",211,1,"SRR3698453.8119",TRUE,FALSE,20,1.96270853778214,"NHEJ",NA,NA,NA
"859","del",211,1,"SRR3698453.8207",TRUE,FALSE,20,1.96270853778214,"NHEJ",NA,NA,NA
"860","del",211,1,"SRR3698453.8394",TRUE,FALSE,20,1.96270853778214,"NHEJ",NA,NA,NA
"861","del",211,1,"SRR3698453.8993",TRUE,FALSE,20,1.96270853778214,"NHEJ",NA,NA,NA
"862","del",211,1,"SRR3698453.9092",TRUE,FALSE,20,1.96270853778214,"NHEJ",NA,NA,NA
"863","del",211,1,"SRR3698453.9308",TRUE,FALSE,20,1.96270853778214,"NHEJ",NA,NA,NA
"864","del",211,2,"SRR3698453.2723",TRUE,FALSE,6,0.588812561334642,"C",NA,NA,NA
"865","del",211,2,"SRR3698453.3525",TRUE,FALSE,6,0.588812561334642,"C",NA,NA,NA
"866","del",211,2,"SRR3698453.3593",TRUE,FALSE,6,0.588812561334642,"C",NA,NA,NA
"867","del",211,2,"SRR3698453.4541",TRUE,FALSE,6,0.588812561334642,"C",NA,NA,NA
"868","del",211,2,"SRR3698453.8120",TRUE,FALSE,6,0.588812561334642,"C",NA,NA,NA
"869","del",211,2,"SRR3698453.8561",TRUE,FALSE,6,0.588812561334642,"C",NA,NA,NA
"870","del",212,1,"SRR3698453.1215",TRUE,FALSE,7,0.686947988223749,"NHEJ",NA,NA,NA
"871","del",212,1,"SRR3698453.1761",TRUE,FALSE,7,0.686947988223749,"NHEJ",NA,NA,NA
"872","del",212,1,"SRR3698453.2499",TRUE,FALSE,7,0.686947988223749,"NHEJ",NA,NA,NA
"873","del",212,1,"SRR3698453.296",TRUE,FALSE,7,0.686947988223749,"NHEJ",NA,NA,NA
"874","del",212,1,"SRR3698453.3348",TRUE,FALSE,7,0.686947988223749,"NHEJ",NA,NA,NA
"875","del",212,1,"SRR3698453.3782",TRUE,FALSE,7,0.686947988223749,"NHEJ",NA,NA,NA
"876","del",212,1,"SRR3698453.495",TRUE,FALSE,7,0.686947988223749,"NHEJ",NA,NA,NA
"877","del",213,1,"SRR3698453.10",TRUE,FALSE,37,3.63101079489696,"C",NA,NA,NA
"878","del",213,1,"SRR3698453.1101",TRUE,FALSE,37,3.63101079489696,"C",NA,NA,NA
"879","del",213,1,"SRR3698453.1310",TRUE,FALSE,37,3.63101079489696,"C",NA,NA,NA
"880","del",213,1,"SRR3698453.1953",TRUE,FALSE,37,3.63101079489696,"C",NA,NA,NA
"881","del",213,1,"SRR3698453.2373",TRUE,FALSE,37,3.63101079489696,"C",NA,NA,NA
"882","del",213,1,"SRR3698453.2607",TRUE,FALSE,37,3.63101079489696,"C",NA,NA,NA
"883","del",213,1,"SRR3698453.2834",TRUE,FALSE,37,3.63101079489696,"C",NA,NA,NA
"884","del",213,1,"SRR3698453.3015",TRUE,FALSE,37,3.63101079489696,"C",NA,NA,NA
"885","del",213,1,"SRR3698453.3098",TRUE,FALSE,37,3.63101079489696,"C",NA,NA,NA
"886","del",213,1,"SRR3698453.3296",TRUE,FALSE,37,3.63101079489696,"C",NA,NA,NA
"887","del",213,1,"SRR3698453.379",TRUE,FALSE,37,3.63101079489696,"C",NA,NA,NA
"888","del",213,1,"SRR3698453.3925",TRUE,FALSE,37,3.63101079489696,"C",NA,NA,NA
"889","del",213,1,"SRR3698453.4249",TRUE,FALSE,37,3.63101079489696,"C",NA,NA,NA
"890","del",213,1,"SRR3698453.4255",TRUE,FALSE,37,3.63101079489696,"C",NA,NA,NA
"891","del",213,1,"SRR3698453.4266",TRUE,FALSE,37,3.63101079489696,"C",NA,NA,NA
"892","del",213,1,"SRR3698453.4331",TRUE,FALSE,37,3.63101079489696,"C",NA,NA,NA
"893","del",213,1,"SRR3698453.4383",TRUE,FALSE,37,3.63101079489696,"C",NA,NA,NA
"894","del",213,1,"SRR3698453.4902",TRUE,FALSE,37,3.63101079489696,"C",NA,NA,NA
"895","del",213,1,"SRR3698453.499",TRUE,FALSE,37,3.63101079489696,"C",NA,NA,NA
"896","del",213,1,"SRR3698453.5124",TRUE,FALSE,37,3.63101079489696,"C",NA,NA,NA
"897","del",213,1,"SRR3698453.5713",TRUE,FALSE,37,3.63101079489696,"C",NA,NA,NA
"898","del",213,1,"SRR3698453.5722",TRUE,FALSE,37,3.63101079489696,"C",NA,NA,NA
"899","del",213,1,"SRR3698453.5939",TRUE,FALSE,37,3.63101079489696,"C",NA,NA,NA
"900","del",213,1,"SRR3698453.679",TRUE,FALSE,37,3.63101079489696,"C",NA,NA,NA
"901","del",213,1,"SRR3698453.6921",TRUE,FALSE,37,3.63101079489696,"C",NA,NA,NA
"902","del",213,1,"SRR3698453.7447",TRUE,FALSE,37,3.63101079489696,"C",NA,NA,NA
"903","del",213,1,"SRR3698453.7500",TRUE,FALSE,37,3.63101079489696,"C",NA,NA,NA
"904","del",213,1,"SRR3698453.7668",TRUE,FALSE,37,3.63101079489696,"C",NA,NA,NA
"905","del",213,1,"SRR3698453.8038",TRUE,FALSE,37,3.63101079489696,"C",NA,NA,NA
"906","del",213,1,"SRR3698453.8092",TRUE,FALSE,37,3.63101079489696,"C",NA,NA,NA
"907","del",213,1,"SRR3698453.8357",TRUE,FALSE,37,3.63101079489696,"C",NA,NA,NA
"908","del",213,1,"SRR3698453.8481",TRUE,FALSE,37,3.63101079489696,"C",NA,NA,NA
"909","del",213,1,"SRR3698453.8765",TRUE,FALSE,37,3.63101079489696,"C",NA,NA,NA
"910","del",213,1,"SRR3698453.8934",TRUE,FALSE,37,3.63101079489696,"C",NA,NA,NA
"911","del",213,1,"SRR3698453.9044",TRUE,FALSE,37,3.63101079489696,"C",NA,NA,NA
"912","del",213,1,"SRR3698453.9079",TRUE,FALSE,37,3.63101079489696,"C",NA,NA,NA
"913","del",213,1,"SRR3698453.944",TRUE,FALSE,37,3.63101079489696,"C",NA,NA,NA
"914","del",213,2,"SRR3698453.4049",TRUE,FALSE,3,0.294406280667321,"NHEJ",NA,NA,NA
"915","del",213,2,"SRR3698453.9303",TRUE,FALSE,3,0.294406280667321,"NHEJ",NA,NA,NA
"916","del",213,2,"SRR3698453.9305",TRUE,FALSE,3,0.294406280667321,"NHEJ",NA,NA,NA
"917","del",214,2,"SRR3698453.9291",TRUE,FALSE,5,0.490677134445535,"NHEJ",NA,NA,NA
"918","del",214,2,"SRR3698453.9292",TRUE,FALSE,5,0.490677134445535,"NHEJ",NA,NA,NA
"919","del",214,2,"SRR3698453.9293",TRUE,FALSE,5,0.490677134445535,"NHEJ",NA,NA,NA
"920","del",214,2,"SRR3698453.9297",TRUE,FALSE,5,0.490677134445535,"NHEJ",NA,NA,NA
"921","del",214,2,"SRR3698453.9299",TRUE,FALSE,5,0.490677134445535,"NHEJ",NA,NA,NA
"922","del",215,1,"SRR3698453.1082",TRUE,FALSE,49,4.80863591756624,"A",NA,NA,NA
"923","del",215,1,"SRR3698453.1279",TRUE,FALSE,49,4.80863591756624,"A",NA,NA,NA
"924","del",215,1,"SRR3698453.1410",TRUE,FALSE,49,4.80863591756624,"A",NA,NA,NA
"925","del",215,1,"SRR3698453.1576",TRUE,FALSE,49,4.80863591756624,"A",NA,NA,NA
"926","del",215,1,"SRR3698453.1699",TRUE,FALSE,49,4.80863591756624,"A",NA,NA,NA
"927","del",215,1,"SRR3698453.2236",TRUE,FALSE,49,4.80863591756624,"A",NA,NA,NA
"928","del",215,1,"SRR3698453.2562",TRUE,FALSE,49,4.80863591756624,"A",NA,NA,NA
"929","del",215,1,"SRR3698453.2614",TRUE,FALSE,49,4.80863591756624,"A",NA,NA,NA
"930","del",215,1,"SRR3698453.2674",TRUE,FALSE,49,4.80863591756624,"A",NA,NA,NA
"931","del",215,1,"SRR3698453.2697",TRUE,FALSE,49,4.80863591756624,"A",NA,NA,NA
"932","del",215,1,"SRR3698453.2810",TRUE,FALSE,49,4.80863591756624,"A",NA,NA,NA
"933","del",215,1,"SRR3698453.2822",TRUE,FALSE,49,4.80863591756624,"A",NA,NA,NA
"934","del",215,1,"SRR3698453.2960",TRUE,FALSE,49,4.80863591756624,"A",NA,NA,NA
"935","del",215,1,"SRR3698453.3439",TRUE,FALSE,49,4.80863591756624,"A",NA,NA,NA
"936","del",215,1,"SRR3698453.3654",TRUE,FALSE,49,4.80863591756624,"A",NA,NA,NA
"937","del",215,1,"SRR3698453.3904",TRUE,FALSE,49,4.80863591756624,"A",NA,NA,NA
"938","del",215,1,"SRR3698453.3919",TRUE,FALSE,49,4.80863591756624,"A",NA,NA,NA
"939","del",215,1,"SRR3698453.4039",TRUE,FALSE,49,4.80863591756624,"A",NA,NA,NA
"940","del",215,1,"SRR3698453.438",TRUE,FALSE,49,4.80863591756624,"A",NA,NA,NA
"941","del",215,1,"SRR3698453.4554",TRUE,FALSE,49,4.80863591756624,"A",NA,NA,NA
"942","del",215,1,"SRR3698453.4565",TRUE,FALSE,49,4.80863591756624,"A",NA,NA,NA
"943","del",215,1,"SRR3698453.5165",TRUE,FALSE,49,4.80863591756624,"A",NA,NA,NA
"944","del",215,1,"SRR3698453.5225",TRUE,FALSE,49,4.80863591756624,"A",NA,NA,NA
"945","del",215,1,"SRR3698453.5408",TRUE,FALSE,49,4.80863591756624,"A",NA,NA,NA
"946","del",215,1,"SRR3698453.545",TRUE,FALSE,49,4.80863591756624,"A",NA,NA,NA
"947","del",215,1,"SRR3698453.5562",TRUE,FALSE,49,4.80863591756624,"A",NA,NA,NA
"948","del",215,1,"SRR3698453.5591",TRUE,FALSE,49,4.80863591756624,"A",NA,NA,NA
"949","del",215,1,"SRR3698453.5914",TRUE,FALSE,49,4.80863591756624,"A",NA,NA,NA
"950","del",215,1,"SRR3698453.5982",TRUE,FALSE,49,4.80863591756624,"A",NA,NA,NA
"951","del",215,1,"SRR3698453.6103",TRUE,FALSE,49,4.80863591756624,"A",NA,NA,NA
"952","del",215,1,"SRR3698453.6215",TRUE,FALSE,49,4.80863591756624,"A",NA,NA,NA
"953","del",215,1,"SRR3698453.6293",TRUE,FALSE,49,4.80863591756624,"A",NA,NA,NA
"954","del",215,1,"SRR3698453.6345",TRUE,FALSE,49,4.80863591756624,"A",NA,NA,NA
"955","del",215,1,"SRR3698453.6425",TRUE,FALSE,49,4.80863591756624,"A",NA,NA,NA
"956","del",215,1,"SRR3698453.6541",TRUE,FALSE,49,4.80863591756624,"A",NA,NA,NA
"957","del",215,1,"SRR3698453.6566",TRUE,FALSE,49,4.80863591756624,"A",NA,NA,NA
"958","del",215,1,"SRR3698453.6583",TRUE,FALSE,49,4.80863591756624,"A",NA,NA,NA
"959","del",215,1,"SRR3698453.6901",TRUE,FALSE,49,4.80863591756624,"A",NA,NA,NA
"960","del",215,1,"SRR3698453.7381",TRUE,FALSE,49,4.80863591756624,"A",NA,NA,NA
"961","del",215,1,"SRR3698453.7481",TRUE,FALSE,49,4.80863591756624,"A",NA,NA,NA
"962","del",215,1,"SRR3698453.7782",TRUE,FALSE,49,4.80863591756624,"A",NA,NA,NA
"963","del",215,1,"SRR3698453.7788",TRUE,FALSE,49,4.80863591756624,"A",NA,NA,NA
"964","del",215,1,"SRR3698453.7918",TRUE,FALSE,49,4.80863591756624,"A",NA,NA,NA
"965","del",215,1,"SRR3698453.7965",TRUE,FALSE,49,4.80863591756624,"A",NA,NA,NA
"966","del",215,1,"SRR3698453.8175",TRUE,FALSE,49,4.80863591756624,"A",NA,NA,NA
"967","del",215,1,"SRR3698453.8188",TRUE,FALSE,49,4.80863591756624,"A",NA,NA,NA
"968","del",215,1,"SRR3698453.8487",TRUE,FALSE,49,4.80863591756624,"A",NA,NA,NA
"969","del",215,1,"SRR3698453.8603",TRUE,FALSE,49,4.80863591756624,"A",NA,NA,NA
"970","del",215,1,"SRR3698453.9123",TRUE,FALSE,49,4.80863591756624,"A",NA,NA,NA
"971","ins",5,1,"SRR3698453.1823",FALSE,FALSE,2,0.196270853778214,NA,"CTC","A","ACA"
"972","ins",5,1,"SRR3698453.6578",FALSE,FALSE,2,0.196270853778214,NA,"CTC","A","ACA"
"973","ins",13,1,"SRR3698453.5397",TRUE,FALSE,2,0.196270853778214,NA,"TCA","T","TCT"
"974","ins",13,1,"SRR3698453.800",TRUE,FALSE,2,0.196270853778214,NA,"TCA","T","TCT"
"975","ins",206,1,"SRR3698453.5932",FALSE,FALSE,1,0.098135426889107,NA,"GCA","C","CTG"
"976","ins",207,1,"SRR3698453.6938",FALSE,FALSE,1,0.098135426889107,NA,"CAC","T","TGG"
"977","ins",208,1,"SRR3698453.9310",FALSE,FALSE,1,0.098135426889107,NA,"ACT","G","GGA"
"978","ins",213,1,"SRR3698453.6057",FALSE,FALSE,1,0.098135426889107,NA,"ACT","C","CCA"
"979","ins",98,2,"SRR3698453.1756",FALSE,TRUE,1,0.098135426889107,NA,"CTC","TC","TGC"
"980","ins",98,1,NA,TRUE,TRUE,6,0.588812561334642,NA,"CTC",NA,"TGC"
"981","ins",98,1,NA,TRUE,TRUE,6,0.588812561334642,NA,"CTC",NA,"TGC"
"982","ins",98,1,NA,TRUE,TRUE,6,0.588812561334642,NA,"CTC",NA,"TGC"
"983","ins",98,1,NA,TRUE,TRUE,6,0.588812561334642,NA,"CTC",NA,"TGC"
"984","ins",98,1,NA,TRUE,TRUE,6,0.588812561334642,NA,"CTC",NA,"TGC"
"985","ins",98,1,NA,TRUE,TRUE,6,0.588812561334642,NA,"CTC",NA,"TGC"
"986","ins",98,4,NA,FALSE,TRUE,1,0.098135426889107,NA,"CTC",NA,"TGC"
"987","ins",98,1,"SRR3698453.1040",TRUE,TRUE,19,1.86457311089303,NA,"CTC","T","TGC"
"988","ins",98,1,"SRR3698453.108",TRUE,TRUE,19,1.86457311089303,NA,"CTC","A","TGC"
"989","ins",98,1,"SRR3698453.2242",TRUE,TRUE,19,1.86457311089303,NA,"CAC","T","TGC"
"990","ins",98,1,"SRR3698453.3339",TRUE,TRUE,19,1.86457311089303,NA,"CTC","G","TGC"
"991","ins",98,1,"SRR3698453.3532",TRUE,TRUE,19,1.86457311089303,NA,"CTC","T","TGC"
"992","ins",98,1,"SRR3698453.3694",TRUE,TRUE,19,1.86457311089303,NA,"CTC","T","TGC"
"993","ins",98,1,"SRR3698453.4388",TRUE,TRUE,19,1.86457311089303,NA,"CTC","T","TGC"
"994","ins",98,1,"SRR3698453.4503",TRUE,TRUE,19,1.86457311089303,NA,"CTC","T","TGC"
"995","ins",98,1,"SRR3698453.4561",TRUE,TRUE,19,1.86457311089303,NA,"CTC","A","TGC"
"996","ins",98,1,"SRR3698453.4677",TRUE,TRUE,19,1.86457311089303,NA,"CTC","T","TGC"
"997","ins",98,1,"SRR3698453.52",TRUE,TRUE,19,1.86457311089303,NA,"CTC","T","TGC"
"998","ins",98,1,"SRR3698453.6012",TRUE,TRUE,19,1.86457311089303,NA,"CTC","T","TGC"
"999","ins",98,1,"SRR3698453.615",TRUE,TRUE,19,1.86457311089303,NA,"CTC","T","TGC"
"1000","ins",98,1,"SRR3698453.6812",TRUE,TRUE,19,1.86457311089303,NA,"CTC","T","TGC"
"1001","ins",98,1,"SRR3698453.6903",TRUE,TRUE,19,1.86457311089303,NA,"CTC","T","TGC"
"1002","ins",98,1,"SRR3698453.7387",TRUE,TRUE,19,1.86457311089303,NA,"CTC","T","TGC"
"1003","ins",98,1,"SRR3698453.7579",TRUE,TRUE,19,1.86457311089303,NA,"CTC","G","TGC"
"1004","ins",98,1,"SRR3698453.8324",TRUE,TRUE,19,1.86457311089303,NA,"CTC","T","TGC"
"1005","ins",98,1,"SRR3698453.8499",TRUE,TRUE,19,1.86457311089303,NA,"CTC","G","AGC"
"1006","ins",98,2,"SRR3698453.6914",TRUE,TRUE,2,0.196270853778214,NA,"CTC","CT","TCC"
"1007","ins",98,2,"SRR3698453.7006",TRUE,TRUE,2,0.196270853778214,NA,"CTC","CT","TCC"
"1008","ins",98,4,"SRR3698453.6173",TRUE,TRUE,2,0.196270853778214,NA,"CTC","CAGA","TGC"
"1009","ins",98,4,"SRR3698453.920",TRUE,TRUE,2,0.196270853778214,NA,"CAC","AAGA","TGC"
"1010","ins",98,5,"SRR3698453.2803",TRUE,TRUE,3,0.294406280667321,NA,"CTC","CATCT","TGC"
"1011","ins",98,5,"SRR3698453.8631",TRUE,TRUE,3,0.294406280667321,NA,"CTC","CATCT","TGC"
"1012","ins",98,5,"SRR3698453.8874",TRUE,TRUE,3,0.294406280667321,NA,"CTC","CATCT","TGC"
"1013","ins",98,7,"SRR3698453.2915",FALSE,TRUE,1,0.098135426889107,NA,"CTC","CATCTTT","TGC"
"1014","ins",98,22,"SRR3698453.2727",TRUE,TRUE,3,0.294406280667321,NA,"CTC","CAGACACTTCCTGCCAAGATGG","GGC"
"1015","ins",98,22,"SRR3698453.4324",TRUE,TRUE,3,0.294406280667321,NA,"CTC","CAGACACTTCCTGCCAAGATGG","GGC"
"1016","ins",98,22,"SRR3698453.7752",TRUE,TRUE,3,0.294406280667321,NA,"CTC","CAGATGTCTGGAGCCAAGATGG","GGC"
"1017","ins",99,1,"SRR3698453.7239",TRUE,TRUE,2,0.196270853778214,NA,"TCT","A","GCA"
"1018","ins",99,1,"SRR3698453.7475",TRUE,TRUE,2,0.196270853778214,NA,"TCT","A","GCA"
"1019","ins",99,19,"SRR3698453.8414",FALSE,TRUE,1,0.098135426889107,NA,"TCT","TGACAGGACACTTGTCTTG","GCA"
