"","Modification","Start","Length","Ids","above_error_rate","in_pick","freq","Perc","patterns","pre_ins_nt","ins_nt","post_ins_nt"
"1","del",7,1,"SRR3698495.723",TRUE,FALSE,2,0.816326530612245,"NHEJ",NA,NA,NA
"2","del",7,1,"SRR3698495.732",TRUE,FALSE,2,0.816326530612245,"NHEJ",NA,NA,NA
"3","del",7,2,"SRR3698495.287",TRUE,FALSE,1,0.408163265306122,"NHEJ",NA,NA,NA
"4","del",8,1,"SRR3698495.132",TRUE,FALSE,3,1.22448979591837,"G",NA,NA,NA
"5","del",8,1,"SRR3698495.312",TRUE,FALSE,3,1.22448979591837,"G",NA,NA,NA
"6","del",8,1,"SRR3698495.329",TRUE,FALSE,3,1.22448979591837,"G",NA,NA,NA
"7","del",10,1,"SRR3698495.303",TRUE,FALSE,5,2.04081632653061,"NHEJ",NA,NA,NA
"8","del",10,1,"SRR3698495.357",TRUE,FALSE,5,2.04081632653061,"NHEJ",NA,NA,NA
"9","del",10,1,"SRR3698495.38",TRUE,FALSE,5,2.04081632653061,"NHEJ",NA,NA,NA
"10","del",10,1,"SRR3698495.493",TRUE,FALSE,5,2.04081632653061,"NHEJ",NA,NA,NA
"11","del",10,1,"SRR3698495.822",TRUE,FALSE,5,2.04081632653061,"NHEJ",NA,NA,NA
"12","del",11,1,"SRR3698495.220",TRUE,FALSE,9,3.6734693877551,"T",NA,NA,NA
"13","del",11,1,"SRR3698495.257",TRUE,FALSE,9,3.6734693877551,"T",NA,NA,NA
"14","del",11,1,"SRR3698495.28",TRUE,FALSE,9,3.6734693877551,"T",NA,NA,NA
"15","del",11,1,"SRR3698495.452",TRUE,FALSE,9,3.6734693877551,"T",NA,NA,NA
"16","del",11,1,"SRR3698495.526",TRUE,FALSE,9,3.6734693877551,"T",NA,NA,NA
"17","del",11,1,"SRR3698495.594",TRUE,FALSE,9,3.6734693877551,"T",NA,NA,NA
"18","del",11,1,"SRR3698495.601",TRUE,FALSE,9,3.6734693877551,"T",NA,NA,NA
"19","del",11,1,"SRR3698495.691",TRUE,FALSE,9,3.6734693877551,"T",NA,NA,NA
"20","del",11,1,"SRR3698495.833",TRUE,FALSE,9,3.6734693877551,"T",NA,NA,NA
"21","del",16,1,"SRR3698495.319",TRUE,FALSE,1,0.408163265306122,"A",NA,NA,NA
"22","del",124,30,"SRR3698495.267",TRUE,FALSE,3,1.22448979591837,"TGTGGCT",NA,NA,NA
"23","del",124,30,"SRR3698495.352",TRUE,FALSE,3,1.22448979591837,"TGTGGCT",NA,NA,NA
"24","del",124,30,"SRR3698495.781",TRUE,FALSE,3,1.22448979591837,"TGTGGCT",NA,NA,NA
"25","del",137,21,"SRR3698495.123",TRUE,TRUE,2,0.816326530612245,"GC",NA,NA,NA
"26","del",137,21,"SRR3698495.277",TRUE,TRUE,2,0.816326530612245,"GC",NA,NA,NA
"27","del",138,31,"SRR3698495.141",TRUE,TRUE,6,2.44897959183673,"CAAGAAGAG",NA,NA,NA
"28","del",138,31,"SRR3698495.461",TRUE,TRUE,6,2.44897959183673,"CAAGAAGAG",NA,NA,NA
"29","del",138,31,"SRR3698495.505",TRUE,TRUE,6,2.44897959183673,"CAAGAAGAG",NA,NA,NA
"30","del",138,31,"SRR3698495.515",TRUE,TRUE,6,2.44897959183673,"CAAGAAGAG",NA,NA,NA
"31","del",138,31,"SRR3698495.682",TRUE,TRUE,6,2.44897959183673,"CAAGAAGAG",NA,NA,NA
"32","del",138,31,"SRR3698495.734",TRUE,TRUE,6,2.44897959183673,"CAAGAAGAG",NA,NA,NA
"33","del",140,18,"SRR3698495.327",TRUE,TRUE,1,0.408163265306122,"NHEJ",NA,NA,NA
"34","del",140,22,"SRR3698495.714",TRUE,TRUE,1,0.408163265306122,"NHEJ",NA,NA,NA
"35","del",140,24,"SRR3698495.632",TRUE,TRUE,2,0.816326530612245,"AG",NA,NA,NA
"36","del",140,24,"SRR3698495.730",TRUE,TRUE,2,0.816326530612245,"AG",NA,NA,NA
"37","del",141,22,"SRR3698495.949",TRUE,TRUE,1,0.408163265306122,"GA",NA,NA,NA
"38","del",143,21,"SRR3698495.320",TRUE,TRUE,1,0.408163265306122,"AG",NA,NA,NA
"39","del",144,10,"SRR3698495.476",TRUE,TRUE,1,0.408163265306122,"NHEJ",NA,NA,NA
"40","del",144,14,"SRR3698495.21",TRUE,TRUE,1,0.408163265306122,"G",NA,NA,NA
"41","del",144,15,"SRR3698495.194",TRUE,TRUE,1,0.408163265306122,"NHEJ",NA,NA,NA
"42","del",144,19,"SRR3698495.256",TRUE,TRUE,2,0.816326530612245,"GAG",NA,NA,NA
"43","del",144,19,"SRR3698495.743",TRUE,TRUE,2,0.816326530612245,"GAG",NA,NA,NA
"44","del",145,24,"SRR3698495.902",TRUE,TRUE,1,0.408163265306122,"NHEJ",NA,NA,NA
"45","del",146,11,"SRR3698495.722",TRUE,TRUE,2,0.816326530612245,"GG",NA,NA,NA
"46","del",146,11,"SRR3698495.800",TRUE,TRUE,2,0.816326530612245,"GG",NA,NA,NA
"47","del",146,16,"SRR3698495.408",TRUE,TRUE,2,0.816326530612245,"GG",NA,NA,NA
"48","del",146,16,"SRR3698495.627",TRUE,TRUE,2,0.816326530612245,"GG",NA,NA,NA
"49","del",147,10,"SRR3698495.384",TRUE,TRUE,2,0.816326530612245,"GG",NA,NA,NA
"50","del",147,10,"SRR3698495.519",TRUE,TRUE,2,0.816326530612245,"GG",NA,NA,NA
"51","del",147,15,"SRR3698495.161",TRUE,TRUE,2,0.816326530612245,"GGA",NA,NA,NA
"52","del",147,15,"SRR3698495.522",TRUE,TRUE,2,0.816326530612245,"GGA",NA,NA,NA
"53","del",148,9,"SRR3698495.676",TRUE,TRUE,1,0.408163265306122,"G",NA,NA,NA
"54","del",148,17,"SRR3698495.354",TRUE,TRUE,2,0.816326530612245,"G",NA,NA,NA
"55","del",148,17,"SRR3698495.901",TRUE,TRUE,2,0.816326530612245,"G",NA,NA,NA
"56","del",148,24,"SRR3698495.189",TRUE,TRUE,1,0.408163265306122,"GAA",NA,NA,NA
"57","del",148,26,"SRR3698495.342",TRUE,TRUE,1,0.408163265306122,"NHEJ",NA,NA,NA
"58","del",149,21,"SRR3698495.539",TRUE,TRUE,3,1.22448979591837,"AA",NA,NA,NA
"59","del",149,21,"SRR3698495.681",TRUE,TRUE,3,1.22448979591837,"AA",NA,NA,NA
"60","del",149,21,"SRR3698495.739",TRUE,TRUE,3,1.22448979591837,"AA",NA,NA,NA
"61","del",149,23,"SRR3698495.520",TRUE,TRUE,1,0.408163265306122,"NHEJ",NA,NA,NA
"62","del",149,25,"SRR3698495.820",TRUE,TRUE,1,0.408163265306122,"A",NA,NA,NA
"63","del",150,23,"SRR3698495.176",TRUE,TRUE,4,1.63265306122449,"AA",NA,NA,NA
"64","del",150,23,"SRR3698495.444",TRUE,TRUE,4,1.63265306122449,"AA",NA,NA,NA
"65","del",150,23,"SRR3698495.869",TRUE,TRUE,4,1.63265306122449,"AA",NA,NA,NA
"66","del",150,23,"SRR3698495.879",TRUE,TRUE,4,1.63265306122449,"AA",NA,NA,NA
"67","del",151,13,"SRR3698495.849",TRUE,TRUE,1,0.408163265306122,"A",NA,NA,NA
"68","del",152,6,"SRR3698495.119",TRUE,TRUE,2,0.816326530612245,"NHEJ",NA,NA,NA
"69","del",152,6,"SRR3698495.388",TRUE,TRUE,2,0.816326530612245,"NHEJ",NA,NA,NA
"70","del",152,7,"SRR3698495.644",TRUE,TRUE,1,0.408163265306122,"C",NA,NA,NA
"71","del",152,11,"SRR3698495.32",TRUE,TRUE,1,0.408163265306122,"NHEJ",NA,NA,NA
"72","del",152,17,"SRR3698495.640",TRUE,TRUE,1,0.408163265306122,"C",NA,NA,NA
"73","del",152,18,"SRR3698495.868",TRUE,TRUE,1,0.408163265306122,"NHEJ",NA,NA,NA
"74","del",153,2,"SRR3698495.168",TRUE,TRUE,2,0.816326530612245,"GT",NA,NA,NA
"75","del",153,2,"SRR3698495.729",TRUE,TRUE,2,0.816326530612245,"GT",NA,NA,NA
"76","del",153,5,"SRR3698495.150",TRUE,TRUE,6,2.44897959183673,"G",NA,NA,NA
"77","del",153,5,"SRR3698495.169",TRUE,TRUE,6,2.44897959183673,"G",NA,NA,NA
"78","del",153,5,"SRR3698495.198",TRUE,TRUE,6,2.44897959183673,"G",NA,NA,NA
"79","del",153,5,"SRR3698495.255",TRUE,TRUE,6,2.44897959183673,"G",NA,NA,NA
"80","del",153,5,"SRR3698495.660",TRUE,TRUE,6,2.44897959183673,"G",NA,NA,NA
"81","del",153,5,"SRR3698495.692",TRUE,TRUE,6,2.44897959183673,"G",NA,NA,NA
"82","del",153,9,"SRR3698495.145",TRUE,TRUE,2,0.816326530612245,"G",NA,NA,NA
"83","del",153,9,"SRR3698495.242",TRUE,TRUE,2,0.816326530612245,"G",NA,NA,NA
"84","del",153,10,"SRR3698495.441",TRUE,TRUE,1,0.408163265306122,"G",NA,NA,NA
"85","del",153,12,"SRR3698495.379",TRUE,TRUE,4,1.63265306122449,"GT",NA,NA,NA
"86","del",153,12,"SRR3698495.547",TRUE,TRUE,4,1.63265306122449,"GT",NA,NA,NA
"87","del",153,12,"SRR3698495.764",TRUE,TRUE,4,1.63265306122449,"GT",NA,NA,NA
"88","del",153,12,"SRR3698495.874",TRUE,TRUE,4,1.63265306122449,"GT",NA,NA,NA
"89","del",153,18,"SRR3698495.345",TRUE,TRUE,3,1.22448979591837,"NHEJ",NA,NA,NA
"90","del",153,18,"SRR3698495.699",TRUE,TRUE,3,1.22448979591837,"NHEJ",NA,NA,NA
"91","del",153,18,"SRR3698495.824",TRUE,TRUE,3,1.22448979591837,"NHEJ",NA,NA,NA
"92","del",153,19,"SRR3698495.816",TRUE,TRUE,1,0.408163265306122,"G",NA,NA,NA
"93","del",153,36,"SRR3698495.159",TRUE,TRUE,1,0.408163265306122,"GTG",NA,NA,NA
"94","del",154,6,"SRR3698495.372",TRUE,TRUE,2,0.816326530612245,"T",NA,NA,NA
"95","del",154,6,"SRR3698495.718",TRUE,TRUE,2,0.816326530612245,"T",NA,NA,NA
"96","del",154,7,"SRR3698495.208",TRUE,TRUE,6,2.44897959183673,"TG",NA,NA,NA
"97","del",154,7,"SRR3698495.330",TRUE,TRUE,6,2.44897959183673,"TG",NA,NA,NA
"98","del",154,7,"SRR3698495.469",TRUE,TRUE,6,2.44897959183673,"TG",NA,NA,NA
"99","del",154,7,"SRR3698495.508",TRUE,TRUE,6,2.44897959183673,"TG",NA,NA,NA
"100","del",154,7,"SRR3698495.576",TRUE,TRUE,6,2.44897959183673,"TG",NA,NA,NA
"101","del",154,7,"SRR3698495.806",TRUE,TRUE,6,2.44897959183673,"TG",NA,NA,NA
"102","del",154,13,"SRR3698495.188",TRUE,TRUE,2,0.816326530612245,"T",NA,NA,NA
"103","del",154,13,"SRR3698495.678",TRUE,TRUE,2,0.816326530612245,"T",NA,NA,NA
"104","del",155,3,"SRR3698495.221",TRUE,TRUE,10,4.08163265306122,"G",NA,NA,NA
"105","del",155,3,"SRR3698495.230",TRUE,TRUE,10,4.08163265306122,"G",NA,NA,NA
"106","del",155,3,"SRR3698495.385",TRUE,TRUE,10,4.08163265306122,"G",NA,NA,NA
"107","del",155,3,"SRR3698495.45",TRUE,TRUE,10,4.08163265306122,"G",NA,NA,NA
"108","del",155,3,"SRR3698495.514",TRUE,TRUE,10,4.08163265306122,"G",NA,NA,NA
"109","del",155,3,"SRR3698495.608",TRUE,TRUE,10,4.08163265306122,"G",NA,NA,NA
"110","del",155,3,"SRR3698495.685",TRUE,TRUE,10,4.08163265306122,"G",NA,NA,NA
"111","del",155,3,"SRR3698495.740",TRUE,TRUE,10,4.08163265306122,"G",NA,NA,NA
"112","del",155,3,"SRR3698495.811",TRUE,TRUE,10,4.08163265306122,"G",NA,NA,NA
"113","del",155,3,"SRR3698495.936",TRUE,TRUE,10,4.08163265306122,"G",NA,NA,NA
"114","del",155,4,"SRR3698495.13",TRUE,TRUE,3,1.22448979591837,"NHEJ",NA,NA,NA
"115","del",155,4,"SRR3698495.332",TRUE,TRUE,3,1.22448979591837,"NHEJ",NA,NA,NA
"116","del",155,4,"SRR3698495.562",TRUE,TRUE,3,1.22448979591837,"NHEJ",NA,NA,NA
"117","del",155,10,"SRR3698495.17",TRUE,TRUE,5,2.04081632653061,"GT",NA,NA,NA
"118","del",155,10,"SRR3698495.387",TRUE,TRUE,5,2.04081632653061,"GT",NA,NA,NA
"119","del",155,10,"SRR3698495.449",TRUE,TRUE,5,2.04081632653061,"GT",NA,NA,NA
"120","del",155,10,"SRR3698495.578",TRUE,TRUE,5,2.04081632653061,"GT",NA,NA,NA
"121","del",155,10,"SRR3698495.766",TRUE,TRUE,5,2.04081632653061,"GT",NA,NA,NA
"122","del",155,22,"SRR3698495.655",TRUE,TRUE,1,0.408163265306122,"GTG",NA,NA,NA
"123","del",155,34,"SRR3698495.641",TRUE,TRUE,1,0.408163265306122,"GTG",NA,NA,NA
"124","del",156,4,"SRR3698495.6",TRUE,TRUE,2,0.816326530612245,"T",NA,NA,NA
"125","del",156,4,"SRR3698495.836",TRUE,TRUE,2,0.816326530612245,"T",NA,NA,NA
"126","del",156,5,"SRR3698495.34",TRUE,TRUE,5,2.04081632653061,"TGG",NA,NA,NA
"127","del",156,5,"SRR3698495.353",TRUE,TRUE,5,2.04081632653061,"TGG",NA,NA,NA
"128","del",156,5,"SRR3698495.561",TRUE,TRUE,5,2.04081632653061,"TGG",NA,NA,NA
"129","del",156,5,"SRR3698495.756",TRUE,TRUE,5,2.04081632653061,"TGG",NA,NA,NA
"130","del",156,5,"SRR3698495.85",TRUE,TRUE,5,2.04081632653061,"TGG",NA,NA,NA
"131","del",156,6,"SRR3698495.428",TRUE,TRUE,1,0.408163265306122,"NHEJ",NA,NA,NA
"132","del",156,11,"SRR3698495.103",TRUE,TRUE,2,0.816326530612245,"T",NA,NA,NA
"133","del",156,11,"SRR3698495.760",TRUE,TRUE,2,0.816326530612245,"T",NA,NA,NA
"134","del",156,12,"SRR3698495.41",TRUE,TRUE,2,0.816326530612245,"T",NA,NA,NA
"135","del",156,12,"SRR3698495.671",TRUE,TRUE,2,0.816326530612245,"T",NA,NA,NA
"136","del",157,1,"SRR3698495.11",TRUE,TRUE,24,9.79591836734694,"G",NA,NA,NA
"137","del",157,1,"SRR3698495.157",TRUE,TRUE,24,9.79591836734694,"G",NA,NA,NA
"138","del",157,1,"SRR3698495.232",TRUE,TRUE,24,9.79591836734694,"G",NA,NA,NA
"139","del",157,1,"SRR3698495.292",TRUE,TRUE,24,9.79591836734694,"G",NA,NA,NA
"140","del",157,1,"SRR3698495.396",TRUE,TRUE,24,9.79591836734694,"G",NA,NA,NA
"141","del",157,1,"SRR3698495.478",TRUE,TRUE,24,9.79591836734694,"G",NA,NA,NA
"142","del",157,1,"SRR3698495.499",TRUE,TRUE,24,9.79591836734694,"G",NA,NA,NA
"143","del",157,1,"SRR3698495.516",TRUE,TRUE,24,9.79591836734694,"G",NA,NA,NA
"144","del",157,1,"SRR3698495.544",TRUE,TRUE,24,9.79591836734694,"G",NA,NA,NA
"145","del",157,1,"SRR3698495.563",TRUE,TRUE,24,9.79591836734694,"G",NA,NA,NA
"146","del",157,1,"SRR3698495.624",TRUE,TRUE,24,9.79591836734694,"G",NA,NA,NA
"147","del",157,1,"SRR3698495.633",TRUE,TRUE,24,9.79591836734694,"G",NA,NA,NA
"148","del",157,1,"SRR3698495.646",TRUE,TRUE,24,9.79591836734694,"G",NA,NA,NA
"149","del",157,1,"SRR3698495.662",TRUE,TRUE,24,9.79591836734694,"G",NA,NA,NA
"150","del",157,1,"SRR3698495.701",TRUE,TRUE,24,9.79591836734694,"G",NA,NA,NA
"151","del",157,1,"SRR3698495.711",TRUE,TRUE,24,9.79591836734694,"G",NA,NA,NA
"152","del",157,1,"SRR3698495.73",TRUE,TRUE,24,9.79591836734694,"G",NA,NA,NA
"153","del",157,1,"SRR3698495.735",TRUE,TRUE,24,9.79591836734694,"G",NA,NA,NA
"154","del",157,1,"SRR3698495.757",TRUE,TRUE,24,9.79591836734694,"G",NA,NA,NA
"155","del",157,1,"SRR3698495.77",TRUE,TRUE,24,9.79591836734694,"G",NA,NA,NA
"156","del",157,1,"SRR3698495.778",TRUE,TRUE,24,9.79591836734694,"G",NA,NA,NA
"157","del",157,1,"SRR3698495.802",TRUE,TRUE,24,9.79591836734694,"G",NA,NA,NA
"158","del",157,1,"SRR3698495.841",TRUE,TRUE,24,9.79591836734694,"G",NA,NA,NA
"159","del",157,1,"SRR3698495.892",TRUE,TRUE,24,9.79591836734694,"G",NA,NA,NA
"160","del",157,2,"SRR3698495.71",TRUE,TRUE,1,0.408163265306122,"NHEJ",NA,NA,NA
"161","del",157,8,"SRR3698495.234",TRUE,TRUE,8,3.26530612244898,"G",NA,NA,NA
"162","del",157,8,"SRR3698495.261",TRUE,TRUE,8,3.26530612244898,"G",NA,NA,NA
"163","del",157,8,"SRR3698495.326",TRUE,TRUE,8,3.26530612244898,"G",NA,NA,NA
"164","del",157,8,"SRR3698495.402",TRUE,TRUE,8,3.26530612244898,"G",NA,NA,NA
"165","del",157,8,"SRR3698495.437",TRUE,TRUE,8,3.26530612244898,"G",NA,NA,NA
"166","del",157,8,"SRR3698495.528",TRUE,TRUE,8,3.26530612244898,"G",NA,NA,NA
"167","del",157,8,"SRR3698495.727",TRUE,TRUE,8,3.26530612244898,"G",NA,NA,NA
"168","del",157,8,"SRR3698495.933",TRUE,TRUE,8,3.26530612244898,"G",NA,NA,NA
"169","del",157,15,"SRR3698495.630",TRUE,TRUE,3,1.22448979591837,"G",NA,NA,NA
"170","del",157,15,"SRR3698495.794",TRUE,TRUE,3,1.22448979591837,"G",NA,NA,NA
"171","del",157,15,"SRR3698495.814",TRUE,TRUE,3,1.22448979591837,"G",NA,NA,NA
"172","del",157,17,"SRR3698495.782",TRUE,TRUE,1,0.408163265306122,"NHEJ",NA,NA,NA
"173","del",157,20,"SRR3698495.846",TRUE,TRUE,1,0.408163265306122,"G",NA,NA,NA
"174","del",158,2,"SRR3698495.108",TRUE,TRUE,7,2.85714285714286,"NHEJ",NA,NA,NA
"175","del",158,2,"SRR3698495.142",TRUE,TRUE,7,2.85714285714286,"NHEJ",NA,NA,NA
"176","del",158,2,"SRR3698495.405",TRUE,TRUE,7,2.85714285714286,"NHEJ",NA,NA,NA
"177","del",158,2,"SRR3698495.492",TRUE,TRUE,7,2.85714285714286,"NHEJ",NA,NA,NA
"178","del",158,2,"SRR3698495.532",TRUE,TRUE,7,2.85714285714286,"NHEJ",NA,NA,NA
"179","del",158,2,"SRR3698495.752",TRUE,TRUE,7,2.85714285714286,"NHEJ",NA,NA,NA
"180","del",158,2,"SRR3698495.9",TRUE,TRUE,7,2.85714285714286,"NHEJ",NA,NA,NA
"181","del",158,4,"SRR3698495.398",TRUE,TRUE,4,1.63265306122449,"G",NA,NA,NA
"182","del",158,4,"SRR3698495.455",TRUE,TRUE,4,1.63265306122449,"G",NA,NA,NA
"183","del",158,4,"SRR3698495.830",TRUE,TRUE,4,1.63265306122449,"G",NA,NA,NA
"184","del",158,4,"SRR3698495.905",TRUE,TRUE,4,1.63265306122449,"G",NA,NA,NA
"185","del",158,7,"SRR3698495.125",TRUE,TRUE,1,0.408163265306122,"G",NA,NA,NA
"186","del",158,9,"SRR3698495.425",TRUE,TRUE,3,1.22448979591837,"NHEJ",NA,NA,NA
"187","del",158,9,"SRR3698495.598",TRUE,TRUE,3,1.22448979591837,"NHEJ",NA,NA,NA
"188","del",158,9,"SRR3698495.878",TRUE,TRUE,3,1.22448979591837,"NHEJ",NA,NA,NA
"189","del",158,12,"SRR3698495.381",TRUE,TRUE,1,0.408163265306122,"NHEJ",NA,NA,NA
"190","del",158,16,"SRR3698495.559",TRUE,TRUE,1,0.408163265306122,"NHEJ",NA,NA,NA
"191","del",160,1,"SRR3698495.259",TRUE,TRUE,1,0.408163265306122,"T",NA,NA,NA
"192","del",162,4,"SRR3698495.610",TRUE,TRUE,1,0.408163265306122,"NHEJ",NA,NA,NA
"193","del",228,2,"SRR3698495.191",TRUE,FALSE,1,0.408163265306122,"NHEJ",NA,NA,NA
"194","del",229,1,"SRR3698495.152",TRUE,FALSE,16,6.53061224489796,"C",NA,NA,NA
"195","del",229,1,"SRR3698495.179",TRUE,FALSE,16,6.53061224489796,"C",NA,NA,NA
"196","del",229,1,"SRR3698495.223",TRUE,FALSE,16,6.53061224489796,"C",NA,NA,NA
"197","del",229,1,"SRR3698495.321",TRUE,FALSE,16,6.53061224489796,"C",NA,NA,NA
"198","del",229,1,"SRR3698495.341",TRUE,FALSE,16,6.53061224489796,"C",NA,NA,NA
"199","del",229,1,"SRR3698495.355",TRUE,FALSE,16,6.53061224489796,"C",NA,NA,NA
"200","del",229,1,"SRR3698495.420",TRUE,FALSE,16,6.53061224489796,"C",NA,NA,NA
"201","del",229,1,"SRR3698495.427",TRUE,FALSE,16,6.53061224489796,"C",NA,NA,NA
"202","del",229,1,"SRR3698495.473",TRUE,FALSE,16,6.53061224489796,"C",NA,NA,NA
"203","del",229,1,"SRR3698495.48",TRUE,FALSE,16,6.53061224489796,"C",NA,NA,NA
"204","del",229,1,"SRR3698495.668",TRUE,FALSE,16,6.53061224489796,"C",NA,NA,NA
"205","del",229,1,"SRR3698495.686",TRUE,FALSE,16,6.53061224489796,"C",NA,NA,NA
"206","del",229,1,"SRR3698495.709",TRUE,FALSE,16,6.53061224489796,"C",NA,NA,NA
"207","del",229,1,"SRR3698495.8",TRUE,FALSE,16,6.53061224489796,"C",NA,NA,NA
"208","del",229,1,"SRR3698495.871",TRUE,FALSE,16,6.53061224489796,"C",NA,NA,NA
"209","del",229,1,"SRR3698495.898",TRUE,FALSE,16,6.53061224489796,"C",NA,NA,NA
"210","del",231,3,"SRR3698495.955",TRUE,FALSE,1,0.408163265306122,"NHEJ",NA,NA,NA
"211","del",232,2,"SRR3698495.302",TRUE,FALSE,7,2.85714285714286,"NHEJ",NA,NA,NA
"212","del",232,2,"SRR3698495.659",TRUE,FALSE,7,2.85714285714286,"NHEJ",NA,NA,NA
"213","del",232,2,"SRR3698495.669",TRUE,FALSE,7,2.85714285714286,"NHEJ",NA,NA,NA
"214","del",232,2,"SRR3698495.829",TRUE,FALSE,7,2.85714285714286,"NHEJ",NA,NA,NA
"215","del",232,2,"SRR3698495.857",TRUE,FALSE,7,2.85714285714286,"NHEJ",NA,NA,NA
"216","del",232,2,"SRR3698495.918",TRUE,FALSE,7,2.85714285714286,"NHEJ",NA,NA,NA
"217","del",232,2,"SRR3698495.954",TRUE,FALSE,7,2.85714285714286,"NHEJ",NA,NA,NA
"218","del",233,1,"SRR3698495.163",TRUE,FALSE,13,5.30612244897959,"A",NA,NA,NA
"219","del",233,1,"SRR3698495.243",TRUE,FALSE,13,5.30612244897959,"A",NA,NA,NA
"220","del",233,1,"SRR3698495.269",TRUE,FALSE,13,5.30612244897959,"A",NA,NA,NA
"221","del",233,1,"SRR3698495.285",TRUE,FALSE,13,5.30612244897959,"A",NA,NA,NA
"222","del",233,1,"SRR3698495.457",TRUE,FALSE,13,5.30612244897959,"A",NA,NA,NA
"223","del",233,1,"SRR3698495.464",TRUE,FALSE,13,5.30612244897959,"A",NA,NA,NA
"224","del",233,1,"SRR3698495.566",TRUE,FALSE,13,5.30612244897959,"A",NA,NA,NA
"225","del",233,1,"SRR3698495.651",TRUE,FALSE,13,5.30612244897959,"A",NA,NA,NA
"226","del",233,1,"SRR3698495.687",TRUE,FALSE,13,5.30612244897959,"A",NA,NA,NA
"227","del",233,1,"SRR3698495.725",TRUE,FALSE,13,5.30612244897959,"A",NA,NA,NA
"228","del",233,1,"SRR3698495.808",TRUE,FALSE,13,5.30612244897959,"A",NA,NA,NA
"229","del",233,1,"SRR3698495.863",TRUE,FALSE,13,5.30612244897959,"A",NA,NA,NA
"230","del",233,1,"SRR3698495.896",TRUE,FALSE,13,5.30612244897959,"A",NA,NA,NA
"231","del",233,2,"SRR3698495.946",TRUE,FALSE,3,1.22448979591837,"A",NA,NA,NA
"232","del",233,2,"SRR3698495.947",TRUE,FALSE,3,1.22448979591837,"A",NA,NA,NA
"233","del",233,2,"SRR3698495.948",TRUE,FALSE,3,1.22448979591837,"A",NA,NA,NA
"234","del",236,1,"SRR3698495.211",TRUE,FALSE,1,0.408163265306122,"NHEJ",NA,NA,NA
"235","ins",229,1,"SRR3698495.587",TRUE,FALSE,1,0.408163265306122,NA,"AGT","C","CCC"
"236","ins",156,1,"SRR3698495.573",TRUE,TRUE,1,0.408163265306122,NA,"GTG","T","TTC"
"237","ins",158,1,"SRR3698495.316",TRUE,TRUE,1,0.408163265306122,NA,"GTG","G","GCT"
"238","ins",158,2,"SRR3698495.485",TRUE,TRUE,1,0.408163265306122,NA,"GTG","GG","GCT"
"239","ins",158,1,"SRR3698495.788",TRUE,TRUE,1,0.408163265306122,NA,"GTG","T","GCT"
"240","ins",158,2,"SRR3698495.656",TRUE,TRUE,2,0.816326530612245,NA,"GTG","TT","TCT"
"241","ins",158,2,"SRR3698495.934",TRUE,TRUE,2,0.816326530612245,NA,"GTG","TC","GCT"
"242","ins",158,3,"SRR3698495.84",TRUE,TRUE,1,0.408163265306122,NA,"GTG","TGT","GCT"
"243","ins",158,5,"SRR3698495.203",TRUE,TRUE,1,0.408163265306122,NA,"GTG","TTTCT","TCT"
"244","ins",158,14,"SRR3698495.606",TRUE,TRUE,1,0.408163265306122,NA,"GTG","ACTTGTGTGTGTGT","GCT"
"245","ins",158,27,"SRR3698495.792",TRUE,TRUE,1,0.408163265306122,NA,"GTG","TTTCAAGAAGACACACTTCTTGAAACT","TCT"
